(export (version D)
  (design
    (source /home/zero/Kicad/Projects/Token-Sub-Board-LCD-v1.0a/Token-Sub-Board.sch)
    (date "Sat Aug 15 17:41:12 2015")
    (tool "eeschema (2013-may-18)-stable"))
  (components
    (comp (ref P1)
      (value HEADER-10X2)
      (libsource (lib Connectors) (part HEADER-10X2))
      (sheetpath (names /) (tstamps /))
      (tstamp 55620401))
    (comp (ref P2)
      (value HEADER-10X2)
      (libsource (lib Connectors) (part HEADER-10X2))
      (sheetpath (names /) (tstamps /))
      (tstamp 55620410))
    (comp (ref LCD1)
      (value LCD-TOKEN)
      (footprint LCD-TOKEN)
      (libsource (lib Devices) (part LCD-TOKEN))
      (sheetpath (names /) (tstamps /))
      (tstamp 556233B6))
    (comp (ref LCD2)
      (value LCD-TOKEN)
      (footprint LCD-TOKEN)
      (libsource (lib Devices) (part LCD-TOKEN))
      (sheetpath (names /) (tstamps /))
      (tstamp 559B8162)))
  (libparts
    (libpart (lib Devices) (part LCD-TOKEN)
      (footprints
        (fp LCD-TOKEN*))
      (fields
        (field (name Reference) LCD)
        (field (name Value) LCD-TOKEN)
        (field (name Footprint) LCD-TOKEN)
        (field (name Datasheet) ~))
      (pins
        (pin (num 1) (name 1) (type passive))
        (pin (num 2) (name 2) (type passive))
        (pin (num 3) (name 3) (type passive))
        (pin (num 4) (name 4) (type passive))
        (pin (num 5) (name 5) (type passive))
        (pin (num 6) (name 6) (type passive))
        (pin (num 7) (name 7) (type passive))
        (pin (num 8) (name 8) (type passive))
        (pin (num 9) (name 9) (type passive))
        (pin (num 10) (name 10) (type passive))
        (pin (num 11) (name 11) (type passive))
        (pin (num 12) (name 12) (type passive))
        (pin (num 13) (name 13) (type passive))
        (pin (num 14) (name 14) (type passive))
        (pin (num 15) (name 15) (type passive))
        (pin (num 16) (name 16) (type passive))
        (pin (num 17) (name 17) (type passive))
        (pin (num 18) (name 18) (type passive))
        (pin (num 19) (name 19) (type passive))
        (pin (num 20) (name 20) (type passive))
        (pin (num 21) (name 21) (type passive))
        (pin (num 22) (name 22) (type passive))
        (pin (num 23) (name 23) (type passive))
        (pin (num 24) (name 24) (type passive))
        (pin (num 25) (name 25) (type passive))
        (pin (num 26) (name 26) (type passive))
        (pin (num 27) (name 27) (type passive))
        (pin (num 28) (name 28) (type passive))
        (pin (num 29) (name 29) (type passive))
        (pin (num 30) (name 30) (type passive))
        (pin (num 31) (name 31) (type passive))
        (pin (num 32) (name 32) (type passive))
        (pin (num 33) (name 33) (type passive))
        (pin (num 34) (name 34) (type passive))
        (pin (num 35) (name 35) (type passive))
        (pin (num 36) (name 36) (type passive))
        (pin (num 37) (name 37) (type passive))
        (pin (num 38) (name 38) (type passive))
        (pin (num 39) (name 39) (type passive))
        (pin (num 40) (name 40) (type passive))))
    (libpart (lib Connectors) (part HEADER-10X2)
      (footprints
        (fp HEADER-10X2)
        (fp HEADER-5MIL-10X2))
      (fields
        (field (name Reference) P)
        (field (name Value) HEADER-10X2)
        (field (name Footprint) ~)
        (field (name Datasheet) ~))
      (pins
        (pin (num 1) (name P1) (type passive))
        (pin (num 2) (name P2) (type passive))
        (pin (num 3) (name P3) (type passive))
        (pin (num 4) (name P4) (type passive))
        (pin (num 5) (name P5) (type passive))
        (pin (num 6) (name P6) (type passive))
        (pin (num 7) (name P7) (type passive))
        (pin (num 8) (name P8) (type passive))
        (pin (num 9) (name P9) (type passive))
        (pin (num 10) (name P10) (type passive))
        (pin (num 11) (name P11) (type passive))
        (pin (num 12) (name P12) (type passive))
        (pin (num 13) (name P13) (type passive))
        (pin (num 14) (name P14) (type passive))
        (pin (num 15) (name P15) (type passive))
        (pin (num 16) (name P16) (type passive))
        (pin (num 17) (name P17) (type passive))
        (pin (num 18) (name P18) (type passive))
        (pin (num 19) (name P19) (type passive))
        (pin (num 20) (name P20) (type passive)))))
  (libraries
    (library (logical Connectors)
      (uri /home/zero/Kicad/Library/Libraries/Connectors.lib))
    (library (logical Devices)
      (uri /home/zero/Kicad/Library/Libraries/Devices.lib)))
  (nets
    (net (code 1) (name /LCD26)
      (node (ref LCD1) (pin 34))
      (node (ref P1) (pin 8))
      (node (ref LCD2) (pin 14))
      (node (ref LCD2) (pin 14))
      (node (ref LCD2) (pin 14)))
    (net (code 2) (name /LCD25)
      (node (ref LCD2) (pin 15))
      (node (ref LCD2) (pin 15))
      (node (ref LCD2) (pin 15))
      (node (ref P1) (pin 5))
      (node (ref LCD1) (pin 35)))
    (net (code 3) (name /LCD20)
      (node (ref LCD2) (pin 20))
      (node (ref LCD1) (pin 40))
      (node (ref P1) (pin 2)))
    (net (code 4) (name /LCD19)
      (node (ref LCD2) (pin 21))
      (node (ref LCD1) (pin 1))
      (node (ref P2) (pin 19)))
    (net (code 5) (name /LCD16)
      (node (ref LCD1) (pin 4))
      (node (ref LCD2) (pin 24))
      (node (ref LCD1) (pin 4))
      (node (ref LCD1) (pin 4))
      (node (ref P2) (pin 18)))
    (net (code 6) (name /LCD15)
      (node (ref P2) (pin 15))
      (node (ref LCD1) (pin 5))
      (node (ref LCD2) (pin 25))
      (node (ref LCD1) (pin 5))
      (node (ref LCD1) (pin 5)))
    (net (code 7) (name /LCD13)
      (node (ref LCD1) (pin 7))
      (node (ref LCD1) (pin 7))
      (node (ref LCD2) (pin 27))
      (node (ref P2) (pin 13))
      (node (ref LCD1) (pin 7)))
    (net (code 8) (name /LCD12)
      (node (ref LCD2) (pin 28))
      (node (ref LCD1) (pin 8))
      (node (ref P2) (pin 14))
      (node (ref LCD1) (pin 8))
      (node (ref LCD1) (pin 8)))
    (net (code 9) (name /LCD27)
      (node (ref LCD1) (pin 33))
      (node (ref P1) (pin 7))
      (node (ref LCD2) (pin 13))
      (node (ref LCD2) (pin 13))
      (node (ref LCD2) (pin 13)))
    (net (code 10) (name /LCD10)
      (node (ref P2) (pin 12))
      (node (ref LCD2) (pin 30))
      (node (ref LCD1) (pin 10))
      (node (ref LCD1) (pin 10))
      (node (ref LCD1) (pin 10)))
    (net (code 11) (name /LCD9)
      (node (ref LCD1) (pin 11))
      (node (ref LCD1) (pin 11))
      (node (ref LCD1) (pin 11))
      (node (ref LCD2) (pin 31))
      (node (ref P2) (pin 9)))
    (net (code 12) (name /LCD8)
      (node (ref LCD2) (pin 32))
      (node (ref LCD1) (pin 12))
      (node (ref LCD1) (pin 12))
      (node (ref LCD1) (pin 12))
      (node (ref P2) (pin 10)))
    (net (code 13) (name /LCD7)
      (node (ref LCD1) (pin 13))
      (node (ref LCD1) (pin 13))
      (node (ref LCD1) (pin 13))
      (node (ref P2) (pin 7))
      (node (ref LCD2) (pin 33)))
    (net (code 14) (name /LCD6)
      (node (ref LCD2) (pin 34))
      (node (ref LCD1) (pin 14))
      (node (ref LCD1) (pin 14))
      (node (ref LCD1) (pin 14))
      (node (ref P2) (pin 8)))
    (net (code 15) (name /LCD5)
      (node (ref LCD1) (pin 15))
      (node (ref LCD1) (pin 15))
      (node (ref LCD1) (pin 15))
      (node (ref P2) (pin 5))
      (node (ref LCD2) (pin 35)))
    (net (code 16) (name /LCD4)
      (node (ref P2) (pin 6))
      (node (ref LCD1) (pin 16))
      (node (ref LCD1) (pin 16))
      (node (ref LCD1) (pin 16))
      (node (ref LCD2) (pin 36)))
    (net (code 17) (name /LCD3)
      (node (ref LCD1) (pin 17))
      (node (ref LCD2) (pin 37))
      (node (ref P2) (pin 3)))
    (net (code 18) (name /LCD2)
      (node (ref LCD1) (pin 18))
      (node (ref LCD2) (pin 38))
      (node (ref P2) (pin 4)))
    (net (code 19) (name /LCD1)
      (node (ref LCD1) (pin 19))
      (node (ref P2) (pin 1))
      (node (ref LCD2) (pin 39)))
    (net (code 20) (name /LCD36)
      (node (ref LCD2) (pin 4))
      (node (ref LCD2) (pin 4))
      (node (ref LCD2) (pin 4))
      (node (ref LCD1) (pin 24))
      (node (ref P1) (pin 18)))
    (net (code 21) (name /LCD37)
      (node (ref LCD2) (pin 3))
      (node (ref LCD2) (pin 3))
      (node (ref P1) (pin 17))
      (node (ref LCD1) (pin 23))
      (node (ref LCD2) (pin 3)))
    (net (code 22) (name /LCD38)
      (node (ref LCD1) (pin 22))
      (node (ref LCD2) (pin 2))
      (node (ref LCD2) (pin 2))
      (node (ref P1) (pin 20))
      (node (ref LCD2) (pin 2)))
    (net (code 23) (name /LCD39)
      (node (ref P1) (pin 19))
      (node (ref LCD1) (pin 21))
      (node (ref LCD2) (pin 1)))
    (net (code 24) (name /LCD18)
      (node (ref LCD1) (pin 2))
      (node (ref LCD1) (pin 2))
      (node (ref LCD1) (pin 2))
      (node (ref LCD2) (pin 22))
      (node (ref P2) (pin 20)))
    (net (code 25) (name /LCD17)
      (node (ref LCD2) (pin 23))
      (node (ref P2) (pin 17))
      (node (ref LCD1) (pin 3))
      (node (ref LCD1) (pin 3))
      (node (ref LCD1) (pin 3)))
    (net (code 26) (name /LCD0)
      (node (ref LCD1) (pin 20))
      (node (ref P2) (pin 2))
      (node (ref LCD2) (pin 40)))
    (net (code 27) (name /LCD34)
      (node (ref LCD2) (pin 6))
      (node (ref LCD2) (pin 6))
      (node (ref LCD2) (pin 6))
      (node (ref P1) (pin 16))
      (node (ref LCD1) (pin 26)))
    (net (code 28) (name /LCD33)
      (node (ref LCD2) (pin 7))
      (node (ref P1) (pin 13))
      (node (ref LCD2) (pin 7))
      (node (ref LCD2) (pin 7))
      (node (ref LCD1) (pin 27)))
    (net (code 29) (name /LCD32)
      (node (ref LCD1) (pin 28))
      (node (ref LCD2) (pin 8))
      (node (ref LCD2) (pin 8))
      (node (ref LCD2) (pin 8))
      (node (ref P1) (pin 14)))
    (net (code 30) (name /LCD31)
      (node (ref LCD1) (pin 29))
      (node (ref P1) (pin 11))
      (node (ref LCD2) (pin 9))
      (node (ref LCD2) (pin 9))
      (node (ref LCD2) (pin 9)))
    (net (code 31) (name /LCD30)
      (node (ref LCD2) (pin 10))
      (node (ref LCD2) (pin 10))
      (node (ref LCD2) (pin 10))
      (node (ref LCD1) (pin 30))
      (node (ref P1) (pin 12)))
    (net (code 32) (name /LCD29)
      (node (ref LCD2) (pin 11))
      (node (ref LCD1) (pin 31))
      (node (ref LCD2) (pin 11))
      (node (ref LCD2) (pin 11))
      (node (ref P1) (pin 9)))
    (net (code 33) (name /LCD28)
      (node (ref LCD2) (pin 12))
      (node (ref P1) (pin 10))
      (node (ref LCD2) (pin 12))
      (node (ref LCD1) (pin 32))
      (node (ref LCD2) (pin 12)))
    (net (code 34) (name /LCD35)
      (node (ref P1) (pin 15))
      (node (ref LCD2) (pin 5))
      (node (ref LCD2) (pin 5))
      (node (ref LCD2) (pin 5))
      (node (ref LCD1) (pin 25)))
    (net (code 35) (name /LCD11)
      (node (ref LCD1) (pin 9))
      (node (ref LCD1) (pin 9))
      (node (ref LCD1) (pin 9))
      (node (ref P2) (pin 11))
      (node (ref LCD2) (pin 29)))
    (net (code 36) (name /LCD21)
      (node (ref P1) (pin 1))
      (node (ref LCD2) (pin 19))
      (node (ref LCD1) (pin 39)))
    (net (code 37) (name /LCD22)
      (node (ref LCD1) (pin 38))
      (node (ref LCD2) (pin 18))
      (node (ref P1) (pin 4)))
    (net (code 38) (name /LCD23)
      (node (ref LCD2) (pin 17))
      (node (ref LCD1) (pin 37))
      (node (ref P1) (pin 3)))
    (net (code 39) (name /LCD14)
      (node (ref LCD1) (pin 6))
      (node (ref LCD1) (pin 6))
      (node (ref LCD1) (pin 6))
      (node (ref LCD2) (pin 26))
      (node (ref P2) (pin 16)))
    (net (code 40) (name /LCD24)
      (node (ref LCD2) (pin 16))
      (node (ref P1) (pin 6))
      (node (ref LCD2) (pin 16))
      (node (ref LCD1) (pin 36))
      (node (ref LCD2) (pin 16)))))