(kicad_pcb (version 3) (host pcbnew "(2013-may-18)-stable")

  (general
    (links 100)
    (no_connects 0)
    (area 141.4285 93.242 197.658 144.3215)
    (thickness 1.6)
    (drawings 10)
    (tracks 365)
    (zones 0)
    (modules 6)
    (nets 101)
  )

  (page A3)
  (layers
    (15 F.Cu signal)
    (0 B.Cu signal)
    (16 B.Adhes user)
    (17 F.Adhes user)
    (18 B.Paste user)
    (19 F.Paste user)
    (20 B.SilkS user)
    (21 F.SilkS user)
    (22 B.Mask user)
    (23 F.Mask user)
    (24 Dwgs.User user)
    (25 Cmts.User user)
    (26 Eco1.User user)
    (27 Eco2.User user)
    (28 Edge.Cuts user)
  )

  (setup
    (last_trace_width 0.254)
    (trace_clearance 0.24)
    (zone_clearance 0.508)
    (zone_45_only no)
    (trace_min 0.254)
    (segment_width 0.2)
    (edge_width 0.1)
    (via_size 0.889)
    (via_drill 0.635)
    (via_min_size 0.889)
    (via_min_drill 0.508)
    (uvia_size 0.508)
    (uvia_drill 0.127)
    (uvias_allowed no)
    (uvia_min_size 0.508)
    (uvia_min_drill 0.127)
    (pcb_text_width 0.3)
    (pcb_text_size 1.5 1.5)
    (mod_edge_width 0.15)
    (mod_text_size 1 1)
    (mod_text_width 0.15)
    (pad_size 1.524 1.524)
    (pad_drill 0)
    (pad_to_mask_clearance 0)
    (aux_axis_origin 0 0)
    (visible_elements FFFFFFBF)
    (pcbplotparams
      (layerselection 3178497)
      (usegerberextensions true)
      (excludeedgelayer true)
      (linewidth 0.150000)
      (plotframeref false)
      (viasonmask false)
      (mode 1)
      (useauxorigin false)
      (hpglpennumber 1)
      (hpglpenspeed 20)
      (hpglpendiameter 15)
      (hpglpenoverlay 2)
      (psnegative false)
      (psa4output false)
      (plotreference true)
      (plotvalue true)
      (plotothertext true)
      (plotinvisibletext false)
      (padsonsilk false)
      (subtractmaskfromsilk false)
      (outputformat 1)
      (mirror false)
      (drillshape 1)
      (scaleselection 1)
      (outputdirectory ""))
  )

  (net 0 "")
  (net 1 /AREF)
  (net 2 /AVCC)
  (net 3 /GND1)
  (net 4 /GND2)
  (net 5 /GND3)
  (net 6 /GND4)
  (net 7 /GND5)
  (net 8 /PA0)
  (net 9 /PA1)
  (net 10 /PA2)
  (net 11 /PA3)
  (net 12 /PA4)
  (net 13 /PA5)
  (net 14 /PA6)
  (net 15 /PA7)
  (net 16 /PB0)
  (net 17 /PB1)
  (net 18 /PB2)
  (net 19 /PB3)
  (net 20 /PB4)
  (net 21 /PB5)
  (net 22 /PB6)
  (net 23 /PB7)
  (net 24 /PC0)
  (net 25 /PC1)
  (net 26 /PC2)
  (net 27 /PC3)
  (net 28 /PC4)
  (net 29 /PC5)
  (net 30 /PC6)
  (net 31 /PC7)
  (net 32 /PD0)
  (net 33 /PD1)
  (net 34 /PD2)
  (net 35 /PD3)
  (net 36 /PD4)
  (net 37 /PD5)
  (net 38 /PD6)
  (net 39 /PD7)
  (net 40 /PE0)
  (net 41 /PE1)
  (net 42 /PE2)
  (net 43 /PE3)
  (net 44 /PE4)
  (net 45 /PE5)
  (net 46 /PE6)
  (net 47 /PE7)
  (net 48 /PF0)
  (net 49 /PF1)
  (net 50 /PF2)
  (net 51 /PF3)
  (net 52 /PF4)
  (net 53 /PF5)
  (net 54 /PF6)
  (net 55 /PF7)
  (net 56 /PG0)
  (net 57 /PG1)
  (net 58 /PG2)
  (net 59 /PG3)
  (net 60 /PG4)
  (net 61 /PG5)
  (net 62 /PH0)
  (net 63 /PH1)
  (net 64 /PH2)
  (net 65 /PH3)
  (net 66 /PH4)
  (net 67 /PH5)
  (net 68 /PH6)
  (net 69 /PH7)
  (net 70 /PJ0)
  (net 71 /PJ1)
  (net 72 /PJ2)
  (net 73 /PJ3)
  (net 74 /PJ4)
  (net 75 /PJ5)
  (net 76 /PJ6)
  (net 77 /PJ7)
  (net 78 /PK0)
  (net 79 /PK1)
  (net 80 /PK2)
  (net 81 /PK3)
  (net 82 /PK4)
  (net 83 /PK5)
  (net 84 /PK6)
  (net 85 /PK7)
  (net 86 /PL0)
  (net 87 /PL1)
  (net 88 /PL2)
  (net 89 /PL3)
  (net 90 /PL4)
  (net 91 /PL5)
  (net 92 /PL6)
  (net 93 /PL7)
  (net 94 /RST)
  (net 95 /VCC1)
  (net 96 /VCC2)
  (net 97 /VCC3)
  (net 98 /VCC4)
  (net 99 /XTAL1)
  (net 100 /XTAL2)

  (net_class Default "This is the default net class."
    (clearance 0.24)
    (trace_width 0.254)
    (via_dia 0.889)
    (via_drill 0.635)
    (uvia_dia 0.508)
    (uvia_drill 0.127)
    (add_net "")
    (add_net /AREF)
    (add_net /AVCC)
    (add_net /GND1)
    (add_net /GND2)
    (add_net /GND3)
    (add_net /GND4)
    (add_net /GND5)
    (add_net /PA0)
    (add_net /PA1)
    (add_net /PA2)
    (add_net /PA3)
    (add_net /PA4)
    (add_net /PA5)
    (add_net /PA6)
    (add_net /PA7)
    (add_net /PB0)
    (add_net /PB1)
    (add_net /PB2)
    (add_net /PB3)
    (add_net /PB4)
    (add_net /PB5)
    (add_net /PB6)
    (add_net /PB7)
    (add_net /PC0)
    (add_net /PC1)
    (add_net /PC2)
    (add_net /PC3)
    (add_net /PC4)
    (add_net /PC5)
    (add_net /PC6)
    (add_net /PC7)
    (add_net /PD0)
    (add_net /PD1)
    (add_net /PD2)
    (add_net /PD3)
    (add_net /PD4)
    (add_net /PD5)
    (add_net /PD6)
    (add_net /PD7)
    (add_net /PE0)
    (add_net /PE1)
    (add_net /PE2)
    (add_net /PE3)
    (add_net /PE4)
    (add_net /PE5)
    (add_net /PE6)
    (add_net /PE7)
    (add_net /PF0)
    (add_net /PF1)
    (add_net /PF2)
    (add_net /PF3)
    (add_net /PF4)
    (add_net /PF5)
    (add_net /PF6)
    (add_net /PF7)
    (add_net /PG0)
    (add_net /PG1)
    (add_net /PG2)
    (add_net /PG3)
    (add_net /PG4)
    (add_net /PG5)
    (add_net /PH0)
    (add_net /PH1)
    (add_net /PH2)
    (add_net /PH3)
    (add_net /PH4)
    (add_net /PH5)
    (add_net /PH6)
    (add_net /PH7)
    (add_net /PJ0)
    (add_net /PJ1)
    (add_net /PJ2)
    (add_net /PJ3)
    (add_net /PJ4)
    (add_net /PJ5)
    (add_net /PJ6)
    (add_net /PJ7)
    (add_net /PK0)
    (add_net /PK1)
    (add_net /PK2)
    (add_net /PK3)
    (add_net /PK4)
    (add_net /PK5)
    (add_net /PK6)
    (add_net /PK7)
    (add_net /PL0)
    (add_net /PL1)
    (add_net /PL2)
    (add_net /PL3)
    (add_net /PL4)
    (add_net /PL5)
    (add_net /PL6)
    (add_net /PL7)
    (add_net /RST)
    (add_net /VCC1)
    (add_net /VCC2)
    (add_net /VCC3)
    (add_net /VCC4)
    (add_net /XTAL1)
    (add_net /XTAL2)
  )

  (module TQFP-100 (layer F.Cu) (tedit 54FC06F0) (tstamp 5521AC4C)
    (at 165.1 120.65)
    (descr "SMD TQFP-100 Package")
    (tags SMD)
    (path /5521EDEE)
    (attr smd)
    (fp_text reference IC1 (at -7.62 -7.62) (layer F.SilkS)
      (effects (font (size 0.5 0.5) (thickness 0.12)))
    )
    (fp_text value ATMEGA2560-TQFP100 (at 0 0) (layer F.SilkS) hide
      (effects (font (size 0.127 0.127) (thickness 0.000001)))
    )
    (fp_circle (center -5.842 -5.842) (end -5.9436 -5.588) (layer F.SilkS) (width 0.15))
    (fp_line (start 7.1 -7.1) (end 7.1 7.1) (layer F.SilkS) (width 0.2032))
    (fp_line (start 7.1 7.1) (end -7.1 7.1) (layer F.SilkS) (width 0.2032))
    (fp_line (start -7.1 -6.5212) (end -7.1 7.1) (layer F.SilkS) (width 0.2032))
    (fp_line (start -6.5212 -7.1) (end 7.1 -7.1) (layer F.SilkS) (width 0.2032))
    (fp_line (start -7.1 -6.5212) (end -6.5212 -7.1) (layer F.SilkS) (width 0.2032))
    (pad 91 smd rect (at -1.5 -7.75) (size 0.254 1.3)
      (layers F.Cu F.Paste F.Mask)
      (net 54 /PF6)
    )
    (pad 92 smd rect (at -2 -7.75) (size 0.254 1.3)
      (layers F.Cu F.Paste F.Mask)
      (net 53 /PF5)
    )
    (pad 93 smd rect (at -2.5 -7.75) (size 0.254 1.3)
      (layers F.Cu F.Paste F.Mask)
      (net 52 /PF4)
    )
    (pad 94 smd rect (at -3 -7.75) (size 0.254 1.3)
      (layers F.Cu F.Paste F.Mask)
      (net 51 /PF3)
    )
    (pad 95 smd rect (at -3.5 -7.75) (size 0.254 1.3)
      (layers F.Cu F.Paste F.Mask)
      (net 50 /PF2)
    )
    (pad 96 smd rect (at -4 -7.75) (size 0.254 1.3)
      (layers F.Cu F.Paste F.Mask)
      (net 49 /PF1)
    )
    (pad 84 smd rect (at 2 -7.75) (size 0.254 1.3)
      (layers F.Cu F.Paste F.Mask)
      (net 83 /PK5)
    )
    (pad 83 smd rect (at 2.5 -7.75) (size 0.254 1.3)
      (layers F.Cu F.Paste F.Mask)
      (net 84 /PK6)
    )
    (pad 82 smd rect (at 3 -7.75) (size 0.254 1.3)
      (layers F.Cu F.Paste F.Mask)
      (net 85 /PK7)
    )
    (pad 81 smd rect (at 3.5 -7.75) (size 0.254 1.3)
      (layers F.Cu F.Paste F.Mask)
      (net 6 /GND4)
    )
    (pad 80 smd rect (at 4 -7.75) (size 0.254 1.3)
      (layers F.Cu F.Paste F.Mask)
      (net 98 /VCC4)
    )
    (pad 35 smd rect (at -1.5 7.75) (size 0.254 1.3)
      (layers F.Cu F.Paste F.Mask)
      (net 86 /PL0)
    )
    (pad 34 smd rect (at -2 7.75) (size 0.254 1.3)
      (layers F.Cu F.Paste F.Mask)
      (net 99 /XTAL1)
    )
    (pad 33 smd rect (at -2.5 7.75) (size 0.254 1.3)
      (layers F.Cu F.Paste F.Mask)
      (net 100 /XTAL2)
    )
    (pad 32 smd rect (at -3 7.75) (size 0.254 1.3)
      (layers F.Cu F.Paste F.Mask)
      (net 4 /GND2)
    )
    (pad 31 smd rect (at -3.5 7.75) (size 0.254 1.3)
      (layers F.Cu F.Paste F.Mask)
      (net 96 /VCC2)
    )
    (pad 30 smd rect (at -4 7.75) (size 0.254 1.3)
      (layers F.Cu F.Paste F.Mask)
      (net 94 /RST)
    )
    (pad 42 smd rect (at 2 7.75) (size 0.254 1.3)
      (layers F.Cu F.Paste F.Mask)
      (net 93 /PL7)
    )
    (pad 43 smd rect (at 2.5 7.75) (size 0.254 1.3)
      (layers F.Cu F.Paste F.Mask)
      (net 32 /PD0)
    )
    (pad 44 smd rect (at 3 7.75) (size 0.254 1.3)
      (layers F.Cu F.Paste F.Mask)
      (net 33 /PD1)
    )
    (pad 45 smd rect (at 3.5 7.75) (size 0.254 1.3)
      (layers F.Cu F.Paste F.Mask)
      (net 34 /PD2)
    )
    (pad 46 smd rect (at 4 7.75) (size 0.254 1.3)
      (layers F.Cu F.Paste F.Mask)
      (net 35 /PD3)
    )
    (pad 10 smd rect (at -7.75 -1.5) (size 1.3 0.254)
      (layers F.Cu F.Paste F.Mask)
      (net 95 /VCC1)
    )
    (pad 66 smd rect (at 7.75 -1.5) (size 1.3 0.254)
      (layers F.Cu F.Paste F.Mask)
      (net 73 /PJ3)
    )
    (pad 11 smd rect (at -7.75 -1) (size 1.3 0.254)
      (layers F.Cu F.Paste F.Mask)
      (net 3 /GND1)
    )
    (pad 59 smd rect (at 7.75 2) (size 1.3 0.254)
      (layers F.Cu F.Paste F.Mask)
      (net 30 /PC6)
    )
    (pad 58 smd rect (at 7.75 2.5) (size 1.3 0.254)
      (layers F.Cu F.Paste F.Mask)
      (net 29 /PC5)
    )
    (pad 12 smd rect (at -7.75 -0.5) (size 1.3 0.254)
      (layers F.Cu F.Paste F.Mask)
      (net 62 /PH0)
    )
    (pad 13 smd rect (at -7.75 0) (size 1.3 0.254)
      (layers F.Cu F.Paste F.Mask)
      (net 63 /PH1)
    )
    (pad 57 smd rect (at 7.75 3) (size 1.3 0.254)
      (layers F.Cu F.Paste F.Mask)
      (net 28 /PC4)
    )
    (pad 56 smd rect (at 7.75 3.5) (size 1.3 0.254)
      (layers F.Cu F.Paste F.Mask)
      (net 27 /PC3)
    )
    (pad 18 smd rect (at -7.75 2.5) (size 1.3 0.254)
      (layers F.Cu F.Paste F.Mask)
      (net 68 /PH6)
    )
    (pad 21 smd rect (at -7.75 4) (size 1.3 0.254)
      (layers F.Cu F.Paste F.Mask)
      (net 18 /PB2)
    )
    (pad 55 smd rect (at 7.75 4) (size 1.3 0.254)
      (layers F.Cu F.Paste F.Mask)
      (net 26 /PC2)
    )
    (pad 67 smd rect (at 7.75 -2) (size 1.3 0.254)
      (layers F.Cu F.Paste F.Mask)
      (net 74 /PJ4)
    )
    (pad 9 smd rect (at -7.75 -2) (size 1.3 0.254)
      (layers F.Cu F.Paste F.Mask)
      (net 47 /PE7)
    )
    (pad 8 smd rect (at -7.75 -2.5) (size 1.3 0.254)
      (layers F.Cu F.Paste F.Mask)
      (net 46 /PE6)
    )
    (pad 68 smd rect (at 7.75 -2.5) (size 1.3 0.254)
      (layers F.Cu F.Paste F.Mask)
      (net 75 /PJ5)
    )
    (pad 69 smd rect (at 7.75 -3) (size 1.3 0.254)
      (layers F.Cu F.Paste F.Mask)
      (net 76 /PJ6)
    )
    (pad 7 smd rect (at -7.75 -3) (size 1.3 0.254)
      (layers F.Cu F.Paste F.Mask)
      (net 45 /PE5)
    )
    (pad 6 smd rect (at -7.75 -3.5) (size 1.3 0.254)
      (layers F.Cu F.Paste F.Mask)
      (net 44 /PE4)
    )
    (pad 70 smd rect (at 7.75 -3.5) (size 1.3 0.254)
      (layers F.Cu F.Paste F.Mask)
      (net 58 /PG2)
    )
    (pad 71 smd rect (at 7.75 -4) (size 1.3 0.254)
      (layers F.Cu F.Paste F.Mask)
      (net 15 /PA7)
    )
    (pad 5 smd rect (at -7.75 -4) (size 1.3 0.254)
      (layers F.Cu F.Paste F.Mask)
      (net 43 /PE3)
    )
    (pad 15 smd rect (at -7.75 1) (size 1.3 0.254)
      (layers F.Cu F.Paste F.Mask)
      (net 65 /PH3)
    )
    (pad 64 smd rect (at 7.75 -0.5) (size 1.3 0.254)
      (layers F.Cu F.Paste F.Mask)
      (net 71 /PJ1)
    )
    (pad 19 smd rect (at -7.75 3) (size 1.3 0.254)
      (layers F.Cu F.Paste F.Mask)
      (net 16 /PB0)
    )
    (pad 20 smd rect (at -7.75 3.5) (size 1.3 0.254)
      (layers F.Cu F.Paste F.Mask)
      (net 17 /PB1)
    )
    (pad 16 smd rect (at -7.75 1.5) (size 1.3 0.254)
      (layers F.Cu F.Paste F.Mask)
      (net 66 /PH4)
    )
    (pad 17 smd rect (at -7.75 2) (size 1.3 0.254)
      (layers F.Cu F.Paste F.Mask)
      (net 67 /PH5)
    )
    (pad 89 smd rect (at -0.5 -7.75) (size 0.254 1.3)
      (layers F.Cu F.Paste F.Mask)
      (net 78 /PK0)
    )
    (pad 90 smd rect (at -1 -7.75) (size 0.254 1.3)
      (layers F.Cu F.Paste F.Mask)
      (net 55 /PF7)
    )
    (pad 88 smd rect (at 0 -7.75) (size 0.254 1.3)
      (layers F.Cu F.Paste F.Mask)
      (net 79 /PK1)
    )
    (pad 86 smd rect (at 1 -7.75) (size 0.254 1.3)
      (layers F.Cu F.Paste F.Mask)
      (net 81 /PK3)
    )
    (pad 85 smd rect (at 1.5 -7.75) (size 0.254 1.3)
      (layers F.Cu F.Paste F.Mask)
      (net 82 /PK4)
    )
    (pad 60 smd rect (at 7.75 1.5) (size 1.3 0.254)
      (layers F.Cu F.Paste F.Mask)
      (net 31 /PC7)
    )
    (pad 61 smd rect (at 7.75 1) (size 1.3 0.254)
      (layers F.Cu F.Paste F.Mask)
      (net 97 /VCC3)
    )
    (pad 63 smd rect (at 7.75 0) (size 1.3 0.254)
      (layers F.Cu F.Paste F.Mask)
      (net 70 /PJ0)
    )
    (pad 65 smd rect (at 7.75 -1) (size 1.3 0.254)
      (layers F.Cu F.Paste F.Mask)
      (net 72 /PJ2)
    )
    (pad 36 smd rect (at -1 7.75) (size 0.254 1.3)
      (layers F.Cu F.Paste F.Mask)
      (net 87 /PL1)
    )
    (pad 37 smd rect (at -0.5 7.75) (size 0.254 1.3)
      (layers F.Cu F.Paste F.Mask)
      (net 88 /PL2)
    )
    (pad 38 smd rect (at 0 7.75) (size 0.254 1.3)
      (layers F.Cu F.Paste F.Mask)
      (net 89 /PL3)
    )
    (pad 40 smd rect (at 1 7.75) (size 0.254 1.3)
      (layers F.Cu F.Paste F.Mask)
      (net 91 /PL5)
    )
    (pad 41 smd rect (at 1.5 7.75) (size 0.254 1.3)
      (layers F.Cu F.Paste F.Mask)
      (net 92 /PL6)
    )
    (pad 39 smd rect (at 0.5 7.75) (size 0.254 1.3)
      (layers F.Cu F.Paste F.Mask)
      (net 90 /PL4)
    )
    (pad 87 smd rect (at 0.5 -7.75) (size 0.254 1.3)
      (layers F.Cu F.Paste F.Mask)
      (net 80 /PK2)
    )
    (pad 14 smd rect (at -7.75 0.5) (size 1.3 0.254)
      (layers F.Cu F.Paste F.Mask)
      (net 64 /PH2)
    )
    (pad 62 smd rect (at 7.75 0.5) (size 1.3 0.254)
      (layers F.Cu F.Paste F.Mask)
      (net 5 /GND3)
    )
    (pad 72 smd rect (at 7.75 -4.5) (size 1.3 0.254)
      (layers F.Cu F.Paste F.Mask)
      (net 14 /PA6)
    )
    (pad 73 smd rect (at 7.75 -5) (size 1.3 0.254)
      (layers F.Cu F.Paste F.Mask)
      (net 13 /PA5)
    )
    (pad 74 smd rect (at 7.75 -5.5) (size 1.3 0.254)
      (layers F.Cu F.Paste F.Mask)
      (net 12 /PA4)
    )
    (pad 75 smd rect (at 7.75 -6) (size 1.3 0.254)
      (layers F.Cu F.Paste F.Mask)
      (net 11 /PA3)
    )
    (pad 22 smd rect (at -7.75 4.5) (size 1.3 0.254)
      (layers F.Cu F.Paste F.Mask)
      (net 19 /PB3)
    )
    (pad 23 smd rect (at -7.75 5) (size 1.3 0.254)
      (layers F.Cu F.Paste F.Mask)
      (net 20 /PB4)
    )
    (pad 24 smd rect (at -7.75 5.5) (size 1.3 0.254)
      (layers F.Cu F.Paste F.Mask)
      (net 21 /PB5)
    )
    (pad 25 smd rect (at -7.75 6) (size 1.3 0.254)
      (layers F.Cu F.Paste F.Mask)
      (net 22 /PB6)
    )
    (pad 51 smd rect (at 7.75 6) (size 1.3 0.254)
      (layers F.Cu F.Paste F.Mask)
      (net 56 /PG0)
    )
    (pad 52 smd rect (at 7.75 5.5) (size 1.3 0.254)
      (layers F.Cu F.Paste F.Mask)
      (net 57 /PG1)
    )
    (pad 53 smd rect (at 7.75 5) (size 1.3 0.254)
      (layers F.Cu F.Paste F.Mask)
      (net 24 /PC0)
    )
    (pad 54 smd rect (at 7.75 4.5) (size 1.3 0.254)
      (layers F.Cu F.Paste F.Mask)
      (net 25 /PC1)
    )
    (pad 76 smd rect (at 6 -7.75) (size 0.254 1.3)
      (layers F.Cu F.Paste F.Mask)
      (net 10 /PA2)
    )
    (pad 77 smd rect (at 5.5 -7.75) (size 0.254 1.3)
      (layers F.Cu F.Paste F.Mask)
      (net 9 /PA1)
    )
    (pad 78 smd rect (at 5 -7.75) (size 0.254 1.3)
      (layers F.Cu F.Paste F.Mask)
      (net 8 /PA0)
    )
    (pad 79 smd rect (at 4.5 -7.75) (size 0.254 1.3)
      (layers F.Cu F.Paste F.Mask)
      (net 77 /PJ7)
    )
    (pad 97 smd rect (at -4.5 -7.75) (size 0.254 1.3)
      (layers F.Cu F.Paste F.Mask)
      (net 48 /PF0)
    )
    (pad 98 smd rect (at -5 -7.75) (size 0.254 1.3)
      (layers F.Cu F.Paste F.Mask)
      (net 1 /AREF)
    )
    (pad 99 smd rect (at -5.5 -7.75) (size 0.254 1.3)
      (layers F.Cu F.Paste F.Mask)
      (net 7 /GND5)
    )
    (pad 100 smd rect (at -6 -7.75) (size 0.254 1.3)
      (layers F.Cu F.Paste F.Mask)
      (net 2 /AVCC)
    )
    (pad 1 smd rect (at -7.75 -6) (size 1.3 0.254)
      (layers F.Cu F.Paste F.Mask)
      (net 61 /PG5)
    )
    (pad 2 smd rect (at -7.75 -5.5) (size 1.3 0.254)
      (layers F.Cu F.Paste F.Mask)
      (net 40 /PE0)
    )
    (pad 3 smd rect (at -7.75 -5) (size 1.3 0.254)
      (layers F.Cu F.Paste F.Mask)
      (net 41 /PE1)
    )
    (pad 4 smd rect (at -7.75 -4.5) (size 1.3 0.254)
      (layers F.Cu F.Paste F.Mask)
      (net 42 /PE2)
    )
    (pad 26 smd rect (at -6 7.75) (size 0.254 1.3)
      (layers F.Cu F.Paste F.Mask)
      (net 23 /PB7)
    )
    (pad 27 smd rect (at -5.5 7.75) (size 0.254 1.3)
      (layers F.Cu F.Paste F.Mask)
      (net 69 /PH7)
    )
    (pad 28 smd rect (at -5 7.75) (size 0.254 1.3)
      (layers F.Cu F.Paste F.Mask)
      (net 59 /PG3)
    )
    (pad 29 smd rect (at -4.5 7.75) (size 0.254 1.3)
      (layers F.Cu F.Paste F.Mask)
      (net 60 /PG4)
    )
    (pad 47 smd rect (at 4.5 7.75) (size 0.254 1.3)
      (layers F.Cu F.Paste F.Mask)
      (net 36 /PD4)
    )
    (pad 48 smd rect (at 5 7.75) (size 0.254 1.3)
      (layers F.Cu F.Paste F.Mask)
      (net 37 /PD5)
    )
    (pad 49 smd rect (at 5.5 7.75) (size 0.254 1.3)
      (layers F.Cu F.Paste F.Mask)
      (net 38 /PD6)
    )
    (pad 50 smd rect (at 6 7.75) (size 0.254 1.3)
      (layers F.Cu F.Paste F.Mask)
      (net 39 /PD7)
    )
  )

  (module HEADER-13X2 (layer F.Cu) (tedit 55219581) (tstamp 5521AC6E)
    (at 165.1 100.33)
    (descr "13x2-Pin Connector")
    (tags Connector)
    (path /55219A57)
    (fp_text reference P1 (at 0 -2.794) (layer F.SilkS) hide
      (effects (font (size 0.127 0.127) (thickness 0.000001)))
    )
    (fp_text value HEADER-13X2 (at 0 -3.048) (layer F.SilkS) hide
      (effects (font (size 0.127 0.127) (thickness 0.000001)))
    )
    (fp_line (start -16.51 -2.54) (end 16.51 -2.54) (layer F.SilkS) (width 0.3048))
    (fp_line (start 16.51 -2.54) (end 16.51 2.54) (layer F.SilkS) (width 0.3048))
    (fp_line (start 16.51 2.54) (end -16.51 2.54) (layer F.SilkS) (width 0.3048))
    (fp_line (start -16.51 2.54) (end -16.51 -2.54) (layer F.SilkS) (width 0.3048))
    (pad 1 thru_hole rect (at -15.24 1.27) (size 1.524 1.524) (drill 1.016)
      (layers *.Cu *.Mask)
    )
    (pad 14 thru_hole circle (at 0 -1.27) (size 1.524 1.524) (drill 1.016)
      (layers *.Cu *.Mask)
      (net 79 /PK1)
    )
    (pad 15 thru_hole circle (at 2.54 1.27) (size 1.524 1.524) (drill 1.016)
      (layers *.Cu *.Mask)
      (net 80 /PK2)
    )
    (pad 16 thru_hole circle (at 2.54 -1.27) (size 1.524 1.524) (drill 1.016)
      (layers *.Cu *.Mask)
      (net 81 /PK3)
    )
    (pad 17 thru_hole circle (at 5.08 1.27) (size 1.524 1.524) (drill 1.016)
      (layers *.Cu *.Mask)
      (net 82 /PK4)
    )
    (pad 18 thru_hole circle (at 5.08 -1.27) (size 1.524 1.524) (drill 1.016)
      (layers *.Cu *.Mask)
      (net 83 /PK5)
    )
    (pad 19 thru_hole circle (at 7.62 1.27) (size 1.524 1.524) (drill 1.016)
      (layers *.Cu *.Mask)
      (net 84 /PK6)
    )
    (pad 20 thru_hole circle (at 7.62 -1.27) (size 1.524 1.524) (drill 1.016)
      (layers *.Cu *.Mask)
      (net 85 /PK7)
    )
    (pad 21 thru_hole circle (at 10.16 1.27) (size 1.524 1.524) (drill 1.016)
      (layers *.Cu *.Mask)
      (net 6 /GND4)
    )
    (pad 22 thru_hole circle (at 10.16 -1.27) (size 1.524 1.524) (drill 1.016)
      (layers *.Cu *.Mask)
      (net 98 /VCC4)
    )
    (pad 23 thru_hole circle (at 12.7 1.27) (size 1.524 1.524) (drill 1.016)
      (layers *.Cu *.Mask)
      (net 77 /PJ7)
    )
    (pad 24 thru_hole circle (at 12.7 -1.27) (size 1.524 1.524) (drill 1.016)
      (layers *.Cu *.Mask)
      (net 8 /PA0)
    )
    (pad 13 thru_hole circle (at 0 1.27) (size 1.524 1.524) (drill 1.016)
      (layers *.Cu *.Mask)
      (net 78 /PK0)
    )
    (pad 2 thru_hole circle (at -15.24 -1.27) (size 1.524 1.524) (drill 1.016)
      (layers *.Cu *.Mask)
      (net 2 /AVCC)
    )
    (pad 3 thru_hole circle (at -12.7 1.27) (size 1.524 1.524) (drill 1.016)
      (layers *.Cu *.Mask)
      (net 7 /GND5)
    )
    (pad 4 thru_hole circle (at -12.7 -1.27) (size 1.524 1.524) (drill 1.016)
      (layers *.Cu *.Mask)
      (net 1 /AREF)
    )
    (pad 5 thru_hole circle (at -10.16 1.27) (size 1.524 1.524) (drill 1.016)
      (layers *.Cu *.Mask)
      (net 48 /PF0)
    )
    (pad 6 thru_hole circle (at -10.16 -1.27) (size 1.524 1.524) (drill 1.016)
      (layers *.Cu *.Mask)
      (net 49 /PF1)
    )
    (pad 7 thru_hole circle (at -7.62 1.27) (size 1.524 1.524) (drill 1.016)
      (layers *.Cu *.Mask)
      (net 50 /PF2)
    )
    (pad 8 thru_hole circle (at -7.62 -1.27) (size 1.524 1.524) (drill 1.016)
      (layers *.Cu *.Mask)
      (net 51 /PF3)
    )
    (pad 9 thru_hole circle (at -5.08 1.27) (size 1.524 1.524) (drill 1.016)
      (layers *.Cu *.Mask)
      (net 52 /PF4)
    )
    (pad 10 thru_hole circle (at -5.08 -1.27) (size 1.524 1.524) (drill 1.016)
      (layers *.Cu *.Mask)
      (net 53 /PF5)
    )
    (pad 11 thru_hole circle (at -2.54 1.27) (size 1.524 1.524) (drill 1.016)
      (layers *.Cu *.Mask)
      (net 54 /PF6)
    )
    (pad 12 thru_hole circle (at -2.54 -1.27) (size 1.524 1.524) (drill 1.016)
      (layers *.Cu *.Mask)
      (net 55 /PF7)
    )
    (pad 25 thru_hole circle (at 15.24 1.27) (size 1.524 1.524) (drill 1.016)
      (layers *.Cu *.Mask F.SilkS)
      (net 9 /PA1)
    )
    (pad 26 thru_hole circle (at 15.24 -1.27) (size 1.524 1.524) (drill 1.016)
      (layers *.Cu *.Mask F.SilkS)
      (net 10 /PA2)
    )
    (model pin_array/pins_array_5x2.wrl
      (at (xyz 0 0 0))
      (scale (xyz 1 1 1))
      (rotate (xyz 0 0 0))
    )
  )

  (module HEADER-13X2 (layer F.Cu) (tedit 55219581) (tstamp 5521AC90)
    (at 165.1 140.97 180)
    (descr "13x2-Pin Connector")
    (tags Connector)
    (path /55219A66)
    (fp_text reference P3 (at 0 -2.794 180) (layer F.SilkS) hide
      (effects (font (size 0.127 0.127) (thickness 0.000001)))
    )
    (fp_text value HEADER-13X2 (at 0 -3.048 180) (layer F.SilkS) hide
      (effects (font (size 0.127 0.127) (thickness 0.000001)))
    )
    (fp_line (start -16.51 -2.54) (end 16.51 -2.54) (layer F.SilkS) (width 0.3048))
    (fp_line (start 16.51 -2.54) (end 16.51 2.54) (layer F.SilkS) (width 0.3048))
    (fp_line (start 16.51 2.54) (end -16.51 2.54) (layer F.SilkS) (width 0.3048))
    (fp_line (start -16.51 2.54) (end -16.51 -2.54) (layer F.SilkS) (width 0.3048))
    (pad 1 thru_hole rect (at -15.24 1.27 180) (size 1.524 1.524) (drill 1.016)
      (layers *.Cu *.Mask)
    )
    (pad 14 thru_hole circle (at 0 -1.27 180) (size 1.524 1.524) (drill 1.016)
      (layers *.Cu *.Mask)
      (net 89 /PL3)
    )
    (pad 15 thru_hole circle (at 2.54 1.27 180) (size 1.524 1.524) (drill 1.016)
      (layers *.Cu *.Mask)
      (net 88 /PL2)
    )
    (pad 16 thru_hole circle (at 2.54 -1.27 180) (size 1.524 1.524) (drill 1.016)
      (layers *.Cu *.Mask)
      (net 87 /PL1)
    )
    (pad 17 thru_hole circle (at 5.08 1.27 180) (size 1.524 1.524) (drill 1.016)
      (layers *.Cu *.Mask)
      (net 86 /PL0)
    )
    (pad 18 thru_hole circle (at 5.08 -1.27 180) (size 1.524 1.524) (drill 1.016)
      (layers *.Cu *.Mask)
      (net 99 /XTAL1)
    )
    (pad 19 thru_hole circle (at 7.62 1.27 180) (size 1.524 1.524) (drill 1.016)
      (layers *.Cu *.Mask)
      (net 100 /XTAL2)
    )
    (pad 20 thru_hole circle (at 7.62 -1.27 180) (size 1.524 1.524) (drill 1.016)
      (layers *.Cu *.Mask)
      (net 4 /GND2)
    )
    (pad 21 thru_hole circle (at 10.16 1.27 180) (size 1.524 1.524) (drill 1.016)
      (layers *.Cu *.Mask)
      (net 96 /VCC2)
    )
    (pad 22 thru_hole circle (at 10.16 -1.27 180) (size 1.524 1.524) (drill 1.016)
      (layers *.Cu *.Mask)
      (net 94 /RST)
    )
    (pad 23 thru_hole circle (at 12.7 1.27 180) (size 1.524 1.524) (drill 1.016)
      (layers *.Cu *.Mask)
      (net 60 /PG4)
    )
    (pad 24 thru_hole circle (at 12.7 -1.27 180) (size 1.524 1.524) (drill 1.016)
      (layers *.Cu *.Mask)
      (net 59 /PG3)
    )
    (pad 13 thru_hole circle (at 0 1.27 180) (size 1.524 1.524) (drill 1.016)
      (layers *.Cu *.Mask)
      (net 90 /PL4)
    )
    (pad 2 thru_hole circle (at -15.24 -1.27 180) (size 1.524 1.524) (drill 1.016)
      (layers *.Cu *.Mask)
      (net 39 /PD7)
    )
    (pad 3 thru_hole circle (at -12.7 1.27 180) (size 1.524 1.524) (drill 1.016)
      (layers *.Cu *.Mask)
      (net 38 /PD6)
    )
    (pad 4 thru_hole circle (at -12.7 -1.27 180) (size 1.524 1.524) (drill 1.016)
      (layers *.Cu *.Mask)
      (net 37 /PD5)
    )
    (pad 5 thru_hole circle (at -10.16 1.27 180) (size 1.524 1.524) (drill 1.016)
      (layers *.Cu *.Mask)
      (net 36 /PD4)
    )
    (pad 6 thru_hole circle (at -10.16 -1.27 180) (size 1.524 1.524) (drill 1.016)
      (layers *.Cu *.Mask)
      (net 35 /PD3)
    )
    (pad 7 thru_hole circle (at -7.62 1.27 180) (size 1.524 1.524) (drill 1.016)
      (layers *.Cu *.Mask)
      (net 34 /PD2)
    )
    (pad 8 thru_hole circle (at -7.62 -1.27 180) (size 1.524 1.524) (drill 1.016)
      (layers *.Cu *.Mask)
      (net 33 /PD1)
    )
    (pad 9 thru_hole circle (at -5.08 1.27 180) (size 1.524 1.524) (drill 1.016)
      (layers *.Cu *.Mask)
      (net 32 /PD0)
    )
    (pad 10 thru_hole circle (at -5.08 -1.27 180) (size 1.524 1.524) (drill 1.016)
      (layers *.Cu *.Mask)
      (net 93 /PL7)
    )
    (pad 11 thru_hole circle (at -2.54 1.27 180) (size 1.524 1.524) (drill 1.016)
      (layers *.Cu *.Mask)
      (net 92 /PL6)
    )
    (pad 12 thru_hole circle (at -2.54 -1.27 180) (size 1.524 1.524) (drill 1.016)
      (layers *.Cu *.Mask)
      (net 91 /PL5)
    )
    (pad 25 thru_hole circle (at 15.24 1.27 180) (size 1.524 1.524) (drill 1.016)
      (layers *.Cu *.Mask F.SilkS)
      (net 69 /PH7)
    )
    (pad 26 thru_hole circle (at 15.24 -1.27 180) (size 1.524 1.524) (drill 1.016)
      (layers *.Cu *.Mask F.SilkS)
      (net 23 /PB7)
    )
    (model pin_array/pins_array_5x2.wrl
      (at (xyz 0 0 0))
      (scale (xyz 1 1 1))
      (rotate (xyz 0 0 0))
    )
  )

  (module HEADER-13X2 (layer F.Cu) (tedit 55219581) (tstamp 5521ACB2)
    (at 185.42 120.65 270)
    (descr "13x2-Pin Connector")
    (tags Connector)
    (path /55219A75)
    (fp_text reference P2 (at 0 -2.794 270) (layer F.SilkS) hide
      (effects (font (size 0.127 0.127) (thickness 0.000001)))
    )
    (fp_text value HEADER-13X2 (at 0 -3.048 270) (layer F.SilkS) hide
      (effects (font (size 0.127 0.127) (thickness 0.000001)))
    )
    (fp_line (start -16.51 -2.54) (end 16.51 -2.54) (layer F.SilkS) (width 0.3048))
    (fp_line (start 16.51 -2.54) (end 16.51 2.54) (layer F.SilkS) (width 0.3048))
    (fp_line (start 16.51 2.54) (end -16.51 2.54) (layer F.SilkS) (width 0.3048))
    (fp_line (start -16.51 2.54) (end -16.51 -2.54) (layer F.SilkS) (width 0.3048))
    (pad 1 thru_hole rect (at -15.24 1.27 270) (size 1.524 1.524) (drill 1.016)
      (layers *.Cu *.Mask)
    )
    (pad 14 thru_hole circle (at 0 -1.27 270) (size 1.524 1.524) (drill 1.016)
      (layers *.Cu *.Mask)
      (net 70 /PJ0)
    )
    (pad 15 thru_hole circle (at 2.54 1.27 270) (size 1.524 1.524) (drill 1.016)
      (layers *.Cu *.Mask)
      (net 5 /GND3)
    )
    (pad 16 thru_hole circle (at 2.54 -1.27 270) (size 1.524 1.524) (drill 1.016)
      (layers *.Cu *.Mask)
      (net 97 /VCC3)
    )
    (pad 17 thru_hole circle (at 5.08 1.27 270) (size 1.524 1.524) (drill 1.016)
      (layers *.Cu *.Mask)
      (net 31 /PC7)
    )
    (pad 18 thru_hole circle (at 5.08 -1.27 270) (size 1.524 1.524) (drill 1.016)
      (layers *.Cu *.Mask)
      (net 30 /PC6)
    )
    (pad 19 thru_hole circle (at 7.62 1.27 270) (size 1.524 1.524) (drill 1.016)
      (layers *.Cu *.Mask)
      (net 29 /PC5)
    )
    (pad 20 thru_hole circle (at 7.62 -1.27 270) (size 1.524 1.524) (drill 1.016)
      (layers *.Cu *.Mask)
      (net 28 /PC4)
    )
    (pad 21 thru_hole circle (at 10.16 1.27 270) (size 1.524 1.524) (drill 1.016)
      (layers *.Cu *.Mask)
      (net 27 /PC3)
    )
    (pad 22 thru_hole circle (at 10.16 -1.27 270) (size 1.524 1.524) (drill 1.016)
      (layers *.Cu *.Mask)
      (net 26 /PC2)
    )
    (pad 23 thru_hole circle (at 12.7 1.27 270) (size 1.524 1.524) (drill 1.016)
      (layers *.Cu *.Mask)
      (net 25 /PC1)
    )
    (pad 24 thru_hole circle (at 12.7 -1.27 270) (size 1.524 1.524) (drill 1.016)
      (layers *.Cu *.Mask)
      (net 24 /PC0)
    )
    (pad 13 thru_hole circle (at 0 1.27 270) (size 1.524 1.524) (drill 1.016)
      (layers *.Cu *.Mask)
      (net 71 /PJ1)
    )
    (pad 2 thru_hole circle (at -15.24 -1.27 270) (size 1.524 1.524) (drill 1.016)
      (layers *.Cu *.Mask)
      (net 11 /PA3)
    )
    (pad 3 thru_hole circle (at -12.7 1.27 270) (size 1.524 1.524) (drill 1.016)
      (layers *.Cu *.Mask)
      (net 12 /PA4)
    )
    (pad 4 thru_hole circle (at -12.7 -1.27 270) (size 1.524 1.524) (drill 1.016)
      (layers *.Cu *.Mask)
      (net 13 /PA5)
    )
    (pad 5 thru_hole circle (at -10.16 1.27 270) (size 1.524 1.524) (drill 1.016)
      (layers *.Cu *.Mask)
      (net 14 /PA6)
    )
    (pad 6 thru_hole circle (at -10.16 -1.27 270) (size 1.524 1.524) (drill 1.016)
      (layers *.Cu *.Mask)
      (net 15 /PA7)
    )
    (pad 7 thru_hole circle (at -7.62 1.27 270) (size 1.524 1.524) (drill 1.016)
      (layers *.Cu *.Mask)
      (net 58 /PG2)
    )
    (pad 8 thru_hole circle (at -7.62 -1.27 270) (size 1.524 1.524) (drill 1.016)
      (layers *.Cu *.Mask)
      (net 76 /PJ6)
    )
    (pad 9 thru_hole circle (at -5.08 1.27 270) (size 1.524 1.524) (drill 1.016)
      (layers *.Cu *.Mask)
      (net 75 /PJ5)
    )
    (pad 10 thru_hole circle (at -5.08 -1.27 270) (size 1.524 1.524) (drill 1.016)
      (layers *.Cu *.Mask)
      (net 74 /PJ4)
    )
    (pad 11 thru_hole circle (at -2.54 1.27 270) (size 1.524 1.524) (drill 1.016)
      (layers *.Cu *.Mask)
      (net 73 /PJ3)
    )
    (pad 12 thru_hole circle (at -2.54 -1.27 270) (size 1.524 1.524) (drill 1.016)
      (layers *.Cu *.Mask)
      (net 72 /PJ2)
    )
    (pad 25 thru_hole circle (at 15.24 1.27 270) (size 1.524 1.524) (drill 1.016)
      (layers *.Cu *.Mask F.SilkS)
      (net 57 /PG1)
    )
    (pad 26 thru_hole circle (at 15.24 -1.27 270) (size 1.524 1.524) (drill 1.016)
      (layers *.Cu *.Mask F.SilkS)
      (net 56 /PG0)
    )
    (model pin_array/pins_array_5x2.wrl
      (at (xyz 0 0 0))
      (scale (xyz 1 1 1))
      (rotate (xyz 0 0 0))
    )
  )

  (module HEADER-13X2 (layer F.Cu) (tedit 55219581) (tstamp 5521ACD4)
    (at 144.78 120.65 90)
    (descr "13x2-Pin Connector")
    (tags Connector)
    (path /55219A84)
    (fp_text reference P4 (at 0 -2.794 90) (layer F.SilkS) hide
      (effects (font (size 0.127 0.127) (thickness 0.000001)))
    )
    (fp_text value HEADER-13X2 (at 0 -3.048 90) (layer F.SilkS) hide
      (effects (font (size 0.127 0.127) (thickness 0.000001)))
    )
    (fp_line (start -16.51 -2.54) (end 16.51 -2.54) (layer F.SilkS) (width 0.3048))
    (fp_line (start 16.51 -2.54) (end 16.51 2.54) (layer F.SilkS) (width 0.3048))
    (fp_line (start 16.51 2.54) (end -16.51 2.54) (layer F.SilkS) (width 0.3048))
    (fp_line (start -16.51 2.54) (end -16.51 -2.54) (layer F.SilkS) (width 0.3048))
    (pad 1 thru_hole rect (at -15.24 1.27 90) (size 1.524 1.524) (drill 1.016)
      (layers *.Cu *.Mask)
    )
    (pad 14 thru_hole circle (at 0 -1.27 90) (size 1.524 1.524) (drill 1.016)
      (layers *.Cu *.Mask)
      (net 63 /PH1)
    )
    (pad 15 thru_hole circle (at 2.54 1.27 90) (size 1.524 1.524) (drill 1.016)
      (layers *.Cu *.Mask)
      (net 62 /PH0)
    )
    (pad 16 thru_hole circle (at 2.54 -1.27 90) (size 1.524 1.524) (drill 1.016)
      (layers *.Cu *.Mask)
      (net 3 /GND1)
    )
    (pad 17 thru_hole circle (at 5.08 1.27 90) (size 1.524 1.524) (drill 1.016)
      (layers *.Cu *.Mask)
      (net 95 /VCC1)
    )
    (pad 18 thru_hole circle (at 5.08 -1.27 90) (size 1.524 1.524) (drill 1.016)
      (layers *.Cu *.Mask)
      (net 47 /PE7)
    )
    (pad 19 thru_hole circle (at 7.62 1.27 90) (size 1.524 1.524) (drill 1.016)
      (layers *.Cu *.Mask)
      (net 46 /PE6)
    )
    (pad 20 thru_hole circle (at 7.62 -1.27 90) (size 1.524 1.524) (drill 1.016)
      (layers *.Cu *.Mask)
      (net 45 /PE5)
    )
    (pad 21 thru_hole circle (at 10.16 1.27 90) (size 1.524 1.524) (drill 1.016)
      (layers *.Cu *.Mask)
      (net 44 /PE4)
    )
    (pad 22 thru_hole circle (at 10.16 -1.27 90) (size 1.524 1.524) (drill 1.016)
      (layers *.Cu *.Mask)
      (net 43 /PE3)
    )
    (pad 23 thru_hole circle (at 12.7 1.27 90) (size 1.524 1.524) (drill 1.016)
      (layers *.Cu *.Mask)
      (net 42 /PE2)
    )
    (pad 24 thru_hole circle (at 12.7 -1.27 90) (size 1.524 1.524) (drill 1.016)
      (layers *.Cu *.Mask)
      (net 41 /PE1)
    )
    (pad 13 thru_hole circle (at 0 1.27 90) (size 1.524 1.524) (drill 1.016)
      (layers *.Cu *.Mask)
      (net 64 /PH2)
    )
    (pad 2 thru_hole circle (at -15.24 -1.27 90) (size 1.524 1.524) (drill 1.016)
      (layers *.Cu *.Mask)
      (net 22 /PB6)
    )
    (pad 3 thru_hole circle (at -12.7 1.27 90) (size 1.524 1.524) (drill 1.016)
      (layers *.Cu *.Mask)
      (net 21 /PB5)
    )
    (pad 4 thru_hole circle (at -12.7 -1.27 90) (size 1.524 1.524) (drill 1.016)
      (layers *.Cu *.Mask)
      (net 20 /PB4)
    )
    (pad 5 thru_hole circle (at -10.16 1.27 90) (size 1.524 1.524) (drill 1.016)
      (layers *.Cu *.Mask)
      (net 19 /PB3)
    )
    (pad 6 thru_hole circle (at -10.16 -1.27 90) (size 1.524 1.524) (drill 1.016)
      (layers *.Cu *.Mask)
      (net 18 /PB2)
    )
    (pad 7 thru_hole circle (at -7.62 1.27 90) (size 1.524 1.524) (drill 1.016)
      (layers *.Cu *.Mask)
      (net 17 /PB1)
    )
    (pad 8 thru_hole circle (at -7.62 -1.27 90) (size 1.524 1.524) (drill 1.016)
      (layers *.Cu *.Mask)
      (net 16 /PB0)
    )
    (pad 9 thru_hole circle (at -5.08 1.27 90) (size 1.524 1.524) (drill 1.016)
      (layers *.Cu *.Mask)
      (net 68 /PH6)
    )
    (pad 10 thru_hole circle (at -5.08 -1.27 90) (size 1.524 1.524) (drill 1.016)
      (layers *.Cu *.Mask)
      (net 67 /PH5)
    )
    (pad 11 thru_hole circle (at -2.54 1.27 90) (size 1.524 1.524) (drill 1.016)
      (layers *.Cu *.Mask)
      (net 66 /PH4)
    )
    (pad 12 thru_hole circle (at -2.54 -1.27 90) (size 1.524 1.524) (drill 1.016)
      (layers *.Cu *.Mask)
      (net 65 /PH3)
    )
    (pad 25 thru_hole circle (at 15.24 1.27 90) (size 1.524 1.524) (drill 1.016)
      (layers *.Cu *.Mask F.SilkS)
      (net 40 /PE0)
    )
    (pad 26 thru_hole circle (at 15.24 -1.27 90) (size 1.524 1.524) (drill 1.016)
      (layers *.Cu *.Mask F.SilkS)
      (net 61 /PG5)
    )
    (model pin_array/pins_array_5x2.wrl
      (at (xyz 0 0 0))
      (scale (xyz 1 1 1))
      (rotate (xyz 0 0 0))
    )
  )

  (module 3mm-Hole (layer F.Cu) (tedit 55270F39) (tstamp 5521B8C9)
    (at 146.05 101.6)
    (descr 3mm-Hole)
    (tags Connector)
    (path 1pin)
    (fp_text reference P** (at 0 0.254) (layer F.SilkS) hide
      (effects (font (size 0.127 0.127) (thickness 0.000001)))
    )
    (fp_text value 3mm-Hole (at 0 -0.254) (layer F.SilkS) hide
      (effects (font (size 0.127 0.127) (thickness 0.000001)))
    )
    (pad "" smd circle (at 0 0) (size 1.524 1.524)
      (layers F.Cu F.Paste F.Mask)
    )
  )

  (dimension 46.99 (width 0.3) (layer Dwgs.User)
    (gr_text "46.990 mm" (at 191.008 120.65 270) (layer Dwgs.User)
      (effects (font (size 1.5 1.5) (thickness 0.3)))
    )
    (feature1 (pts (xy 189.865 144.145) (xy 189.865 144.145)))
    (feature2 (pts (xy 189.865 97.155) (xy 189.865 97.155)))
    (crossbar (pts (xy 189.865 97.155) (xy 189.865 144.145)))
    (arrow1a (pts (xy 189.865 144.145) (xy 189.27858 143.018497)))
    (arrow1b (pts (xy 189.865 144.145) (xy 190.45142 143.018497)))
    (arrow2a (pts (xy 189.865 97.155) (xy 189.27858 98.281503)))
    (arrow2b (pts (xy 189.865 97.155) (xy 190.45142 98.281503)))
  )
  (dimension 46.99 (width 0.3) (layer Dwgs.User)
    (gr_text "46.990 mm" (at 165.1 94.742) (layer Dwgs.User)
      (effects (font (size 1.5 1.5) (thickness 0.3)))
    )
    (feature1 (pts (xy 188.595 95.885) (xy 188.595 95.885)))
    (feature2 (pts (xy 141.605 95.885) (xy 141.605 95.885)))
    (crossbar (pts (xy 141.605 95.885) (xy 188.595 95.885)))
    (arrow1a (pts (xy 188.595 95.885) (xy 187.468497 96.47142)))
    (arrow1b (pts (xy 188.595 95.885) (xy 187.468497 95.29858)))
    (arrow2a (pts (xy 141.605 95.885) (xy 142.731503 96.47142)))
    (arrow2b (pts (xy 141.605 95.885) (xy 142.731503 95.29858)))
  )
  (gr_line (start 182.245 97.155) (end 147.955 97.155) (angle 90) (layer Edge.Cuts) (width 0.1))
  (gr_line (start 188.595 103.505) (end 182.245 97.155) (angle 90) (layer Edge.Cuts) (width 0.1))
  (gr_line (start 188.595 137.795) (end 188.595 103.505) (angle 90) (layer Edge.Cuts) (width 0.1))
  (gr_line (start 182.245 144.145) (end 188.595 137.795) (angle 90) (layer Edge.Cuts) (width 0.1))
  (gr_line (start 147.955 144.145) (end 182.245 144.145) (angle 90) (layer Edge.Cuts) (width 0.1))
  (gr_line (start 141.605 137.795) (end 147.955 144.145) (angle 90) (layer Edge.Cuts) (width 0.1))
  (gr_line (start 141.605 103.505) (end 141.605 137.795) (angle 90) (layer Edge.Cuts) (width 0.1))
  (gr_line (start 147.955 97.155) (end 141.605 103.505) (angle 90) (layer Edge.Cuts) (width 0.1))

  (segment (start 160.1 112.9) (end 160.1 109.3) (width 0.254) (layer F.Cu) (net 1))
  (segment (start 153.67 100.33) (end 152.4 99.06) (width 0.254) (layer F.Cu) (net 1) (tstamp 5521AFB8))
  (segment (start 153.67 102.87) (end 153.67 100.33) (width 0.254) (layer F.Cu) (net 1) (tstamp 5521AFB6))
  (segment (start 160.1 109.3) (end 153.67 102.87) (width 0.254) (layer F.Cu) (net 1) (tstamp 5521AFB4))
  (segment (start 159.1 112.9) (end 159.1 110.332) (width 0.254) (layer F.Cu) (net 2))
  (segment (start 151.13 100.33) (end 149.86 99.06) (width 0.254) (layer F.Cu) (net 2) (tstamp 5521AFAB))
  (segment (start 151.13 102.362) (end 151.13 100.33) (width 0.254) (layer F.Cu) (net 2) (tstamp 5521AFA9))
  (segment (start 159.1 110.332) (end 151.13 102.362) (width 0.254) (layer F.Cu) (net 2) (tstamp 5521AFA8))
  (segment (start 157.35 119.65) (end 150.511 119.65) (width 0.254) (layer F.Cu) (net 3))
  (segment (start 144.78 116.84) (end 143.51 118.11) (width 0.254) (layer F.Cu) (net 3) (tstamp 5521B4C4))
  (segment (start 147.701 116.84) (end 144.78 116.84) (width 0.254) (layer F.Cu) (net 3) (tstamp 5521B4C2))
  (segment (start 150.511 119.65) (end 147.701 116.84) (width 0.254) (layer F.Cu) (net 3) (tstamp 5521B4C0))
  (segment (start 162.1 128.4) (end 162.1 132.032) (width 0.254) (layer F.Cu) (net 4))
  (segment (start 156.21 140.97) (end 157.48 142.24) (width 0.254) (layer F.Cu) (net 4) (tstamp 5521B3CA))
  (segment (start 156.21 137.922) (end 156.21 140.97) (width 0.254) (layer F.Cu) (net 4) (tstamp 5521B3C8))
  (segment (start 162.1 132.032) (end 156.21 137.922) (width 0.254) (layer F.Cu) (net 4) (tstamp 5521B3C6))
  (segment (start 172.85 121.15) (end 179.824 121.15) (width 0.254) (layer F.Cu) (net 5))
  (segment (start 181.864 123.19) (end 184.15 123.19) (width 0.254) (layer F.Cu) (net 5) (tstamp 5521B19D))
  (segment (start 179.824 121.15) (end 181.864 123.19) (width 0.254) (layer F.Cu) (net 5) (tstamp 5521B19B))
  (segment (start 168.6 112.9) (end 168.6 109.53) (width 0.254) (layer F.Cu) (net 6))
  (segment (start 175.26 102.87) (end 175.26 101.6) (width 0.254) (layer F.Cu) (net 6) (tstamp 5521B025))
  (segment (start 168.6 109.53) (end 175.26 102.87) (width 0.254) (layer F.Cu) (net 6) (tstamp 5521B023))
  (segment (start 159.6 112.9) (end 159.6 109.816) (width 0.254) (layer F.Cu) (net 7))
  (segment (start 152.4 102.616) (end 152.4 101.6) (width 0.254) (layer F.Cu) (net 7) (tstamp 5521AFB0))
  (segment (start 159.6 109.816) (end 152.4 102.616) (width 0.254) (layer F.Cu) (net 7) (tstamp 5521AFAF))
  (segment (start 170.1 112.9) (end 170.1 111.332) (width 0.254) (layer F.Cu) (net 8))
  (segment (start 179.07 100.33) (end 177.8 99.06) (width 0.254) (layer F.Cu) (net 8) (tstamp 5521B09F))
  (segment (start 179.07 102.362) (end 179.07 100.33) (width 0.254) (layer F.Cu) (net 8) (tstamp 5521B09D))
  (segment (start 170.1 111.332) (end 179.07 102.362) (width 0.254) (layer F.Cu) (net 8) (tstamp 5521B09C))
  (segment (start 180.34 101.981) (end 180.34 101.6) (width 0.254) (layer F.Cu) (net 9) (tstamp 5521B0A4))
  (segment (start 170.6 112.9) (end 170.6 111.848) (width 0.254) (layer F.Cu) (net 9))
  (segment (start 170.6 111.848) (end 180.5305 101.9175) (width 0.254) (layer F.Cu) (net 9) (tstamp 5521B0A3))
  (segment (start 171.1 112.9) (end 171.1 112.618) (width 0.254) (layer F.Cu) (net 10))
  (segment (start 181.102 99.06) (end 180.34 99.06) (width 0.254) (layer F.Cu) (net 10) (tstamp 5521B100))
  (segment (start 181.864 99.822) (end 181.102 99.06) (width 0.254) (layer F.Cu) (net 10) (tstamp 5521B0FF))
  (segment (start 181.864 102.489) (end 181.864 99.822) (width 0.254) (layer F.Cu) (net 10) (tstamp 5521B0FE))
  (segment (start 180.975 103.378) (end 181.864 102.489) (width 0.254) (layer F.Cu) (net 10) (tstamp 5521B0FD))
  (segment (start 180.34 103.378) (end 180.975 103.378) (width 0.254) (layer F.Cu) (net 10) (tstamp 5521B0FC))
  (segment (start 171.1 112.618) (end 180.34 103.378) (width 0.254) (layer F.Cu) (net 10) (tstamp 5521B0FB))
  (segment (start 172.85 114.65) (end 174.656 114.65) (width 0.254) (layer F.Cu) (net 11))
  (segment (start 185.42 106.68) (end 186.69 105.41) (width 0.254) (layer F.Cu) (net 11) (tstamp 5521B107))
  (segment (start 182.626 106.68) (end 185.42 106.68) (width 0.254) (layer F.Cu) (net 11) (tstamp 5521B105))
  (segment (start 174.656 114.65) (end 182.626 106.68) (width 0.254) (layer F.Cu) (net 11) (tstamp 5521B103))
  (segment (start 172.85 115.15) (end 175.553 115.15) (width 0.254) (layer F.Cu) (net 12))
  (segment (start 182.753 107.95) (end 184.15 107.95) (width 0.254) (layer F.Cu) (net 12) (tstamp 5521B10D))
  (segment (start 175.553 115.15) (end 182.753 107.95) (width 0.254) (layer F.Cu) (net 12) (tstamp 5521B10B))
  (segment (start 172.85 115.65) (end 176.196 115.65) (width 0.254) (layer F.Cu) (net 13))
  (segment (start 185.42 109.22) (end 186.69 107.95) (width 0.254) (layer F.Cu) (net 13) (tstamp 5521B11D))
  (segment (start 182.626 109.22) (end 185.42 109.22) (width 0.254) (layer F.Cu) (net 13) (tstamp 5521B11B))
  (segment (start 176.196 115.65) (end 182.626 109.22) (width 0.254) (layer F.Cu) (net 13) (tstamp 5521B119))
  (segment (start 172.85 116.15) (end 176.966 116.15) (width 0.254) (layer F.Cu) (net 14))
  (segment (start 182.626 110.49) (end 184.15 110.49) (width 0.254) (layer F.Cu) (net 14) (tstamp 5521B123))
  (segment (start 176.966 116.15) (end 182.626 110.49) (width 0.254) (layer F.Cu) (net 14) (tstamp 5521B121))
  (segment (start 172.85 116.65) (end 177.99 116.65) (width 0.254) (layer F.Cu) (net 15))
  (segment (start 185.42 111.76) (end 186.69 110.49) (width 0.254) (layer F.Cu) (net 15) (tstamp 5521B12B))
  (segment (start 182.88 111.76) (end 185.42 111.76) (width 0.254) (layer F.Cu) (net 15) (tstamp 5521B129))
  (segment (start 177.99 116.65) (end 182.88 111.76) (width 0.254) (layer F.Cu) (net 15) (tstamp 5521B127))
  (segment (start 157.35 123.65) (end 150.797 123.65) (width 0.254) (layer F.Cu) (net 16))
  (segment (start 144.78 127) (end 143.51 128.27) (width 0.254) (layer F.Cu) (net 16) (tstamp 5521B44C))
  (segment (start 147.447 127) (end 144.78 127) (width 0.254) (layer F.Cu) (net 16) (tstamp 5521B44A))
  (segment (start 150.797 123.65) (end 147.447 127) (width 0.254) (layer F.Cu) (net 16) (tstamp 5521B449))
  (segment (start 157.35 124.15) (end 151.567 124.15) (width 0.254) (layer F.Cu) (net 17))
  (segment (start 147.447 128.27) (end 146.05 128.27) (width 0.254) (layer F.Cu) (net 17) (tstamp 5521B445))
  (segment (start 151.567 124.15) (end 147.447 128.27) (width 0.254) (layer F.Cu) (net 17) (tstamp 5521B444))
  (segment (start 157.35 124.65) (end 152.21 124.65) (width 0.254) (layer F.Cu) (net 18))
  (segment (start 144.78 129.54) (end 143.51 130.81) (width 0.254) (layer F.Cu) (net 18) (tstamp 5521B440))
  (segment (start 147.32 129.54) (end 144.78 129.54) (width 0.254) (layer F.Cu) (net 18) (tstamp 5521B43E))
  (segment (start 152.21 124.65) (end 147.32 129.54) (width 0.254) (layer F.Cu) (net 18) (tstamp 5521B43D))
  (segment (start 157.35 125.15) (end 152.853 125.15) (width 0.254) (layer F.Cu) (net 19))
  (segment (start 147.193 130.81) (end 146.05 130.81) (width 0.254) (layer F.Cu) (net 19) (tstamp 5521B439))
  (segment (start 152.853 125.15) (end 147.193 130.81) (width 0.254) (layer F.Cu) (net 19) (tstamp 5521B437))
  (segment (start 157.35 125.65) (end 153.496 125.65) (width 0.254) (layer F.Cu) (net 20))
  (segment (start 144.78 132.08) (end 143.51 133.35) (width 0.254) (layer F.Cu) (net 20) (tstamp 5521B433))
  (segment (start 147.066 132.08) (end 144.78 132.08) (width 0.254) (layer F.Cu) (net 20) (tstamp 5521B431))
  (segment (start 153.496 125.65) (end 147.066 132.08) (width 0.254) (layer F.Cu) (net 20) (tstamp 5521B42F))
  (segment (start 157.35 126.15) (end 154.012 126.15) (width 0.254) (layer F.Cu) (net 21))
  (segment (start 146.812 133.35) (end 146.05 133.35) (width 0.254) (layer F.Cu) (net 21) (tstamp 5521B42B))
  (segment (start 154.012 126.15) (end 146.812 133.35) (width 0.254) (layer F.Cu) (net 21) (tstamp 5521B42A))
  (segment (start 157.35 126.65) (end 154.528 126.65) (width 0.254) (layer F.Cu) (net 22))
  (segment (start 144.78 134.62) (end 143.51 135.89) (width 0.254) (layer F.Cu) (net 22) (tstamp 5521B426))
  (segment (start 146.558 134.62) (end 144.78 134.62) (width 0.254) (layer F.Cu) (net 22) (tstamp 5521B424))
  (segment (start 154.528 126.65) (end 146.558 134.62) (width 0.254) (layer F.Cu) (net 22) (tstamp 5521B423))
  (segment (start 159.1 128.4) (end 159.1 128.809) (width 0.254) (layer F.Cu) (net 23))
  (segment (start 148.717 142.24) (end 149.86 142.24) (width 0.254) (layer F.Cu) (net 23) (tstamp 5521B420))
  (segment (start 148.209 141.732) (end 148.717 142.24) (width 0.254) (layer F.Cu) (net 23) (tstamp 5521B41F))
  (segment (start 148.209 138.684) (end 148.209 141.732) (width 0.254) (layer F.Cu) (net 23) (tstamp 5521B41E))
  (segment (start 148.971 137.922) (end 148.209 138.684) (width 0.254) (layer F.Cu) (net 23) (tstamp 5521B41D))
  (segment (start 149.987 137.922) (end 148.971 137.922) (width 0.254) (layer F.Cu) (net 23) (tstamp 5521B41B))
  (segment (start 159.1 128.809) (end 149.987 137.922) (width 0.254) (layer F.Cu) (net 23) (tstamp 5521B41A))
  (segment (start 172.85 125.65) (end 174.545 125.65) (width 0.254) (layer F.Cu) (net 24))
  (segment (start 185.42 134.62) (end 186.69 133.35) (width 0.254) (layer F.Cu) (net 24) (tstamp 5521B1E0))
  (segment (start 183.515 134.62) (end 185.42 134.62) (width 0.254) (layer F.Cu) (net 24) (tstamp 5521B1DE))
  (segment (start 174.545 125.65) (end 183.515 134.62) (width 0.254) (layer F.Cu) (net 24) (tstamp 5521B1DC))
  (segment (start 172.85 125.15) (end 175.188 125.15) (width 0.254) (layer F.Cu) (net 25))
  (segment (start 183.388 133.35) (end 184.15 133.35) (width 0.254) (layer F.Cu) (net 25) (tstamp 5521B1D9))
  (segment (start 175.188 125.15) (end 183.388 133.35) (width 0.254) (layer F.Cu) (net 25) (tstamp 5521B1D7))
  (segment (start 172.85 124.65) (end 175.831 124.65) (width 0.254) (layer F.Cu) (net 26))
  (segment (start 185.42 132.08) (end 186.69 130.81) (width 0.254) (layer F.Cu) (net 26) (tstamp 5521B1CF))
  (segment (start 183.261 132.08) (end 185.42 132.08) (width 0.254) (layer F.Cu) (net 26) (tstamp 5521B1CD))
  (segment (start 175.831 124.65) (end 183.261 132.08) (width 0.254) (layer F.Cu) (net 26) (tstamp 5521B1CB))
  (segment (start 172.85 124.15) (end 176.474 124.15) (width 0.254) (layer F.Cu) (net 27))
  (segment (start 183.134 130.81) (end 184.15 130.81) (width 0.254) (layer F.Cu) (net 27) (tstamp 5521B1C7))
  (segment (start 176.474 124.15) (end 183.134 130.81) (width 0.254) (layer F.Cu) (net 27) (tstamp 5521B1C5))
  (segment (start 172.85 123.65) (end 176.99 123.65) (width 0.254) (layer F.Cu) (net 28))
  (segment (start 185.42 129.54) (end 186.69 128.27) (width 0.254) (layer F.Cu) (net 28) (tstamp 5521B1C1))
  (segment (start 182.88 129.54) (end 185.42 129.54) (width 0.254) (layer F.Cu) (net 28) (tstamp 5521B1BF))
  (segment (start 176.99 123.65) (end 182.88 129.54) (width 0.254) (layer F.Cu) (net 28) (tstamp 5521B1BD))
  (segment (start 172.85 123.15) (end 177.506 123.15) (width 0.254) (layer F.Cu) (net 29))
  (segment (start 182.626 128.27) (end 184.15 128.27) (width 0.254) (layer F.Cu) (net 29) (tstamp 5521B1B9))
  (segment (start 177.506 123.15) (end 182.626 128.27) (width 0.254) (layer F.Cu) (net 29) (tstamp 5521B1B7))
  (segment (start 172.85 122.65) (end 178.022 122.65) (width 0.254) (layer F.Cu) (net 30))
  (segment (start 185.42 127) (end 186.69 125.73) (width 0.254) (layer F.Cu) (net 30) (tstamp 5521B1B3))
  (segment (start 182.372 127) (end 185.42 127) (width 0.254) (layer F.Cu) (net 30) (tstamp 5521B1B1))
  (segment (start 178.022 122.65) (end 182.372 127) (width 0.254) (layer F.Cu) (net 30) (tstamp 5521B1AF))
  (segment (start 172.85 122.15) (end 178.538 122.15) (width 0.254) (layer F.Cu) (net 31))
  (segment (start 182.118 125.73) (end 184.15 125.73) (width 0.254) (layer F.Cu) (net 31) (tstamp 5521B1AB))
  (segment (start 178.538 122.15) (end 182.118 125.73) (width 0.254) (layer F.Cu) (net 31) (tstamp 5521B1A9))
  (segment (start 167.6 128.4) (end 167.6 134.326) (width 0.254) (layer F.Cu) (net 32))
  (segment (start 170.18 136.906) (end 170.18 139.7) (width 0.254) (layer F.Cu) (net 32) (tstamp 5521B356))
  (segment (start 167.6 134.326) (end 170.18 136.906) (width 0.254) (layer F.Cu) (net 32) (tstamp 5521B355))
  (segment (start 168.1 128.4) (end 168.1 133.683) (width 0.254) (layer F.Cu) (net 33))
  (segment (start 171.45 140.97) (end 172.72 142.24) (width 0.254) (layer F.Cu) (net 33) (tstamp 5521B350))
  (segment (start 171.45 137.033) (end 171.45 140.97) (width 0.254) (layer F.Cu) (net 33) (tstamp 5521B34E))
  (segment (start 168.1 133.683) (end 171.45 137.033) (width 0.254) (layer F.Cu) (net 33) (tstamp 5521B34D))
  (segment (start 168.6 128.4) (end 168.6 133.04) (width 0.254) (layer F.Cu) (net 34))
  (segment (start 172.72 137.16) (end 172.72 139.7) (width 0.254) (layer F.Cu) (net 34) (tstamp 5521B349))
  (segment (start 168.6 133.04) (end 172.72 137.16) (width 0.254) (layer F.Cu) (net 34) (tstamp 5521B348))
  (segment (start 169.1 128.4) (end 169.1 132.27) (width 0.254) (layer F.Cu) (net 35))
  (segment (start 173.99 140.97) (end 175.26 142.24) (width 0.254) (layer F.Cu) (net 35) (tstamp 5521B344))
  (segment (start 173.99 137.16) (end 173.99 140.97) (width 0.254) (layer F.Cu) (net 35) (tstamp 5521B342))
  (segment (start 169.1 132.27) (end 173.99 137.16) (width 0.254) (layer F.Cu) (net 35) (tstamp 5521B341))
  (segment (start 169.6 128.4) (end 169.6 131.627) (width 0.254) (layer F.Cu) (net 36))
  (segment (start 175.26 137.287) (end 175.26 139.7) (width 0.254) (layer F.Cu) (net 36) (tstamp 5521B33D))
  (segment (start 169.6 131.627) (end 175.26 137.287) (width 0.254) (layer F.Cu) (net 36) (tstamp 5521B33C))
  (segment (start 170.1 128.4) (end 170.1 130.857) (width 0.254) (layer F.Cu) (net 37))
  (segment (start 176.53 140.97) (end 177.8 142.24) (width 0.254) (layer F.Cu) (net 37) (tstamp 5521B338))
  (segment (start 176.53 137.287) (end 176.53 140.97) (width 0.254) (layer F.Cu) (net 37) (tstamp 5521B336))
  (segment (start 170.1 130.857) (end 176.53 137.287) (width 0.254) (layer F.Cu) (net 37) (tstamp 5521B335))
  (segment (start 170.6 128.4) (end 170.6 130.087) (width 0.254) (layer F.Cu) (net 38))
  (segment (start 177.8 137.287) (end 177.8 139.7) (width 0.254) (layer F.Cu) (net 38) (tstamp 5521B331))
  (segment (start 170.6 130.087) (end 177.8 137.287) (width 0.254) (layer F.Cu) (net 38) (tstamp 5521B330))
  (segment (start 171.1 128.4) (end 171.1 129.444) (width 0.254) (layer F.Cu) (net 39))
  (segment (start 179.07 140.97) (end 180.34 142.24) (width 0.254) (layer F.Cu) (net 39) (tstamp 5521B32C))
  (segment (start 179.07 137.414) (end 179.07 140.97) (width 0.254) (layer F.Cu) (net 39) (tstamp 5521B32A))
  (segment (start 171.1 129.444) (end 179.07 137.414) (width 0.254) (layer F.Cu) (net 39) (tstamp 5521B329))
  (segment (start 157.35 115.15) (end 156.298 115.15) (width 0.254) (layer F.Cu) (net 40))
  (segment (start 146.558 105.41) (end 146.05 105.41) (width 0.254) (layer F.Cu) (net 40) (tstamp 5521B520))
  (segment (start 156.298 115.15) (end 146.558 105.41) (width 0.254) (layer F.Cu) (net 40) (tstamp 5521B51F))
  (segment (start 157.35 115.65) (end 155.782 115.65) (width 0.254) (layer F.Cu) (net 41))
  (segment (start 144.78 106.68) (end 143.51 107.95) (width 0.254) (layer F.Cu) (net 41) (tstamp 5521B516))
  (segment (start 146.812 106.68) (end 144.78 106.68) (width 0.254) (layer F.Cu) (net 41) (tstamp 5521B515))
  (segment (start 155.782 115.65) (end 146.812 106.68) (width 0.254) (layer F.Cu) (net 41) (tstamp 5521B514))
  (segment (start 157.35 116.15) (end 155.012 116.15) (width 0.254) (layer F.Cu) (net 42))
  (segment (start 146.812 107.95) (end 146.05 107.95) (width 0.254) (layer F.Cu) (net 42) (tstamp 5521B511))
  (segment (start 155.012 116.15) (end 146.812 107.95) (width 0.254) (layer F.Cu) (net 42) (tstamp 5521B50F))
  (segment (start 157.35 116.65) (end 154.496 116.65) (width 0.254) (layer F.Cu) (net 43))
  (segment (start 144.78 109.22) (end 143.51 110.49) (width 0.254) (layer F.Cu) (net 43) (tstamp 5521B50B))
  (segment (start 147.066 109.22) (end 144.78 109.22) (width 0.254) (layer F.Cu) (net 43) (tstamp 5521B509))
  (segment (start 154.496 116.65) (end 147.066 109.22) (width 0.254) (layer F.Cu) (net 43) (tstamp 5521B507))
  (segment (start 157.35 117.15) (end 153.98 117.15) (width 0.254) (layer F.Cu) (net 44))
  (segment (start 147.32 110.49) (end 146.05 110.49) (width 0.254) (layer F.Cu) (net 44) (tstamp 5521B4FB))
  (segment (start 153.98 117.15) (end 147.32 110.49) (width 0.254) (layer F.Cu) (net 44) (tstamp 5521B4F9))
  (segment (start 157.35 117.65) (end 153.337 117.65) (width 0.254) (layer F.Cu) (net 45))
  (segment (start 144.78 111.76) (end 143.51 113.03) (width 0.254) (layer F.Cu) (net 45) (tstamp 5521B4F5))
  (segment (start 147.447 111.76) (end 144.78 111.76) (width 0.254) (layer F.Cu) (net 45) (tstamp 5521B4F3))
  (segment (start 153.337 117.65) (end 147.447 111.76) (width 0.254) (layer F.Cu) (net 45) (tstamp 5521B4F1))
  (segment (start 157.35 118.15) (end 152.694 118.15) (width 0.254) (layer F.Cu) (net 46))
  (segment (start 147.574 113.03) (end 146.05 113.03) (width 0.254) (layer F.Cu) (net 46) (tstamp 5521B4ED))
  (segment (start 152.694 118.15) (end 147.574 113.03) (width 0.254) (layer F.Cu) (net 46) (tstamp 5521B4EB))
  (segment (start 157.35 118.65) (end 152.051 118.65) (width 0.254) (layer F.Cu) (net 47))
  (segment (start 144.78 114.3) (end 143.51 115.57) (width 0.254) (layer F.Cu) (net 47) (tstamp 5521B4E7))
  (segment (start 147.701 114.3) (end 144.78 114.3) (width 0.254) (layer F.Cu) (net 47) (tstamp 5521B4E5))
  (segment (start 152.051 118.65) (end 147.701 114.3) (width 0.254) (layer F.Cu) (net 47) (tstamp 5521B4E3))
  (segment (start 160.6 112.9) (end 160.6 108.784) (width 0.254) (layer F.Cu) (net 48))
  (segment (start 154.94 103.124) (end 154.94 101.6) (width 0.254) (layer F.Cu) (net 48) (tstamp 5521AFBE))
  (segment (start 160.6 108.784) (end 154.94 103.124) (width 0.254) (layer F.Cu) (net 48) (tstamp 5521AFBC))
  (segment (start 161.1 112.9) (end 161.1 108.268) (width 0.254) (layer F.Cu) (net 49))
  (segment (start 156.21 100.33) (end 154.94 99.06) (width 0.254) (layer F.Cu) (net 49) (tstamp 5521AFC6))
  (segment (start 156.21 103.378) (end 156.21 100.33) (width 0.254) (layer F.Cu) (net 49) (tstamp 5521AFC4))
  (segment (start 161.1 108.268) (end 156.21 103.378) (width 0.254) (layer F.Cu) (net 49) (tstamp 5521AFC2))
  (segment (start 161.6 112.9) (end 161.6 107.752) (width 0.254) (layer F.Cu) (net 50))
  (segment (start 157.48 103.632) (end 157.48 101.6) (width 0.254) (layer F.Cu) (net 50) (tstamp 5521AFCC))
  (segment (start 161.6 107.752) (end 157.48 103.632) (width 0.254) (layer F.Cu) (net 50) (tstamp 5521AFCA))
  (segment (start 162.1 112.9) (end 162.1 107.363) (width 0.254) (layer F.Cu) (net 51))
  (segment (start 158.75 100.33) (end 157.48 99.06) (width 0.254) (layer F.Cu) (net 51) (tstamp 5521AFD4))
  (segment (start 158.75 104.013) (end 158.75 100.33) (width 0.254) (layer F.Cu) (net 51) (tstamp 5521AFD2))
  (segment (start 162.1 107.363) (end 158.75 104.013) (width 0.254) (layer F.Cu) (net 51) (tstamp 5521AFD0))
  (segment (start 162.6 112.9) (end 162.6 106.847) (width 0.254) (layer F.Cu) (net 52))
  (segment (start 160.02 104.267) (end 160.02 101.6) (width 0.254) (layer F.Cu) (net 52) (tstamp 5521AFDA))
  (segment (start 162.6 106.847) (end 160.02 104.267) (width 0.254) (layer F.Cu) (net 52) (tstamp 5521AFD8))
  (segment (start 163.1 112.9) (end 163.1 106.331) (width 0.254) (layer F.Cu) (net 53))
  (segment (start 161.29 100.33) (end 160.02 99.06) (width 0.254) (layer F.Cu) (net 53) (tstamp 5521AFE1))
  (segment (start 161.29 104.521) (end 161.29 100.33) (width 0.254) (layer F.Cu) (net 53) (tstamp 5521AFDF))
  (segment (start 163.1 106.331) (end 161.29 104.521) (width 0.254) (layer F.Cu) (net 53) (tstamp 5521AFDE))
  (segment (start 163.6 112.9) (end 163.6 105.942) (width 0.254) (layer F.Cu) (net 54))
  (segment (start 162.56 104.902) (end 162.56 101.6) (width 0.254) (layer F.Cu) (net 54) (tstamp 5521AFE7))
  (segment (start 163.6 105.942) (end 162.56 104.902) (width 0.254) (layer F.Cu) (net 54) (tstamp 5521AFE6))
  (segment (start 164.1 112.9) (end 164.1 105.553) (width 0.254) (layer F.Cu) (net 55))
  (segment (start 163.83 100.33) (end 162.56 99.06) (width 0.254) (layer F.Cu) (net 55) (tstamp 5521AFED))
  (segment (start 163.83 105.283) (end 163.83 100.33) (width 0.254) (layer F.Cu) (net 55) (tstamp 5521AFEC))
  (segment (start 164.1 105.553) (end 163.83 105.283) (width 0.254) (layer F.Cu) (net 55) (tstamp 5521AFEB))
  (segment (start 172.85 126.65) (end 173.132 126.65) (width 0.254) (layer F.Cu) (net 56))
  (segment (start 186.69 137.033) (end 186.69 135.89) (width 0.254) (layer F.Cu) (net 56) (tstamp 5521B320))
  (segment (start 186.055 137.668) (end 186.69 137.033) (width 0.254) (layer F.Cu) (net 56) (tstamp 5521B31F))
  (segment (start 184.912 137.668) (end 186.055 137.668) (width 0.254) (layer F.Cu) (net 56) (tstamp 5521B31D))
  (segment (start 183.007 137.668) (end 184.912 137.668) (width 0.254) (layer F.Cu) (net 56) (tstamp 5521B31C))
  (segment (start 182.372 137.033) (end 183.007 137.668) (width 0.254) (layer F.Cu) (net 56) (tstamp 5521B31B))
  (segment (start 182.372 135.636) (end 182.372 137.033) (width 0.254) (layer F.Cu) (net 56) (tstamp 5521B319))
  (segment (start 173.386 126.65) (end 182.372 135.636) (width 0.254) (layer F.Cu) (net 56) (tstamp 5521B318))
  (segment (start 172.85 126.15) (end 174.029 126.15) (width 0.254) (layer F.Cu) (net 57))
  (segment (start 183.642 135.89) (end 184.15 135.89) (width 0.254) (layer F.Cu) (net 57) (tstamp 5521B315))
  (segment (start 174.029 126.15) (end 183.8325 135.9535) (width 0.254) (layer F.Cu) (net 57) (tstamp 5521B314))
  (segment (start 172.85 117.15) (end 178.887 117.15) (width 0.254) (layer F.Cu) (net 58))
  (segment (start 183.007 113.03) (end 184.15 113.03) (width 0.254) (layer F.Cu) (net 58) (tstamp 5521B131))
  (segment (start 178.887 117.15) (end 183.007 113.03) (width 0.254) (layer F.Cu) (net 58) (tstamp 5521B12F))
  (segment (start 160.1 128.4) (end 160.1 129.714) (width 0.254) (layer F.Cu) (net 59))
  (segment (start 151.13 140.97) (end 152.4 142.24) (width 0.254) (layer F.Cu) (net 59) (tstamp 5521B3E4))
  (segment (start 151.13 138.684) (end 151.13 140.97) (width 0.254) (layer F.Cu) (net 59) (tstamp 5521B3E2))
  (segment (start 160.1 129.714) (end 151.13 138.684) (width 0.254) (layer F.Cu) (net 59) (tstamp 5521B3E1))
  (segment (start 160.6 128.4) (end 160.6 130.23) (width 0.254) (layer F.Cu) (net 60))
  (segment (start 152.4 138.43) (end 152.4 139.7) (width 0.254) (layer F.Cu) (net 60) (tstamp 5521B3DD))
  (segment (start 160.6 130.23) (end 152.4 138.43) (width 0.254) (layer F.Cu) (net 60) (tstamp 5521B3DB))
  (segment (start 157.35 114.65) (end 156.814 114.65) (width 0.254) (layer F.Cu) (net 61))
  (segment (start 143.51 104.394) (end 143.51 105.41) (width 0.254) (layer F.Cu) (net 61) (tstamp 5521B529))
  (segment (start 144.399 103.505) (end 143.51 104.394) (width 0.254) (layer F.Cu) (net 61) (tstamp 5521B528))
  (segment (start 146.939 103.505) (end 144.399 103.505) (width 0.254) (layer F.Cu) (net 61) (tstamp 5521B527))
  (segment (start 147.701 104.267) (end 146.939 103.505) (width 0.254) (layer F.Cu) (net 61) (tstamp 5521B526))
  (segment (start 147.701 105.537) (end 147.701 104.267) (width 0.254) (layer F.Cu) (net 61) (tstamp 5521B524))
  (segment (start 156.814 114.65) (end 147.701 105.537) (width 0.254) (layer F.Cu) (net 61) (tstamp 5521B523))
  (segment (start 157.35 120.15) (end 149.868 120.15) (width 0.254) (layer F.Cu) (net 62))
  (segment (start 147.828 118.11) (end 146.05 118.11) (width 0.254) (layer F.Cu) (net 62) (tstamp 5521B4B3))
  (segment (start 149.868 120.15) (end 147.828 118.11) (width 0.254) (layer F.Cu) (net 62) (tstamp 5521B4B1))
  (segment (start 157.35 120.65) (end 149.098 120.65) (width 0.254) (layer F.Cu) (net 63))
  (segment (start 144.78 119.38) (end 143.51 120.65) (width 0.254) (layer F.Cu) (net 63) (tstamp 5521B4AD))
  (segment (start 147.828 119.38) (end 144.78 119.38) (width 0.254) (layer F.Cu) (net 63) (tstamp 5521B4AB))
  (segment (start 149.098 120.65) (end 147.828 119.38) (width 0.254) (layer F.Cu) (net 63) (tstamp 5521B4AA))
  (segment (start 157.35 121.15) (end 148.328 121.15) (width 0.254) (layer F.Cu) (net 64))
  (segment (start 147.828 120.65) (end 146.05 120.65) (width 0.254) (layer F.Cu) (net 64) (tstamp 5521B46D))
  (segment (start 148.328 121.15) (end 147.828 120.65) (width 0.254) (layer F.Cu) (net 64) (tstamp 5521B46C))
  (segment (start 157.35 121.65) (end 148.336 121.65) (width 0.254) (layer F.Cu) (net 65))
  (segment (start 144.78 121.92) (end 143.51 123.19) (width 0.254) (layer F.Cu) (net 65) (tstamp 5521B468))
  (segment (start 148.066 121.92) (end 144.78 121.92) (width 0.254) (layer F.Cu) (net 65) (tstamp 5521B467))
  (segment (start 148.336 121.65) (end 148.066 121.92) (width 0.254) (layer F.Cu) (net 65) (tstamp 5521B466))
  (segment (start 157.35 122.15) (end 148.995 122.15) (width 0.254) (layer F.Cu) (net 66))
  (segment (start 147.955 123.19) (end 146.05 123.19) (width 0.254) (layer F.Cu) (net 66) (tstamp 5521B462))
  (segment (start 148.995 122.15) (end 147.955 123.19) (width 0.254) (layer F.Cu) (net 66) (tstamp 5521B461))
  (segment (start 157.35 122.65) (end 149.638 122.65) (width 0.254) (layer F.Cu) (net 67))
  (segment (start 144.78 124.46) (end 143.51 125.73) (width 0.254) (layer F.Cu) (net 67) (tstamp 5521B45D))
  (segment (start 147.828 124.46) (end 144.78 124.46) (width 0.254) (layer F.Cu) (net 67) (tstamp 5521B45B))
  (segment (start 149.638 122.65) (end 147.828 124.46) (width 0.254) (layer F.Cu) (net 67) (tstamp 5521B459))
  (segment (start 157.35 123.15) (end 150.281 123.15) (width 0.254) (layer F.Cu) (net 68))
  (segment (start 147.701 125.73) (end 146.05 125.73) (width 0.254) (layer F.Cu) (net 68) (tstamp 5521B455))
  (segment (start 150.281 123.15) (end 147.701 125.73) (width 0.254) (layer F.Cu) (net 68) (tstamp 5521B454))
  (segment (start 159.6 128.4) (end 159.6 129.325) (width 0.254) (layer F.Cu) (net 69))
  (segment (start 149.86 139.065) (end 149.86 139.7) (width 0.254) (layer F.Cu) (net 69) (tstamp 5521B3ED))
  (segment (start 159.6 129.325) (end 149.86 139.065) (width 0.254) (layer F.Cu) (net 69) (tstamp 5521B3EC))
  (segment (start 172.85 120.65) (end 180.721 120.65) (width 0.254) (layer F.Cu) (net 70))
  (segment (start 185.42 121.92) (end 186.69 120.65) (width 0.254) (layer F.Cu) (net 70) (tstamp 5521B197))
  (segment (start 181.991 121.92) (end 185.42 121.92) (width 0.254) (layer F.Cu) (net 70) (tstamp 5521B195))
  (segment (start 180.721 120.65) (end 181.991 121.92) (width 0.254) (layer F.Cu) (net 70) (tstamp 5521B194))
  (segment (start 172.85 120.15) (end 181.491 120.15) (width 0.254) (layer F.Cu) (net 71))
  (segment (start 181.991 120.65) (end 184.15 120.65) (width 0.254) (layer F.Cu) (net 71) (tstamp 5521B191))
  (segment (start 181.491 120.15) (end 181.991 120.65) (width 0.254) (layer F.Cu) (net 71) (tstamp 5521B190))
  (segment (start 172.85 119.65) (end 182.483 119.65) (width 0.254) (layer F.Cu) (net 72))
  (segment (start 185.42 119.38) (end 186.69 118.11) (width 0.254) (layer F.Cu) (net 72) (tstamp 5521B153))
  (segment (start 182.753 119.38) (end 185.42 119.38) (width 0.254) (layer F.Cu) (net 72) (tstamp 5521B152))
  (segment (start 182.483 119.65) (end 182.753 119.38) (width 0.254) (layer F.Cu) (net 72) (tstamp 5521B151))
  (segment (start 172.85 119.15) (end 181.84 119.15) (width 0.254) (layer F.Cu) (net 73))
  (segment (start 182.88 118.11) (end 184.15 118.11) (width 0.254) (layer F.Cu) (net 73) (tstamp 5521B14D))
  (segment (start 181.84 119.15) (end 182.88 118.11) (width 0.254) (layer F.Cu) (net 73) (tstamp 5521B14B))
  (segment (start 172.85 118.65) (end 181.07 118.65) (width 0.254) (layer F.Cu) (net 74))
  (segment (start 185.42 116.84) (end 186.69 115.57) (width 0.254) (layer F.Cu) (net 74) (tstamp 5521B147))
  (segment (start 182.88 116.84) (end 185.42 116.84) (width 0.254) (layer F.Cu) (net 74) (tstamp 5521B145))
  (segment (start 181.07 118.65) (end 182.88 116.84) (width 0.254) (layer F.Cu) (net 74) (tstamp 5521B143))
  (segment (start 172.85 118.15) (end 180.173 118.15) (width 0.254) (layer F.Cu) (net 75))
  (segment (start 182.753 115.57) (end 184.15 115.57) (width 0.254) (layer F.Cu) (net 75) (tstamp 5521B13F))
  (segment (start 180.173 118.15) (end 182.753 115.57) (width 0.254) (layer F.Cu) (net 75) (tstamp 5521B13D))
  (segment (start 172.85 117.65) (end 179.53 117.65) (width 0.254) (layer F.Cu) (net 76))
  (segment (start 185.42 114.3) (end 186.69 113.03) (width 0.254) (layer F.Cu) (net 76) (tstamp 5521B139))
  (segment (start 182.88 114.3) (end 185.42 114.3) (width 0.254) (layer F.Cu) (net 76) (tstamp 5521B137))
  (segment (start 179.53 117.65) (end 182.88 114.3) (width 0.254) (layer F.Cu) (net 76) (tstamp 5521B135))
  (segment (start 169.6 112.9) (end 169.6 110.689) (width 0.254) (layer F.Cu) (net 77))
  (segment (start 177.8 102.489) (end 177.8 101.6) (width 0.254) (layer F.Cu) (net 77) (tstamp 5521B094))
  (segment (start 169.6 110.689) (end 177.8 102.489) (width 0.254) (layer F.Cu) (net 77) (tstamp 5521B093))
  (segment (start 164.6 112.9) (end 164.6 103.878) (width 0.254) (layer F.Cu) (net 78))
  (segment (start 165.1 103.378) (end 165.1 101.6) (width 0.254) (layer F.Cu) (net 78) (tstamp 5521AFF2))
  (segment (start 164.6 103.878) (end 165.1 103.378) (width 0.254) (layer F.Cu) (net 78) (tstamp 5521AFF1))
  (segment (start 165.1 112.9) (end 165.1 104.521) (width 0.254) (layer F.Cu) (net 79))
  (segment (start 166.37 100.33) (end 165.1 99.06) (width 0.254) (layer F.Cu) (net 79) (tstamp 5521AFF8))
  (segment (start 166.37 103.251) (end 166.37 100.33) (width 0.254) (layer F.Cu) (net 79) (tstamp 5521AFF6))
  (segment (start 165.1 104.521) (end 166.37 103.251) (width 0.254) (layer F.Cu) (net 79) (tstamp 5521AFF5))
  (segment (start 165.6 112.9) (end 165.6 105.164) (width 0.254) (layer F.Cu) (net 80))
  (segment (start 167.64 103.124) (end 167.64 101.6) (width 0.254) (layer F.Cu) (net 80) (tstamp 5521AFFE))
  (segment (start 165.6 105.164) (end 167.64 103.124) (width 0.254) (layer F.Cu) (net 80) (tstamp 5521AFFC))
  (segment (start 166.1 112.9) (end 166.1 105.934) (width 0.254) (layer F.Cu) (net 81))
  (segment (start 168.91 100.33) (end 167.64 99.06) (width 0.254) (layer F.Cu) (net 81) (tstamp 5521B005))
  (segment (start 168.91 103.124) (end 168.91 100.33) (width 0.254) (layer F.Cu) (net 81) (tstamp 5521B003))
  (segment (start 166.1 105.934) (end 168.91 103.124) (width 0.254) (layer F.Cu) (net 81) (tstamp 5521B002))
  (segment (start 166.6 112.9) (end 166.6 106.831) (width 0.254) (layer F.Cu) (net 82))
  (segment (start 170.18 103.251) (end 170.18 101.6) (width 0.254) (layer F.Cu) (net 82) (tstamp 5521B00B))
  (segment (start 166.6 106.831) (end 170.18 103.251) (width 0.254) (layer F.Cu) (net 82) (tstamp 5521B009))
  (segment (start 167.1 112.9) (end 167.1 107.601) (width 0.254) (layer F.Cu) (net 83))
  (segment (start 171.45 100.33) (end 170.18 99.06) (width 0.254) (layer F.Cu) (net 83) (tstamp 5521B013))
  (segment (start 171.45 103.251) (end 171.45 100.33) (width 0.254) (layer F.Cu) (net 83) (tstamp 5521B011))
  (segment (start 167.1 107.601) (end 171.45 103.251) (width 0.254) (layer F.Cu) (net 83) (tstamp 5521B00F))
  (segment (start 167.6 112.9) (end 167.6 108.244) (width 0.254) (layer F.Cu) (net 84))
  (segment (start 172.72 103.124) (end 172.72 101.6) (width 0.254) (layer F.Cu) (net 84) (tstamp 5521B018))
  (segment (start 167.6 108.244) (end 172.72 103.124) (width 0.254) (layer F.Cu) (net 84) (tstamp 5521B017))
  (segment (start 168.1 112.9) (end 168.1 108.887) (width 0.254) (layer F.Cu) (net 85))
  (segment (start 173.99 100.33) (end 172.72 99.06) (width 0.254) (layer F.Cu) (net 85) (tstamp 5521B01F))
  (segment (start 173.99 102.997) (end 173.99 100.33) (width 0.254) (layer F.Cu) (net 85) (tstamp 5521B01D))
  (segment (start 168.1 108.887) (end 173.99 102.997) (width 0.254) (layer F.Cu) (net 85) (tstamp 5521B01C))
  (segment (start 163.6 128.4) (end 163.6 133.707) (width 0.254) (layer F.Cu) (net 86))
  (segment (start 160.02 137.287) (end 160.02 139.7) (width 0.254) (layer F.Cu) (net 86) (tstamp 5521B3B4))
  (segment (start 163.6 133.707) (end 160.02 137.287) (width 0.254) (layer F.Cu) (net 86) (tstamp 5521B3B2))
  (segment (start 164.1 128.4) (end 164.1 134.35) (width 0.254) (layer F.Cu) (net 87))
  (segment (start 161.29 140.97) (end 162.56 142.24) (width 0.254) (layer F.Cu) (net 87) (tstamp 5521B3AE))
  (segment (start 161.29 137.16) (end 161.29 140.97) (width 0.254) (layer F.Cu) (net 87) (tstamp 5521B3AC))
  (segment (start 164.1 134.35) (end 161.29 137.16) (width 0.254) (layer F.Cu) (net 87) (tstamp 5521B3AA))
  (segment (start 164.6 128.4) (end 164.6 134.993) (width 0.254) (layer F.Cu) (net 88))
  (segment (start 162.56 137.033) (end 162.56 139.7) (width 0.254) (layer F.Cu) (net 88) (tstamp 5521B3A6))
  (segment (start 164.6 134.993) (end 162.56 137.033) (width 0.254) (layer F.Cu) (net 88) (tstamp 5521B3A4))
  (segment (start 165.1 128.4) (end 165.1 135.763) (width 0.254) (layer F.Cu) (net 89))
  (segment (start 163.83 140.97) (end 165.1 142.24) (width 0.254) (layer F.Cu) (net 89) (tstamp 5521B3A0))
  (segment (start 163.83 137.033) (end 163.83 140.97) (width 0.254) (layer F.Cu) (net 89) (tstamp 5521B39E))
  (segment (start 165.1 135.763) (end 163.83 137.033) (width 0.254) (layer F.Cu) (net 89) (tstamp 5521B39D))
  (segment (start 165.6 128.4) (end 165.6 136.406) (width 0.254) (layer F.Cu) (net 90))
  (segment (start 165.1 136.906) (end 165.1 139.7) (width 0.254) (layer F.Cu) (net 90) (tstamp 5521B36E))
  (segment (start 165.6 136.406) (end 165.1 136.906) (width 0.254) (layer F.Cu) (net 90) (tstamp 5521B36D))
  (segment (start 166.1 128.4) (end 166.1 136.382) (width 0.254) (layer F.Cu) (net 91))
  (segment (start 166.37 140.97) (end 167.64 142.24) (width 0.254) (layer F.Cu) (net 91) (tstamp 5521B369))
  (segment (start 166.37 136.652) (end 166.37 140.97) (width 0.254) (layer F.Cu) (net 91) (tstamp 5521B368))
  (segment (start 166.1 136.382) (end 166.37 136.652) (width 0.254) (layer F.Cu) (net 91) (tstamp 5521B367))
  (segment (start 166.6 128.4) (end 166.6 135.612) (width 0.254) (layer F.Cu) (net 92))
  (segment (start 167.64 136.652) (end 167.64 139.7) (width 0.254) (layer F.Cu) (net 92) (tstamp 5521B363))
  (segment (start 166.6 135.612) (end 167.64 136.652) (width 0.254) (layer F.Cu) (net 92) (tstamp 5521B362))
  (segment (start 167.1 128.4) (end 167.1 134.969) (width 0.254) (layer F.Cu) (net 93))
  (segment (start 168.91 140.97) (end 170.18 142.24) (width 0.254) (layer F.Cu) (net 93) (tstamp 5521B35E))
  (segment (start 168.91 136.779) (end 168.91 140.97) (width 0.254) (layer F.Cu) (net 93) (tstamp 5521B35C))
  (segment (start 167.1 134.969) (end 168.91 136.779) (width 0.254) (layer F.Cu) (net 93) (tstamp 5521B35A))
  (segment (start 161.1 128.4) (end 161.1 130.873) (width 0.254) (layer F.Cu) (net 94))
  (segment (start 153.67 140.97) (end 154.94 142.24) (width 0.254) (layer F.Cu) (net 94) (tstamp 5521B3D7))
  (segment (start 153.67 138.303) (end 153.67 140.97) (width 0.254) (layer F.Cu) (net 94) (tstamp 5521B3D5))
  (segment (start 161.1 130.873) (end 153.67 138.303) (width 0.254) (layer F.Cu) (net 94) (tstamp 5521B3D3))
  (segment (start 157.35 119.15) (end 151.281 119.15) (width 0.254) (layer F.Cu) (net 95))
  (segment (start 147.701 115.57) (end 146.05 115.57) (width 0.254) (layer F.Cu) (net 95) (tstamp 5521B4DB))
  (segment (start 151.281 119.15) (end 147.701 115.57) (width 0.254) (layer F.Cu) (net 95) (tstamp 5521B4D9))
  (segment (start 161.6 128.4) (end 161.6 131.516) (width 0.254) (layer F.Cu) (net 96))
  (segment (start 154.94 138.176) (end 154.94 139.7) (width 0.254) (layer F.Cu) (net 96) (tstamp 5521B3CF))
  (segment (start 161.6 131.516) (end 154.94 138.176) (width 0.254) (layer F.Cu) (net 96) (tstamp 5521B3CE))
  (segment (start 172.85 121.65) (end 179.181 121.65) (width 0.254) (layer F.Cu) (net 97))
  (segment (start 185.42 124.46) (end 186.69 123.19) (width 0.254) (layer F.Cu) (net 97) (tstamp 5521B1A5))
  (segment (start 181.991 124.46) (end 185.42 124.46) (width 0.254) (layer F.Cu) (net 97) (tstamp 5521B1A3))
  (segment (start 179.181 121.65) (end 181.991 124.46) (width 0.254) (layer F.Cu) (net 97) (tstamp 5521B1A1))
  (segment (start 169.1 112.9) (end 169.1 110.173) (width 0.254) (layer F.Cu) (net 98))
  (segment (start 176.53 100.33) (end 175.26 99.06) (width 0.254) (layer F.Cu) (net 98) (tstamp 5521B08F))
  (segment (start 176.53 102.743) (end 176.53 100.33) (width 0.254) (layer F.Cu) (net 98) (tstamp 5521B08D))
  (segment (start 169.1 110.173) (end 176.53 102.743) (width 0.254) (layer F.Cu) (net 98) (tstamp 5521B08B))
  (segment (start 163.1 128.4) (end 163.1 133.064) (width 0.254) (layer F.Cu) (net 99))
  (segment (start 158.75 140.97) (end 160.02 142.24) (width 0.254) (layer F.Cu) (net 99) (tstamp 5521B3BC))
  (segment (start 158.75 137.414) (end 158.75 140.97) (width 0.254) (layer F.Cu) (net 99) (tstamp 5521B3BA))
  (segment (start 163.1 133.064) (end 158.75 137.414) (width 0.254) (layer F.Cu) (net 99) (tstamp 5521B3B8))
  (segment (start 162.6 128.4) (end 162.6 132.548) (width 0.254) (layer F.Cu) (net 100))
  (segment (start 157.48 137.668) (end 157.48 139.7) (width 0.254) (layer F.Cu) (net 100) (tstamp 5521B3C2))
  (segment (start 162.6 132.548) (end 157.48 137.668) (width 0.254) (layer F.Cu) (net 100) (tstamp 5521B3C0))

)
