EESchema Schematic File Version 2
LIBS:power
LIBS:Components
LIBS:Connectors
LIBS:Devices
LIBS:LCD-Board-cache
EELAYER 27 0
EELAYER END
$Descr A4 11693 8268
encoding utf-8
Sheet 1 1
Title "mbed-Board"
Date "10 mar 2015"
Rev ""
Comp ""
Comment1 ""
Comment2 ""
Comment3 ""
Comment4 ""
$EndDescr
Text Label 2100 2000 1    60   ~ 0
P5
Text Label 2000 2000 1    60   ~ 0
P4
Text Label 1400 2000 1    60   ~ 0
P2
Text Label 1200 2000 1    60   ~ 0
P0
Text Label 2300 2000 1    60   ~ 0
P7
Text Label 2200 2000 1    60   ~ 0
P6
NoConn ~ 1900 1800
NoConn ~ 1600 1800
NoConn ~ 1700 1800
NoConn ~ 1800 1800
$Comp
L +5V #PWR5
U 1 1 531C29BA
P 2400 2050
F 0 "#PWR5" H 2400 2140 20  0001 C CNN
F 1 "+5V" H 2400 2140 30  0000 C CNN
F 2 "" H 2400 2050 60  0001 C CNN
F 3 "" H 2400 2050 60  0001 C CNN
	1    2400 2050
	1    0    0    -1  
$EndComp
Text Label 1300 2000 1    60   ~ 0
P1
Text Label 1250 2450 0    60   ~ 0
P0
Text Label 1850 2450 0    60   ~ 0
P1
Text Label 1250 2550 0    60   ~ 0
P2
Text Label 1250 2650 0    60   ~ 0
P4
Text Label 1850 2650 0    60   ~ 0
P5
Text Label 1250 2750 0    60   ~ 0
P6
Text Label 1850 2750 0    60   ~ 0
P7
$Comp
L GND #PWR1
U 1 1 537DE4B8
P 700 2250
F 0 "#PWR1" H 700 2250 30  0001 C CNN
F 1 "GND" H 700 2180 30  0001 C CNN
F 2 "" H 700 2250 60  0000 C CNN
F 3 "" H 700 2250 60  0000 C CNN
	1    700  2250
	1    0    0    -1  
$EndComp
NoConn ~ 1850 2550
$Comp
L +5V #PWR2
U 1 1 53132F54
P 800 2050
F 0 "#PWR2" H 800 2140 20  0001 C CNN
F 1 "+5V" H 800 2140 30  0000 C CNN
F 2 "" H 800 2050 60  0001 C CNN
F 3 "" H 800 2050 60  0001 C CNN
	1    800  2050
	1    0    0    -1  
$EndComp
$Comp
L PWR_FLAG #FLG2
U 1 1 537DE5D5
P 2150 2950
F 0 "#FLG2" H 2150 3045 30  0001 C CNN
F 1 "PWR_FLAG" H 2150 3130 30  0000 C CNN
F 2 "" H 2150 2950 60  0000 C CNN
F 3 "" H 2150 2950 60  0000 C CNN
	1    2150 2950
	-1   0    0    1   
$EndComp
$Comp
L GND #PWR4
U 1 1 537DE4C7
P 2050 2950
F 0 "#PWR4" H 2050 2950 30  0001 C CNN
F 1 "GND" H 2050 2880 30  0001 C CNN
F 2 "" H 2050 2950 60  0000 C CNN
F 3 "" H 2050 2950 60  0000 C CNN
	1    2050 2950
	1    0    0    -1  
$EndComp
$Comp
L PWR_FLAG #FLG1
U 1 1 537DE57F
P 1050 2650
F 0 "#FLG1" H 1050 2745 30  0001 C CNN
F 1 "PWR_FLAG" H 1050 2830 30  0000 C CNN
F 2 "" H 1050 2650 60  0000 C CNN
F 3 "" H 1050 2650 60  0000 C CNN
	1    1050 2650
	1    0    0    -1  
$EndComp
$Comp
L +5V #PWR3
U 1 1 537DF359
P 1150 2750
F 0 "#PWR3" H 1150 2840 20  0001 C CNN
F 1 "+5V" H 1150 2840 30  0000 C CNN
F 2 "" H 1150 2750 60  0000 C CNN
F 3 "" H 1150 2750 60  0000 C CNN
	1    1150 2750
	1    0    0    -1  
$EndComp
Wire Wire Line
	2400 2100 2500 2100
Wire Wire Line
	2400 2050 2400 2100
Wire Wire Line
	2500 2100 2500 1800
Wire Wire Line
	2600 2200 2600 1800
Connection ~ 1000 2200
Connection ~ 700  2200
Wire Wire Line
	700  2200 2600 2200
Wire Wire Line
	1000 1800 1000 2200
Wire Wire Line
	800  1900 700  1900
Wire Wire Line
	800  2100 900  2100
Wire Wire Line
	800  2050 800  2100
Wire Wire Line
	2100 1800 2100 2000
Wire Wire Line
	2300 1800 2300 2000
Wire Wire Line
	1400 1800 1400 2000
Wire Wire Line
	1200 1800 1200 2000
Wire Wire Line
	700  1900 700  2250
Wire Wire Line
	2200 1800 2200 2000
Wire Wire Line
	2000 1800 2000 2000
Wire Wire Line
	1300 1800 1300 2000
Wire Wire Line
	1250 2450 1350 2450
Wire Wire Line
	1250 2550 1350 2550
Wire Wire Line
	1250 2650 1350 2650
Wire Wire Line
	1250 2750 1350 2750
Wire Wire Line
	1850 2450 1950 2450
Wire Wire Line
	1850 2650 1950 2650
Wire Wire Line
	1850 2750 1950 2750
Wire Wire Line
	1150 2750 1150 2850
Wire Wire Line
	2050 2850 2050 2950
Connection ~ 1150 2850
Wire Wire Line
	2150 2850 2150 2950
Wire Wire Line
	800  1800 800  1900
Wire Wire Line
	1050 2650 1050 2850
Wire Wire Line
	1050 2850 1350 2850
Wire Wire Line
	900  2100 900  1800
Wire Wire Line
	1850 2850 2150 2850
Connection ~ 2050 2850
$Comp
L HEADER-5X2 P1
U 1 1 54FEAFDC
P 1600 2650
F 0 "P1" V 1550 2650 40  0000 C CNN
F 1 "HEADER-5X2" V 1650 2650 40  0000 C CNN
F 2 "~" H 1600 2650 60  0000 C CNN
F 3 "~" H 1600 2650 60  0000 C CNN
	1    1600 2650
	1    0    0    -1  
$EndComp
$Comp
L LCD-16X2 LCD1
U 1 1 54FEB56A
P 1750 1150
F 0 "LCD1" H 695 1598 40  0000 C CNN
F 1 "LCD-16X2" H 780 1540 40  0000 C CNN
F 2 "LCD-16X2" H 780 1540 40  0000 C CNN
F 3 "~" H 1775 1353 60  0000 C CNN
	1    1750 1150
	1    0    0    -1  
$EndComp
$EndSCHEMATC
