PCBNEW-LibModule-V1  Tue Sep  1 09:24:28 2015
# encoding utf-8
Units mm
$INDEX
3mm-Hole
AUDIO-JACK-3.5
CR2032-HORIZONTAL
CR2032-SMD
CR2032-VERTICAL
DB9-FEMALE
DC-JACK
HEADER-10X1
HEADER-10X2
HEADER-11X2
HEADER-12X1
HEADER-12X2
HEADER-13X1
HEADER-13X2
HEADER-16X1
HEADER-18X1
HEADER-18X2
HEADER-1X1
HEADER-20X1
HEADER-20X2
HEADER-22X1
HEADER-22X2
HEADER-23X2
HEADER-24X2
HEADER-25X1
HEADER-2X1
HEADER-3X1
HEADER-3X2
HEADER-4X1
HEADER-5MIL-18X2
HEADER-5X1
HEADER-5X2
HEADER-6X1
HEADER-6X2
HEADER-7X1
HEADER-8X1
HEADER-9X1
HEADER-9X2
IDC-5X2
TESTPOINT
TOKEN-KEYPAD-INTERFACE
TOKEN-KEYPAD-INTERFACE-BOTTOM
TOKEN-KEYPAD-INTERFACE-BOTTOM-TUNED
TOKEN-KEYPAD-INTERFACE-BOTTOM-V2
TOKEN-KEYPAD-INTERFACE-TOP
TOKEN-KEYPAD-INTERFACE2
TOKEN-KEYPAD-INTERFACE3
TOKEN-KEYPAD-INTERFACE4
USB-MINI-B
VIA
$EndINDEX
$MODULE 3mm-Hole
Po 0 0 0 15 54FA8D82 00000000 ~~
Li 3mm-Hole
Cd 3mm-Hole
Kw Connector
Sc 0
AR 1pin
Op 0 0 0
T0 0 0.254 0.127 0.127 0 0.000001 N I 21 N "P**"
T1 0 -0.254 0.127 0.127 0 0.000001 N I 21 N "3mm-Hole"
$PAD
Sh "" C 4.064 4.064 0 0 0
Dr 3.048 0 0
At STD N 00C0FFFF
Ne 0 ""
Po 0 0
$EndPAD
$EndMODULE 3mm-Hole
$MODULE AUDIO-JACK-3.5
Po 0 0 0 15 54FA2FA6 00000000 ~~
Li AUDIO-JACK-3.5
Cd 3.5 mm Audio Jack
Kw Audio Jack
Sc 0
AR PWR-Jack
Op 0 0 0
T0 0 -4.826 0.127 0.127 0 0.000001 N I 21 N "CON**"
T1 0 -5.08 0.127 0.127 0 0.000001 N I 21 N "AUDIO-JACK-3.5"
DS -7.404 3.984 6.796 3.984 0.3048 21
DS -7.404 -4.416 -7.404 3.984 0.3048 21
DS -11.604 -4.416 -11.604 1.584 0.3048 21
DS -11.604 1.584 -7.404 1.584 0.3048 21
DS 6.796 -4.416 6.796 3.984 0.3048 21
DS 6.796 -4.416 -11.604 -4.416 0.3048 21
$PAD
Sh "5" C 1.8 1.8 0 0 0
Dr 0.508 0 0 O 0.508 1.5
At STD N 00C0FFFF
Ne 0 ""
Po -3.704 -2.016
$EndPAD
$PAD
Sh "3" C 1.8 1.8 0 0 0
Dr 0.508 0 0 O 0.508 1.5
At STD N 00C0FFFF
Ne 0 ""
Po -6.104 -0.016
$EndPAD
$PAD
Sh "2" C 1.8 1.8 0 0 0
Dr 0.508 0 0 O 0.508 1.5
At STD N 00C0FFFF
Ne 0 ""
Po 2.396 -2.016
$EndPAD
$PAD
Sh "1" C 1.8 1.8 0 0 0
Dr 0.508 0 0 O 0.508 1.5
At STD N 00C0FFFF
Ne 0 ""
Po 5.496 -0.016
$EndPAD
$PAD
Sh "4" C 1.8 1.8 0 0 0
Dr 0.508 0 0 O 0.508 1.5
At STD N 00C0FFFF
Ne 0 ""
Po -0.004 -0.016
$EndPAD
$EndMODULE AUDIO-JACK-3.5
$MODULE CR2032-HORIZONTAL
Po 0 0 0 15 5509A14A 00000000 ~~
Li CR2032-HORIZONTAL
Sc 0
AR 
Op 0 0 0
T0 0 -0.635 0.127 0.127 0 0.000001 N I 21 N "CR2032-HORIZONTAL"
T1 0 0.635 0.127 0.127 0 0.000001 N I 21 N "VAL**"
DS 15.24 3.81 15.24 5.08 0.381 21
DS 14.605 4.445 15.875 4.445 0.381 21
DS 10.795 -2.54 17.145 -2.54 0.381 21
DS 17.145 -2.54 17.145 2.54 0.381 21
DS 17.145 2.54 10.795 2.54 0.381 21
DS 17.145 -3.175 17.78 -3.175 0.381 21
DS 17.78 -3.175 17.78 3.175 0.381 21
DS 17.78 3.175 17.145 3.175 0.381 21
DS 15.875 -3.175 17.145 -3.175 0.381 21
DS 17.145 3.175 10.795 3.175 0.381 21
DS 10.795 -3.175 15.875 -3.175 0.381 21
DC 0 0 -1.27 -8.89 0.381 21
DC 0 0 6.35 8.89 0.381 21
$PAD
Sh "2" C 2.286 2.286 0 0 0
Dr 1.016 0 0
At STD N 00E0FFFF
Ne 0 ""
Po -7.62 0
$EndPAD
$PAD
Sh "1" C 2.286 2.286 0 0 0
Dr 1.016 0 0
At STD N 00E0FFFF
Ne 0 ""
Po 15.24 0
$EndPAD
$EndMODULE CR2032-HORIZONTAL
$MODULE CR2032-SMD
Po 0 0 0 15 5509A141 00000000 ~~
Li CR2032-SMD
Sc 0
AR 
Op 0 0 0
T0 0 -0.635 0.127 0.127 0 0.000001 N I 21 N "CR2032-SMD"
T1 0 0.635 0.127 0.127 0 0.000001 N I 21 N "VAL**"
DC 0 0 -1.27 -8.89 0.381 21
DC 0 0 6.35 8.89 0.381 21
$PAD
Sh "1" O 1.27 3.5 0 0 0
Dr 1.016 0 0
At STD N 00E0FFFF
Ne 0 ""
Po -10.5 0
$EndPAD
$PAD
Sh "1" O 3.5 1.27 0 0 0
Dr 1.016 0 0
At STD N 00E0FFFF
Ne 0 ""
Po 0 -10.5
$EndPAD
$PAD
Sh "1" O 1.27 3.5 0 0 0
Dr 1 0 0
At STD N 00E0FFFF
Ne 0 ""
Po 10.5 0
$EndPAD
$PAD
Sh "2" R 6.5 1.27 0 0 0
Dr 1 0 0
At STD N 00E0FFFF
Ne 0 ""
Po 0 10.5
$EndPAD
$EndMODULE CR2032-SMD
$MODULE CR2032-VERTICAL
Po 0 0 0 15 5509A164 00000000 ~~
Li CR2032-VERTICAL
Sc 0
AR 
Op 0 0 0
T0 0 -4.445 0.127 0.127 0 0.000001 N I 21 N "CR2032-VERTICAL"
T1 0 -3.81 0.127 0.127 0 0.000001 N I 21 N "VAL**"
DS -12.065 -3.302 12.065 -3.302 0.381 21
DS 1.778 -1.778 2.794 -1.778 0.381 21
DS 7.874 2.286 7.874 1.27 0.381 21
DS 7.366 1.778 8.382 1.778 0.381 21
DS 12.065 3.175 12.065 -3.175 0.381 21
DS 12.065 -2.667 -12.065 -2.667 0.381 21
DS -12.065 -3.175 -12.065 3.175 0.381 21
DS -12.065 3.175 12.065 3.175 0.381 21
$PAD
Sh "1" C 2.286 2.286 0 0 0
Dr 1.27 0 0
At STD N 00E0FFFF
Ne 0 ""
Po -5.08 1.778
$EndPAD
$PAD
Sh "1" C 2.286 2.286 0 0 0
Dr 1.27 0 0
At STD N 00E0FFFF
Ne 0 ""
Po 5.08 1.778
$EndPAD
$PAD
Sh "2" C 2.286 2.286 0 0 0
Dr 1.27 0 0
At STD N 00E0FFFF
Ne 0 ""
Po 0 -1.524
$EndPAD
$EndMODULE CR2032-VERTICAL
$MODULE DB9-FEMALE
Po 0 0 0 15 54FA301E 00000000 ~~
Li DB9-FEMALE
Cd DB9 Female Connector
Kw Connector
Sc 0
AR 
Op 0 0 0
T0 0 -8.128 0.127 0.127 0 0.000001 N I 21 N "CON**"
T1 0 -8.382 0.127 0.127 0 0.000001 N I 21 N "DB9-FEMALE"
DS -16.51 9.017 16.51 9.017 0.3048 21
DS 16.51 9.017 16.51 -4.443 0.3048 21
DS 16.51 -4.443 -16.51 -4.443 0.3048 21
DS -16.51 -4.443 -16.51 9.017 0.3048 21
DS -9.144 9.017 -9.144 -1.443 0.3048 21
DS -16.51 -1.443 16.51 -1.443 0.3048 21
DS 9.144 -1.443 9.144 9.017 0.3048 21
DS -7.62 -4.443 -7.62 -10.443 0.3048 21
DS -7.62 -10.443 7.62 -10.443 0.3048 21
DS 7.62 -10.443 7.62 -4.443 0.3048 21
$PAD
Sh "" C 3.81 3.81 0 0 0
Dr 3.048 0 0
At STD N 00C0FFFF
Ne 0 ""
Po 12.5 5.057
$EndPAD
$PAD
Sh "" C 3.81 3.81 0 0 0
Dr 3.048 0 0
At STD N 00C0FFFF
Ne 0 ""
Po -12.5 5.057
$EndPAD
$PAD
Sh "1" R 1.524 1.524 0 0 0
Dr 1.016 0 0
At STD N 00C0FFFF
Ne 0 ""
Po -5.49 7.747
$EndPAD
$PAD
Sh "2" C 1.524 1.524 0 0 0
Dr 1.016 0 0
At STD N 00C0FFFF
Ne 0 ""
Po -2.74 7.747
$EndPAD
$PAD
Sh "3" C 1.524 1.524 0 0 0
Dr 1.016 0 0
At STD N 00C0FFFF
Ne 0 ""
Po 0 7.747
$EndPAD
$PAD
Sh "4" C 1.524 1.524 0 0 0
Dr 1.016 0 0
At STD N 00C0FFFF
Ne 0 ""
Po 2.74 7.747
$EndPAD
$PAD
Sh "5" C 1.524 1.524 0 0 0
Dr 1.016 0 0
At STD N 00C0FFFF
Ne 0 ""
Po 5.49 7.747
$EndPAD
$PAD
Sh "6" C 1.524 1.524 0 0 0
Dr 1.016 0 0
At STD N 00C0FFFF
Ne 0 ""
Po -4.11 4.907
$EndPAD
$PAD
Sh "7" C 1.524 1.524 0 0 0
Dr 1.016 0 0
At STD N 00C0FFFF
Ne 0 ""
Po -1.37 4.907
$EndPAD
$PAD
Sh "8" C 1.524 1.524 0 0 0
Dr 1.016 0 0
At STD N 00C0FFFF
Ne 0 ""
Po 1.37 4.907
$EndPAD
$PAD
Sh "9" C 1.524 1.524 0 0 0
Dr 1.016 0 0
At STD N 00C0FFFF
Ne 0 ""
Po 4.11 4.907
$EndPAD
$SHAPE3D
Na "conn_DBxx/db9_female_pin90deg.wrl"
Sc 1 1 1
Of 0 0 0
Ro 0 0 0
$EndSHAPE3D
$EndMODULE DB9-FEMALE
$MODULE DC-JACK
Po 0 0 0 15 54FA2FC7 00000000 ~~
Li DC-JACK
Cd DC Jack
Kw Power Jack
Sc 0
AR PWR-Jack
Op 0 0 0
T0 0 -4.826 0.127 0.127 0 0.000001 N I 21 N "CON**"
T1 0 -5.08 0.127 0.127 0 0.000001 N I 21 N "DC-JACK"
DS -3.75158 -4.50088 -3.75158 4.50088 0.3048 21
DS -7.24916 -4.50088 -7.24916 4.50088 0.3048 21
DS -7.24916 4.50088 7.24916 4.50088 0.3048 21
DS 7.24916 4.50088 7.24916 -4.50088 0.3048 21
DS 7.24916 -4.50088 -7.24916 -4.50088 0.3048 21
$PAD
Sh "1" R 3.50012 3.50012 0 0 0
Dr 1.016 0 0 O 1.016 3.048
At STD N 00C0FFFF
Ne 0 ""
Po 6.44906 0
$EndPAD
$PAD
Sh "2" R 3.50012 3.50012 0 0 0
Dr 1.016 0 0 O 1.016 3.048
At STD N 00C0FFFF
Ne 0 ""
Po 0.44958 0
$EndPAD
$PAD
Sh "3" R 3.50012 3.50012 0 0 0
Dr 3.048 0 0 O 3.048 1.016
At STD N 00C0FFFF
Ne 0 ""
Po 3.44932 4.699
$EndPAD
$EndMODULE DC-JACK
$MODULE HEADER-10X1
Po 0 0 0 15 54FA3150 00000000 ~~
Li HEADER-10X1
Cd 10x1-Pin Connector
Kw Connector
Sc 0
AR 
Op 0 0 0
T0 0 -1.524 0.127 0.127 0 0.000001 N I 21 N "CON**"
T1 0 -1.778 0.127 0.127 0 0.000001 N I 21 N "HEADER-10X1"
DS -12.7 1.27 -12.7 -1.27 0.3048 21
DS -12.7 -1.27 12.7 -1.27 0.3048 21
DS 12.7 -1.27 12.7 1.27 0.3048 21
DS 12.7 1.27 -12.7 1.27 0.3048 21
DS -10.16 1.27 -10.16 -1.27 0.3048 21
$PAD
Sh "1" R 1.524 1.524 0 0 0
Dr 1.016 0 0
At STD N 00C0FFFF
Ne 0 ""
Po -11.43 0
$EndPAD
$PAD
Sh "2" C 1.524 1.524 0 0 0
Dr 1.016 0 0
At STD N 00C0FFFF
Ne 0 ""
Po -8.89 0
$EndPAD
$PAD
Sh "3" C 1.524 1.524 0 0 0
Dr 1.016 0 0
At STD N 00C0FFFF
Ne 0 ""
Po -6.35 0
$EndPAD
$PAD
Sh "4" C 1.524 1.524 0 0 0
Dr 1.016 0 0
At STD N 00C0FFFF
Ne 0 ""
Po -3.81 0
$EndPAD
$PAD
Sh "5" C 1.524 1.524 0 0 0
Dr 1.016 0 0
At STD N 00C0FFFF
Ne 0 ""
Po -1.27 0
$EndPAD
$PAD
Sh "6" C 1.524 1.524 0 0 0
Dr 1.016 0 0
At STD N 00C0FFFF
Ne 0 ""
Po 1.27 0
$EndPAD
$PAD
Sh "7" C 1.524 1.524 0 0 0
Dr 1.016 0 0
At STD N 00C0FFFF
Ne 0 ""
Po 3.81 0
$EndPAD
$PAD
Sh "8" C 1.524 1.524 0 0 0
Dr 1.016 0 0
At STD N 00C0FFFF
Ne 0 ""
Po 6.35 0
$EndPAD
$PAD
Sh "9" C 1.524 1.524 0 0 0
Dr 1.016 0 0
At STD N 00C0FFFF
Ne 0 ""
Po 8.89 0
$EndPAD
$PAD
Sh "10" C 1.524 1.524 0 0 0
Dr 1.016 0 0
At STD N 00C0FFFF
Ne 0 ""
Po 11.43 0
$EndPAD
$EndMODULE HEADER-10X1
$MODULE HEADER-10X2
Po 0 0 0 15 551B5C1F 00000000 ~~
Li HEADER-10X2
Cd 10x2-Pin Connector
Kw Connector
Sc 0
AR 
Op 0 0 0
T0 0 -2.794 0.127 0.127 0 0.000001 N I 21 N "CON**"
T1 0 -3.048 0.127 0.127 0 0.000001 N I 21 N "HEADER-10X2"
DS -12.7 -2.54 12.7 -2.54 0.3048 21
DS 12.7 -2.54 12.7 2.54 0.3048 21
DS 12.7 2.54 -12.7 2.54 0.3048 21
DS -12.7 2.54 -12.7 -2.54 0.3048 21
$PAD
Sh "1" R 1.524 1.524 0 0 0
Dr 1.016 0 0
At STD N 00C0FFFF
Ne 0 ""
Po -11.43 1.27
$EndPAD
$PAD
Sh "14" C 1.524 1.524 0 0 0
Dr 1.016 0 0
At STD N 00C0FFFF
Ne 0 ""
Po 3.81 -1.27
$EndPAD
$PAD
Sh "15" C 1.524 1.524 0 0 0
Dr 1.016 0 0
At STD N 00C0FFFF
Ne 0 ""
Po 6.35 1.27
$EndPAD
$PAD
Sh "16" C 1.524 1.524 0 0 0
Dr 1.016 0 0
At STD N 00C0FFFF
Ne 0 ""
Po 6.35 -1.27
$EndPAD
$PAD
Sh "17" C 1.524 1.524 0 0 0
Dr 1.016 0 0
At STD N 00C0FFFF
Ne 0 ""
Po 8.89 1.27
$EndPAD
$PAD
Sh "18" C 1.524 1.524 0 0 0
Dr 1.016 0 0
At STD N 00C0FFFF
Ne 0 ""
Po 8.89 -1.27
$EndPAD
$PAD
Sh "19" C 1.524 1.524 0 0 0
Dr 1.016 0 0
At STD N 00C0FFFF
Ne 0 ""
Po 11.43 1.27
$EndPAD
$PAD
Sh "20" C 1.524 1.524 0 0 0
Dr 1.016 0 0
At STD N 00C0FFFF
Ne 0 ""
Po 11.43 -1.27
$EndPAD
$PAD
Sh "13" C 1.524 1.524 0 0 0
Dr 1.016 0 0
At STD N 00C0FFFF
Ne 0 ""
Po 3.81 1.27
$EndPAD
$PAD
Sh "2" C 1.524 1.524 0 0 0
Dr 1.016 0 0
At STD N 00C0FFFF
Ne 0 ""
Po -11.43 -1.27
$EndPAD
$PAD
Sh "3" C 1.524 1.524 0 0 0
Dr 1.016 0 0
At STD N 00C0FFFF
Ne 0 ""
Po -8.89 1.27
$EndPAD
$PAD
Sh "4" C 1.524 1.524 0 0 0
Dr 1.016 0 0
At STD N 00C0FFFF
Ne 0 ""
Po -8.89 -1.27
$EndPAD
$PAD
Sh "5" C 1.524 1.524 0 0 0
Dr 1.016 0 0
At STD N 00C0FFFF
Ne 0 ""
Po -6.35 1.27
$EndPAD
$PAD
Sh "6" C 1.524 1.524 0 0 0
Dr 1.016 0 0
At STD N 00C0FFFF
Ne 0 ""
Po -6.35 -1.27
$EndPAD
$PAD
Sh "7" C 1.524 1.524 0 0 0
Dr 1.016 0 0
At STD N 00C0FFFF
Ne 0 ""
Po -3.81 1.27
$EndPAD
$PAD
Sh "8" C 1.524 1.524 0 0 0
Dr 1.016 0 0
At STD N 00C0FFFF
Ne 0 ""
Po -3.81 -1.27
$EndPAD
$PAD
Sh "9" C 1.524 1.524 0 0 0
Dr 1.016 0 0
At STD N 00C0FFFF
Ne 0 ""
Po -1.27 1.27
$EndPAD
$PAD
Sh "10" C 1.524 1.524 0 0 0
Dr 1.016 0 0
At STD N 00C0FFFF
Ne 0 ""
Po -1.27 -1.27
$EndPAD
$PAD
Sh "11" C 1.524 1.524 0 0 0
Dr 1.016 0 0
At STD N 00C0FFFF
Ne 0 ""
Po 1.27 1.27
$EndPAD
$PAD
Sh "12" C 1.524 1.524 0 0 0
Dr 1.016 0 0
At STD N 00C0FFFF
Ne 0 ""
Po 1.27 -1.27
$EndPAD
$SHAPE3D
Na "pin_array/pins_array_5x2.wrl"
Sc 1 1 1
Of 0 0 0
Ro 0 0 0
$EndSHAPE3D
$EndMODULE HEADER-10X2
$MODULE HEADER-11X2
Po 0 0 0 15 551B5BEE 00000000 ~~
Li HEADER-11X2
Cd 11x2-Pin Connector
Kw Connector
Sc 0
AR 
Op 0 0 0
T0 0 -2.794 0.127 0.127 0 0.000001 N I 21 N "CON**"
T1 0 -3.048 0.127 0.127 0 0.000001 N I 21 N "HEADER-11X2"
DS -13.97 -2.54 13.97 -2.54 0.3048 21
DS 13.97 -2.54 13.97 2.54 0.3048 21
DS 13.97 2.54 -13.97 2.54 0.3048 21
DS -13.97 2.54 -13.97 -2.54 0.3048 21
$PAD
Sh "1" R 1.524 1.524 0 0 0
Dr 1.016 0 0
At STD N 00C0FFFF
Ne 0 ""
Po -12.7 1.27
$EndPAD
$PAD
Sh "14" C 1.524 1.524 0 0 0
Dr 1.016 0 0
At STD N 00C0FFFF
Ne 0 ""
Po 2.54 -1.27
$EndPAD
$PAD
Sh "15" C 1.524 1.524 0 0 0
Dr 1.016 0 0
At STD N 00C0FFFF
Ne 0 ""
Po 5.08 1.27
$EndPAD
$PAD
Sh "16" C 1.524 1.524 0 0 0
Dr 1.016 0 0
At STD N 00C0FFFF
Ne 0 ""
Po 5.08 -1.27
$EndPAD
$PAD
Sh "17" C 1.524 1.524 0 0 0
Dr 1.016 0 0
At STD N 00C0FFFF
Ne 0 ""
Po 7.62 1.27
$EndPAD
$PAD
Sh "18" C 1.524 1.524 0 0 0
Dr 1.016 0 0
At STD N 00C0FFFF
Ne 0 ""
Po 7.62 -1.27
$EndPAD
$PAD
Sh "19" C 1.524 1.524 0 0 0
Dr 1.016 0 0
At STD N 00C0FFFF
Ne 0 ""
Po 10.16 1.27
$EndPAD
$PAD
Sh "20" C 1.524 1.524 0 0 0
Dr 1.016 0 0
At STD N 00C0FFFF
Ne 0 ""
Po 10.16 -1.27
$EndPAD
$PAD
Sh "21" C 1.524 1.524 0 0 0
Dr 1.016 0 0
At STD N 00C0FFFF
Ne 0 ""
Po 12.7 1.27
$EndPAD
$PAD
Sh "22" C 1.524 1.524 0 0 0
Dr 1.016 0 0
At STD N 00C0FFFF
Ne 0 ""
Po 12.7 -1.27
$EndPAD
$PAD
Sh "13" C 1.524 1.524 0 0 0
Dr 1.016 0 0
At STD N 00C0FFFF
Ne 0 ""
Po 2.54 1.27
$EndPAD
$PAD
Sh "2" C 1.524 1.524 0 0 0
Dr 1.016 0 0
At STD N 00C0FFFF
Ne 0 ""
Po -12.7 -1.27
$EndPAD
$PAD
Sh "3" C 1.524 1.524 0 0 0
Dr 1.016 0 0
At STD N 00C0FFFF
Ne 0 ""
Po -10.16 1.27
$EndPAD
$PAD
Sh "4" C 1.524 1.524 0 0 0
Dr 1.016 0 0
At STD N 00C0FFFF
Ne 0 ""
Po -10.16 -1.27
$EndPAD
$PAD
Sh "5" C 1.524 1.524 0 0 0
Dr 1.016 0 0
At STD N 00C0FFFF
Ne 0 ""
Po -7.62 1.27
$EndPAD
$PAD
Sh "6" C 1.524 1.524 0 0 0
Dr 1.016 0 0
At STD N 00C0FFFF
Ne 0 ""
Po -7.62 -1.27
$EndPAD
$PAD
Sh "7" C 1.524 1.524 0 0 0
Dr 1.016 0 0
At STD N 00C0FFFF
Ne 0 ""
Po -5.08 1.27
$EndPAD
$PAD
Sh "8" C 1.524 1.524 0 0 0
Dr 1.016 0 0
At STD N 00C0FFFF
Ne 0 ""
Po -5.08 -1.27
$EndPAD
$PAD
Sh "9" C 1.524 1.524 0 0 0
Dr 1.016 0 0
At STD N 00C0FFFF
Ne 0 ""
Po -2.54 1.27
$EndPAD
$PAD
Sh "10" C 1.524 1.524 0 0 0
Dr 1.016 0 0
At STD N 00C0FFFF
Ne 0 ""
Po -2.54 -1.27
$EndPAD
$PAD
Sh "11" C 1.524 1.524 0 0 0
Dr 1.016 0 0
At STD N 00C0FFFF
Ne 0 ""
Po 0 1.27
$EndPAD
$PAD
Sh "12" C 1.524 1.524 0 0 0
Dr 1.016 0 0
At STD N 00C0FFFF
Ne 0 ""
Po 0 -1.27
$EndPAD
$SHAPE3D
Na "pin_array/pins_array_5x2.wrl"
Sc 1 1 1
Of 0 0 0
Ro 0 0 0
$EndSHAPE3D
$EndMODULE HEADER-11X2
$MODULE HEADER-12X1
Po 0 0 0 15 54FC07F0 00000000 ~~
Li HEADER-12X1
Cd 12x1-Pin Connector
Kw Connector
Sc 0
AR 
Op 0 0 0
T0 0 -1.524 0.127 0.127 0 0.000001 N I 21 N "CON**"
T1 0 -1.778 0.127 0.127 0 0.000001 N I 21 N "HEADER-12X1"
DS -15.24 1.27 -15.24 -1.27 0.3048 21
DS -15.24 -1.27 15.24 -1.27 0.3048 21
DS 15.24 -1.27 15.24 1.27 0.3048 21
DS 15.24 1.27 -15.24 1.27 0.3048 21
DS -12.7 1.27 -12.7 -1.27 0.3048 21
$PAD
Sh "1" R 1.524 1.524 0 0 0
Dr 1.016 0 0
At STD N 00C0FFFF
Ne 0 ""
Po -13.97 0
$EndPAD
$PAD
Sh "2" C 1.524 1.524 0 0 0
Dr 1.016 0 0
At STD N 00C0FFFF
Ne 0 ""
Po -11.43 0
$EndPAD
$PAD
Sh "3" C 1.524 1.524 0 0 0
Dr 1.016 0 0
At STD N 00C0FFFF
Ne 0 ""
Po -8.89 0
$EndPAD
$PAD
Sh "4" C 1.524 1.524 0 0 0
Dr 1.016 0 0
At STD N 00C0FFFF
Ne 0 ""
Po -6.35 0
$EndPAD
$PAD
Sh "5" C 1.524 1.524 0 0 0
Dr 1.016 0 0
At STD N 00C0FFFF
Ne 0 ""
Po -3.81 0
$EndPAD
$PAD
Sh "6" C 1.524 1.524 0 0 0
Dr 1.016 0 0
At STD N 00C0FFFF
Ne 0 ""
Po -1.27 0
$EndPAD
$PAD
Sh "7" C 1.524 1.524 0 0 0
Dr 1.016 0 0
At STD N 00C0FFFF
Ne 0 ""
Po 1.27 0
$EndPAD
$PAD
Sh "8" C 1.524 1.524 0 0 0
Dr 1.016 0 0
At STD N 00C0FFFF
Ne 0 ""
Po 3.81 0
$EndPAD
$PAD
Sh "9" C 1.524 1.524 0 0 0
Dr 1.016 0 0
At STD N 00C0FFFF
Ne 0 ""
Po 6.35 0
$EndPAD
$PAD
Sh "10" C 1.524 1.524 0 0 0
Dr 1.016 0 0
At STD N 00C0FFFF
Ne 0 ""
Po 8.89 0
$EndPAD
$PAD
Sh "11" C 1.524 1.524 0 0 0
Dr 1.016 0 0
At STD N 00C0FFFF
Ne 0 ""
Po 11.43 0
$EndPAD
$PAD
Sh "12" C 1.524 1.524 0 0 0
Dr 1.016 0 0
At STD N 00C0FFFF
Ne 0 ""
Po 13.97 0
$EndPAD
$EndMODULE HEADER-12X1
$MODULE HEADER-12X2
Po 0 0 0 15 551B5BA0 00000000 ~~
Li HEADER-12X2
Cd 12x2-Pin Connector
Kw Connector
Sc 0
AR 
Op 0 0 0
T0 0 -2.794 0.127 0.127 0 0.000001 N I 21 N "CON**"
T1 0 -3.048 0.127 0.127 0 0.000001 N I 21 N "HEADER-12X2"
DS -15.24 -2.54 15.24 -2.54 0.3048 21
DS 15.24 -2.54 15.24 2.54 0.3048 21
DS 15.24 2.54 -15.24 2.54 0.3048 21
DS -15.24 2.54 -15.24 -2.54 0.3048 21
$PAD
Sh "1" R 1.524 1.524 0 0 0
Dr 1.016 0 0
At STD N 00C0FFFF
Ne 0 ""
Po -13.97 1.27
$EndPAD
$PAD
Sh "14" C 1.524 1.524 0 0 0
Dr 1.016 0 0
At STD N 00C0FFFF
Ne 0 ""
Po 1.27 -1.27
$EndPAD
$PAD
Sh "15" C 1.524 1.524 0 0 0
Dr 1.016 0 0
At STD N 00C0FFFF
Ne 0 ""
Po 3.81 1.27
$EndPAD
$PAD
Sh "16" C 1.524 1.524 0 0 0
Dr 1.016 0 0
At STD N 00C0FFFF
Ne 0 ""
Po 3.81 -1.27
$EndPAD
$PAD
Sh "17" C 1.524 1.524 0 0 0
Dr 1.016 0 0
At STD N 00C0FFFF
Ne 0 ""
Po 6.35 1.27
$EndPAD
$PAD
Sh "18" C 1.524 1.524 0 0 0
Dr 1.016 0 0
At STD N 00C0FFFF
Ne 0 ""
Po 6.35 -1.27
$EndPAD
$PAD
Sh "19" C 1.524 1.524 0 0 0
Dr 1.016 0 0
At STD N 00C0FFFF
Ne 0 ""
Po 8.89 1.27
$EndPAD
$PAD
Sh "20" C 1.524 1.524 0 0 0
Dr 1.016 0 0
At STD N 00C0FFFF
Ne 0 ""
Po 8.89 -1.27
$EndPAD
$PAD
Sh "21" C 1.524 1.524 0 0 0
Dr 1.016 0 0
At STD N 00C0FFFF
Ne 0 ""
Po 11.43 1.27
$EndPAD
$PAD
Sh "22" C 1.524 1.524 0 0 0
Dr 1.016 0 0
At STD N 00C0FFFF
Ne 0 ""
Po 11.43 -1.27
$EndPAD
$PAD
Sh "23" C 1.524 1.524 0 0 0
Dr 1.016 0 0
At STD N 00C0FFFF
Ne 0 ""
Po 13.97 1.27
$EndPAD
$PAD
Sh "24" C 1.524 1.524 0 0 0
Dr 1.016 0 0
At STD N 00C0FFFF
Ne 0 ""
Po 13.97 -1.27
$EndPAD
$PAD
Sh "13" C 1.524 1.524 0 0 0
Dr 1.016 0 0
At STD N 00C0FFFF
Ne 0 ""
Po 1.27 1.27
$EndPAD
$PAD
Sh "2" C 1.524 1.524 0 0 0
Dr 1.016 0 0
At STD N 00C0FFFF
Ne 0 ""
Po -13.97 -1.27
$EndPAD
$PAD
Sh "3" C 1.524 1.524 0 0 0
Dr 1.016 0 0
At STD N 00C0FFFF
Ne 0 ""
Po -11.43 1.27
$EndPAD
$PAD
Sh "4" C 1.524 1.524 0 0 0
Dr 1.016 0 0
At STD N 00C0FFFF
Ne 0 ""
Po -11.43 -1.27
$EndPAD
$PAD
Sh "5" C 1.524 1.524 0 0 0
Dr 1.016 0 0
At STD N 00C0FFFF
Ne 0 ""
Po -8.89 1.27
$EndPAD
$PAD
Sh "6" C 1.524 1.524 0 0 0
Dr 1.016 0 0
At STD N 00C0FFFF
Ne 0 ""
Po -8.89 -1.27
$EndPAD
$PAD
Sh "7" C 1.524 1.524 0 0 0
Dr 1.016 0 0
At STD N 00C0FFFF
Ne 0 ""
Po -6.35 1.27
$EndPAD
$PAD
Sh "8" C 1.524 1.524 0 0 0
Dr 1.016 0 0
At STD N 00C0FFFF
Ne 0 ""
Po -6.35 -1.27
$EndPAD
$PAD
Sh "9" C 1.524 1.524 0 0 0
Dr 1.016 0 0
At STD N 00C0FFFF
Ne 0 ""
Po -3.81 1.27
$EndPAD
$PAD
Sh "10" C 1.524 1.524 0 0 0
Dr 1.016 0 0
At STD N 00C0FFFF
Ne 0 ""
Po -3.81 -1.27
$EndPAD
$PAD
Sh "11" C 1.524 1.524 0 0 0
Dr 1.016 0 0
At STD N 00C0FFFF
Ne 0 ""
Po -1.27 1.27
$EndPAD
$PAD
Sh "12" C 1.524 1.524 0 0 0
Dr 1.016 0 0
At STD N 00C0FFFF
Ne 0 ""
Po -1.27 -1.27
$EndPAD
$SHAPE3D
Na "pin_array/pins_array_5x2.wrl"
Sc 1 1 1
Of 0 0 0
Ro 0 0 0
$EndSHAPE3D
$EndMODULE HEADER-12X2
$MODULE HEADER-13X1
Po 0 0 0 15 54FC0841 00000000 ~~
Li HEADER-13X1
Cd 13x1-Pin Connector
Kw Connector
Sc 0
AR 
Op 0 0 0
T0 0 -1.524 0.127 0.127 0 0.000001 N I 21 N "CON**"
T1 0 -1.778 0.127 0.127 0 0.000001 N I 21 N "HEADER-13X1"
DS -16.51 1.27 -16.51 -1.27 0.3048 21
DS -16.51 -1.27 16.51 -1.27 0.3048 21
DS 16.51 -1.27 16.51 1.27 0.3048 21
DS 16.51 1.27 -16.51 1.27 0.3048 21
DS -13.97 1.27 -13.97 -1.27 0.3048 21
$PAD
Sh "1" R 1.524 1.524 0 0 0
Dr 1.016 0 0
At STD N 00C0FFFF
Ne 0 ""
Po -15.24 0
$EndPAD
$PAD
Sh "2" C 1.524 1.524 0 0 0
Dr 1.016 0 0
At STD N 00C0FFFF
Ne 0 ""
Po -12.7 0
$EndPAD
$PAD
Sh "3" C 1.524 1.524 0 0 0
Dr 1.016 0 0
At STD N 00C0FFFF
Ne 0 ""
Po -10.16 0
$EndPAD
$PAD
Sh "4" C 1.524 1.524 0 0 0
Dr 1.016 0 0
At STD N 00C0FFFF
Ne 0 ""
Po -7.62 0
$EndPAD
$PAD
Sh "5" C 1.524 1.524 0 0 0
Dr 1.016 0 0
At STD N 00C0FFFF
Ne 0 ""
Po -5.08 0
$EndPAD
$PAD
Sh "6" C 1.524 1.524 0 0 0
Dr 1.016 0 0
At STD N 00C0FFFF
Ne 0 ""
Po -2.54 0
$EndPAD
$PAD
Sh "7" C 1.524 1.524 0 0 0
Dr 1.016 0 0
At STD N 00C0FFFF
Ne 0 ""
Po 0 0
$EndPAD
$PAD
Sh "8" C 1.524 1.524 0 0 0
Dr 1.016 0 0
At STD N 00C0FFFF
Ne 0 ""
Po 2.54 0
$EndPAD
$PAD
Sh "9" C 1.524 1.524 0 0 0
Dr 1.016 0 0
At STD N 00C0FFFF
Ne 0 ""
Po 5.08 0
$EndPAD
$PAD
Sh "10" C 1.524 1.524 0 0 0
Dr 1.016 0 0
At STD N 00C0FFFF
Ne 0 ""
Po 7.62 0
$EndPAD
$PAD
Sh "11" C 1.524 1.524 0 0 0
Dr 1.016 0 0
At STD N 00C0FFFF
Ne 0 ""
Po 10.16 0
$EndPAD
$PAD
Sh "12" C 1.524 1.524 0 0 0
Dr 1.016 0 0
At STD N 00C0FFFF
Ne 0 ""
Po 12.7 0
$EndPAD
$PAD
Sh "13" C 1.524 1.524 0 0 0
Dr 1.016 0 0
At STD N 00C0FFFF
Ne 0 ""
Po 15.24 0
$EndPAD
$EndMODULE HEADER-13X1
$MODULE HEADER-13X2
Po 0 0 0 15 55219581 00000000 ~~
Li HEADER-13X2
Cd 13x2-Pin Connector
Kw Connector
Sc 0
AR 
Op 0 0 0
T0 0 -2.794 0.127 0.127 0 0.000001 N I 21 N "CON**"
T1 0 -3.048 0.127 0.127 0 0.000001 N I 21 N "HEADER-13X2"
DS -16.51 -2.54 16.51 -2.54 0.3048 21
DS 16.51 -2.54 16.51 2.54 0.3048 21
DS 16.51 2.54 -16.51 2.54 0.3048 21
DS -16.51 2.54 -16.51 -2.54 0.3048 21
$PAD
Sh "1" R 1.524 1.524 0 0 0
Dr 1.016 0 0
At STD N 00C0FFFF
Ne 0 ""
Po -15.24 1.27
$EndPAD
$PAD
Sh "14" C 1.524 1.524 0 0 0
Dr 1.016 0 0
At STD N 00C0FFFF
Ne 0 ""
Po 0 -1.27
$EndPAD
$PAD
Sh "15" C 1.524 1.524 0 0 0
Dr 1.016 0 0
At STD N 00C0FFFF
Ne 0 ""
Po 2.54 1.27
$EndPAD
$PAD
Sh "16" C 1.524 1.524 0 0 0
Dr 1.016 0 0
At STD N 00C0FFFF
Ne 0 ""
Po 2.54 -1.27
$EndPAD
$PAD
Sh "17" C 1.524 1.524 0 0 0
Dr 1.016 0 0
At STD N 00C0FFFF
Ne 0 ""
Po 5.08 1.27
$EndPAD
$PAD
Sh "18" C 1.524 1.524 0 0 0
Dr 1.016 0 0
At STD N 00C0FFFF
Ne 0 ""
Po 5.08 -1.27
$EndPAD
$PAD
Sh "19" C 1.524 1.524 0 0 0
Dr 1.016 0 0
At STD N 00C0FFFF
Ne 0 ""
Po 7.62 1.27
$EndPAD
$PAD
Sh "20" C 1.524 1.524 0 0 0
Dr 1.016 0 0
At STD N 00C0FFFF
Ne 0 ""
Po 7.62 -1.27
$EndPAD
$PAD
Sh "21" C 1.524 1.524 0 0 0
Dr 1.016 0 0
At STD N 00C0FFFF
Ne 0 ""
Po 10.16 1.27
$EndPAD
$PAD
Sh "22" C 1.524 1.524 0 0 0
Dr 1.016 0 0
At STD N 00C0FFFF
Ne 0 ""
Po 10.16 -1.27
$EndPAD
$PAD
Sh "23" C 1.524 1.524 0 0 0
Dr 1.016 0 0
At STD N 00C0FFFF
Ne 0 ""
Po 12.7 1.27
$EndPAD
$PAD
Sh "24" C 1.524 1.524 0 0 0
Dr 1.016 0 0
At STD N 00C0FFFF
Ne 0 ""
Po 12.7 -1.27
$EndPAD
$PAD
Sh "13" C 1.524 1.524 0 0 0
Dr 1.016 0 0
At STD N 00C0FFFF
Ne 0 ""
Po 0 1.27
$EndPAD
$PAD
Sh "2" C 1.524 1.524 0 0 0
Dr 1.016 0 0
At STD N 00C0FFFF
Ne 0 ""
Po -15.24 -1.27
$EndPAD
$PAD
Sh "3" C 1.524 1.524 0 0 0
Dr 1.016 0 0
At STD N 00C0FFFF
Ne 0 ""
Po -12.7 1.27
$EndPAD
$PAD
Sh "4" C 1.524 1.524 0 0 0
Dr 1.016 0 0
At STD N 00C0FFFF
Ne 0 ""
Po -12.7 -1.27
$EndPAD
$PAD
Sh "5" C 1.524 1.524 0 0 0
Dr 1.016 0 0
At STD N 00C0FFFF
Ne 0 ""
Po -10.16 1.27
$EndPAD
$PAD
Sh "6" C 1.524 1.524 0 0 0
Dr 1.016 0 0
At STD N 00C0FFFF
Ne 0 ""
Po -10.16 -1.27
$EndPAD
$PAD
Sh "7" C 1.524 1.524 0 0 0
Dr 1.016 0 0
At STD N 00C0FFFF
Ne 0 ""
Po -7.62 1.27
$EndPAD
$PAD
Sh "8" C 1.524 1.524 0 0 0
Dr 1.016 0 0
At STD N 00C0FFFF
Ne 0 ""
Po -7.62 -1.27
$EndPAD
$PAD
Sh "9" C 1.524 1.524 0 0 0
Dr 1.016 0 0
At STD N 00C0FFFF
Ne 0 ""
Po -5.08 1.27
$EndPAD
$PAD
Sh "10" C 1.524 1.524 0 0 0
Dr 1.016 0 0
At STD N 00C0FFFF
Ne 0 ""
Po -5.08 -1.27
$EndPAD
$PAD
Sh "11" C 1.524 1.524 0 0 0
Dr 1.016 0 0
At STD N 00C0FFFF
Ne 0 ""
Po -2.54 1.27
$EndPAD
$PAD
Sh "12" C 1.524 1.524 0 0 0
Dr 1.016 0 0
At STD N 00C0FFFF
Ne 0 ""
Po -2.54 -1.27
$EndPAD
$PAD
Sh "25" C 1.524 1.524 0 0 0
Dr 1.016 0 0
At STD N 00E0FFFF
Ne 0 ""
Po 15.24 1.27
$EndPAD
$PAD
Sh "26" C 1.524 1.524 0 0 0
Dr 1.016 0 0
At STD N 00E0FFFF
Ne 0 ""
Po 15.24 -1.27
$EndPAD
$SHAPE3D
Na "pin_array/pins_array_5x2.wrl"
Sc 1 1 1
Of 0 0 0
Ro 0 0 0
$EndSHAPE3D
$EndMODULE HEADER-13X2
$MODULE HEADER-16X1
Po 0 0 0 15 54FA3183 00000000 ~~
Li HEADER-16X1
Cd 16x1-Pin Connector
Kw Connector
Sc 0
AR 
Op 0 0 0
T0 0 -1.524 0.127 0.127 0 0.000001 N I 21 N "CON**"
T1 0 -1.778 0.127 0.127 0 0.000001 N I 21 N "HEADER-16X1"
DS -20.32 1.27 -20.32 -1.27 0.3048 21
DS -20.32 -1.27 20.32 -1.27 0.3048 21
DS 20.32 -1.27 20.32 1.27 0.3048 21
DS 20.32 1.27 -20.32 1.27 0.3048 21
DS -17.78 1.27 -17.78 -1.27 0.3048 21
$PAD
Sh "1" R 1.524 1.524 0 0 0
Dr 1.016 0 0
At STD N 00C0FFFF
Ne 0 ""
Po -19.05 0
$EndPAD
$PAD
Sh "2" C 1.524 1.524 0 0 0
Dr 1.016 0 0
At STD N 00C0FFFF
Ne 0 ""
Po -16.51 0
$EndPAD
$PAD
Sh "3" C 1.524 1.524 0 0 0
Dr 1.016 0 0
At STD N 00C0FFFF
Ne 0 ""
Po -13.97 0
$EndPAD
$PAD
Sh "4" C 1.524 1.524 0 0 0
Dr 1.016 0 0
At STD N 00C0FFFF
Ne 0 ""
Po -11.43 0
$EndPAD
$PAD
Sh "5" C 1.524 1.524 0 0 0
Dr 1.016 0 0
At STD N 00C0FFFF
Ne 0 ""
Po -8.89 0
$EndPAD
$PAD
Sh "6" C 1.524 1.524 0 0 0
Dr 1.016 0 0
At STD N 00C0FFFF
Ne 0 ""
Po -6.35 0
$EndPAD
$PAD
Sh "7" C 1.524 1.524 0 0 0
Dr 1.016 0 0
At STD N 00C0FFFF
Ne 0 ""
Po -3.81 0
$EndPAD
$PAD
Sh "8" C 1.524 1.524 0 0 0
Dr 1.016 0 0
At STD N 00C0FFFF
Ne 0 ""
Po -1.27 0
$EndPAD
$PAD
Sh "9" C 1.524 1.524 0 0 0
Dr 1.016 0 0
At STD N 00C0FFFF
Ne 0 ""
Po 1.27 0
$EndPAD
$PAD
Sh "10" C 1.524 1.524 0 0 0
Dr 1.016 0 0
At STD N 00C0FFFF
Ne 0 ""
Po 3.81 0
$EndPAD
$PAD
Sh "11" C 1.524 1.524 0 0 0
Dr 1.016 0 0
At STD N 00C0FFFF
Ne 0 ""
Po 6.35 0
$EndPAD
$PAD
Sh "12" C 1.524 1.524 0 0 0
Dr 1.016 0 0
At STD N 00C0FFFF
Ne 0 ""
Po 8.89 0
$EndPAD
$PAD
Sh "13" C 1.524 1.524 0 0 0
Dr 1.016 0 0
At STD N 00C0FFFF
Ne 0 ""
Po 11.43 0
$EndPAD
$PAD
Sh "14" C 1.524 1.524 0 0 0
Dr 1.016 0 0
At STD N 00C0FFFF
Ne 0 ""
Po 13.97 0
$EndPAD
$PAD
Sh "15" C 1.524 1.524 0 0 0
Dr 1.016 0 0
At STD N 00C0FFFF
Ne 0 ""
Po 16.51 0
$EndPAD
$PAD
Sh "16" C 1.524 1.524 0 0 0
Dr 1.016 0 0
At STD N 00C0FFFF
Ne 0 ""
Po 19.05 0
$EndPAD
$EndMODULE HEADER-16X1
$MODULE HEADER-18X1
Po 0 0 0 15 54FA31BA 00000000 ~~
Li HEADER-18X1
Cd 18x1-Pin Connector
Kw Connector
Sc 0
AR 
Op 0 0 0
T0 0 -1.524 0.127 0.127 0 0.000001 N I 21 N "CON**"
T1 0 -1.778 0.127 0.127 0 0.000001 N I 21 N "HEADER-18X1"
DS -22.86 1.27 -22.86 -1.27 0.3048 21
DS -22.86 -1.27 22.86 -1.27 0.3048 21
DS 22.86 -1.27 22.86 1.27 0.3048 21
DS 22.86 1.27 -22.86 1.27 0.3048 21
DS -20.32 1.27 -20.32 -1.27 0.3048 21
$PAD
Sh "1" R 1.524 1.524 0 0 0
Dr 1.016 0 0
At STD N 00C0FFFF
Ne 0 ""
Po -21.59 0
$EndPAD
$PAD
Sh "2" C 1.524 1.524 0 0 0
Dr 1.016 0 0
At STD N 00C0FFFF
Ne 0 ""
Po -19.05 0
$EndPAD
$PAD
Sh "3" C 1.524 1.524 0 0 0
Dr 1.016 0 0
At STD N 00C0FFFF
Ne 0 ""
Po -16.51 0
$EndPAD
$PAD
Sh "4" C 1.524 1.524 0 0 0
Dr 1.016 0 0
At STD N 00C0FFFF
Ne 0 ""
Po -13.97 0
$EndPAD
$PAD
Sh "5" C 1.524 1.524 0 0 0
Dr 1.016 0 0
At STD N 00C0FFFF
Ne 0 ""
Po -11.43 0
$EndPAD
$PAD
Sh "6" C 1.524 1.524 0 0 0
Dr 1.016 0 0
At STD N 00C0FFFF
Ne 0 ""
Po -8.89 0
$EndPAD
$PAD
Sh "7" C 1.524 1.524 0 0 0
Dr 1.016 0 0
At STD N 00C0FFFF
Ne 0 ""
Po -6.35 0
$EndPAD
$PAD
Sh "8" C 1.524 1.524 0 0 0
Dr 1.016 0 0
At STD N 00C0FFFF
Ne 0 ""
Po -3.81 0
$EndPAD
$PAD
Sh "9" C 1.524 1.524 0 0 0
Dr 1.016 0 0
At STD N 00C0FFFF
Ne 0 ""
Po -1.27 0
$EndPAD
$PAD
Sh "10" C 1.524 1.524 0 0 0
Dr 1.016 0 0
At STD N 00C0FFFF
Ne 0 ""
Po 1.27 0
$EndPAD
$PAD
Sh "11" C 1.524 1.524 0 0 0
Dr 1.016 0 0
At STD N 00C0FFFF
Ne 0 ""
Po 3.81 0
$EndPAD
$PAD
Sh "12" C 1.524 1.524 0 0 0
Dr 1.016 0 0
At STD N 00C0FFFF
Ne 0 ""
Po 6.35 0
$EndPAD
$PAD
Sh "13" C 1.524 1.524 0 0 0
Dr 1.016 0 0
At STD N 00C0FFFF
Ne 0 ""
Po 8.89 0
$EndPAD
$PAD
Sh "14" C 1.524 1.524 0 0 0
Dr 1.016 0 0
At STD N 00C0FFFF
Ne 0 ""
Po 11.43 0
$EndPAD
$PAD
Sh "15" C 1.524 1.524 0 0 0
Dr 1.016 0 0
At STD N 00C0FFFF
Ne 0 ""
Po 13.97 0
$EndPAD
$PAD
Sh "16" C 1.524 1.524 0 0 0
Dr 1.016 0 0
At STD N 00C0FFFF
Ne 0 ""
Po 16.51 0
$EndPAD
$PAD
Sh "17" C 1.524 1.524 0 0 0
Dr 1.016 0 0
At STD N 00C0FFFF
Ne 0 ""
Po 19.05 0
$EndPAD
$PAD
Sh "18" C 1.524 1.524 0 0 0
Dr 1.016 0 0
At STD N 00C0FFFF
Ne 0 ""
Po 21.59 0
$EndPAD
$EndMODULE HEADER-18X1
$MODULE HEADER-18X2
Po 0 0 0 15 54FA3221 00000000 ~~
Li HEADER-18X2
Cd 18x2-Pin Connector
Kw Connector
Sc 0
AR 
Op 0 0 0
T0 0 -2.794 0.127 0.127 0 0.000001 N I 21 N "CON**"
T1 0 -3.048 0.127 0.127 0 0.000001 N I 21 N "HEADER-18X2"
DS -22.86 -2.54 22.86 -2.54 0.3048 21
DS 22.86 -2.54 22.86 2.54 0.3048 21
DS 22.86 2.54 -22.86 2.54 0.3048 21
DS -22.86 2.54 -22.86 -2.54 0.3048 21
$PAD
Sh "1" R 1.524 1.524 0 0 0
Dr 1.016 0 0
At STD N 00C0FFFF
Ne 0 ""
Po -21.59 1.27
$EndPAD
$PAD
Sh "14" C 1.524 1.524 0 0 0
Dr 1.016 0 0
At STD N 00C0FFFF
Ne 0 ""
Po -6.35 -1.27
$EndPAD
$PAD
Sh "15" C 1.524 1.524 0 0 0
Dr 1.016 0 0
At STD N 00C0FFFF
Ne 0 ""
Po -3.81 1.27
$EndPAD
$PAD
Sh "16" C 1.524 1.524 0 0 0
Dr 1.016 0 0
At STD N 00C0FFFF
Ne 0 ""
Po -3.81 -1.27
$EndPAD
$PAD
Sh "17" C 1.524 1.524 0 0 0
Dr 1.016 0 0
At STD N 00C0FFFF
Ne 0 ""
Po -1.27 1.27
$EndPAD
$PAD
Sh "18" C 1.524 1.524 0 0 0
Dr 1.016 0 0
At STD N 00C0FFFF
Ne 0 ""
Po -1.27 -1.27
$EndPAD
$PAD
Sh "19" C 1.524 1.524 0 0 0
Dr 1.016 0 0
At STD N 00C0FFFF
Ne 0 ""
Po 1.27 1.27
$EndPAD
$PAD
Sh "20" C 1.524 1.524 0 0 0
Dr 1.016 0 0
At STD N 00C0FFFF
Ne 0 ""
Po 1.27 -1.27
$EndPAD
$PAD
Sh "21" C 1.524 1.524 0 0 0
Dr 1.016 0 0
At STD N 00C0FFFF
Ne 0 ""
Po 3.81 1.27
$EndPAD
$PAD
Sh "22" C 1.524 1.524 0 0 0
Dr 1.016 0 0
At STD N 00C0FFFF
Ne 0 ""
Po 3.81 -1.27
$EndPAD
$PAD
Sh "32" C 1.524 1.524 0 0 0
Dr 1.016 0 0
At STD N 00C0FFFF
Ne 0 ""
Po 16.51 -1.27
$EndPAD
$PAD
Sh "23" C 1.524 1.524 0 0 0
Dr 1.016 0 0
At STD N 00C0FFFF
Ne 0 ""
Po 6.35 1.27
$EndPAD
$PAD
Sh "25" C 1.524 1.524 0 0 0
Dr 1.016 0 0
At STD N 00C0FFFF
Ne 0 ""
Po 8.89 1.27
$EndPAD
$PAD
Sh "24" C 1.524 1.524 0 0 0
Dr 1.016 0 0
At STD N 00C0FFFF
Ne 0 ""
Po 6.35 -1.27
$EndPAD
$PAD
Sh "26" C 1.524 1.524 0 0 0
Dr 1.016 0 0
At STD N 00C0FFFF
Ne 0 ""
Po 8.89 -1.27
$EndPAD
$PAD
Sh "27" C 1.524 1.524 0 0 0
Dr 1.016 0 0
At STD N 00C0FFFF
Ne 0 ""
Po 11.43 1.27
$EndPAD
$PAD
Sh "29" C 1.524 1.524 0 0 0
Dr 1.016 0 0
At STD N 00C0FFFF
Ne 0 ""
Po 13.97 1.27
$EndPAD
$PAD
Sh "28" C 1.524 1.524 0 0 0
Dr 1.016 0 0
At STD N 00C0FFFF
Ne 0 ""
Po 11.43 -1.27
$EndPAD
$PAD
Sh "30" C 1.524 1.524 0 0 0
Dr 1.016 0 0
At STD N 00C0FFFF
Ne 0 ""
Po 13.97 -1.27
$EndPAD
$PAD
Sh "31" C 1.524 1.524 0 0 0
Dr 1.016 0 0
At STD N 00C0FFFF
Ne 0 ""
Po 16.51 1.27
$EndPAD
$PAD
Sh "33" C 1.524 1.524 0 0 0
Dr 1.016 0 0
At STD N 00C0FFFF
Ne 0 ""
Po 19.05 1.27
$EndPAD
$PAD
Sh "34" C 1.524 1.524 0 0 0
Dr 1.016 0 0
At STD N 00C0FFFF
Ne 0 ""
Po 19.05 -1.27
$EndPAD
$PAD
Sh "13" C 1.524 1.524 0 0 0
Dr 1.016 0 0
At STD N 00C0FFFF
Ne 0 ""
Po -6.35 1.27
$EndPAD
$PAD
Sh "2" C 1.524 1.524 0 0 0
Dr 1.016 0 0
At STD N 00C0FFFF
Ne 0 ""
Po -21.59 -1.27
$EndPAD
$PAD
Sh "3" C 1.524 1.524 0 0 0
Dr 1.016 0 0
At STD N 00C0FFFF
Ne 0 ""
Po -19.05 1.27
$EndPAD
$PAD
Sh "4" C 1.524 1.524 0 0 0
Dr 1.016 0 0
At STD N 00C0FFFF
Ne 0 ""
Po -19.05 -1.27
$EndPAD
$PAD
Sh "5" C 1.524 1.524 0 0 0
Dr 1.016 0 0
At STD N 00C0FFFF
Ne 0 ""
Po -16.51 1.27
$EndPAD
$PAD
Sh "6" C 1.524 1.524 0 0 0
Dr 1.016 0 0
At STD N 00C0FFFF
Ne 0 ""
Po -16.51 -1.27
$EndPAD
$PAD
Sh "7" C 1.524 1.524 0 0 0
Dr 1.016 0 0
At STD N 00C0FFFF
Ne 0 ""
Po -13.97 1.27
$EndPAD
$PAD
Sh "8" C 1.524 1.524 0 0 0
Dr 1.016 0 0
At STD N 00C0FFFF
Ne 0 ""
Po -13.97 -1.27
$EndPAD
$PAD
Sh "9" C 1.524 1.524 0 0 0
Dr 1.016 0 0
At STD N 00C0FFFF
Ne 0 ""
Po -11.43 1.27
$EndPAD
$PAD
Sh "10" C 1.524 1.524 0 0 0
Dr 1.016 0 0
At STD N 00C0FFFF
Ne 0 ""
Po -11.43 -1.27
$EndPAD
$PAD
Sh "11" C 1.524 1.524 0 0 0
Dr 1.016 0 0
At STD N 00C0FFFF
Ne 0 ""
Po -8.89 1.27
$EndPAD
$PAD
Sh "12" C 1.524 1.524 0 0 0
Dr 1.016 0 0
At STD N 00C0FFFF
Ne 0 ""
Po -8.89 -1.27
$EndPAD
$PAD
Sh "35" C 1.524 1.524 0 0 0
Dr 1.016 0 0
At STD N 00C0FFFF
Ne 0 ""
Po 21.59 1.27
$EndPAD
$PAD
Sh "36" C 1.524 1.524 0 0 0
Dr 1.016 0 0
At STD N 00C0FFFF
Ne 0 ""
Po 21.59 -1.27
$EndPAD
$SHAPE3D
Na "pin_array/pins_array_5x2.wrl"
Sc 1 1 1
Of 0 0 0
Ro 0 0 0
$EndSHAPE3D
$EndMODULE HEADER-18X2
$MODULE HEADER-1X1
Po 0 0 0 15 54FA3029 00000000 ~~
Li HEADER-1X1
Cd 1x1-Pin Connector
Kw Connector
Sc 0
AR 
Op 0 0 0
T0 0 -1.524 0.127 0.127 0 0.000001 N I 21 N "CON**"
T1 0 -1.778 0.127 0.127 0 0.000001 N I 21 N "HEADER-1X1"
DS -1.27 1.27 1.27 1.27 0.3048 21
DS -1.27 -1.27 1.27 -1.27 0.3048 21
DS -1.27 1.27 -1.27 -1.27 0.3048 21
DS 1.27 -1.27 1.27 1.27 0.3048 21
$PAD
Sh "1" R 1.524 1.524 0 0 0
Dr 1.016 0 0
At STD N 00C0FFFF
Ne 0 ""
Po 0 0
$EndPAD
$EndMODULE HEADER-1X1
$MODULE HEADER-20X1
Po 0 0 0 15 55216CBB 00000000 ~~
Li HEADER-20X1
Cd 20x1-Pin Connector
Kw Connector
Sc 0
AR 
Op 0 0 0
T0 0 -1.524 0.127 0.127 0 0.000001 N I 21 N "CON**"
T1 0 -1.778 0.127 0.127 0 0.000001 N I 21 N "HEADER-20X1"
DS -25.4 1.27 -25.4 -1.27 0.3048 21
DS -25.4 -1.27 25.4 -1.27 0.3048 21
DS 25.4 -1.27 25.4 1.27 0.3048 21
DS 25.4 1.27 -25.4 1.27 0.3048 21
DS -22.86 1.27 -22.86 -1.27 0.3048 21
$PAD
Sh "1" R 1.524 1.524 0 0 0
Dr 1.016 0 0
At STD N 00C0FFFF
Ne 0 ""
Po -24.13 0
$EndPAD
$PAD
Sh "2" C 1.524 1.524 0 0 0
Dr 1.016 0 0
At STD N 00C0FFFF
Ne 0 ""
Po -21.59 0
$EndPAD
$PAD
Sh "3" C 1.524 1.524 0 0 0
Dr 1.016 0 0
At STD N 00C0FFFF
Ne 0 ""
Po -19.05 0
$EndPAD
$PAD
Sh "4" C 1.524 1.524 0 0 0
Dr 1.016 0 0
At STD N 00C0FFFF
Ne 0 ""
Po -16.51 0
$EndPAD
$PAD
Sh "5" C 1.524 1.524 0 0 0
Dr 1.016 0 0
At STD N 00C0FFFF
Ne 0 ""
Po -13.97 0
$EndPAD
$PAD
Sh "6" C 1.524 1.524 0 0 0
Dr 1.016 0 0
At STD N 00C0FFFF
Ne 0 ""
Po -11.43 0
$EndPAD
$PAD
Sh "7" C 1.524 1.524 0 0 0
Dr 1.016 0 0
At STD N 00C0FFFF
Ne 0 ""
Po -8.89 0
$EndPAD
$PAD
Sh "8" C 1.524 1.524 0 0 0
Dr 1.016 0 0
At STD N 00C0FFFF
Ne 0 ""
Po -6.35 0
$EndPAD
$PAD
Sh "9" C 1.524 1.524 0 0 0
Dr 1.016 0 0
At STD N 00C0FFFF
Ne 0 ""
Po -3.81 0
$EndPAD
$PAD
Sh "10" C 1.524 1.524 0 0 0
Dr 1.016 0 0
At STD N 00C0FFFF
Ne 0 ""
Po -1.27 0
$EndPAD
$PAD
Sh "11" C 1.524 1.524 0 0 0
Dr 1.016 0 0
At STD N 00C0FFFF
Ne 0 ""
Po 1.27 0
$EndPAD
$PAD
Sh "12" C 1.524 1.524 0 0 0
Dr 1.016 0 0
At STD N 00C0FFFF
Ne 0 ""
Po 3.81 0
$EndPAD
$PAD
Sh "13" C 1.524 1.524 0 0 0
Dr 1.016 0 0
At STD N 00C0FFFF
Ne 0 ""
Po 6.35 0
$EndPAD
$PAD
Sh "14" C 1.524 1.524 0 0 0
Dr 1.016 0 0
At STD N 00C0FFFF
Ne 0 ""
Po 8.89 0
$EndPAD
$PAD
Sh "15" C 1.524 1.524 0 0 0
Dr 1.016 0 0
At STD N 00C0FFFF
Ne 0 ""
Po 11.43 0
$EndPAD
$PAD
Sh "16" C 1.524 1.524 0 0 0
Dr 1.016 0 0
At STD N 00C0FFFF
Ne 0 ""
Po 13.97 0
$EndPAD
$PAD
Sh "17" C 1.524 1.524 0 0 0
Dr 1.016 0 0
At STD N 00C0FFFF
Ne 0 ""
Po 16.51 0
$EndPAD
$PAD
Sh "18" C 1.524 1.524 0 0 0
Dr 1.016 0 0
At STD N 00C0FFFF
Ne 0 ""
Po 19.05 0
$EndPAD
$PAD
Sh "19" C 1.524 1.524 0 0 0
Dr 1.016 0 0
At STD N 00C0FFFF
Ne 0 ""
Po 21.59 0
$EndPAD
$PAD
Sh "20" C 1.524 1.524 0 0 0
Dr 1.016 0 0
At STD N 00C0FFFF
Ne 0 ""
Po 24.13 0
$EndPAD
$EndMODULE HEADER-20X1
$MODULE HEADER-20X2
Po 0 0 0 15 555BA95D 00000000 ~~
Li HEADER-20X2
Cd 20x2-Pin Connector
Kw Connector
Sc 0
AR 
Op 0 0 0
T0 0 -2.794 0.127 0.127 0 0.000001 N I 21 N "CON**"
T1 0 -3.048 0.127 0.127 0 0.000001 N I 21 N "HEADER-20X2"
DS -25.4 -2.54 25.4 -2.54 0.3048 21
DS 25.4 -2.54 25.4 2.54 0.3048 21
DS 25.4 2.54 -25.4 2.54 0.3048 21
DS -25.4 2.54 -25.4 -2.54 0.3048 21
$PAD
Sh "1" R 1.524 1.524 0 0 0
Dr 1.016 0 0
At STD N 00C0FFFF
Ne 0 ""
Po -24.13 1.27
$EndPAD
$PAD
Sh "14" C 1.524 1.524 0 0 0
Dr 1.016 0 0
At STD N 00C0FFFF
Ne 0 ""
Po -8.89 -1.27
$EndPAD
$PAD
Sh "15" C 1.524 1.524 0 0 0
Dr 1.016 0 0
At STD N 00C0FFFF
Ne 0 ""
Po -6.35 1.27
$EndPAD
$PAD
Sh "16" C 1.524 1.524 0 0 0
Dr 1.016 0 0
At STD N 00C0FFFF
Ne 0 ""
Po -6.35 -1.27
$EndPAD
$PAD
Sh "17" C 1.524 1.524 0 0 0
Dr 1.016 0 0
At STD N 00C0FFFF
Ne 0 ""
Po -3.81 1.27
$EndPAD
$PAD
Sh "18" C 1.524 1.524 0 0 0
Dr 1.016 0 0
At STD N 00C0FFFF
Ne 0 ""
Po -3.81 -1.27
$EndPAD
$PAD
Sh "19" C 1.524 1.524 0 0 0
Dr 1.016 0 0
At STD N 00C0FFFF
Ne 0 ""
Po -1.27 1.27
$EndPAD
$PAD
Sh "20" C 1.524 1.524 0 0 0
Dr 1.016 0 0
At STD N 00C0FFFF
Ne 0 ""
Po -1.27 -1.27
$EndPAD
$PAD
Sh "21" C 1.524 1.524 0 0 0
Dr 1.016 0 0
At STD N 00C0FFFF
Ne 0 ""
Po 1.27 1.27
$EndPAD
$PAD
Sh "22" C 1.524 1.524 0 0 0
Dr 1.016 0 0
At STD N 00C0FFFF
Ne 0 ""
Po 1.27 -1.27
$EndPAD
$PAD
Sh "32" C 1.524 1.524 0 0 0
Dr 1.016 0 0
At STD N 00C0FFFF
Ne 0 ""
Po 13.97 -1.27
$EndPAD
$PAD
Sh "23" C 1.524 1.524 0 0 0
Dr 1.016 0 0
At STD N 00C0FFFF
Ne 0 ""
Po 3.81 1.27
$EndPAD
$PAD
Sh "25" C 1.524 1.524 0 0 0
Dr 1.016 0 0
At STD N 00C0FFFF
Ne 0 ""
Po 6.35 1.27
$EndPAD
$PAD
Sh "24" C 1.524 1.524 0 0 0
Dr 1.016 0 0
At STD N 00C0FFFF
Ne 0 ""
Po 3.81 -1.27
$EndPAD
$PAD
Sh "26" C 1.524 1.524 0 0 0
Dr 1.016 0 0
At STD N 00C0FFFF
Ne 0 ""
Po 6.35 -1.27
$EndPAD
$PAD
Sh "27" C 1.524 1.524 0 0 0
Dr 1.016 0 0
At STD N 00C0FFFF
Ne 0 ""
Po 8.89 1.27
$EndPAD
$PAD
Sh "29" C 1.524 1.524 0 0 0
Dr 1.016 0 0
At STD N 00C0FFFF
Ne 0 ""
Po 11.43 1.27
$EndPAD
$PAD
Sh "28" C 1.524 1.524 0 0 0
Dr 1.016 0 0
At STD N 00C0FFFF
Ne 0 ""
Po 8.89 -1.27
$EndPAD
$PAD
Sh "30" C 1.524 1.524 0 0 0
Dr 1.016 0 0
At STD N 00C0FFFF
Ne 0 ""
Po 11.43 -1.27
$EndPAD
$PAD
Sh "31" C 1.524 1.524 0 0 0
Dr 1.016 0 0
At STD N 00C0FFFF
Ne 0 ""
Po 13.97 1.27
$EndPAD
$PAD
Sh "33" C 1.524 1.524 0 0 0
Dr 1.016 0 0
At STD N 00C0FFFF
Ne 0 ""
Po 16.51 1.27
$EndPAD
$PAD
Sh "34" C 1.524 1.524 0 0 0
Dr 1.016 0 0
At STD N 00C0FFFF
Ne 0 ""
Po 16.51 -1.27
$EndPAD
$PAD
Sh "13" C 1.524 1.524 0 0 0
Dr 1.016 0 0
At STD N 00C0FFFF
Ne 0 ""
Po -8.89 1.27
$EndPAD
$PAD
Sh "2" C 1.524 1.524 0 0 0
Dr 1.016 0 0
At STD N 00C0FFFF
Ne 0 ""
Po -24.13 -1.27
$EndPAD
$PAD
Sh "3" C 1.524 1.524 0 0 0
Dr 1.016 0 0
At STD N 00C0FFFF
Ne 0 ""
Po -21.59 1.27
$EndPAD
$PAD
Sh "4" C 1.524 1.524 0 0 0
Dr 1.016 0 0
At STD N 00C0FFFF
Ne 0 ""
Po -21.59 -1.27
$EndPAD
$PAD
Sh "5" C 1.524 1.524 0 0 0
Dr 1.016 0 0
At STD N 00C0FFFF
Ne 0 ""
Po -19.05 1.27
$EndPAD
$PAD
Sh "6" C 1.524 1.524 0 0 0
Dr 1.016 0 0
At STD N 00C0FFFF
Ne 0 ""
Po -19.05 -1.27
$EndPAD
$PAD
Sh "7" C 1.524 1.524 0 0 0
Dr 1.016 0 0
At STD N 00C0FFFF
Ne 0 ""
Po -16.51 1.27
$EndPAD
$PAD
Sh "8" C 1.524 1.524 0 0 0
Dr 1.016 0 0
At STD N 00C0FFFF
Ne 0 ""
Po -16.51 -1.27
$EndPAD
$PAD
Sh "9" C 1.524 1.524 0 0 0
Dr 1.016 0 0
At STD N 00C0FFFF
Ne 0 ""
Po -13.97 1.27
$EndPAD
$PAD
Sh "10" C 1.524 1.524 0 0 0
Dr 1.016 0 0
At STD N 00C0FFFF
Ne 0 ""
Po -13.97 -1.27
$EndPAD
$PAD
Sh "11" C 1.524 1.524 0 0 0
Dr 1.016 0 0
At STD N 00C0FFFF
Ne 0 ""
Po -11.43 1.27
$EndPAD
$PAD
Sh "12" C 1.524 1.524 0 0 0
Dr 1.016 0 0
At STD N 00C0FFFF
Ne 0 ""
Po -11.43 -1.27
$EndPAD
$PAD
Sh "35" C 1.524 1.524 0 0 0
Dr 1.016 0 0
At STD N 00C0FFFF
Ne 0 ""
Po 19.05 1.27
$EndPAD
$PAD
Sh "36" C 1.524 1.524 0 0 0
Dr 1.016 0 0
At STD N 00C0FFFF
Ne 0 ""
Po 19.05 -1.27
$EndPAD
$PAD
Sh "38" C 1.524 1.524 0 0 0
Dr 1.016 0 0
At STD N 00E0FFFF
Ne 0 ""
Po 21.59 -1.27
$EndPAD
$PAD
Sh "37" C 1.524 1.524 0 0 0
Dr 1.016 0 0
At STD N 00E0FFFF
Ne 0 ""
Po 21.59 1.27
$EndPAD
$PAD
Sh "40" C 1.524 1.524 0 0 0
Dr 1.016 0 0
At STD N 00E0FFFF
Ne 0 ""
Po 24.13 -1.27
$EndPAD
$PAD
Sh "39" C 1.524 1.524 0 0 0
Dr 1.016 0 0
At STD N 00E0FFFF
Ne 0 ""
Po 24.13 1.27
$EndPAD
$SHAPE3D
Na "pin_array/pins_array_5x2.wrl"
Sc 1 1 1
Of 0 0 0
Ro 0 0 0
$EndSHAPE3D
$EndMODULE HEADER-20X2
$MODULE HEADER-22X1
Po 0 0 0 15 5563CF58 00000000 ~~
Li HEADER-22X1
Cd 22x1-Pin Connector
Kw Connector
Sc 0
AR 
Op 0 0 0
T0 0 -1.524 0.127 0.127 0 0.000001 N I 21 N "CON**"
T1 0 -1.778 0.127 0.127 0 0.000001 N I 21 N "HEADER-22X1"
DS -27.94 1.27 -27.94 -1.27 0.3048 21
DS -27.94 -1.27 27.94 -1.27 0.3048 21
DS 27.94 -1.27 27.94 1.27 0.3048 21
DS 27.94 1.27 -27.94 1.27 0.3048 21
DS -25.4 1.27 -25.4 -1.27 0.3048 21
$PAD
Sh "1" R 1.524 1.524 0 0 0
Dr 1.016 0 0
At STD N 00C0FFFF
Ne 0 ""
Po -26.67 0
$EndPAD
$PAD
Sh "2" C 1.524 1.524 0 0 0
Dr 1.016 0 0
At STD N 00C0FFFF
Ne 0 ""
Po -24.13 0
$EndPAD
$PAD
Sh "3" C 1.524 1.524 0 0 0
Dr 1.016 0 0
At STD N 00C0FFFF
Ne 0 ""
Po -21.59 0
$EndPAD
$PAD
Sh "4" C 1.524 1.524 0 0 0
Dr 1.016 0 0
At STD N 00C0FFFF
Ne 0 ""
Po -19.05 0
$EndPAD
$PAD
Sh "5" C 1.524 1.524 0 0 0
Dr 1.016 0 0
At STD N 00C0FFFF
Ne 0 ""
Po -16.51 0
$EndPAD
$PAD
Sh "6" C 1.524 1.524 0 0 0
Dr 1.016 0 0
At STD N 00C0FFFF
Ne 0 ""
Po -13.97 0
$EndPAD
$PAD
Sh "7" C 1.524 1.524 0 0 0
Dr 1.016 0 0
At STD N 00C0FFFF
Ne 0 ""
Po -11.43 0
$EndPAD
$PAD
Sh "8" C 1.524 1.524 0 0 0
Dr 1.016 0 0
At STD N 00C0FFFF
Ne 0 ""
Po -8.89 0
$EndPAD
$PAD
Sh "9" C 1.524 1.524 0 0 0
Dr 1.016 0 0
At STD N 00C0FFFF
Ne 0 ""
Po -6.35 0
$EndPAD
$PAD
Sh "10" C 1.524 1.524 0 0 0
Dr 1.016 0 0
At STD N 00C0FFFF
Ne 0 ""
Po -3.81 0
$EndPAD
$PAD
Sh "11" C 1.524 1.524 0 0 0
Dr 1.016 0 0
At STD N 00C0FFFF
Ne 0 ""
Po -1.27 0
$EndPAD
$PAD
Sh "12" C 1.524 1.524 0 0 0
Dr 1.016 0 0
At STD N 00C0FFFF
Ne 0 ""
Po 1.27 0
$EndPAD
$PAD
Sh "13" C 1.524 1.524 0 0 0
Dr 1.016 0 0
At STD N 00C0FFFF
Ne 0 ""
Po 3.81 0
$EndPAD
$PAD
Sh "14" C 1.524 1.524 0 0 0
Dr 1.016 0 0
At STD N 00C0FFFF
Ne 0 ""
Po 6.35 0
$EndPAD
$PAD
Sh "15" C 1.524 1.524 0 0 0
Dr 1.016 0 0
At STD N 00C0FFFF
Ne 0 ""
Po 8.89 0
$EndPAD
$PAD
Sh "16" C 1.524 1.524 0 0 0
Dr 1.016 0 0
At STD N 00C0FFFF
Ne 0 ""
Po 11.43 0
$EndPAD
$PAD
Sh "17" C 1.524 1.524 0 0 0
Dr 1.016 0 0
At STD N 00C0FFFF
Ne 0 ""
Po 13.97 0
$EndPAD
$PAD
Sh "18" C 1.524 1.524 0 0 0
Dr 1.016 0 0
At STD N 00C0FFFF
Ne 0 ""
Po 16.51 0
$EndPAD
$PAD
Sh "19" C 1.524 1.524 0 0 0
Dr 1.016 0 0
At STD N 00C0FFFF
Ne 0 ""
Po 19.05 0
$EndPAD
$PAD
Sh "20" C 1.524 1.524 0 0 0
Dr 1.016 0 0
At STD N 00C0FFFF
Ne 0 ""
Po 21.59 0
$EndPAD
$PAD
Sh "21" C 1.524 1.524 0 0 0
Dr 1.016 0 0
At STD N 00C0FFFF
Ne 0 ""
Po 24.13 0
$EndPAD
$PAD
Sh "22" C 1.524 1.524 0 0 0
Dr 1.016 0 0
At STD N 00C0FFFF
Ne 0 ""
Po 26.67 0
$EndPAD
$EndMODULE HEADER-22X1
$MODULE HEADER-22X2
Po 0 0 0 15 551B473B 00000000 ~~
Li HEADER-22X2
Cd 22x2-Pin Connector
Kw Connector
Sc 0
AR 
Op 0 0 0
T0 0 -2.794 0.127 0.127 0 0.000001 N I 21 N "CON**"
T1 0 -3.048 0.127 0.127 0 0.000001 N I 21 N "HEADER-22X2"
DS -27.94 -2.54 27.94 -2.54 0.3048 21
DS 27.94 -2.54 27.94 2.54 0.3048 21
DS 27.94 2.54 -27.94 2.54 0.3048 21
DS -27.94 2.54 -27.94 -2.54 0.3048 21
$PAD
Sh "1" R 1.524 1.524 0 0 0
Dr 1.016 0 0
At STD N 00C0FFFF
Ne 0 ""
Po -26.67 1.27
$EndPAD
$PAD
Sh "14" C 1.524 1.524 0 0 0
Dr 1.016 0 0
At STD N 00C0FFFF
Ne 0 ""
Po -11.43 -1.27
$EndPAD
$PAD
Sh "15" C 1.524 1.524 0 0 0
Dr 1.016 0 0
At STD N 00C0FFFF
Ne 0 ""
Po -8.89 1.27
$EndPAD
$PAD
Sh "16" C 1.524 1.524 0 0 0
Dr 1.016 0 0
At STD N 00C0FFFF
Ne 0 ""
Po -8.89 -1.27
$EndPAD
$PAD
Sh "17" C 1.524 1.524 0 0 0
Dr 1.016 0 0
At STD N 00C0FFFF
Ne 0 ""
Po -6.35 1.27
$EndPAD
$PAD
Sh "18" C 1.524 1.524 0 0 0
Dr 1.016 0 0
At STD N 00C0FFFF
Ne 0 ""
Po -6.35 -1.27
$EndPAD
$PAD
Sh "19" C 1.524 1.524 0 0 0
Dr 1.016 0 0
At STD N 00C0FFFF
Ne 0 ""
Po -3.81 1.27
$EndPAD
$PAD
Sh "20" C 1.524 1.524 0 0 0
Dr 1.016 0 0
At STD N 00C0FFFF
Ne 0 ""
Po -3.81 -1.27
$EndPAD
$PAD
Sh "21" C 1.524 1.524 0 0 0
Dr 1.016 0 0
At STD N 00C0FFFF
Ne 0 ""
Po -1.27 1.27
$EndPAD
$PAD
Sh "22" C 1.524 1.524 0 0 0
Dr 1.016 0 0
At STD N 00C0FFFF
Ne 0 ""
Po -1.27 -1.27
$EndPAD
$PAD
Sh "32" C 1.524 1.524 0 0 0
Dr 1.016 0 0
At STD N 00C0FFFF
Ne 0 ""
Po 11.43 -1.27
$EndPAD
$PAD
Sh "23" C 1.524 1.524 0 0 0
Dr 1.016 0 0
At STD N 00C0FFFF
Ne 0 ""
Po 1.27 1.27
$EndPAD
$PAD
Sh "25" C 1.524 1.524 0 0 0
Dr 1.016 0 0
At STD N 00C0FFFF
Ne 0 ""
Po 3.81 1.27
$EndPAD
$PAD
Sh "24" C 1.524 1.524 0 0 0
Dr 1.016 0 0
At STD N 00C0FFFF
Ne 0 ""
Po 1.27 -1.27
$EndPAD
$PAD
Sh "26" C 1.524 1.524 0 0 0
Dr 1.016 0 0
At STD N 00C0FFFF
Ne 0 ""
Po 3.81 -1.27
$EndPAD
$PAD
Sh "27" C 1.524 1.524 0 0 0
Dr 1.016 0 0
At STD N 00C0FFFF
Ne 0 ""
Po 6.35 1.27
$EndPAD
$PAD
Sh "29" C 1.524 1.524 0 0 0
Dr 1.016 0 0
At STD N 00C0FFFF
Ne 0 ""
Po 8.89 1.27
$EndPAD
$PAD
Sh "28" C 1.524 1.524 0 0 0
Dr 1.016 0 0
At STD N 00C0FFFF
Ne 0 ""
Po 6.35 -1.27
$EndPAD
$PAD
Sh "30" C 1.524 1.524 0 0 0
Dr 1.016 0 0
At STD N 00C0FFFF
Ne 0 ""
Po 8.89 -1.27
$EndPAD
$PAD
Sh "31" C 1.524 1.524 0 0 0
Dr 1.016 0 0
At STD N 00C0FFFF
Ne 0 ""
Po 11.43 1.27
$EndPAD
$PAD
Sh "33" C 1.524 1.524 0 0 0
Dr 1.016 0 0
At STD N 00C0FFFF
Ne 0 ""
Po 13.97 1.27
$EndPAD
$PAD
Sh "34" C 1.524 1.524 0 0 0
Dr 1.016 0 0
At STD N 00C0FFFF
Ne 0 ""
Po 13.97 -1.27
$EndPAD
$PAD
Sh "13" C 1.524 1.524 0 0 0
Dr 1.016 0 0
At STD N 00C0FFFF
Ne 0 ""
Po -11.43 1.27
$EndPAD
$PAD
Sh "2" C 1.524 1.524 0 0 0
Dr 1.016 0 0
At STD N 00C0FFFF
Ne 0 ""
Po -26.67 -1.27
$EndPAD
$PAD
Sh "3" C 1.524 1.524 0 0 0
Dr 1.016 0 0
At STD N 00C0FFFF
Ne 0 ""
Po -24.13 1.27
$EndPAD
$PAD
Sh "4" C 1.524 1.524 0 0 0
Dr 1.016 0 0
At STD N 00C0FFFF
Ne 0 ""
Po -24.13 -1.27
$EndPAD
$PAD
Sh "5" C 1.524 1.524 0 0 0
Dr 1.016 0 0
At STD N 00C0FFFF
Ne 0 ""
Po -21.59 1.27
$EndPAD
$PAD
Sh "6" C 1.524 1.524 0 0 0
Dr 1.016 0 0
At STD N 00C0FFFF
Ne 0 ""
Po -21.59 -1.27
$EndPAD
$PAD
Sh "7" C 1.524 1.524 0 0 0
Dr 1.016 0 0
At STD N 00C0FFFF
Ne 0 ""
Po -19.05 1.27
$EndPAD
$PAD
Sh "8" C 1.524 1.524 0 0 0
Dr 1.016 0 0
At STD N 00C0FFFF
Ne 0 ""
Po -19.05 -1.27
$EndPAD
$PAD
Sh "9" C 1.524 1.524 0 0 0
Dr 1.016 0 0
At STD N 00C0FFFF
Ne 0 ""
Po -16.51 1.27
$EndPAD
$PAD
Sh "10" C 1.524 1.524 0 0 0
Dr 1.016 0 0
At STD N 00C0FFFF
Ne 0 ""
Po -16.51 -1.27
$EndPAD
$PAD
Sh "11" C 1.524 1.524 0 0 0
Dr 1.016 0 0
At STD N 00C0FFFF
Ne 0 ""
Po -13.97 1.27
$EndPAD
$PAD
Sh "12" C 1.524 1.524 0 0 0
Dr 1.016 0 0
At STD N 00C0FFFF
Ne 0 ""
Po -13.97 -1.27
$EndPAD
$PAD
Sh "35" C 1.524 1.524 0 0 0
Dr 1.016 0 0
At STD N 00C0FFFF
Ne 0 ""
Po 16.51 1.27
$EndPAD
$PAD
Sh "36" C 1.524 1.524 0 0 0
Dr 1.016 0 0
At STD N 00C0FFFF
Ne 0 ""
Po 16.51 -1.27
$EndPAD
$PAD
Sh "38" C 1.524 1.524 0 0 0
Dr 1.016 0 0
At STD N 00E0FFFF
Ne 0 ""
Po 19.05 -1.27
$EndPAD
$PAD
Sh "37" C 1.524 1.524 0 0 0
Dr 1.016 0 0
At STD N 00E0FFFF
Ne 0 ""
Po 19.05 1.27
$EndPAD
$PAD
Sh "40" C 1.524 1.524 0 0 0
Dr 1.016 0 0
At STD N 00E0FFFF
Ne 0 ""
Po 21.59 -1.27
$EndPAD
$PAD
Sh "39" C 1.524 1.524 0 0 0
Dr 1.016 0 0
At STD N 00E0FFFF
Ne 0 ""
Po 21.59 1.27
$EndPAD
$PAD
Sh "41" C 1.524 1.524 0 0 0
Dr 1.016 0 0
At STD N 00E0FFFF
Ne 0 ""
Po 24.13 1.27
$EndPAD
$PAD
Sh "42" C 1.524 1.524 0 0 0
Dr 1.016 0 0
At STD N 00E0FFFF
Ne 0 ""
Po 24.13 -1.27
$EndPAD
$PAD
Sh "43" C 1.524 1.524 0 0 0
Dr 1.016 0 0
At STD N 00E0FFFF
Ne 0 ""
Po 26.67 1.27
$EndPAD
$PAD
Sh "44" C 1.524 1.524 0 0 0
Dr 1.016 0 0
At STD N 00E0FFFF
Ne 0 ""
Po 26.67 -1.27
$EndPAD
$SHAPE3D
Na "pin_array/pins_array_5x2.wrl"
Sc 1 1 1
Of 0 0 0
Ro 0 0 0
$EndSHAPE3D
$EndMODULE HEADER-22X2
$MODULE HEADER-23X2
Po 0 0 0 15 555BD810 00000000 ~~
Li HEADER-23X2
Cd 23x2-Pin Connector
Kw Connector
Sc 0
AR 
Op 0 0 0
T0 0 -2.794 0.127 0.127 0 0.000001 N I 21 N "CON**"
T1 0 -3.048 0.127 0.127 0 0.000001 N I 21 N "HEADER-23X2"
DS -29.21 -2.54 29.21 -2.54 0.3048 21
DS 29.21 -2.54 29.21 2.54 0.3048 21
DS 29.21 2.54 -29.21 2.54 0.3048 21
DS -29.21 2.54 -29.21 -2.54 0.3048 21
$PAD
Sh "1" R 1.524 1.524 0 0 0
Dr 1.016 0 0
At STD N 00C0FFFF
Ne 0 ""
Po -27.94 1.27
$EndPAD
$PAD
Sh "14" C 1.524 1.524 0 0 0
Dr 1.016 0 0
At STD N 00C0FFFF
Ne 0 ""
Po -12.7 -1.27
$EndPAD
$PAD
Sh "15" C 1.524 1.524 0 0 0
Dr 1.016 0 0
At STD N 00C0FFFF
Ne 0 ""
Po -10.16 1.27
$EndPAD
$PAD
Sh "16" C 1.524 1.524 0 0 0
Dr 1.016 0 0
At STD N 00C0FFFF
Ne 0 ""
Po -10.16 -1.27
$EndPAD
$PAD
Sh "17" C 1.524 1.524 0 0 0
Dr 1.016 0 0
At STD N 00C0FFFF
Ne 0 ""
Po -7.62 1.27
$EndPAD
$PAD
Sh "18" C 1.524 1.524 0 0 0
Dr 1.016 0 0
At STD N 00C0FFFF
Ne 0 ""
Po -7.62 -1.27
$EndPAD
$PAD
Sh "19" C 1.524 1.524 0 0 0
Dr 1.016 0 0
At STD N 00C0FFFF
Ne 0 ""
Po -5.08 1.27
$EndPAD
$PAD
Sh "20" C 1.524 1.524 0 0 0
Dr 1.016 0 0
At STD N 00C0FFFF
Ne 0 ""
Po -5.08 -1.27
$EndPAD
$PAD
Sh "21" C 1.524 1.524 0 0 0
Dr 1.016 0 0
At STD N 00C0FFFF
Ne 0 ""
Po -2.54 1.27
$EndPAD
$PAD
Sh "22" C 1.524 1.524 0 0 0
Dr 1.016 0 0
At STD N 00C0FFFF
Ne 0 ""
Po -2.54 -1.27
$EndPAD
$PAD
Sh "32" C 1.524 1.524 0 0 0
Dr 1.016 0 0
At STD N 00C0FFFF
Ne 0 ""
Po 10.16 -1.27
$EndPAD
$PAD
Sh "23" C 1.524 1.524 0 0 0
Dr 1.016 0 0
At STD N 00C0FFFF
Ne 0 ""
Po 0 1.27
$EndPAD
$PAD
Sh "25" C 1.524 1.524 0 0 0
Dr 1.016 0 0
At STD N 00C0FFFF
Ne 0 ""
Po 2.54 1.27
$EndPAD
$PAD
Sh "24" C 1.524 1.524 0 0 0
Dr 1.016 0 0
At STD N 00C0FFFF
Ne 0 ""
Po 0 -1.27
$EndPAD
$PAD
Sh "26" C 1.524 1.524 0 0 0
Dr 1.016 0 0
At STD N 00C0FFFF
Ne 0 ""
Po 2.54 -1.27
$EndPAD
$PAD
Sh "27" C 1.524 1.524 0 0 0
Dr 1.016 0 0
At STD N 00C0FFFF
Ne 0 ""
Po 5.08 1.27
$EndPAD
$PAD
Sh "29" C 1.524 1.524 0 0 0
Dr 1.016 0 0
At STD N 00C0FFFF
Ne 0 ""
Po 7.62 1.27
$EndPAD
$PAD
Sh "28" C 1.524 1.524 0 0 0
Dr 1.016 0 0
At STD N 00C0FFFF
Ne 0 ""
Po 5.08 -1.27
$EndPAD
$PAD
Sh "30" C 1.524 1.524 0 0 0
Dr 1.016 0 0
At STD N 00C0FFFF
Ne 0 ""
Po 7.62 -1.27
$EndPAD
$PAD
Sh "31" C 1.524 1.524 0 0 0
Dr 1.016 0 0
At STD N 00C0FFFF
Ne 0 ""
Po 10.16 1.27
$EndPAD
$PAD
Sh "33" C 1.524 1.524 0 0 0
Dr 1.016 0 0
At STD N 00C0FFFF
Ne 0 ""
Po 12.7 1.27
$EndPAD
$PAD
Sh "34" C 1.524 1.524 0 0 0
Dr 1.016 0 0
At STD N 00C0FFFF
Ne 0 ""
Po 12.7 -1.27
$EndPAD
$PAD
Sh "13" C 1.524 1.524 0 0 0
Dr 1.016 0 0
At STD N 00C0FFFF
Ne 0 ""
Po -12.7 1.27
$EndPAD
$PAD
Sh "2" C 1.524 1.524 0 0 0
Dr 1.016 0 0
At STD N 00C0FFFF
Ne 0 ""
Po -27.94 -1.27
$EndPAD
$PAD
Sh "3" C 1.524 1.524 0 0 0
Dr 1.016 0 0
At STD N 00C0FFFF
Ne 0 ""
Po -25.4 1.27
$EndPAD
$PAD
Sh "4" C 1.524 1.524 0 0 0
Dr 1.016 0 0
At STD N 00C0FFFF
Ne 0 ""
Po -25.4 -1.27
$EndPAD
$PAD
Sh "5" C 1.524 1.524 0 0 0
Dr 1.016 0 0
At STD N 00C0FFFF
Ne 0 ""
Po -22.86 1.27
$EndPAD
$PAD
Sh "6" C 1.524 1.524 0 0 0
Dr 1.016 0 0
At STD N 00C0FFFF
Ne 0 ""
Po -22.86 -1.27
$EndPAD
$PAD
Sh "7" C 1.524 1.524 0 0 0
Dr 1.016 0 0
At STD N 00C0FFFF
Ne 0 ""
Po -20.32 1.27
$EndPAD
$PAD
Sh "8" C 1.524 1.524 0 0 0
Dr 1.016 0 0
At STD N 00C0FFFF
Ne 0 ""
Po -20.32 -1.27
$EndPAD
$PAD
Sh "9" C 1.524 1.524 0 0 0
Dr 1.016 0 0
At STD N 00C0FFFF
Ne 0 ""
Po -17.78 1.27
$EndPAD
$PAD
Sh "10" C 1.524 1.524 0 0 0
Dr 1.016 0 0
At STD N 00C0FFFF
Ne 0 ""
Po -17.78 -1.27
$EndPAD
$PAD
Sh "11" C 1.524 1.524 0 0 0
Dr 1.016 0 0
At STD N 00C0FFFF
Ne 0 ""
Po -15.24 1.27
$EndPAD
$PAD
Sh "12" C 1.524 1.524 0 0 0
Dr 1.016 0 0
At STD N 00C0FFFF
Ne 0 ""
Po -15.24 -1.27
$EndPAD
$PAD
Sh "35" C 1.524 1.524 0 0 0
Dr 1.016 0 0
At STD N 00C0FFFF
Ne 0 ""
Po 15.24 1.27
$EndPAD
$PAD
Sh "36" C 1.524 1.524 0 0 0
Dr 1.016 0 0
At STD N 00C0FFFF
Ne 0 ""
Po 15.24 -1.27
$EndPAD
$PAD
Sh "38" C 1.524 1.524 0 0 0
Dr 1.016 0 0
At STD N 00C0FFFF
Ne 0 ""
Po 17.78 -1.27
$EndPAD
$PAD
Sh "37" C 1.524 1.524 0 0 0
Dr 1.016 0 0
At STD N 00C0FFFF
Ne 0 ""
Po 17.78 1.27
$EndPAD
$PAD
Sh "40" C 1.524 1.524 0 0 0
Dr 1.016 0 0
At STD N 00C0FFFF
Ne 0 ""
Po 20.32 -1.27
$EndPAD
$PAD
Sh "39" C 1.524 1.524 0 0 0
Dr 1.016 0 0
At STD N 00C0FFFF
Ne 0 ""
Po 20.32 1.27
$EndPAD
$PAD
Sh "41" C 1.524 1.524 0 0 0
Dr 1.016 0 0
At STD N 00C0FFFF
Ne 0 ""
Po 22.86 1.27
$EndPAD
$PAD
Sh "42" C 1.524 1.524 0 0 0
Dr 1.016 0 0
At STD N 00C0FFFF
Ne 0 ""
Po 22.86 -1.27
$EndPAD
$PAD
Sh "43" C 1.524 1.524 0 0 0
Dr 1.016 0 0
At STD N 00C0FFFF
Ne 0 ""
Po 25.4 1.27
$EndPAD
$PAD
Sh "44" C 1.524 1.524 0 0 0
Dr 1.016 0 0
At STD N 00C0FFFF
Ne 0 ""
Po 25.4 -1.27
$EndPAD
$PAD
Sh "45" C 1.524 1.524 0 0 0
Dr 1.016 0 0
At STD N 00C0FFFF
Ne 0 ""
Po 27.94 1.27
$EndPAD
$PAD
Sh "46" C 1.524 1.524 0 0 0
Dr 1.016 0 0
At STD N 00C0FFFF
Ne 0 ""
Po 27.94 -1.27
$EndPAD
$SHAPE3D
Na "pin_array/pins_array_5x2.wrl"
Sc 1 1 1
Of 0 0 0
Ro 0 0 0
$EndSHAPE3D
$EndMODULE HEADER-23X2
$MODULE HEADER-24X2
Po 0 0 0 15 555BD84A 00000000 ~~
Li HEADER-24X2
Cd 24x2-Pin Connector
Kw Connector
Sc 0
AR 
Op 0 0 0
T0 0 -2.794 0.127 0.127 0 0.000001 N I 21 N "CON**"
T1 0 -3.048 0.127 0.127 0 0.000001 N I 21 N "HEADER-24X2"
DS -30.48 -2.54 30.48 -2.54 0.3048 21
DS 30.48 -2.54 30.48 2.54 0.3048 21
DS 30.48 2.54 -30.48 2.54 0.3048 21
DS -30.48 2.54 -30.48 -2.54 0.3048 21
$PAD
Sh "1" R 1.524 1.524 0 0 0
Dr 1.016 0 0
At STD N 00C0FFFF
Ne 0 ""
Po -29.21 1.27
$EndPAD
$PAD
Sh "14" C 1.524 1.524 0 0 0
Dr 1.016 0 0
At STD N 00C0FFFF
Ne 0 ""
Po -13.97 -1.27
$EndPAD
$PAD
Sh "15" C 1.524 1.524 0 0 0
Dr 1.016 0 0
At STD N 00C0FFFF
Ne 0 ""
Po -11.43 1.27
$EndPAD
$PAD
Sh "16" C 1.524 1.524 0 0 0
Dr 1.016 0 0
At STD N 00C0FFFF
Ne 0 ""
Po -11.43 -1.27
$EndPAD
$PAD
Sh "17" C 1.524 1.524 0 0 0
Dr 1.016 0 0
At STD N 00C0FFFF
Ne 0 ""
Po -8.89 1.27
$EndPAD
$PAD
Sh "18" C 1.524 1.524 0 0 0
Dr 1.016 0 0
At STD N 00C0FFFF
Ne 0 ""
Po -8.89 -1.27
$EndPAD
$PAD
Sh "19" C 1.524 1.524 0 0 0
Dr 1.016 0 0
At STD N 00C0FFFF
Ne 0 ""
Po -6.35 1.27
$EndPAD
$PAD
Sh "20" C 1.524 1.524 0 0 0
Dr 1.016 0 0
At STD N 00C0FFFF
Ne 0 ""
Po -6.35 -1.27
$EndPAD
$PAD
Sh "21" C 1.524 1.524 0 0 0
Dr 1.016 0 0
At STD N 00C0FFFF
Ne 0 ""
Po -3.81 1.27
$EndPAD
$PAD
Sh "22" C 1.524 1.524 0 0 0
Dr 1.016 0 0
At STD N 00C0FFFF
Ne 0 ""
Po -3.81 -1.27
$EndPAD
$PAD
Sh "32" C 1.524 1.524 0 0 0
Dr 1.016 0 0
At STD N 00C0FFFF
Ne 0 ""
Po 8.89 -1.27
$EndPAD
$PAD
Sh "23" C 1.524 1.524 0 0 0
Dr 1.016 0 0
At STD N 00C0FFFF
Ne 0 ""
Po -1.27 1.27
$EndPAD
$PAD
Sh "25" C 1.524 1.524 0 0 0
Dr 1.016 0 0
At STD N 00C0FFFF
Ne 0 ""
Po 1.27 1.27
$EndPAD
$PAD
Sh "24" C 1.524 1.524 0 0 0
Dr 1.016 0 0
At STD N 00C0FFFF
Ne 0 ""
Po -1.27 -1.27
$EndPAD
$PAD
Sh "26" C 1.524 1.524 0 0 0
Dr 1.016 0 0
At STD N 00C0FFFF
Ne 0 ""
Po 1.27 -1.27
$EndPAD
$PAD
Sh "27" C 1.524 1.524 0 0 0
Dr 1.016 0 0
At STD N 00C0FFFF
Ne 0 ""
Po 3.81 1.27
$EndPAD
$PAD
Sh "29" C 1.524 1.524 0 0 0
Dr 1.016 0 0
At STD N 00C0FFFF
Ne 0 ""
Po 6.35 1.27
$EndPAD
$PAD
Sh "28" C 1.524 1.524 0 0 0
Dr 1.016 0 0
At STD N 00C0FFFF
Ne 0 ""
Po 3.81 -1.27
$EndPAD
$PAD
Sh "30" C 1.524 1.524 0 0 0
Dr 1.016 0 0
At STD N 00C0FFFF
Ne 0 ""
Po 6.35 -1.27
$EndPAD
$PAD
Sh "31" C 1.524 1.524 0 0 0
Dr 1.016 0 0
At STD N 00C0FFFF
Ne 0 ""
Po 8.89 1.27
$EndPAD
$PAD
Sh "33" C 1.524 1.524 0 0 0
Dr 1.016 0 0
At STD N 00C0FFFF
Ne 0 ""
Po 11.43 1.27
$EndPAD
$PAD
Sh "34" C 1.524 1.524 0 0 0
Dr 1.016 0 0
At STD N 00C0FFFF
Ne 0 ""
Po 11.43 -1.27
$EndPAD
$PAD
Sh "13" C 1.524 1.524 0 0 0
Dr 1.016 0 0
At STD N 00C0FFFF
Ne 0 ""
Po -13.97 1.27
$EndPAD
$PAD
Sh "2" C 1.524 1.524 0 0 0
Dr 1.016 0 0
At STD N 00C0FFFF
Ne 0 ""
Po -29.21 -1.27
$EndPAD
$PAD
Sh "3" C 1.524 1.524 0 0 0
Dr 1.016 0 0
At STD N 00C0FFFF
Ne 0 ""
Po -26.67 1.27
$EndPAD
$PAD
Sh "4" C 1.524 1.524 0 0 0
Dr 1.016 0 0
At STD N 00C0FFFF
Ne 0 ""
Po -26.67 -1.27
$EndPAD
$PAD
Sh "5" C 1.524 1.524 0 0 0
Dr 1.016 0 0
At STD N 00C0FFFF
Ne 0 ""
Po -24.13 1.27
$EndPAD
$PAD
Sh "6" C 1.524 1.524 0 0 0
Dr 1.016 0 0
At STD N 00C0FFFF
Ne 0 ""
Po -24.13 -1.27
$EndPAD
$PAD
Sh "7" C 1.524 1.524 0 0 0
Dr 1.016 0 0
At STD N 00C0FFFF
Ne 0 ""
Po -21.59 1.27
$EndPAD
$PAD
Sh "8" C 1.524 1.524 0 0 0
Dr 1.016 0 0
At STD N 00C0FFFF
Ne 0 ""
Po -21.59 -1.27
$EndPAD
$PAD
Sh "9" C 1.524 1.524 0 0 0
Dr 1.016 0 0
At STD N 00C0FFFF
Ne 0 ""
Po -19.05 1.27
$EndPAD
$PAD
Sh "10" C 1.524 1.524 0 0 0
Dr 1.016 0 0
At STD N 00C0FFFF
Ne 0 ""
Po -19.05 -1.27
$EndPAD
$PAD
Sh "11" C 1.524 1.524 0 0 0
Dr 1.016 0 0
At STD N 00C0FFFF
Ne 0 ""
Po -16.51 1.27
$EndPAD
$PAD
Sh "12" C 1.524 1.524 0 0 0
Dr 1.016 0 0
At STD N 00C0FFFF
Ne 0 ""
Po -16.51 -1.27
$EndPAD
$PAD
Sh "35" C 1.524 1.524 0 0 0
Dr 1.016 0 0
At STD N 00C0FFFF
Ne 0 ""
Po 13.97 1.27
$EndPAD
$PAD
Sh "36" C 1.524 1.524 0 0 0
Dr 1.016 0 0
At STD N 00C0FFFF
Ne 0 ""
Po 13.97 -1.27
$EndPAD
$PAD
Sh "38" C 1.524 1.524 0 0 0
Dr 1.016 0 0
At STD N 00C0FFFF
Ne 0 ""
Po 16.51 -1.27
$EndPAD
$PAD
Sh "37" C 1.524 1.524 0 0 0
Dr 1.016 0 0
At STD N 00C0FFFF
Ne 0 ""
Po 16.51 1.27
$EndPAD
$PAD
Sh "40" C 1.524 1.524 0 0 0
Dr 1.016 0 0
At STD N 00C0FFFF
Ne 0 ""
Po 19.05 -1.27
$EndPAD
$PAD
Sh "39" C 1.524 1.524 0 0 0
Dr 1.016 0 0
At STD N 00C0FFFF
Ne 0 ""
Po 19.05 1.27
$EndPAD
$PAD
Sh "41" C 1.524 1.524 0 0 0
Dr 1.016 0 0
At STD N 00C0FFFF
Ne 0 ""
Po 21.59 1.27
$EndPAD
$PAD
Sh "42" C 1.524 1.524 0 0 0
Dr 1.016 0 0
At STD N 00C0FFFF
Ne 0 ""
Po 21.59 -1.27
$EndPAD
$PAD
Sh "43" C 1.524 1.524 0 0 0
Dr 1.016 0 0
At STD N 00C0FFFF
Ne 0 ""
Po 24.13 1.27
$EndPAD
$PAD
Sh "44" C 1.524 1.524 0 0 0
Dr 1.016 0 0
At STD N 00C0FFFF
Ne 0 ""
Po 24.13 -1.27
$EndPAD
$PAD
Sh "45" C 1.524 1.524 0 0 0
Dr 1.016 0 0
At STD N 00C0FFFF
Ne 0 ""
Po 26.67 1.27
$EndPAD
$PAD
Sh "46" C 1.524 1.524 0 0 0
Dr 1.016 0 0
At STD N 00C0FFFF
Ne 0 ""
Po 26.67 -1.27
$EndPAD
$PAD
Sh "47" C 1.524 1.524 0 0 0
Dr 1.016 0 0
At STD N 00C0FFFF
Ne 0 ""
Po 29.21 1.27
$EndPAD
$PAD
Sh "48" C 1.524 1.524 0 0 0
Dr 1.016 0 0
At STD N 00C0FFFF
Ne 0 ""
Po 29.21 -1.27
$EndPAD
$SHAPE3D
Na "pin_array/pins_array_5x2.wrl"
Sc 1 1 1
Of 0 0 0
Ro 0 0 0
$EndSHAPE3D
$EndMODULE HEADER-24X2
$MODULE HEADER-25X1
Po 0 0 0 15 54FA326D 00000000 ~~
Li HEADER-25X1
Cd 25x1-Pin Connector
Kw Connector
Sc 0
AR 
Op 0 0 0
T0 0 -1.524 0.127 0.127 0 0.000001 N I 21 N "CON**"
T1 0 -1.778 0.127 0.127 0 0.000001 N I 21 N "HEADER-25X1"
DS -31.75 1.27 -31.75 -1.27 0.3048 21
DS -31.75 -1.27 31.75 -1.27 0.3048 21
DS 31.75 -1.27 31.75 1.27 0.3048 21
DS 31.75 1.27 -31.75 1.27 0.3048 21
DS -29.21 1.27 -29.21 -1.27 0.3048 21
$PAD
Sh "1" R 1.524 1.524 0 0 0
Dr 1.016 0 0
At STD N 00C0FFFF
Ne 0 ""
Po -30.48 0
$EndPAD
$PAD
Sh "2" C 1.524 1.524 0 0 0
Dr 1.016 0 0
At STD N 00C0FFFF
Ne 0 ""
Po -27.94 0
$EndPAD
$PAD
Sh "3" C 1.524 1.524 0 0 0
Dr 1.016 0 0
At STD N 00C0FFFF
Ne 0 ""
Po -25.4 0
$EndPAD
$PAD
Sh "4" C 1.524 1.524 0 0 0
Dr 1.016 0 0
At STD N 00C0FFFF
Ne 0 ""
Po -22.86 0
$EndPAD
$PAD
Sh "5" C 1.524 1.524 0 0 0
Dr 1.016 0 0
At STD N 00C0FFFF
Ne 0 ""
Po -20.32 0
$EndPAD
$PAD
Sh "6" C 1.524 1.524 0 0 0
Dr 1.016 0 0
At STD N 00C0FFFF
Ne 0 ""
Po -17.78 0
$EndPAD
$PAD
Sh "7" C 1.524 1.524 0 0 0
Dr 1.016 0 0
At STD N 00C0FFFF
Ne 0 ""
Po -15.24 0
$EndPAD
$PAD
Sh "8" C 1.524 1.524 0 0 0
Dr 1.016 0 0
At STD N 00C0FFFF
Ne 0 ""
Po -12.7 0
$EndPAD
$PAD
Sh "9" C 1.524 1.524 0 0 0
Dr 1.016 0 0
At STD N 00C0FFFF
Ne 0 ""
Po -10.16 0
$EndPAD
$PAD
Sh "10" C 1.524 1.524 0 0 0
Dr 1.016 0 0
At STD N 00C0FFFF
Ne 0 ""
Po -7.62 0
$EndPAD
$PAD
Sh "11" C 1.524 1.524 0 0 0
Dr 1.016 0 0
At STD N 00C0FFFF
Ne 0 ""
Po -5.08 0
$EndPAD
$PAD
Sh "12" C 1.524 1.524 0 0 0
Dr 1.016 0 0
At STD N 00C0FFFF
Ne 0 ""
Po -2.54 0
$EndPAD
$PAD
Sh "13" C 1.524 1.524 0 0 0
Dr 1.016 0 0
At STD N 00C0FFFF
Ne 0 ""
Po 0 0
$EndPAD
$PAD
Sh "14" C 1.524 1.524 0 0 0
Dr 1.016 0 0
At STD N 00C0FFFF
Ne 0 ""
Po 2.54 0
$EndPAD
$PAD
Sh "15" C 1.524 1.524 0 0 0
Dr 1.016 0 0
At STD N 00C0FFFF
Ne 0 ""
Po 5.08 0
$EndPAD
$PAD
Sh "16" C 1.524 1.524 0 0 0
Dr 1.016 0 0
At STD N 00C0FFFF
Ne 0 ""
Po 7.62 0
$EndPAD
$PAD
Sh "17" C 1.524 1.524 0 0 0
Dr 1.016 0 0
At STD N 00C0FFFF
Ne 0 ""
Po 10.16 0
$EndPAD
$PAD
Sh "18" C 1.524 1.524 0 0 0
Dr 1.016 0 0
At STD N 00C0FFFF
Ne 0 ""
Po 12.7 0
$EndPAD
$PAD
Sh "19" C 1.524 1.524 0 0 0
Dr 1.016 0 0
At STD N 00C0FFFF
Ne 0 ""
Po 15.24 0
$EndPAD
$PAD
Sh "20" C 1.524 1.524 0 0 0
Dr 1.016 0 0
At STD N 00C0FFFF
Ne 0 ""
Po 17.78 0
$EndPAD
$PAD
Sh "21" C 1.524 1.524 0 0 0
Dr 1.016 0 0
At STD N 00C0FFFF
Ne 0 ""
Po 20.32 0
$EndPAD
$PAD
Sh "22" C 1.524 1.524 0 0 0
Dr 1.016 0 0
At STD N 00C0FFFF
Ne 0 ""
Po 22.86 0
$EndPAD
$PAD
Sh "23" C 1.524 1.524 0 0 0
Dr 1.016 0 0
At STD N 00C0FFFF
Ne 0 ""
Po 25.4 0
$EndPAD
$PAD
Sh "24" C 1.524 1.524 0 0 0
Dr 1.016 0 0
At STD N 00C0FFFF
Ne 0 ""
Po 27.94 0
$EndPAD
$PAD
Sh "25" C 1.524 1.524 0 0 0
Dr 1.016 0 0
At STD N 00C0FFFF
Ne 0 ""
Po 30.48 0
$EndPAD
$EndMODULE HEADER-25X1
$MODULE HEADER-2X1
Po 0 0 0 15 54FA3037 00000000 ~~
Li HEADER-2X1
Cd 2x1-Pin Connector
Kw Connector
Sc 0
AR 
Op 0 0 0
T0 0 -1.524 0.127 0.127 0 0.000001 N I 21 N "CON**"
T1 0 -1.778 0.127 0.127 0 0.000001 N I 21 N "HEADER-2X1"
DS -2.54 1.27 -2.54 -1.27 0.3048 21
DS -2.54 -1.27 2.54 -1.27 0.3048 21
DS 2.54 -1.27 2.54 1.27 0.3048 21
DS 2.54 1.27 -2.54 1.27 0.3048 21
$PAD
Sh "1" R 1.524 1.524 0 0 0
Dr 1.016 0 0
At STD N 00C0FFFF
Ne 0 ""
Po -1.27 0
$EndPAD
$PAD
Sh "2" C 1.524 1.524 0 0 0
Dr 1.016 0 0
At STD N 00C0FFFF
Ne 0 ""
Po 1.27 0
$EndPAD
$EndMODULE HEADER-2X1
$MODULE HEADER-3X1
Po 0 0 0 15 54FA3051 00000000 ~~
Li HEADER-3X1
Cd 3x1-Pin Connector
Kw Connector
Sc 0
AR 
Op 0 0 0
T0 0 -1.524 0.127 0.127 0 0.000001 N I 21 N "CON**"
T1 0 -1.778 0.127 0.127 0 0.000001 N I 21 N "HEADER-3X1"
DS -3.81 1.27 -3.81 -1.27 0.3048 21
DS -3.81 -1.27 3.81 -1.27 0.3048 21
DS 3.81 -1.27 3.81 1.27 0.3048 21
DS 3.81 1.27 -3.81 1.27 0.3048 21
DS -1.27 -1.27 -1.27 1.27 0.3048 21
$PAD
Sh "1" R 1.524 1.524 0 0 0
Dr 1.016 0 0
At STD N 00C0FFFF
Ne 0 ""
Po -2.54 0
$EndPAD
$PAD
Sh "2" C 1.524 1.524 0 0 0
Dr 1.016 0 0
At STD N 00C0FFFF
Ne 0 ""
Po 0 0
$EndPAD
$PAD
Sh "3" C 1.524 1.524 0 0 0
Dr 1.016 0 0
At STD N 00C0FFFF
Ne 0 ""
Po 2.54 0
$EndPAD
$EndMODULE HEADER-3X1
$MODULE HEADER-3X2
Po 0 0 0 15 551C8C36 00000000 ~~
Li HEADER-3X2
Cd 3x2-Pin Connector
Kw Connector
Sc 0
AR 
Op 0 0 0
T0 0 -2.794 0.127 0.127 0 0.000001 N I 21 N "CON**"
T1 0 -3.048 0.127 0.127 0 0.000001 N I 21 N "HEADER-3X2"
DS -3.81 -2.54 3.81 -2.54 0.3048 21
DS 3.81 -2.54 3.81 2.54 0.3048 21
DS 3.81 2.54 -3.81 2.54 0.3048 21
DS -3.81 2.54 -3.81 -2.54 0.3048 21
$PAD
Sh "1" R 1.524 1.524 0 0 0
Dr 1.016 0 0
At STD N 00C0FFFF
Ne 0 ""
Po -2.54 1.27
$EndPAD
$PAD
Sh "2" C 1.524 1.524 0 0 0
Dr 1.016 0 0
At STD N 00C0FFFF
Ne 0 ""
Po -2.54 -1.27
$EndPAD
$PAD
Sh "3" C 1.524 1.524 0 0 0
Dr 1.016 0 0
At STD N 00C0FFFF
Ne 0 ""
Po 0 1.27
$EndPAD
$PAD
Sh "4" C 1.524 1.524 0 0 0
Dr 1.016 0 0
At STD N 00C0FFFF
Ne 0 ""
Po 0 -1.27
$EndPAD
$PAD
Sh "5" C 1.524 1.524 0 0 0
Dr 1.016 0 0
At STD N 00C0FFFF
Ne 0 ""
Po 2.54 1.27
$EndPAD
$PAD
Sh "6" C 1.524 1.524 0 0 0
Dr 1.016 0 0
At STD N 00C0FFFF
Ne 0 ""
Po 2.54 -1.27
$EndPAD
$SHAPE3D
Na "pin_array/pins_array_5x2.wrl"
Sc 1 1 1
Of 0 0 0
Ro 0 0 0
$EndSHAPE3D
$EndMODULE HEADER-3X2
$MODULE HEADER-4X1
Po 0 0 0 15 54FA3079 00000000 ~~
Li HEADER-4X1
Cd 4x1-Pin Connector
Kw Connector
Sc 0
AR 
Op 0 0 0
T0 0 -1.524 0.127 0.127 0 0.000001 N I 21 N "CON**"
T1 0 -1.778 0.127 0.127 0 0.000001 N I 21 N "HEADER-4X1"
DS -5.08 -1.27 -5.08 -1.27 0.3048 21
DS -5.08 1.27 -5.08 -1.27 0.3048 21
DS -5.08 -1.27 -5.08 -1.27 0.3048 21
DS -5.08 -1.27 5.08 -1.27 0.3048 21
DS 5.08 -1.27 5.08 1.27 0.3048 21
DS 5.08 1.27 -5.08 1.27 0.3048 21
DS -2.54 1.27 -2.54 -1.27 0.3048 21
$PAD
Sh "1" R 1.524 1.524 0 0 0
Dr 1.016 0 0
At STD N 00C0FFFF
Ne 0 ""
Po -3.81 0
$EndPAD
$PAD
Sh "2" C 1.524 1.524 0 0 0
Dr 1.016 0 0
At STD N 00C0FFFF
Ne 0 ""
Po -1.27 0
$EndPAD
$PAD
Sh "3" C 1.524 1.524 0 0 0
Dr 1.016 0 0
At STD N 00C0FFFF
Ne 0 ""
Po 1.27 0
$EndPAD
$PAD
Sh "4" C 1.524 1.524 0 0 0
Dr 1.016 0 0
At STD N 00C0FFFF
Ne 0 ""
Po 3.81 0
$EndPAD
$EndMODULE HEADER-4X1
$MODULE HEADER-5MIL-18X2
Po 0 0 0 15 55098EF2 00000000 ~~
Li HEADER-5MIL-18X2
Cd 18x2-Pin Connector, 5 mil Spacing
Kw Connector
Sc 0
AR 
Op 0 0 0
T0 0 -2.794 0.127 0.127 0 0.000001 N I 21 N "CON**"
T1 0 -3.048 0.127 0.127 0 0.000001 N I 21 N "HEADER-5MIL-18X2"
DS -11.43 -2.54 11.43 -2.54 0.3048 21
DS 11.43 -2.54 11.43 2.54 0.3048 21
DS 11.43 2.54 -11.43 2.54 0.3048 21
DS -11.43 2.54 -11.43 -2.54 0.3048 21
$PAD
Sh "1" R 0.74 2.4 0 0 0
Dr 0 0 0
At SMD N 00888000
Ne 0 ""
Po -10.795 1.95
$EndPAD
$PAD
Sh "14" R 0.74 2.4 0 0 0
Dr 0 0 0
At SMD N 00888000
Ne 0 ""
Po -3.175 -1.95
$EndPAD
$PAD
Sh "15" R 0.74 2.4 0 0 0
Dr 0 0 0
At SMD N 00888000
Ne 0 ""
Po -1.905 1.95
$EndPAD
$PAD
Sh "16" R 0.74 2.4 0 0 0
Dr 0 0 0
At SMD N 00888000
Ne 0 ""
Po -1.905 -1.95
$EndPAD
$PAD
Sh "17" R 0.74 2.4 0 0 0
Dr 0 0 0
At SMD N 00888000
Ne 0 ""
Po -0.635 1.95
$EndPAD
$PAD
Sh "18" R 0.74 2.4 0 0 0
Dr 0 0 0
At SMD N 00888000
Ne 0 ""
Po -0.635 -1.95
$EndPAD
$PAD
Sh "19" R 0.74 2.4 0 0 0
Dr 0 0 0
At SMD N 00888000
Ne 0 ""
Po 0.635 1.95
$EndPAD
$PAD
Sh "20" R 0.74 2.4 0 0 0
Dr 0 0 0
At SMD N 00888000
Ne 0 ""
Po 0.635 -1.95
$EndPAD
$PAD
Sh "21" R 0.74 2.4 0 0 0
Dr 0 0 0
At SMD N 00888000
Ne 0 ""
Po 1.905 1.95
$EndPAD
$PAD
Sh "22" R 0.74 2.4 0 0 0
Dr 0 0 0
At SMD N 00888000
Ne 0 ""
Po 1.905 -1.95
$EndPAD
$PAD
Sh "32" R 0.74 2.4 0 0 0
Dr 0 0 0
At SMD N 00888000
Ne 0 ""
Po 8.255 -1.95
$EndPAD
$PAD
Sh "23" R 0.74 2.4 0 0 0
Dr 0 0 0
At SMD N 00888000
Ne 0 ""
Po 3.175 1.95
$EndPAD
$PAD
Sh "25" R 0.74 2.4 0 0 0
Dr 0 0 0
At SMD N 00888000
Ne 0 ""
Po 4.445 1.95
$EndPAD
$PAD
Sh "24" R 0.74 2.4 0 0 0
Dr 0 0 0
At SMD N 00888000
Ne 0 ""
Po 3.175 -1.95
$EndPAD
$PAD
Sh "26" R 0.74 2.4 0 0 0
Dr 0 0 0
At SMD N 00888000
Ne 0 ""
Po 4.445 -1.95
$EndPAD
$PAD
Sh "27" R 0.74 2.4 0 0 0
Dr 0 0 0
At SMD N 00888000
Ne 0 ""
Po 5.715 1.95
$EndPAD
$PAD
Sh "29" R 0.74 2.4 0 0 0
Dr 0 0 0
At SMD N 00888000
Ne 0 ""
Po 6.985 1.95
$EndPAD
$PAD
Sh "28" R 0.74 2.4 0 0 0
Dr 0 0 0
At SMD N 00888000
Ne 0 ""
Po 5.715 -1.95
$EndPAD
$PAD
Sh "30" R 0.74 2.4 0 0 0
Dr 0 0 0
At SMD N 00888000
Ne 0 ""
Po 6.985 -1.95
$EndPAD
$PAD
Sh "31" R 0.74 2.4 0 0 0
Dr 0 0 0
At SMD N 00888000
Ne 0 ""
Po 8.255 1.95
$EndPAD
$PAD
Sh "33" R 0.74 2.4 0 0 0
Dr 0 0 0
At SMD N 00888000
Ne 0 ""
Po 9.525 1.95
$EndPAD
$PAD
Sh "34" R 0.74 2.4 0 0 0
Dr 0 0 0
At SMD N 00888000
Ne 0 ""
Po 9.525 -1.95
$EndPAD
$PAD
Sh "13" R 0.74 2.4 0 0 0
Dr 0 0 0
At SMD N 00888000
Ne 0 ""
Po -3.175 1.95
$EndPAD
$PAD
Sh "2" R 0.74 2.4 0 0 0
Dr 0 0 0
At SMD N 00888000
Ne 0 ""
Po -10.795 -1.95
$EndPAD
$PAD
Sh "3" R 0.74 2.4 0 0 0
Dr 0 0 0
At SMD N 00888000
Ne 0 ""
Po -9.525 1.95
$EndPAD
$PAD
Sh "4" R 0.74 2.4 0 0 0
Dr 0 0 0
At SMD N 00888000
Ne 0 ""
Po -9.525 -1.95
$EndPAD
$PAD
Sh "5" R 0.74 2.4 0 0 0
Dr 0 0 0
At CONN N 00808000
Ne 0 ""
Po -8.255 1.95
$EndPAD
$PAD
Sh "6" R 0.74 2.4 0 0 0
Dr 0 0 0
At SMD N 00888000
Ne 0 ""
Po -8.255 -1.95
$EndPAD
$PAD
Sh "7" R 0.74 2.4 0 0 0
Dr 0 0 0
At CONN N 00808000
Ne 0 ""
Po -6.985 1.95
$EndPAD
$PAD
Sh "8" R 0.74 2.4 0 0 0
Dr 0 0 0
At SMD N 00888000
Ne 0 ""
Po -6.985 -1.95
$EndPAD
$PAD
Sh "9" R 0.74 2.4 0 0 0
Dr 0 0 0
At SMD N 00888000
Ne 0 ""
Po -5.715 1.95
$EndPAD
$PAD
Sh "10" R 0.74 2.4 0 0 0
Dr 0 0 0
At SMD N 00888000
Ne 0 ""
Po -5.715 -1.95
$EndPAD
$PAD
Sh "11" R 0.74 2.4 0 0 0
Dr 0 0 0
At SMD N 00888000
Ne 0 ""
Po -4.445 1.95
$EndPAD
$PAD
Sh "12" R 0.74 2.4 0 0 0
Dr 0 0 0
At SMD N 00888000
Ne 0 ""
Po -4.445 -1.95
$EndPAD
$PAD
Sh "35" R 0.74 2.4 0 0 0
Dr 0 0 0
At SMD N 00888000
Ne 0 ""
Po 10.795 1.95
$EndPAD
$PAD
Sh "36" R 0.74 2.4 0 0 0
Dr 0 0 0
At SMD N 00888000
Ne 0 ""
Po 10.795 -1.95
$EndPAD
$SHAPE3D
Na "pin_array/pins_array_5x2.wrl"
Sc 1 1 1
Of 0 0 0
Ro 0 0 0
$EndSHAPE3D
$EndMODULE HEADER-5MIL-18X2
$MODULE HEADER-5X1
Po 0 0 0 15 54FA308F 00000000 ~~
Li HEADER-5X1
Cd 5x1-Pin Connector
Kw Connector
Sc 0
AR 
Op 0 0 0
T0 0 -1.524 0.127 0.127 0 0.000001 N I 21 N "CON**"
T1 0 -1.778 0.127 0.127 0 0.000001 N I 21 N "HEADER-5X1"
DS -6.35 1.27 -6.35 -1.27 0.3048 21
DS -6.35 -1.27 6.35 -1.27 0.3048 21
DS 6.35 -1.27 6.35 1.27 0.3048 21
DS 6.35 1.27 -6.35 1.27 0.3048 21
DS -3.81 1.27 -3.81 -1.27 0.3048 21
$PAD
Sh "1" R 1.524 1.524 0 0 0
Dr 1.016 0 0
At STD N 00C0FFFF
Ne 0 ""
Po -5.08 0
$EndPAD
$PAD
Sh "2" C 1.524 1.524 0 0 0
Dr 1.016 0 0
At STD N 00C0FFFF
Ne 0 ""
Po -2.54 0
$EndPAD
$PAD
Sh "3" C 1.524 1.524 0 0 0
Dr 1.016 0 0
At STD N 00C0FFFF
Ne 0 ""
Po 0 0
$EndPAD
$PAD
Sh "4" C 1.524 1.524 0 0 0
Dr 1.016 0 0
At STD N 00C0FFFF
Ne 0 ""
Po 2.54 0
$EndPAD
$PAD
Sh "5" C 1.524 1.524 0 0 0
Dr 1.016 0 0
At STD N 00C0FFFF
Ne 0 ""
Po 5.08 0
$EndPAD
$EndMODULE HEADER-5X1
$MODULE HEADER-5X2
Po 0 0 0 15 54FA30B6 00000000 ~~
Li HEADER-5X2
Cd 5x2-Pin Connector
Kw Connector
Sc 0
AR 
Op 0 0 0
T0 0 -2.794 0.127 0.127 0 0.000001 N I 21 N "CON**"
T1 0 -3.048 0.127 0.127 0 0.000001 N I 21 N "HEADER-5X2"
DS -6.35 -2.54 6.35 -2.54 0.3048 21
DS 6.35 -2.54 6.35 2.54 0.3048 21
DS 6.35 2.54 -6.35 2.54 0.3048 21
DS -6.35 2.54 -6.35 -2.54 0.3048 21
$PAD
Sh "1" R 1.524 1.524 0 0 0
Dr 1.016 0 0
At STD N 00C0FFFF
Ne 0 ""
Po -5.08 1.27
$EndPAD
$PAD
Sh "2" C 1.524 1.524 0 0 0
Dr 1.016 0 0
At STD N 00C0FFFF
Ne 0 ""
Po -5.08 -1.27
$EndPAD
$PAD
Sh "3" C 1.524 1.524 0 0 0
Dr 1.016 0 0
At STD N 00C0FFFF
Ne 0 ""
Po -2.54 1.27
$EndPAD
$PAD
Sh "4" C 1.524 1.524 0 0 0
Dr 1.016 0 0
At STD N 00C0FFFF
Ne 0 ""
Po -2.54 -1.27
$EndPAD
$PAD
Sh "5" C 1.524 1.524 0 0 0
Dr 1.016 0 0
At STD N 00C0FFFF
Ne 0 ""
Po 0 1.27
$EndPAD
$PAD
Sh "6" C 1.524 1.524 0 0 0
Dr 1.016 0 0
At STD N 00C0FFFF
Ne 0 ""
Po 0 -1.27
$EndPAD
$PAD
Sh "7" C 1.524 1.524 0 0 0
Dr 1.016 0 0
At STD N 00C0FFFF
Ne 0 ""
Po 2.54 1.27
$EndPAD
$PAD
Sh "8" C 1.524 1.524 0 0 0
Dr 1.016 0 0
At STD N 00C0FFFF
Ne 0 ""
Po 2.54 -1.27
$EndPAD
$PAD
Sh "9" C 1.524 1.524 0 0 0
Dr 1.016 0 0
At STD N 00C0FFFF
Ne 0 ""
Po 5.08 1.27
$EndPAD
$PAD
Sh "10" C 1.524 1.524 0 0 0
Dr 1.016 0 0
At STD N 00C0FFFF
Ne 0 ""
Po 5.08 -1.27
$EndPAD
$SHAPE3D
Na "pin_array/pins_array_5x2.wrl"
Sc 1 1 1
Of 0 0 0
Ro 0 0 0
$EndSHAPE3D
$EndMODULE HEADER-5X2
$MODULE HEADER-6X1
Po 0 0 0 15 54FA30CF 00000000 ~~
Li HEADER-6X1
Cd 6x1-Pin Connector
Kw Connector
Sc 0
AR 
Op 0 0 0
T0 0 -1.524 0.127 0.127 0 0.000001 N I 21 N "CON**"
T1 0 -1.778 0.127 0.127 0 0.000001 N I 21 N "HEADER-6X1"
DS -7.62 1.27 -7.62 -1.27 0.3048 21
DS -7.62 -1.27 7.62 -1.27 0.3048 21
DS 7.62 -1.27 7.62 1.27 0.3048 21
DS 7.62 1.27 -7.62 1.27 0.3048 21
DS -5.08 1.27 -5.08 -1.27 0.3048 21
$PAD
Sh "1" R 1.524 1.524 0 0 0
Dr 1.016 0 0
At STD N 00C0FFFF
Ne 0 ""
Po -6.35 0
$EndPAD
$PAD
Sh "2" C 1.524 1.524 0 0 0
Dr 1.016 0 0
At STD N 00C0FFFF
Ne 0 ""
Po -3.81 0
$EndPAD
$PAD
Sh "3" C 1.524 1.524 0 0 0
Dr 1.016 0 0
At STD N 00C0FFFF
Ne 0 ""
Po -1.27 0
$EndPAD
$PAD
Sh "4" C 1.524 1.524 0 0 0
Dr 1.016 0 0
At STD N 00C0FFFF
Ne 0 ""
Po 1.27 0
$EndPAD
$PAD
Sh "5" C 1.524 1.524 0 0 0
Dr 1.016 0 0
At STD N 00C0FFFF
Ne 0 ""
Po 3.81 0
$EndPAD
$PAD
Sh "6" C 1.524 1.524 0 0 0
Dr 1.016 0 0
At STD N 00C0FFFF
Ne 0 ""
Po 6.35 0
$EndPAD
$EndMODULE HEADER-6X1
$MODULE HEADER-6X2
Po 0 0 0 15 55093403 00000000 ~~
Li HEADER-6X2
Cd 6x2-Pin Connector
Kw Connector
Sc 0
AR 
Op 0 0 0
T0 0 -2.794 0.127 0.127 0 0.000001 N I 21 N "CON**"
T1 0 -3.048 0.127 0.127 0 0.000001 N I 21 N "HEADER-6X2"
DS -7.62 -2.54 7.62 -2.54 0.3048 21
DS 7.62 -2.54 7.62 2.54 0.3048 21
DS 7.62 2.54 -7.62 2.54 0.3048 21
DS -7.62 2.54 -7.62 -2.54 0.3048 21
$PAD
Sh "1" R 1.524 1.524 0 0 0
Dr 1.016 0 0
At STD N 00C0FFFF
Ne 0 ""
Po -6.35 1.27
$EndPAD
$PAD
Sh "2" C 1.524 1.524 0 0 0
Dr 1.016 0 0
At STD N 00C0FFFF
Ne 0 ""
Po -6.35 -1.27
$EndPAD
$PAD
Sh "3" C 1.524 1.524 0 0 0
Dr 1.016 0 0
At STD N 00C0FFFF
Ne 0 ""
Po -3.81 1.27
$EndPAD
$PAD
Sh "4" C 1.524 1.524 0 0 0
Dr 1.016 0 0
At STD N 00C0FFFF
Ne 0 ""
Po -3.81 -1.27
$EndPAD
$PAD
Sh "5" C 1.524 1.524 0 0 0
Dr 1.016 0 0
At STD N 00C0FFFF
Ne 0 ""
Po -1.27 1.27
$EndPAD
$PAD
Sh "6" C 1.524 1.524 0 0 0
Dr 1.016 0 0
At STD N 00C0FFFF
Ne 0 ""
Po -1.27 -1.27
$EndPAD
$PAD
Sh "7" C 1.524 1.524 0 0 0
Dr 1.016 0 0
At STD N 00C0FFFF
Ne 0 ""
Po 1.27 1.27
$EndPAD
$PAD
Sh "8" C 1.524 1.524 0 0 0
Dr 1.016 0 0
At STD N 00C0FFFF
Ne 0 ""
Po 1.27 -1.27
$EndPAD
$PAD
Sh "9" C 1.524 1.524 0 0 0
Dr 1.016 0 0
At STD N 00C0FFFF
Ne 0 ""
Po 3.81 1.27
$EndPAD
$PAD
Sh "10" C 1.524 1.524 0 0 0
Dr 1.016 0 0
At STD N 00C0FFFF
Ne 0 ""
Po 3.81 -1.27
$EndPAD
$PAD
Sh "11" C 1.524 1.524 0 0 0
Dr 1.016 0 0
At STD N 00C0FFFF
Ne 0 ""
Po 6.35 1.27
$EndPAD
$PAD
Sh "12" C 1.524 1.524 0 0 0
Dr 1.016 0 0
At STD N 00C0FFFF
Ne 0 ""
Po 6.35 -1.27
$EndPAD
$SHAPE3D
Na "pin_array/pins_array_5x2.wrl"
Sc 1 1 1
Of 0 0 0
Ro 0 0 0
$EndSHAPE3D
$EndMODULE HEADER-6X2
$MODULE HEADER-7X1
Po 0 0 0 15 54FA30E9 00000000 ~~
Li HEADER-7X1
Cd 7x1-Pin Connector
Kw Connector
Sc 0
AR 
Op 0 0 0
T0 0 -1.524 0.127 0.127 0 0.000001 N I 21 N "CON**"
T1 0 -1.778 0.127 0.127 0 0.000001 N I 21 N "HEADER-7X1"
DS -8.89 -1.27 -8.89 -1.27 0.3048 21
DS -8.89 -1.27 8.89 -1.27 0.3048 21
DS 8.89 -1.27 8.89 1.27 0.3048 21
DS 8.89 1.27 -8.89 1.27 0.3048 21
DS -8.89 1.27 -8.89 -1.27 0.3048 21
DS -6.35 1.27 -6.35 1.27 0.3048 21
DS -6.35 1.27 -6.35 -1.27 0.3048 21
$PAD
Sh "1" R 1.524 1.524 0 0 0
Dr 1.016 0 0
At STD N 00C0FFFF
Ne 0 ""
Po -7.62 0
$EndPAD
$PAD
Sh "2" C 1.524 1.524 0 0 0
Dr 1.016 0 0
At STD N 00C0FFFF
Ne 0 ""
Po -5.08 0
$EndPAD
$PAD
Sh "3" C 1.524 1.524 0 0 0
Dr 1.016 0 0
At STD N 00C0FFFF
Ne 0 ""
Po -2.54 0
$EndPAD
$PAD
Sh "4" C 1.524 1.524 0 0 0
Dr 1.016 0 0
At STD N 00C0FFFF
Ne 0 ""
Po 0 0
$EndPAD
$PAD
Sh "5" C 1.524 1.524 0 0 0
Dr 1.016 0 0
At STD N 00C0FFFF
Ne 0 ""
Po 2.54 0
$EndPAD
$PAD
Sh "6" C 1.524 1.524 0 0 0
Dr 1.016 0 0
At STD N 00C0FFFF
Ne 0 ""
Po 5.08 0
$EndPAD
$PAD
Sh "7" C 1.524 1.524 0 0 0
Dr 1.016 0 0
At STD N 00C0FFFF
Ne 0 ""
Po 7.62 0
$EndPAD
$EndMODULE HEADER-7X1
$MODULE HEADER-8X1
Po 0 0 0 15 54FA310A 00000000 ~~
Li HEADER-8X1
Cd 8x1-Pin Connector
Kw Connector
Sc 0
AR 
Op 0 0 0
T0 0 -1.524 0.127 0.127 0 0.000001 N I 21 N "CON**"
T1 0 -1.778 0.127 0.127 0 0.000001 N I 21 N "HEADER-8X1"
DS -10.16 -1.27 10.16 -1.27 0.3048 21
DS 10.16 -1.27 10.16 1.27 0.3048 21
DS 10.16 1.27 -10.16 1.27 0.3048 21
DS -10.16 1.27 -10.16 -1.27 0.3048 21
DS -7.62 1.27 -7.62 -1.27 0.3048 21
$PAD
Sh "1" R 1.524 1.524 0 0 0
Dr 1.016 0 0
At STD N 00C0FFFF
Ne 0 ""
Po -8.89 0
$EndPAD
$PAD
Sh "2" C 1.524 1.524 0 0 0
Dr 1.016 0 0
At STD N 00C0FFFF
Ne 0 ""
Po -6.35 0
$EndPAD
$PAD
Sh "3" C 1.524 1.524 0 0 0
Dr 1.016 0 0
At STD N 00C0FFFF
Ne 0 ""
Po -3.81 0
$EndPAD
$PAD
Sh "4" C 1.524 1.524 0 0 0
Dr 1.016 0 0
At STD N 00C0FFFF
Ne 0 ""
Po -1.27 0
$EndPAD
$PAD
Sh "5" C 1.524 1.524 0 0 0
Dr 1.016 0 0
At STD N 00C0FFFF
Ne 0 ""
Po 1.27 0
$EndPAD
$PAD
Sh "6" C 1.524 1.524 0 0 0
Dr 1.016 0 0
At STD N 00C0FFFF
Ne 0 ""
Po 3.81 0
$EndPAD
$PAD
Sh "7" C 1.524 1.524 0 0 0
Dr 1.016 0 0
At STD N 00C0FFFF
Ne 0 ""
Po 6.35 0
$EndPAD
$PAD
Sh "8" C 1.524 1.524 0 0 0
Dr 1.016 0 0
At STD N 00C0FFFF
Ne 0 ""
Po 8.89 0
$EndPAD
$EndMODULE HEADER-8X1
$MODULE HEADER-9X1
Po 0 0 0 15 54FA312E 00000000 ~~
Li HEADER-9X1
Cd 9x1-Pin Connector
Kw Connector
Sc 0
AR 
Op 0 0 0
T0 0 -1.524 0.127 0.127 0 0.000001 N I 21 N "CON**"
T1 0 -1.778 0.127 0.127 0 0.000001 N I 21 N "HEADER-8X1"
DS 11.43 -1.27 11.43 1.27 0.3048 21
DS 11.43 1.27 -11.43 1.27 0.3048 21
DS -11.43 1.27 -11.43 -1.27 0.3048 21
DS 11.43 -1.27 -11.43 -1.27 0.3048 21
DS -8.89 -1.27 -8.89 1.27 0.3048 21
$PAD
Sh "1" R 1.524 1.524 0 0 0
Dr 1.016 0 0
At STD N 00C0FFFF
Ne 0 ""
Po -10.16 0
$EndPAD
$PAD
Sh "2" C 1.524 1.524 0 0 0
Dr 1.016 0 0
At STD N 00C0FFFF
Ne 0 ""
Po -7.62 0
$EndPAD
$PAD
Sh "3" C 1.524 1.524 0 0 0
Dr 1.016 0 0
At STD N 00C0FFFF
Ne 0 ""
Po -5.08 0
$EndPAD
$PAD
Sh "4" C 1.524 1.524 0 0 0
Dr 1.016 0 0
At STD N 00C0FFFF
Ne 0 ""
Po -2.54 0
$EndPAD
$PAD
Sh "5" C 1.524 1.524 0 0 0
Dr 1.016 0 0
At STD N 00C0FFFF
Ne 0 ""
Po 0 0
$EndPAD
$PAD
Sh "6" C 1.524 1.524 0 0 0
Dr 1.016 0 0
At STD N 00C0FFFF
Ne 0 ""
Po 2.54 0
$EndPAD
$PAD
Sh "7" C 1.524 1.524 0 0 0
Dr 1.016 0 0
At STD N 00C0FFFF
Ne 0 ""
Po 5.08 0
$EndPAD
$PAD
Sh "8" C 1.524 1.524 0 0 0
Dr 1.016 0 0
At STD N 00C0FFFF
Ne 0 ""
Po 7.62 0
$EndPAD
$PAD
Sh "9" C 1.524 1.524 0 0 0
Dr 1.016 0 0
At STD N 00C0FFFF
Ne 0 ""
Po 10.16 0
$EndPAD
$EndMODULE HEADER-9X1
$MODULE HEADER-9X2
Po 0 0 0 15 551C8BD4 00000000 ~~
Li HEADER-9X2
Cd 9x2-Pin Connector
Kw Connector
Sc 0
AR 
Op 0 0 0
T0 0 -2.794 0.127 0.127 0 0.000001 N I 21 N "CON**"
T1 0 -3.048 0.127 0.127 0 0.000001 N I 21 N "HEADER-9X2"
DS -11.43 -2.54 11.43 -2.54 0.3048 21
DS 11.43 -2.54 11.43 2.54 0.3048 21
DS 11.43 2.54 -11.43 2.54 0.3048 21
DS -11.43 2.54 -11.43 -2.54 0.3048 21
$PAD
Sh "1" R 1.524 1.524 0 0 0
Dr 1.016 0 0
At STD N 00C0FFFF
Ne 0 ""
Po -10.16 1.27
$EndPAD
$PAD
Sh "14" C 1.524 1.524 0 0 0
Dr 1.016 0 0
At STD N 00C0FFFF
Ne 0 ""
Po 5.08 -1.27
$EndPAD
$PAD
Sh "15" C 1.524 1.524 0 0 0
Dr 1.016 0 0
At STD N 00C0FFFF
Ne 0 ""
Po 7.62 1.27
$EndPAD
$PAD
Sh "16" C 1.524 1.524 0 0 0
Dr 1.016 0 0
At STD N 00C0FFFF
Ne 0 ""
Po 7.62 -1.27
$EndPAD
$PAD
Sh "17" C 1.524 1.524 0 0 0
Dr 1.016 0 0
At STD N 00C0FFFF
Ne 0 ""
Po 10.16 1.27
$EndPAD
$PAD
Sh "18" C 1.524 1.524 0 0 0
Dr 1.016 0 0
At STD N 00C0FFFF
Ne 0 ""
Po 10.16 -1.27
$EndPAD
$PAD
Sh "13" C 1.524 1.524 0 0 0
Dr 1.016 0 0
At STD N 00C0FFFF
Ne 0 ""
Po 5.08 1.27
$EndPAD
$PAD
Sh "2" C 1.524 1.524 0 0 0
Dr 1.016 0 0
At STD N 00C0FFFF
Ne 0 ""
Po -10.16 -1.27
$EndPAD
$PAD
Sh "3" C 1.524 1.524 0 0 0
Dr 1.016 0 0
At STD N 00C0FFFF
Ne 0 ""
Po -7.62 1.27
$EndPAD
$PAD
Sh "4" C 1.524 1.524 0 0 0
Dr 1.016 0 0
At STD N 00C0FFFF
Ne 0 ""
Po -7.62 -1.27
$EndPAD
$PAD
Sh "5" C 1.524 1.524 0 0 0
Dr 1.016 0 0
At STD N 00C0FFFF
Ne 0 ""
Po -5.08 1.27
$EndPAD
$PAD
Sh "6" C 1.524 1.524 0 0 0
Dr 1.016 0 0
At STD N 00C0FFFF
Ne 0 ""
Po -5.08 -1.27
$EndPAD
$PAD
Sh "7" C 1.524 1.524 0 0 0
Dr 1.016 0 0
At STD N 00C0FFFF
Ne 0 ""
Po -2.54 1.27
$EndPAD
$PAD
Sh "8" C 1.524 1.524 0 0 0
Dr 1.016 0 0
At STD N 00C0FFFF
Ne 0 ""
Po -2.54 -1.27
$EndPAD
$PAD
Sh "9" C 1.524 1.524 0 0 0
Dr 1.016 0 0
At STD N 00C0FFFF
Ne 0 ""
Po 0 1.27
$EndPAD
$PAD
Sh "10" C 1.524 1.524 0 0 0
Dr 1.016 0 0
At STD N 00C0FFFF
Ne 0 ""
Po 0 -1.27
$EndPAD
$PAD
Sh "11" C 1.524 1.524 0 0 0
Dr 1.016 0 0
At STD N 00C0FFFF
Ne 0 ""
Po 2.54 1.27
$EndPAD
$PAD
Sh "12" C 1.524 1.524 0 0 0
Dr 1.016 0 0
At STD N 00C0FFFF
Ne 0 ""
Po 2.54 -1.27
$EndPAD
$SHAPE3D
Na "pin_array/pins_array_5x2.wrl"
Sc 1 1 1
Of 0 0 0
Ro 0 0 0
$EndSHAPE3D
$EndMODULE HEADER-9X2
$MODULE IDC-5X2
Po 0 0 0 15 55037A24 00000000 ~~
Li IDC-5X2
Cd 5x2-Pin Connector
Kw Connector
Sc 0
AR 
Op 0 0 0
T0 0 -4.826 0.127 0.127 0 0.000001 N I 21 N "CON**"
T1 0 -5.08 0.127 0.127 0 0.000001 N I 21 N "IDC-5X2"
DS 2.5 4.5 10.5 4.5 0.3048 21
DS -10.5 -4.5 10.5 -4.5 0.3048 21
DS 10.5 -4.5 10.5 4.5 0.3048 21
DS -2.5 4.5 -10.5 4.5 0.3048 21
DS -10.5 4.5 -10.5 -4.5 0.3048 21
$PAD
Sh "1" R 1.524 1.524 0 0 0
Dr 1.016 0 0
At STD N 00C0FFFF
Ne 0 ""
Po -5.08 1.27
$EndPAD
$PAD
Sh "2" C 1.524 1.524 0 0 0
Dr 1.016 0 0
At STD N 00C0FFFF
Ne 0 ""
Po -5.08 -1.27
$EndPAD
$PAD
Sh "3" C 1.524 1.524 0 0 0
Dr 1.016 0 0
At STD N 00C0FFFF
Ne 0 ""
Po -2.54 1.27
$EndPAD
$PAD
Sh "4" C 1.524 1.524 0 0 0
Dr 1.016 0 0
At STD N 00C0FFFF
Ne 0 ""
Po -2.54 -1.27
$EndPAD
$PAD
Sh "5" C 1.524 1.524 0 0 0
Dr 1.016 0 0
At STD N 00C0FFFF
Ne 0 ""
Po 0 1.27
$EndPAD
$PAD
Sh "6" C 1.524 1.524 0 0 0
Dr 1.016 0 0
At STD N 00C0FFFF
Ne 0 ""
Po 0 -1.27
$EndPAD
$PAD
Sh "7" C 1.524 1.524 0 0 0
Dr 1.016 0 0
At STD N 00C0FFFF
Ne 0 ""
Po 2.54 1.27
$EndPAD
$PAD
Sh "8" C 1.524 1.524 0 0 0
Dr 1.016 0 0
At STD N 00C0FFFF
Ne 0 ""
Po 2.54 -1.27
$EndPAD
$PAD
Sh "9" C 1.524 1.524 0 0 0
Dr 1.016 0 0
At STD N 00C0FFFF
Ne 0 ""
Po 5.08 1.27
$EndPAD
$PAD
Sh "10" C 1.524 1.524 0 0 0
Dr 1.016 0 0
At STD N 00C0FFFF
Ne 0 ""
Po 5.08 -1.27
$EndPAD
$SHAPE3D
Na "pin_array/pins_array_5x2.wrl"
Sc 1 1 1
Of 0 0 0
Ro 0 0 0
$EndSHAPE3D
$EndMODULE IDC-5X2
$MODULE TESTPOINT
Po 0 0 0 15 551F04E3 00000000 ~~
Li TESTPOINT
Cd 2-Pin Testpoint
Kw Testpoint
Sc 0
AR 
Op 0 0 0
T0 0 -1.27 0.5 0.5 0 0.12 N V 21 N "TP**"
T1 0 0 0.127 0.127 0 0.000001 N I 21 N "TESTPOINT"
DS -1.905 -0.889 1.778 -0.889 0.2032 21
DS 1.778 -0.889 2.286 -0.381 0.2032 21
DS 2.286 -0.381 2.286 0.381 0.2032 21
DS 2.286 0.381 1.778 0.889 0.2032 21
DS 1.778 0.889 -1.905 0.889 0.2032 21
DS -1.905 0.889 -2.413 0.381 0.2032 21
DS -2.413 0.381 -2.413 -0.381 0.2032 21
DS -2.413 -0.381 -1.905 -0.889 0.2032 21
$PAD
Sh "1" C 1.397 1.397 0 0 0
Dr 0.8128 0 0
At STD N 00E0FFFF
Ne 0 ""
Po -1.27 0
$EndPAD
$PAD
Sh "1" C 1.397 1.397 0 0 0
Dr 0.8128 0 0
At STD N 00E0FFFF
Ne 0 ""
Po 1.27 0
$EndPAD
$SHAPE3D
Na "connectors/testpoint.wrl"
Sc 1 1 1
Of 0 0 0
Ro 0 0 0
$EndSHAPE3D
$EndMODULE TESTPOINT
$MODULE TOKEN-KEYPAD-INTERFACE
Po 0 0 0 15 5509A66E 00000000 ~~
Li TOKEN-KEYPAD-INTERFACE
Cd TOKEN-KEYPAD-INTERFACE
Kw Connector
Sc 0
AR 1pin
Op 0 0 0
T0 0 0.254 0.127 0.127 0 0.000001 N I 21 N "P**"
T1 0 -0.254 0.127 0.127 0 0.000001 N I 21 N "TOKEN-KEYPAD-INTERFACE"
$PAD
Sh "1" C 2.032 2.032 0 0 0
Dr 1.016 0 0
At STD N 00C0FFFF
Ne 0 ""
Po -12.5 -15
$EndPAD
$PAD
Sh "2" C 2.032 2.032 0 0 0
Dr 1.016 0 0
At STD N 00C0FFFF
Ne 0 ""
Po -7.5 -15
$EndPAD
$PAD
Sh "3" C 2.032 2.032 0 0 0
Dr 1.016 0 0
At STD N 00C0FFFF
Ne 0 ""
Po -2.5 -15
$EndPAD
$PAD
Sh "4" C 2.032 2.032 0 0 0
Dr 1.016 0 0
At STD N 00C0FFFF
Ne 0 ""
Po 2.5 -15
$EndPAD
$PAD
Sh "5" C 2.032 2.032 0 0 0
Dr 1.016 0 0
At STD N 00C0FFFF
Ne 0 ""
Po 7.5 -15
$EndPAD
$PAD
Sh "6" C 2.032 2.032 0 0 0
Dr 1.016 0 0
At STD N 00C0FFFF
Ne 0 ""
Po 12.5 -15
$EndPAD
$PAD
Sh "7" C 2.032 2.032 0 0 0
Dr 1.016 0 0
At STD N 00C0FFFF
Ne 0 ""
Po -12.5 -5
$EndPAD
$PAD
Sh "8" C 2.032 2.032 0 0 0
Dr 1.016 0 0
At STD N 00C0FFFF
Ne 0 ""
Po -7.5 -5
$EndPAD
$PAD
Sh "9" C 2.032 2.032 0 0 0
Dr 1.016 0 0
At STD N 00C0FFFF
Ne 0 ""
Po -2.5 -5
$EndPAD
$PAD
Sh "10" C 2.032 2.032 0 0 0
Dr 1.016 0 0
At STD N 00C0FFFF
Ne 0 ""
Po 2.5 -5
$EndPAD
$PAD
Sh "11" C 2.032 2.032 0 0 0
Dr 1.016 0 0
At STD N 00C0FFFF
Ne 0 ""
Po 7.5 -5
$EndPAD
$PAD
Sh "12" C 2.032 2.032 0 0 0
Dr 1.016 0 0
At STD N 00C0FFFF
Ne 0 ""
Po 12.5 -5
$EndPAD
$PAD
Sh "13" C 2.032 2.032 0 0 0
Dr 1.016 0 0
At STD N 00C0FFFF
Ne 0 ""
Po -12.5 5
$EndPAD
$PAD
Sh "14" C 2.032 2.032 0 0 0
Dr 1.016 0 0
At STD N 00C0FFFF
Ne 0 ""
Po -7.5 5
$EndPAD
$PAD
Sh "15" C 2.032 2.032 0 0 0
Dr 1.016 0 0
At STD N 00C0FFFF
Ne 0 ""
Po -2.5 5
$EndPAD
$PAD
Sh "16" C 2.032 2.032 0 0 0
Dr 1.016 0 0
At STD N 00C0FFFF
Ne 0 ""
Po 2.5 5
$EndPAD
$PAD
Sh "17" C 2.032 2.032 0 0 0
Dr 1.016 0 0
At STD N 00C0FFFF
Ne 0 ""
Po 7.5 5
$EndPAD
$PAD
Sh "18" C 2.032 2.032 0 0 0
Dr 1.016 0 0
At STD N 00C0FFFF
Ne 0 ""
Po 12.5 5
$EndPAD
$PAD
Sh "19" C 2.032 2.032 0 0 0
Dr 1.016 0 0
At STD N 00C0FFFF
Ne 0 ""
Po -7.5 15
$EndPAD
$PAD
Sh "20" C 2.032 2.032 0 0 0
Dr 1.016 0 0
At STD N 00C0FFFF
Ne 0 ""
Po -2.5 15
$EndPAD
$PAD
Sh "21" C 2.032 2.032 0 0 0
Dr 1.016 0 0
At STD N 00C0FFFF
Ne 0 ""
Po 2.5 15
$EndPAD
$PAD
Sh "22" C 2.032 2.032 0 0 0
Dr 1.016 0 0
At STD N 00C0FFFF
Ne 0 ""
Po 7.5 15
$EndPAD
$EndMODULE TOKEN-KEYPAD-INTERFACE
$MODULE TOKEN-KEYPAD-INTERFACE-BOTTOM
Po 0 0 0 15 55692BA2 00000000 ~~
Li TOKEN-KEYPAD-INTERFACE-BOTTOM
Cd TOKEN-KEYPAD-INTERFACE-BOTTOM
Kw Connector
Sc 0
AR 1pin
Op 0 0 0
T0 0 0.254 0.127 0.127 0 0.000001 N I 21 N "P**"
T1 0 -0.254 0.127 0.127 0 0.000001 N I 21 N "TOKEN-KEYPAD-INTERFACE-BOTTOM"
$PAD
Sh "1" R 2.15 5 0 0 0
Dr 0 0 0
At SMD N 00440001
Ne 0 ""
Po -13.075 -15
$EndPAD
$PAD
Sh "2" R 2.15 5 0 0 0
Dr 0 0 0
At SMD N 00440001
Ne 0 ""
Po -6.425 -15
$EndPAD
$PAD
Sh "3" R 2.15 5 0 0 0
Dr 0 0 0
At SMD N 00440001
Ne 0 ""
Po -3.325 -15
$EndPAD
$PAD
Sh "4" R 2.15 5 0 0 0
Dr 0 0 0
At SMD N 00440001
Ne 0 ""
Po 3.325 -15
$EndPAD
$PAD
Sh "5" R 2.15 5 0 0 0
Dr 0 0 0
At SMD N 00440001
Ne 0 ""
Po 6.425 -15
$EndPAD
$PAD
Sh "6" R 2.15 5 0 0 0
Dr 0 0 0
At SMD N 00440001
Ne 0 ""
Po 13.075 -15
$EndPAD
$PAD
Sh "7" R 2.15 5 0 0 0
Dr 0 0 0
At SMD N 00440001
Ne 0 ""
Po -13.075 -5
$EndPAD
$PAD
Sh "8" R 2.15 5 0 0 0
Dr 0 0 0
At SMD N 00440001
Ne 0 ""
Po -6.425 -5
$EndPAD
$PAD
Sh "9" R 2.15 5 0 0 0
Dr 0 0 0
At SMD N 00440001
Ne 0 ""
Po -3.325 -5
$EndPAD
$PAD
Sh "10" R 2.15 5 0 0 0
Dr 0 0 0
At SMD N 00440001
Ne 0 ""
Po 3.325 -5
$EndPAD
$PAD
Sh "11" R 2.15 5 0 0 0
Dr 0 0 0
At SMD N 00440001
Ne 0 ""
Po 6.425 -5
$EndPAD
$PAD
Sh "12" R 2.15 5 0 0 0
Dr 0 0 0
At SMD N 00440001
Ne 0 ""
Po 13.075 -5
$EndPAD
$PAD
Sh "13" R 2.15 5 0 0 0
Dr 0 0 0
At SMD N 00440001
Ne 0 ""
Po -13.075 5
$EndPAD
$PAD
Sh "14" R 2.15 5 0 0 0
Dr 0 0 0
At SMD N 00440001
Ne 0 ""
Po -6.425 5
$EndPAD
$PAD
Sh "15" R 2.15 5 0 0 0
Dr 0 0 0
At SMD N 00440001
Ne 0 ""
Po -3.325 5
$EndPAD
$PAD
Sh "16" R 2.15 5 0 0 0
Dr 0 0 0
At SMD N 00440001
Ne 0 ""
Po 3.325 5
$EndPAD
$PAD
Sh "17" R 2.15 5 0 0 0
Dr 0 0 0
At SMD N 00440001
Ne 0 ""
Po 6.425 5
$EndPAD
$PAD
Sh "18" R 2.15 5 0 0 0
Dr 0 0 0
At SMD N 00440001
Ne 0 ""
Po 13.075 5
$EndPAD
$PAD
Sh "19" R 2.15 5 0 0 0
Dr 0 0 0
At SMD N 00440001
Ne 0 ""
Po -8.4745 15
$EndPAD
$PAD
Sh "20" R 2.15 5 0 0 0
Dr 0 0 0
At SMD N 00440001
Ne 0 ""
Po -1.8245 15
$EndPAD
$PAD
Sh "21" R 2.15 5 0 0 0
Dr 0 0 0
At SMD N 00440001
Ne 0 ""
Po 1.8245 15
$EndPAD
$PAD
Sh "22" R 2.15 5 0 0 0
Dr 0 0 0
At SMD N 00440001
Ne 0 ""
Po 8.4745 15
$EndPAD
$EndMODULE TOKEN-KEYPAD-INTERFACE-BOTTOM
$MODULE TOKEN-KEYPAD-INTERFACE-BOTTOM-TUNED
Po 0 0 0 15 559BC938 00000000 ~~
Li TOKEN-KEYPAD-INTERFACE-BOTTOM-TUNED
Cd TOKEN-KEYPAD-INTERFACE-BOTTOM-TUNED
Kw Connector
Sc 0
AR 1pin
Op 0 0 0
T0 0 0.254 0.127 0.127 0 0.000001 N I 21 N "P**"
T1 0 -0.254 0.127 0.127 0 0.000001 N I 21 N "TOKEN-KEYPAD-INTERFACE-BOTTOM-TUNED"
$PAD
Sh "1" R 2.15 5 0 0 0
Dr 0 0 0
At SMD N 00440001
Ne 0 ""
Po -12.6105 -15
$EndPAD
$PAD
Sh "2" R 2.15 5 0 0 0
Dr 0 0 0
At SMD N 00440001
Ne 0 ""
Po -6.9415 -15
$EndPAD
$PAD
Sh "3" R 2.15 5 0 0 0
Dr 0 0 0
At SMD N 00440001
Ne 0 ""
Po -2.8345 -15
$EndPAD
$PAD
Sh "4" R 2.15 5 0 0 0
Dr 0 0 0
At SMD N 00440001
Ne 0 ""
Po 2.8345 -15
$EndPAD
$PAD
Sh "5" R 2.15 5 0 0 0
Dr 0 0 0
At SMD N 00440001
Ne 0 ""
Po 7.4425 -15
$EndPAD
$PAD
Sh "6" R 2.15 5 0 0 0
Dr 0 0 0
At SMD N 00440001
Ne 0 ""
Po 13.1115 -15
$EndPAD
$PAD
Sh "7" R 2.15 5 0 0 0
Dr 0 0 0
At SMD N 00440001
Ne 0 ""
Po -12.6105 -5
$EndPAD
$PAD
Sh "8" R 2.15 5 0 0 0
Dr 0 0 0
At SMD N 00440001
Ne 0 ""
Po -6.9415 -5
$EndPAD
$PAD
Sh "9" R 2.15 5 0 0 0
Dr 0 0 0
At SMD N 00440001
Ne 0 ""
Po -2.8345 -5
$EndPAD
$PAD
Sh "10" R 2.15 5 0 0 0
Dr 0 0 0
At SMD N 00440001
Ne 0 ""
Po 2.8345 -5
$EndPAD
$PAD
Sh "11" R 2.15 5 0 0 0
Dr 0 0 0
At SMD N 00440001
Ne 0 ""
Po 7.4425 -5
$EndPAD
$PAD
Sh "12" R 2.15 5 0 0 0
Dr 0 0 0
At SMD N 00440001
Ne 0 ""
Po 13.1115 -5
$EndPAD
$PAD
Sh "13" R 2.15 5 0 0 0
Dr 0 0 0
At SMD N 00440001
Ne 0 ""
Po -12.6105 5
$EndPAD
$PAD
Sh "14" R 2.15 5 0 0 0
Dr 0 0 0
At SMD N 00440001
Ne 0 ""
Po -6.9415 5
$EndPAD
$PAD
Sh "15" R 2.15 5 0 0 0
Dr 0 0 0
At SMD N 00440001
Ne 0 ""
Po -2.8345 5
$EndPAD
$PAD
Sh "16" R 2.15 5 0 0 0
Dr 0 0 0
At SMD N 00440001
Ne 0 ""
Po 2.8345 5
$EndPAD
$PAD
Sh "17" R 2.15 5 0 0 0
Dr 0 0 0
At SMD N 00440001
Ne 0 ""
Po 7.4425 5
$EndPAD
$PAD
Sh "18" R 2.15 5 0 0 0
Dr 0 0 0
At SMD N 00440001
Ne 0 ""
Po 13.1115 5
$EndPAD
$PAD
Sh "19" R 2.15 5 0 0 0
Dr 0 0 0
At SMD N 00440001
Ne 0 ""
Po -7.9985 15
$EndPAD
$PAD
Sh "20" R 2.15 5 0 0 0
Dr 0 0 0
At SMD N 00440001
Ne 0 ""
Po -2.3295 15
$EndPAD
$PAD
Sh "21" R 2.15 5 0 0 0
Dr 0 0 0
At SMD N 00440001
Ne 0 ""
Po 2.3295 15
$EndPAD
$PAD
Sh "22" R 2.15 5 0 0 0
Dr 0 0 0
At SMD N 00440001
Ne 0 ""
Po 7.9985 15
$EndPAD
$EndMODULE TOKEN-KEYPAD-INTERFACE-BOTTOM-TUNED
$MODULE TOKEN-KEYPAD-INTERFACE-BOTTOM-V2
Po 0 0 0 15 559BD230 00000000 ~~
Li TOKEN-KEYPAD-INTERFACE-BOTTOM-V2
Cd TOKEN-KEYPAD-INTERFACE-BOTTOM-V2
Kw Connector
Sc 0
AR 1pin
Op 0 0 0
T0 0 0.254 0.127 0.127 0 0.000001 N I 21 N "P**"
T1 0 -0.254 0.127 0.127 0 0.000001 N I 21 N "TOKEN-KEYPAD-INTERFACE-BOTTOM-V2"
$PAD
Sh "1" R 5.013 2.15 0 0 0
Dr 0 0 0
At SMD N 00440001
Ne 0 ""
Po -9.776 -17.075
$EndPAD
$PAD
Sh "2" R 5.013 2.15 0 0 0
Dr 0 0 0
At SMD N 00440001
Ne 0 ""
Po -9.776 -12.925
$EndPAD
$PAD
Sh "3" R 5.013 2.15 0 0 0
Dr 0 0 0
At SMD N 00440001
Ne 0 ""
Po 0 -17.075
$EndPAD
$PAD
Sh "4" R 5.013 2.15 0 0 0
Dr 0 0 0
At SMD N 00440001
Ne 0 ""
Po 0 -12.925
$EndPAD
$PAD
Sh "5" R 5.013 2.15 0 0 0
Dr 0 0 0
At SMD N 00440001
Ne 0 ""
Po 10.276 -17.075
$EndPAD
$PAD
Sh "6" R 5.013 2.15 0 0 0
Dr 0 0 0
At SMD N 00440001
Ne 0 ""
Po 10.276 -12.925
$EndPAD
$PAD
Sh "7" R 5.013 2.15 0 0 0
Dr 0 0 0
At SMD N 00440001
Ne 0 ""
Po -9.776 -7.075
$EndPAD
$PAD
Sh "8" R 5.013 2.15 0 0 0
Dr 0 0 0
At SMD N 00440001
Ne 0 ""
Po -9.776 -2.925
$EndPAD
$PAD
Sh "9" R 5.013 2.15 0 0 0
Dr 0 0 0
At SMD N 00440001
Ne 0 ""
Po 0 -7.075
$EndPAD
$PAD
Sh "10" R 5.013 2.15 0 0 0
Dr 0 0 0
At SMD N 00440001
Ne 0 ""
Po 0 -2.925
$EndPAD
$PAD
Sh "11" R 5.013 2.15 0 0 0
Dr 0 0 0
At SMD N 00440001
Ne 0 ""
Po 10.276 -7.075
$EndPAD
$PAD
Sh "12" R 5.013 2.15 0 0 0
Dr 0 0 0
At SMD N 00440001
Ne 0 ""
Po 10.276 -2.925
$EndPAD
$PAD
Sh "13" R 2.15 5 0 0 0
Dr 0 0 0
At SMD N 00440001
Ne 0 ""
Po -11.857 5
$EndPAD
$PAD
Sh "14" R 2.15 5 0 0 0
Dr 0 0 0
At SMD N 00440001
Ne 0 ""
Po -7.695 5
$EndPAD
$PAD
Sh "15" R 5.013 2.15 0 0 0
Dr 0 0 0
At SMD N 00440001
Ne 0 ""
Po 0 2.925
$EndPAD
$PAD
Sh "16" R 5.013 2.15 0 0 0
Dr 0 0 0
At SMD N 00440001
Ne 0 ""
Po 0 7.075
$EndPAD
$PAD
Sh "17" R 2.15 5 0 0 0
Dr 0 0 0
At SMD N 00440001
Ne 0 ""
Po 8.196 5
$EndPAD
$PAD
Sh "18" R 2.15 5 0 0 0
Dr 0 0 0
At SMD N 00440001
Ne 0 ""
Po 12.357 5
$EndPAD
$PAD
Sh "19" R 5.013 2.15 0 0 0
Dr 0 0 0
At SMD N 00440001
Ne 0 ""
Po -4.664 12.925
$EndPAD
$PAD
Sh "20" R 5.013 2.15 0 0 0
Dr 0 0 0
At SMD N 00440001
Ne 0 ""
Po -4.664 17.075
$EndPAD
$PAD
Sh "21" R 5.013 2.15 0 0 0
Dr 0 0 0
At SMD N 00440001
Ne 0 ""
Po 5.663 12.925
$EndPAD
$PAD
Sh "22" R 5.013 2.15 0 0 0
Dr 0 0 0
At SMD N 00440001
Ne 0 ""
Po 5.663 17.075
$EndPAD
$EndMODULE TOKEN-KEYPAD-INTERFACE-BOTTOM-V2
$MODULE TOKEN-KEYPAD-INTERFACE-TOP
Po 0 0 0 15 5562CB10 00000000 ~~
Li TOKEN-KEYPAD-INTERFACE-TOP
Cd TOKEN-KEYPAD-INTERFACE-TOP
Kw Connector
Sc 0
AR 1pin
Op 0 0 0
T0 0 0.254 0.127 0.127 0 0.000001 N I 21 N "P**"
T1 0 -0.254 0.127 0.127 0 0.000001 N I 21 N "TOKEN-KEYPAD-INTERFACE-TOP"
$PAD
Sh "1" R 2.15 5 0 0 0
Dr 0 0 0
At SMD N 00888000
Ne 0 ""
Po -13.075 -15
$EndPAD
$PAD
Sh "2" R 2.15 5 0 0 0
Dr 0 0 0
At SMD N 00888000
Ne 0 ""
Po -6.425 -15
$EndPAD
$PAD
Sh "3" R 2.15 5 0 0 0
Dr 0 0 0
At SMD N 00888000
Ne 0 ""
Po -3.325 -15
$EndPAD
$PAD
Sh "4" R 2.15 5 0 0 0
Dr 0 0 0
At SMD N 00888000
Ne 0 ""
Po 3.325 -15
$EndPAD
$PAD
Sh "5" R 2.15 5 0 0 0
Dr 0 0 0
At SMD N 00888000
Ne 0 ""
Po 6.425 -15
$EndPAD
$PAD
Sh "6" R 2.15 5 0 0 0
Dr 0 0 0
At SMD N 00888000
Ne 0 ""
Po 13.075 -15
$EndPAD
$PAD
Sh "7" R 2.15 5 0 0 0
Dr 0 0 0
At SMD N 00888000
Ne 0 ""
Po -13.075 -5
$EndPAD
$PAD
Sh "8" R 2.15 5 0 0 0
Dr 0 0 0
At SMD N 00888000
Ne 0 ""
Po -6.425 -5
$EndPAD
$PAD
Sh "9" R 2.15 5 0 0 0
Dr 0 0 0
At SMD N 00888000
Ne 0 ""
Po -3.325 -5
$EndPAD
$PAD
Sh "10" R 2.15 5 0 0 0
Dr 0 0 0
At SMD N 00888000
Ne 0 ""
Po 3.325 -5
$EndPAD
$PAD
Sh "11" R 2.15 5 0 0 0
Dr 0 0 0
At SMD N 00888000
Ne 0 ""
Po 6.425 -5
$EndPAD
$PAD
Sh "12" R 2.15 5 0 0 0
Dr 0 0 0
At SMD N 00888000
Ne 0 ""
Po 13.075 -5
$EndPAD
$PAD
Sh "13" R 2.15 5 0 0 0
Dr 0 0 0
At SMD N 00888000
Ne 0 ""
Po -13.075 5
$EndPAD
$PAD
Sh "14" R 2.15 5 0 0 0
Dr 0 0 0
At SMD N 00888000
Ne 0 ""
Po -6.425 5
$EndPAD
$PAD
Sh "15" R 2.15 5 0 0 0
Dr 0 0 0
At SMD N 00888000
Ne 0 ""
Po -3.325 5
$EndPAD
$PAD
Sh "16" R 2.15 5 0 0 0
Dr 0 0 0
At SMD N 00888000
Ne 0 ""
Po 3.325 5
$EndPAD
$PAD
Sh "17" R 2.15 5 0 0 0
Dr 0 0 0
At SMD N 00888000
Ne 0 ""
Po 6.425 5
$EndPAD
$PAD
Sh "18" R 2.15 5 0 0 0
Dr 0 0 0
At SMD N 00888000
Ne 0 ""
Po 13.075 5
$EndPAD
$PAD
Sh "19" R 2.15 5 0 0 0
Dr 0 0 0
At SMD N 00888000
Ne 0 ""
Po -8.4745 15
$EndPAD
$PAD
Sh "20" R 2.15 5 0 0 0
Dr 0 0 0
At SMD N 00888000
Ne 0 ""
Po -1.8245 15
$EndPAD
$PAD
Sh "21" R 2.15 5 0 0 0
Dr 0 0 0
At SMD N 00888000
Ne 0 ""
Po 1.8245 15
$EndPAD
$PAD
Sh "22" R 2.15 5 0 0 0
Dr 0 0 0
At SMD N 00888000
Ne 0 ""
Po 8.4745 15
$EndPAD
$EndMODULE TOKEN-KEYPAD-INTERFACE-TOP
$MODULE TOKEN-KEYPAD-INTERFACE2
Po 0 0 0 15 5509A6A9 00000000 ~~
Li TOKEN-KEYPAD-INTERFACE2
Cd TOKEN-KEYPAD-INTERFACE2
Kw Connector
Sc 0
AR 1pin
Op 0 0 0
T0 0 0.254 0.127 0.127 0 0.000001 N I 21 N "P**"
T1 0 -0.254 0.127 0.127 0 0.000001 N I 21 N "TOKEN-KEYPAD-INTERFACE2"
$PAD
Sh "1" C 5 5 0 0 0
Dr 2.032 0 0
At STD N 00C0FFFF
Ne 0 ""
Po -12.5 -15
$EndPAD
$PAD
Sh "3" C 5 5 0 0 0
Dr 2.032 0 0
At STD N 00C0FFFF
Ne 0 ""
Po -2.5 -15
$EndPAD
$PAD
Sh "6" C 5 5 0 0 0
Dr 2.032 0 0
At STD N 00C0FFFF
Ne 0 ""
Po 12.5 -15
$EndPAD
$PAD
Sh "7" C 5 5 0 0 0
Dr 2.032 0 0
At STD N 00C0FFFF
Ne 0 ""
Po -12.5 -5
$EndPAD
$PAD
Sh "9" C 5 5 0 0 0
Dr 2.032 0 0
At STD N 00C0FFFF
Ne 0 ""
Po -2.5 -5
$EndPAD
$PAD
Sh "12" C 5 5 0 0 0
Dr 2.032 0 0
At STD N 00C0FFFF
Ne 0 ""
Po 12.5 -5
$EndPAD
$PAD
Sh "13" C 5 5 0 0 0
Dr 2.032 0 0
At STD N 00C0FFFF
Ne 0 ""
Po -12.5 5
$EndPAD
$PAD
Sh "15" C 5 5 0 0 0
Dr 2.032 0 0
At STD N 00C0FFFF
Ne 0 ""
Po -2.5 5
$EndPAD
$PAD
Sh "18" C 5 5 0 0 0
Dr 2.032 0 0
At STD N 00C0FFFF
Ne 0 ""
Po 12.5 5
$EndPAD
$PAD
Sh "19" C 5 5 0 0 0
Dr 2.032 0 0
At STD N 00C0FFFF
Ne 0 ""
Po -7.5 15
$EndPAD
$PAD
Sh "22" C 5 5 0 0 0
Dr 2.032 0 0
At STD N 00C0FFFF
Ne 0 ""
Po 7.5 15
$EndPAD
$EndMODULE TOKEN-KEYPAD-INTERFACE2
$MODULE TOKEN-KEYPAD-INTERFACE3
Po 0 0 0 15 55CF3E41 00000000 ~~
Li TOKEN-KEYPAD-INTERFACE3
Cd TOKEN-KEYPAD-INTERFACE3
Kw Connector
Sc 0
AR 1pin
Op 0 0 0
T0 0 0.254 0.127 0.127 0 0.000001 N I 21 N "P**"
T1 0 -0.254 0.127 0.127 0 0.000001 N I 21 N "TOKEN-KEYPAD-INTERFACE3"
$PAD
Sh "7" C 5 5 0 0 0
Dr 2.032 0 0
At STD N 00C0FFFF
Ne 0 ""
Po -4 -20
$EndPAD
$PAD
Sh "6" C 5 5 0 0 0
Dr 2.032 0 0
At STD N 00C0FFFF
Ne 0 ""
Po -4 -10
$EndPAD
$PAD
Sh "5" C 5 5 0 0 0
Dr 2.032 0 0
At STD N 00C0FFFF
Ne 0 ""
Po 16 -10
$EndPAD
$PAD
Sh "8" O 2.54 7.62 0 0 0
Dr 2.032 0 0
At STD N 00C0FFFF
Ne 0 ""
Po -9.5 -5
$EndPAD
$PAD
Sh "3" C 5 5 0 0 0
Dr 2.032 0 0
At STD N 00C0FFFF
Ne 0 ""
Po -4 0
$EndPAD
$PAD
Sh "9" O 7.62 2.54 0 0 0
Dr 2.032 0 0
At STD N 00C0FFFF
Ne 0 ""
Po 0 5
$EndPAD
$PAD
Sh "2" C 5 5 0 0 0
Dr 2.032 0 0
At STD N 00C0FFFF
Ne 0 ""
Po 5 0
$EndPAD
$PAD
Sh "4" C 5 5 0 0 0
Dr 2.032 0 0
At STD N 00C0FFFF
Ne 0 ""
Po -7.5 10
$EndPAD
$PAD
Sh "1" C 5 5 0 0 0
Dr 2.032 0 0
At STD N 00C0FFFF
Ne 0 ""
Po 0 10
$EndPAD
$EndMODULE TOKEN-KEYPAD-INTERFACE3
$MODULE TOKEN-KEYPAD-INTERFACE4
Po 0 0 0 15 55E56EAF 00000000 ~~
Li TOKEN-KEYPAD-INTERFACE4
Cd TOKEN-KEYPAD-INTERFACE4
Kw Connector
Sc 0
AR 1pin
Op 0 0 0
T0 0 0.254 0.127 0.127 0 0.000001 N I 21 N "P**"
T1 0 -0.254 0.127 0.127 0 0.000001 N I 21 N "TOKEN-KEYPAD-INTERFACE4"
$PAD
Sh "8" C 5 5 0 0 0
Dr 2.032 0 0
At STD N 00C0FFFF
Ne 0 ""
Po 5 -20
$EndPAD
$PAD
Sh "7" C 5 5 0 0 0
Dr 2.032 0 0
At STD N 00C0FFFF
Ne 0 ""
Po 5 -10
$EndPAD
$PAD
Sh "3" C 5 5 0 0 0
Dr 2.032 0 0
At STD N 00C0FFFF
Ne 0 ""
Po 9 10
$EndPAD
$PAD
Sh "9" O 2.54 7.62 0 0 0
Dr 2.032 0 0
At STD N 00C0FFFF
Ne 0 ""
Po -9.5 -5
$EndPAD
$PAD
Sh "6" C 5 5 0 0 0
Dr 2.032 0 0
At STD N 00C0FFFF
Ne 0 ""
Po -5 0
$EndPAD
$PAD
Sh "10" O 7.62 2.54 0 0 0
Dr 2.032 0 0
At STD N 00C0FFFF
Ne 0 ""
Po 0 5
$EndPAD
$PAD
Sh "5" C 5 5 0 0 0
Dr 2.032 0 0
At STD N 00C0FFFF
Ne 0 ""
Po 5 0
$EndPAD
$PAD
Sh "4" C 5 5 0 0 0
Dr 2.032 0 0
At STD N 00C0FFFF
Ne 0 ""
Po -9.5 10
$EndPAD
$PAD
Sh "2" C 5 5 0 0 0
Dr 2.032 0 0
At STD N 00C0FFFF
Ne 0 ""
Po 0 10
$EndPAD
$PAD
Sh "1" C 5 5 0 0 0
Dr 2.032 0 0
At STD N 00C0FFFF
Ne 0 ""
Po 3.5 15
$EndPAD
$EndMODULE TOKEN-KEYPAD-INTERFACE4
$MODULE USB-MINI-B
Po 0 0 0 15 54FA3397 00000000 ~~
Li USB-MINI-B
Cd USB Mini-B 5-Pin SMD Connector
Kw USB Connector
Sc 0
AR 
Op 0 0 0
T0 0 0.254 0.127 0.127 0 0.000001 N I 21 N "CON**"
T1 0 -0.254 0.127 0.127 0 0.000001 N I 21 N "USB-MINI-B"
DS -3.59918 -3.85064 -3.59918 3.85064 0.3048 21
DS -4.59994 -3.85064 -4.59994 3.85064 0.3048 21
DS -4.59994 3.85064 4.59994 3.85064 0.3048 21
DS 4.59994 3.85064 4.59994 -3.85064 0.3048 21
DS 4.59994 -3.85064 -4.59994 -3.85064 0.3048 21
$PAD
Sh "1" R 2.30124 0.50038 0 0 0
Dr 0 0 0
At SMD N 00888000
Ne 0 ""
Po 3.44932 -1.6002
$EndPAD
$PAD
Sh "2" R 2.30124 0.50038 0 0 0
Dr 0 0 0
At SMD N 00888000
Ne 0 ""
Po 3.44932 -0.8001
$EndPAD
$PAD
Sh "3" R 2.30124 0.50038 0 0 0
Dr 0 0 0
At SMD N 00888000
Ne 0 ""
Po 3.44932 0
$EndPAD
$PAD
Sh "4" R 2.30124 0.50038 0 0 0
Dr 0 0 0
At SMD N 00888000
Ne 0 ""
Po 3.44932 0.8001
$EndPAD
$PAD
Sh "5" R 2.30124 0.50038 0 0 0
Dr 0 0 0
At SMD N 00888000
Ne 0 ""
Po 3.44932 1.6002
$EndPAD
$PAD
Sh "6" R 2.49936 1.99898 0 0 0
Dr 0 0 0
At SMD N 00888000
Ne 0 ""
Po 3.35026 -4.45008
$EndPAD
$PAD
Sh "7" R 2.49936 1.99898 0 0 0
Dr 0 0 0
At SMD N 00888000
Ne 0 ""
Po -2.14884 -4.45008
$EndPAD
$PAD
Sh "8" R 2.49936 1.99898 0 0 0
Dr 0 0 0
At SMD N 00888000
Ne 0 ""
Po 3.35026 4.45008
$EndPAD
$PAD
Sh "9" R 2.49936 1.99898 0 0 0
Dr 0 0 0
At SMD N 00888000
Ne 0 ""
Po -2.14884 4.45008
$EndPAD
$PAD
Sh "" C 0.89916 0.89916 0 0 0
Dr 0.89916 0 0
At HOLE N 00C0FFFF
Ne 0 ""
Po 0.8509 -2.19964
$EndPAD
$PAD
Sh "" C 0.89916 0.89916 0 0 0
Dr 0.89916 0 0
At HOLE N 00C0FFFF
Ne 0 ""
Po 0.8509 2.19964
$EndPAD
$EndMODULE USB-MINI-B
$MODULE VIA
Po 0 0 0 15 54FA9540 00000000 ~~
Li VIA
Cd VIA
Kw Connector
Sc 0
AR 1pin
Op 0 0 0
T0 0 0.254 0.127 0.127 0 0.000001 N I 21 N "V**"
T1 0 -0.254 0.127 0.127 0 0.000001 N I 21 N "VIA"
$PAD
Sh "" C 1.3 1.3 0 0 0
Dr 0.7 0 0
At STD N 00C0FFFF
Ne 0 ""
Po 0 0
$EndPAD
$EndMODULE VIA
$EndLIBRARY
