(module LED-3MM (layer F.Cu)
  (at 0 0)
  (descr "LED 3mm - Lead pitch 100mil (2,54mm)")
  (tags "LED led 3mm 3MM 100mil 2,54mm")
  (fp_text reference LED-3MM (at 1.778 -2.794) (layer F.SilkS)
    (effects (font (size 0.762 0.762) (thickness 0.0889)))
  )
  (fp_text value VAL*** (at 0 2.54) (layer F.SilkS)
    (effects (font (size 0.762 0.762) (thickness 0.0889)))
  )
  (fp_line (start 1.8288 1.27) (end 1.8288 -1.27) (layer F.SilkS) (width 0.254))
  (fp_arc (start 0.254 0) (end -1.27 0) (angle 39.8) (layer F.SilkS) (width 0.1524))
  (fp_arc (start 0.254 0) (end -0.88392 1.01092) (angle 41.6) (layer F.SilkS) (width 0.1524))
  (fp_arc (start 0.254 0) (end 1.4097 -0.9906) (angle 40.6) (layer F.SilkS) (width 0.1524))
  (fp_arc (start 0.254 0) (end 1.778 0) (angle 39.8) (layer F.SilkS) (width 0.1524))
  (fp_arc (start 0.254 0) (end 0.254 -1.524) (angle 54.4) (layer F.SilkS) (width 0.1524))
  (fp_arc (start 0.254 0) (end -0.9652 -0.9144) (angle 53.1) (layer F.SilkS) (width 0.1524))
  (fp_arc (start 0.254 0) (end 1.45542 0.93472) (angle 52.1) (layer F.SilkS) (width 0.1524))
  (fp_arc (start 0.254 0) (end 0.254 1.524) (angle 52.1) (layer F.SilkS) (width 0.1524))
  (fp_arc (start 0.254 0) (end -0.381 0) (angle 90) (layer F.SilkS) (width 0.1524))
  (fp_arc (start 0.254 0) (end -0.762 0) (angle 90) (layer F.SilkS) (width 0.1524))
  (fp_arc (start 0.254 0) (end 0.889 0) (angle 90) (layer F.SilkS) (width 0.1524))
  (fp_arc (start 0.254 0) (end 1.27 0) (angle 90) (layer F.SilkS) (width 0.1524))
  (fp_arc (start 0.254 0) (end 0.254 -2.032) (angle 50.1) (layer F.SilkS) (width 0.254))
  (fp_arc (start 0.254 0) (end -1.5367 -0.95504) (angle 61.9) (layer F.SilkS) (width 0.254))
  (fp_arc (start 0.254 0) (end 1.8034 1.31064) (angle 49.7) (layer F.SilkS) (width 0.254))
  (fp_arc (start 0.254 0) (end 0.254 2.032) (angle 60.2) (layer F.SilkS) (width 0.254))
  (fp_arc (start 0.254 0) (end -1.778 0) (angle 28.3) (layer F.SilkS) (width 0.254))
  (fp_arc (start 0.254 0) (end -1.47574 1.06426) (angle 31.6) (layer F.SilkS) (width 0.254))
  (pad 1 thru_hole circle (at -1.27 0) (size 1.6764 1.6764) (drill 0.8128)
    (layers *.Cu *.Mask F.SilkS)
  )
  (pad 2 thru_hole circle (at 1.27 0) (size 1.6764 1.6764) (drill 0.8128)
    (layers *.Cu *.Mask F.SilkS)
  )
  (model discret/leds/led3_vertical_verde.wrl
    (at (xyz 0 0 0))
    (scale (xyz 1 1 1))
    (rotate (xyz 0 0 0))
  )
)
