PCBNEW-LibModule-V1  Tue Mar 10 08:49:46 2015
# encoding utf-8
Units mm
$INDEX
FREEIMU
LCD-16X2
MBED
$EndINDEX
$MODULE FREEIMU
Po 0 0 0 15 54FA33F8 00000000 ~~
Li FREEIMU
Cd FREEIMU 0.3.5
Kw Modules
Sc 0
AR 
Op 0 0 0
T0 -10.2616 10.4648 0.5 0.5 0 0.12 N V 21 N "M**"
T1 0 0 0.127 0.127 0 0.000001 N I 21 N "FREEIMU"
DS -11.113 9.843 11.113 9.843 0.3048 21
DS 11.113 -9.843 11.113 9.843 0.3048 21
DS -11.113 -9.843 -11.113 9.843 0.3048 21
DS -11.113 -9.843 11.113 -9.843 0.3048 21
DS -10.16 6.414 -10.16 8.954 0.3048 21
DS -10.16 8.954 10.16 8.954 0.3048 21
DS 10.16 8.954 10.16 6.414 0.3048 21
DS 10.16 6.414 -10.16 6.414 0.3048 21
$PAD
Sh "1" C 1.524 1.524 0 0 0
Dr 1.016 0 0
At STD N 00C0FFFF
Ne 0 ""
Po -8.89 7.684
$EndPAD
$PAD
Sh "2" C 1.524 1.524 0 0 0
Dr 1.016 0 0
At STD N 00C0FFFF
Ne 0 ""
Po -6.35 7.684
$EndPAD
$PAD
Sh "3" C 1.524 1.524 0 0 0
Dr 1.016 0 0
At STD N 00C0FFFF
Ne 0 ""
Po -3.81 7.684
$EndPAD
$PAD
Sh "4" C 1.524 1.524 0 0 0
Dr 1.016 0 0
At STD N 00C0FFFF
Ne 0 ""
Po -1.27 7.684
$EndPAD
$PAD
Sh "5" C 1.524 1.524 0 0 0
Dr 1.016 0 0
At STD N 00C0FFFF
Ne 0 ""
Po 1.27 7.684
$EndPAD
$PAD
Sh "6" C 1.524 1.524 0 0 0
Dr 1.016 0 0
At STD N 00C0FFFF
Ne 0 ""
Po 3.81 7.684
$EndPAD
$PAD
Sh "7" C 1.524 1.524 0 0 0
Dr 1.016 0 0
At STD N 00C0FFFF
Ne 0 ""
Po 6.35 7.684
$EndPAD
$PAD
Sh "8" C 1.524 1.524 0 0 0
Dr 1.016 0 0
At STD N 00C0FFFF
Ne 0 ""
Po 8.89 7.684
$EndPAD
$EndMODULE FREEIMU
$MODULE LCD-16X2
Po 0 0 0 15 54FA3445 00000000 ~~
Li LCD-16X2
Cd Alphanumeric LCD 16x2
Kw Modules
Sc 0
AR 
Op 0 0 0
T0 -31.9532 -14.0716 0.5 0.5 0 0.12 N V 21 N "LCD**"
T1 0 0 0.127 0.127 0 0.000001 N I 21 N "LCD-16X2"
DS -30.63 -17.17 -30.63 -14.63 0.3048 21
DS -33.17 -17.17 -33.17 -14.63 0.3048 21
DS -33.17 -14.63 7.47 -14.63 0.3048 21
DS 7.47 -14.63 7.47 -17.17 0.3048 21
DS 7.47 -17.17 -33.17 -17.17 0.3048 21
DS -41.25 -19.25 41.25 -19.25 0.3048 21
DS 41.25 -19.25 41.25 19.25 0.3048 21
DS 41.25 19.25 -41.25 19.25 0.3048 21
DS -41.25 19.25 -41.25 -19.25 0.3048 21
$PAD
Sh "1" R 1.524 1.524 0 0 0
Dr 1.016 0 0
At STD N 00C0FFFF
Ne 0 ""
Po -31.9 -15.9
$EndPAD
$PAD
Sh "2" C 1.524 1.524 0 0 0
Dr 1.016 0 0
At STD N 00C0FFFF
Ne 0 ""
Po -29.36 -15.9
$EndPAD
$PAD
Sh "3" C 1.524 1.524 0 0 0
Dr 1.016 0 0
At STD N 00C0FFFF
Ne 0 ""
Po -26.82 -15.9
$EndPAD
$PAD
Sh "4" C 1.524 1.524 0 0 0
Dr 1.016 0 0
At STD N 00C0FFFF
Ne 0 ""
Po -24.28 -15.9
$EndPAD
$PAD
Sh "5" C 1.524 1.524 0 0 0
Dr 1.016 0 0
At STD N 00C0FFFF
Ne 0 ""
Po -21.74 -15.9
$EndPAD
$PAD
Sh "6" C 1.524 1.524 0 0 0
Dr 1.016 0 0
At STD N 00C0FFFF
Ne 0 ""
Po -19.2 -15.9
$EndPAD
$PAD
Sh "7" C 1.524 1.524 0 0 0
Dr 1.016 0 0
At STD N 00C0FFFF
Ne 0 ""
Po -16.66 -15.9
$EndPAD
$PAD
Sh "8" C 1.524 1.524 0 0 0
Dr 1.016 0 0
At STD N 00C0FFFF
Ne 0 ""
Po -14.12 -15.9
$EndPAD
$PAD
Sh "9" C 1.524 1.524 0 0 0
Dr 1.016 0 0
At STD N 00C0FFFF
Ne 0 ""
Po -11.58 -15.9
$EndPAD
$PAD
Sh "10" C 1.524 1.524 0 0 0
Dr 1.016 0 0
At STD N 00C0FFFF
Ne 0 ""
Po -9.04 -15.9
$EndPAD
$PAD
Sh "11" C 1.524 1.524 0 0 0
Dr 1.016 0 0
At STD N 00C0FFFF
Ne 0 ""
Po -6.5 -15.9
$EndPAD
$PAD
Sh "12" C 1.524 1.524 0 0 0
Dr 1.016 0 0
At STD N 00C0FFFF
Ne 0 ""
Po -3.96 -15.9
$EndPAD
$PAD
Sh "13" C 1.524 1.524 0 0 0
Dr 1.016 0 0
At STD N 00C0FFFF
Ne 0 ""
Po -1.42 -15.9
$EndPAD
$PAD
Sh "14" C 1.524 1.524 0 0 0
Dr 1.016 0 0
At STD N 00C0FFFF
Ne 0 ""
Po 1.12 -15.9
$EndPAD
$PAD
Sh "" C 6.096 6.096 0 0 0
Dr 3.048 0 0
At STD N 00C0FFFF
Ne 0 ""
Po -37.5 -15.5
$EndPAD
$PAD
Sh "" C 6.096 6.096 0 0 0
Dr 3.048 0 0
At STD N 00C0FFFF
Ne 0 ""
Po 37.5 -15.5
$EndPAD
$PAD
Sh "" C 6.096 6.096 0 0 0
Dr 3.048 0 0
At STD N 00C0FFFF
Ne 0 ""
Po -37.5 15.5
$EndPAD
$PAD
Sh "" C 6.096 6.096 0 0 0
Dr 3.048 0 0
At STD N 00C0FFFF
Ne 0 ""
Po 37.5 15.5
$EndPAD
$PAD
Sh "15" C 1.524 1.524 0 0 0
Dr 1.016 0 0
At STD N 00C0FFFF
Ne 0 ""
Po 3.66 -15.9
$EndPAD
$PAD
Sh "16" C 1.524 1.524 0 0 0
Dr 1.016 0 0
At STD N 00C0FFFF
Ne 0 ""
Po 6.2 -15.9
$EndPAD
$EndMODULE LCD-16X2
$MODULE MBED
Po 0 0 0 15 54FA34BC 00000000 ~~
Li MBED
Cd MBED LPC1768
Kw Modules
Sc 0
AR 
Op 0 0 0
T0 -27.1272 13.1572 0.5 0.5 900 0.12 N V 21 N "M**"
T1 0 0 0.127 0.127 0 0.000001 N I 21 N "MBED"
DS -26.67 -13.97 -26.67 13.97 0.3048 21
DS -26.67 13.97 26.67 13.97 0.3048 21
DS 26.67 13.97 26.67 -13.97 0.3048 21
DS 26.67 -13.97 -26.67 -13.97 0.3048 21
DS -25.4 10.16 -25.4 12.7 0.3048 21
DS -25.4 12.7 25.4 12.7 0.3048 21
DS 25.4 12.7 25.4 10.16 0.3048 21
DS 25.4 10.16 -25.4 10.16 0.3048 21
DS -25.4 -12.7 25.4 -12.7 0.3048 21
DS 25.4 -12.7 25.4 -10.16 0.3048 21
DS 25.4 -10.16 -25.4 -10.16 0.3048 21
DS -25.4 -10.16 -25.4 -12.7 0.3048 21
$PAD
Sh "2" C 1.524 1.524 0 0 0
Dr 1.016 0 0
At STD N 00C0FFFF
Ne 0 ""
Po -21.59 11.43
$EndPAD
$PAD
Sh "3" C 1.524 1.524 0 0 0
Dr 1.016 0 0
At STD N 00C0FFFF
Ne 0 ""
Po -19.05 11.43
$EndPAD
$PAD
Sh "4" C 1.524 1.524 0 0 0
Dr 1.016 0 0
At STD N 00C0FFFF
Ne 0 ""
Po -16.51 11.43
$EndPAD
$PAD
Sh "5" C 1.524 1.524 0 0 0
Dr 1.016 0 0
At STD N 00C0FFFF
Ne 0 ""
Po -13.97 11.43
$EndPAD
$PAD
Sh "6" C 1.524 1.524 0 0 0
Dr 1.016 0 0
At STD N 00C0FFFF
Ne 0 ""
Po -11.43 11.43
$EndPAD
$PAD
Sh "7" C 1.524 1.524 0 0 0
Dr 1.016 0 0
At STD N 00C0FFFF
Ne 0 ""
Po -8.89 11.43
$EndPAD
$PAD
Sh "8" C 1.524 1.524 0 0 0
Dr 1.016 0 0
At STD N 00C0FFFF
Ne 0 ""
Po -6.35 11.43
$EndPAD
$PAD
Sh "9" C 1.524 1.524 0 0 0
Dr 1.016 0 0
At STD N 00C0FFFF
Ne 0 ""
Po -3.81 11.43
$EndPAD
$PAD
Sh "10" C 1.524 1.524 0 0 0
Dr 1.016 0 0
At STD N 00C0FFFF
Ne 0 ""
Po -1.27 11.43
$EndPAD
$PAD
Sh "11" C 1.524 1.524 0 0 0
Dr 1.016 0 0
At STD N 00C0FFFF
Ne 0 ""
Po 1.27 11.43
$EndPAD
$PAD
Sh "12" C 1.524 1.524 0 0 0
Dr 1.016 0 0
At STD N 00C0FFFF
Ne 0 ""
Po 3.81 11.43
$EndPAD
$PAD
Sh "13" C 1.524 1.524 0 0 0
Dr 1.016 0 0
At STD N 00C0FFFF
Ne 0 ""
Po 6.35 11.43
$EndPAD
$PAD
Sh "14" C 1.524 1.524 0 0 0
Dr 1.016 0 0
At STD N 00C0FFFF
Ne 0 ""
Po 8.89 11.43
$EndPAD
$PAD
Sh "15" C 1.524 1.524 0 0 0
Dr 1.016 0 0
At STD N 00C0FFFF
Ne 0 ""
Po 11.43 11.43
$EndPAD
$PAD
Sh "16" C 1.524 1.524 0 0 0
Dr 1.016 0 0
At STD N 00C0FFFF
Ne 0 ""
Po 13.97 11.43
$EndPAD
$PAD
Sh "17" C 1.524 1.524 0 0 0
Dr 1.016 0 0
At STD N 00C0FFFF
Ne 0 ""
Po 16.51 11.43
$EndPAD
$PAD
Sh "18" C 1.524 1.524 0 0 0
Dr 1.016 0 0
At STD N 00C0FFFF
Ne 0 ""
Po 19.05 11.43
$EndPAD
$PAD
Sh "19" C 1.524 1.524 0 0 0
Dr 1.016 0 0
At STD N 00C0FFFF
Ne 0 ""
Po 21.59 11.43
$EndPAD
$PAD
Sh "20" C 1.524 1.524 0 0 0
Dr 1.016 0 0
At STD N 00C0FFFF
Ne 0 ""
Po 24.13 11.43
$EndPAD
$PAD
Sh "21" C 1.524 1.524 0 0 0
Dr 1.016 0 0
At STD N 00C0FFFF
Ne 0 ""
Po 24.13 -11.43
$EndPAD
$PAD
Sh "22" C 1.524 1.524 0 0 0
Dr 1.016 0 0
At STD N 00C0FFFF
Ne 0 ""
Po 21.59 -11.43
$EndPAD
$PAD
Sh "23" C 1.524 1.524 0 0 0
Dr 1.016 0 0
At STD N 00C0FFFF
Ne 0 ""
Po 19.05 -11.43
$EndPAD
$PAD
Sh "24" C 1.524 1.524 0 0 0
Dr 1.016 0 0
At STD N 00C0FFFF
Ne 0 ""
Po 16.51 -11.43
$EndPAD
$PAD
Sh "25" C 1.524 1.524 0 0 0
Dr 1.016 0 0
At STD N 00C0FFFF
Ne 0 ""
Po 13.97 -11.43
$EndPAD
$PAD
Sh "26" C 1.524 1.524 0 0 0
Dr 1.016 0 0
At STD N 00C0FFFF
Ne 0 ""
Po 11.43 -11.43
$EndPAD
$PAD
Sh "27" C 1.524 1.524 0 0 0
Dr 1.016 0 0
At STD N 00C0FFFF
Ne 0 ""
Po 8.89 -11.43
$EndPAD
$PAD
Sh "28" C 1.524 1.524 0 0 0
Dr 1.016 0 0
At STD N 00C0FFFF
Ne 0 ""
Po 6.35 -11.43
$EndPAD
$PAD
Sh "29" C 1.524 1.524 0 0 0
Dr 1.016 0 0
At STD N 00C0FFFF
Ne 0 ""
Po 3.81 -11.43
$EndPAD
$PAD
Sh "30" C 1.524 1.524 0 0 0
Dr 1.016 0 0
At STD N 00C0FFFF
Ne 0 ""
Po 1.27 -11.43
$EndPAD
$PAD
Sh "31" C 1.524 1.524 0 0 0
Dr 1.016 0 0
At STD N 00C0FFFF
Ne 0 ""
Po -1.27 -11.43
$EndPAD
$PAD
Sh "32" C 1.524 1.524 0 0 0
Dr 1.016 0 0
At STD N 00C0FFFF
Ne 0 ""
Po -3.81 -11.43
$EndPAD
$PAD
Sh "33" C 1.524 1.524 0 0 0
Dr 1.016 0 0
At STD N 00C0FFFF
Ne 0 ""
Po -6.35 -11.43
$EndPAD
$PAD
Sh "34" C 1.524 1.524 0 0 0
Dr 1.016 0 0
At STD N 00C0FFFF
Ne 0 ""
Po -8.89 -11.43
$EndPAD
$PAD
Sh "35" C 1.524 1.524 0 0 0
Dr 1.016 0 0
At STD N 00C0FFFF
Ne 0 ""
Po -11.43 -11.43
$EndPAD
$PAD
Sh "36" C 1.524 1.524 0 0 0
Dr 1.016 0 0
At STD N 00C0FFFF
Ne 0 ""
Po -13.97 -11.43
$EndPAD
$PAD
Sh "37" C 1.524 1.524 0 0 0
Dr 1.016 0 0
At STD N 00C0FFFF
Ne 0 ""
Po -16.51 -11.43
$EndPAD
$PAD
Sh "38" C 1.524 1.524 0 0 0
Dr 1.016 0 0
At STD N 00C0FFFF
Ne 0 ""
Po -19.05 -11.43
$EndPAD
$PAD
Sh "39" C 1.524 1.524 0 0 0
Dr 1.016 0 0
At STD N 00C0FFFF
Ne 0 ""
Po -21.59 -11.43
$EndPAD
$PAD
Sh "40" C 1.524 1.524 0 0 0
Dr 1.016 0 0
At STD N 00C0FFFF
Ne 0 ""
Po -24.13 -11.43
$EndPAD
$PAD
Sh "1" C 1.524 1.524 0 0 0
Dr 1.016 0 0
At STD N 00C0FFFF
Ne 0 ""
Po -24.13 11.43
$EndPAD
$EndMODULE MBED
$EndLIBRARY
