PCBNEW-LibModule-V1  Tue May 19 22:04:34 2015
# encoding utf-8
Units mm
$INDEX
BUTTON-4
BUZZER
Comp-Stand
DIP-16
DIP-28
DIP-40
DIP-8
DIP-SWITCH-4-SPST
DIP-SWITCH-5-SPST
DO-201
DO-34
DO-35
DO-41
HC-18UV
LED-3mm
LED-5mm
RADIAL-LEAD-2.5mm
RADIAL-LEAD-5mm
RADIAL-LEAD-7.5mm
RELAY-OMRON-8-MY2-PCB-DPDT
SWITCH-6-DPDT
TO-220-3
TO-220-5
TO-92
$EndINDEX
$MODULE BUTTON-4
Po 0 0 0 15 55037AEB 00000000 ~~
Li BUTTON-4
Cd 4-Legged Push Button
Kw Through Hole
Sc 0
AR 
Op 0 0 0
T0 0 -4.064 0.5 0.5 0 0.12 N V 21 N "PB**"
T1 0 0 0.127 0.127 0 0.001 N I 21 N "BUTTON"
DC 0 0 0 -2.54 0.3048 21
DS -3.5 -3.5 3.5 -3.5 0.3048 21
DS 3.5 -3.5 3.5 3.5 0.3048 21
DS 3.5 3.5 -3.5 3.5 0.3048 21
DS -3.5 -3.5 -3.5 3.5 0.3048 21
$PAD
Sh "1" O 1.524 3 0 0 0
Dr 1.016 0 0
At STD N 00C0FFFF
Ne 0 ""
Po 3.556 -2.54
$EndPAD
$PAD
Sh "2" O 1.524 3 0 0 0
Dr 1.016 0 0
At STD N 00C0FFFF
Ne 0 ""
Po 3.556 2.54
$EndPAD
$PAD
Sh "1" O 1.524 3 0 0 0
Dr 1.016 0 0
At STD N 00C0FFFF
Ne 0 ""
Po -3.556 -2.54
$EndPAD
$PAD
Sh "2" O 1.524 3 0 0 0
Dr 1.016 0 0
At STD N 00C0FFFF
Ne 0 ""
Po -3.556 2.54
$EndPAD
$EndMODULE BUTTON-4
$MODULE BUZZER
Po 0 0 0 15 551F0675 00000000 ~~
Li BUZZER
Cd Buzzer
Kw Buzzer
Sc 0
AR 
Op 0 0 0
T0 0 -8.89 0.5 0.5 0 0.12 N V 21 N "B**"
T1 0 0 0.127 0.127 0 0.001 N I 21 N "BUZZER"
DC 0 0 8.001 0.24892 0.381 21
$PAD
Sh "2" C 2.49936 2.49936 0 0 0
Dr 1.00076 0 0
At STD N 00E0FFFF
Ne 0 ""
Po 5.08 0
$EndPAD
$PAD
Sh "1" C 2.49936 2.49936 0 0 0
Dr 1.00076 0 0
At STD N 00E0FFFF
Ne 0 ""
Po -5.08 0
$EndPAD
$SHAPE3D
Na "divers\\buzzer.wrl"
Sc 0.8 0.8 0.8
Of 0 0 0
Ro 0 0 0
$EndSHAPE3D
$EndMODULE BUZZER
$MODULE Comp-Stand
Po 0 0 0 15 5504032C 00000000 ~~
Li Comp-Stand
Cd Component Standing Mode
Kw Through Hole
Sc 0
AR 
Op A A 0
T0 -2.286 -1.5748 0.5 0.5 0 0.12 N V 21 N "C**"
T1 0 0 0.127 0.127 0 0.000001 N I 21 N "Comp-Stand"
DS -1.27 0 1.27 0 0.3048 21
DC -1.27 0 -0.635 1.27 0.3048 21
$PAD
Sh "1" C 1.524 1.524 0 0 0
Dr 1.016 0 0
At STD N 00C0FFFF
Ne 0 ""
Po -1.27 0
$EndPAD
$PAD
Sh "2" C 1.524 1.524 0 0 0
Dr 1.016 0 0
At STD N 00C0FFFF
Ne 0 ""
Po 1.27 0
$EndPAD
$SHAPE3D
Na "discret/verti_resistor.wrl"
Sc 1 1 1
Of 0 0 0
Ro 0 0 0
$EndSHAPE3D
$EndMODULE Comp-Stand
$MODULE DIP-16
Po 0 0 0 15 54FA3C78 00000000 ~~
Li DIP-16
Cd 16-Pin Dual In-Line Package
Kw Through Hole
Sc 0
AR /522B3965
Op 0 0 0
T0 -11.8872 1.6256 0.5 0.5 900 0.12 N V 21 N "IC**"
T1 0 0 0.127 0.127 0 0.000001 N I 21 N "DIP-16"
DS -11.43 -1.27 -10.16 -1.27 0.3048 21
DS -10.16 -1.27 -10.16 1.27 0.3048 21
DS -10.16 1.27 -11.43 1.27 0.3048 21
DS -11.43 -2.54 11.43 -2.54 0.3048 21
DS 11.43 -2.54 11.43 2.54 0.3048 21
DS 11.43 2.54 -11.43 2.54 0.3048 21
DS -11.43 2.54 -11.43 -2.54 0.3048 21
$PAD
Sh "1" R 1.524 1.524 0 0 0
Dr 1.016 0 0
At STD N 00C0FFFF
Ne 0 ""
Po -8.89 3.81
$EndPAD
$PAD
Sh "2" C 1.524 1.524 0 0 0
Dr 1.016 0 0
At STD N 00C0FFFF
Ne 0 ""
Po -6.35 3.81
$EndPAD
$PAD
Sh "3" C 1.524 1.524 0 0 0
Dr 1.016 0 0
At STD N 00C0FFFF
Ne 0 ""
Po -3.81 3.81
$EndPAD
$PAD
Sh "4" C 1.524 1.524 0 0 0
Dr 1.016 0 0
At STD N 00C0FFFF
Ne 0 ""
Po -1.27 3.81
$EndPAD
$PAD
Sh "5" C 1.524 1.524 0 0 0
Dr 1.016 0 0
At STD N 00C0FFFF
Ne 0 ""
Po 1.27 3.81
$EndPAD
$PAD
Sh "6" C 1.524 1.524 0 0 0
Dr 1.016 0 0
At STD N 00C0FFFF
Ne 0 ""
Po 3.81 3.81
$EndPAD
$PAD
Sh "7" C 1.524 1.524 0 0 0
Dr 1.016 0 0
At STD N 00C0FFFF
Ne 0 ""
Po 6.35 3.81
$EndPAD
$PAD
Sh "8" C 1.524 1.524 0 0 0
Dr 1.016 0 0
At STD N 00C0FFFF
Ne 0 ""
Po 8.89 3.81
$EndPAD
$PAD
Sh "9" C 1.524 1.524 0 0 0
Dr 1.016 0 0
At STD N 00C0FFFF
Ne 0 ""
Po 8.89 -3.81
$EndPAD
$PAD
Sh "10" C 1.524 1.524 0 0 0
Dr 1.016 0 0
At STD N 00C0FFFF
Ne 0 ""
Po 6.35 -3.81
$EndPAD
$PAD
Sh "11" C 1.524 1.524 0 0 0
Dr 1.016 0 0
At STD N 00C0FFFF
Ne 0 ""
Po 3.81 -3.81
$EndPAD
$PAD
Sh "12" C 1.524 1.524 0 0 0
Dr 1.016 0 0
At STD N 00C0FFFF
Ne 0 ""
Po 1.27 -3.81
$EndPAD
$PAD
Sh "13" C 1.524 1.524 0 0 0
Dr 1.016 0 0
At STD N 00C0FFFF
Ne 0 ""
Po -1.27 -3.81
$EndPAD
$PAD
Sh "14" C 1.524 1.524 0 0 0
Dr 1.016 0 0
At STD N 00C0FFFF
Ne 0 ""
Po -3.81 -3.81
$EndPAD
$PAD
Sh "15" C 1.524 1.524 0 0 0
Dr 1.016 0 0
At STD N 00C0FFFF
Ne 0 ""
Po -6.35 -3.81
$EndPAD
$PAD
Sh "16" C 1.524 1.524 0 0 0
Dr 1.016 0 0
At STD N 00C0FFFF
Ne 0 ""
Po -8.89 -3.81
$EndPAD
$SHAPE3D
Na "dil/dil_16.wrl"
Sc 1 1 1
Of 0 0 0
Ro 0 0 0
$EndSHAPE3D
$EndMODULE DIP-16
$MODULE DIP-28
Po 0 0 0 15 55213F73 00000000 ~~
Li DIP-28
Cd 28-Pin Dual In-Line Package, Width=300 mils
Kw DIL
Sc 0
AR 
Op 0 0 0
T0 -19.558 1.778 0.5 0.5 900 0.12 N V 21 N "IC**"
T1 0 0 0.127 0.127 0 0.000001 N I 21 N "DIP-28"
DS -19.05 -2.54 19.05 -2.54 0.381 21
DS 19.05 -2.54 19.05 2.54 0.381 21
DS 19.05 2.54 -19.05 2.54 0.381 21
DS -19.05 2.54 -19.05 -2.54 0.381 21
DS -19.05 -1.27 -17.78 -1.27 0.381 21
DS -17.78 -1.27 -17.78 1.27 0.381 21
DS -17.78 1.27 -19.05 1.27 0.381 21
$PAD
Sh "2" O 1.5748 2.286 0 0 0
Dr 0.8128 0 0
At STD N 00E0FFFF
Ne 0 ""
Po -13.97 3.81
$EndPAD
$PAD
Sh "3" O 1.5748 2.286 0 0 0
Dr 0.8128 0 0
At STD N 00E0FFFF
Ne 0 ""
Po -11.43 3.81
$EndPAD
$PAD
Sh "4" O 1.5748 2.286 0 0 0
Dr 0.8128 0 0
At STD N 00E0FFFF
Ne 0 ""
Po -8.89 3.81
$EndPAD
$PAD
Sh "5" O 1.5748 2.286 0 0 0
Dr 0.8128 0 0
At STD N 00E0FFFF
Ne 0 ""
Po -6.35 3.81
$EndPAD
$PAD
Sh "6" O 1.5748 2.286 0 0 0
Dr 0.8128 0 0
At STD N 00E0FFFF
Ne 0 ""
Po -3.81 3.81
$EndPAD
$PAD
Sh "7" O 1.5748 2.286 0 0 0
Dr 0.8128 0 0
At STD N 00E0FFFF
Ne 0 ""
Po -1.27 3.81
$EndPAD
$PAD
Sh "8" O 1.5748 2.286 0 0 0
Dr 0.8128 0 0
At STD N 00E0FFFF
Ne 0 ""
Po 1.27 3.81
$EndPAD
$PAD
Sh "9" O 1.5748 2.286 0 0 0
Dr 0.8128 0 0
At STD N 00E0FFFF
Ne 0 ""
Po 3.81 3.81
$EndPAD
$PAD
Sh "10" O 1.5748 2.286 0 0 0
Dr 0.8128 0 0
At STD N 00E0FFFF
Ne 0 ""
Po 6.35 3.81
$EndPAD
$PAD
Sh "11" O 1.5748 2.286 0 0 0
Dr 0.8128 0 0
At STD N 00E0FFFF
Ne 0 ""
Po 8.89 3.81
$EndPAD
$PAD
Sh "12" O 1.5748 2.286 0 0 0
Dr 0.8128 0 0
At STD N 00E0FFFF
Ne 0 ""
Po 11.43 3.81
$EndPAD
$PAD
Sh "13" O 1.5748 2.286 0 0 0
Dr 0.8128 0 0
At STD N 00E0FFFF
Ne 0 ""
Po 13.97 3.81
$EndPAD
$PAD
Sh "14" O 1.5748 2.286 0 0 0
Dr 0.8128 0 0
At STD N 00E0FFFF
Ne 0 ""
Po 16.51 3.81
$EndPAD
$PAD
Sh "1" R 1.5748 2.286 0 0 0
Dr 0.8128 0 0
At STD N 00E0FFFF
Ne 0 ""
Po -16.51 3.81
$EndPAD
$PAD
Sh "15" O 1.5748 2.286 0 0 0
Dr 0.8128 0 0
At STD N 00E0FFFF
Ne 0 ""
Po 16.51 -3.81
$EndPAD
$PAD
Sh "16" O 1.5748 2.286 0 0 0
Dr 0.8128 0 0
At STD N 00E0FFFF
Ne 0 ""
Po 13.97 -3.81
$EndPAD
$PAD
Sh "17" O 1.5748 2.286 0 0 0
Dr 0.8128 0 0
At STD N 00E0FFFF
Ne 0 ""
Po 11.43 -3.81
$EndPAD
$PAD
Sh "18" O 1.5748 2.286 0 0 0
Dr 0.8128 0 0
At STD N 00E0FFFF
Ne 0 ""
Po 8.89 -3.81
$EndPAD
$PAD
Sh "19" O 1.5748 2.286 0 0 0
Dr 0.8128 0 0
At STD N 00E0FFFF
Ne 0 ""
Po 6.35 -3.81
$EndPAD
$PAD
Sh "20" O 1.5748 2.286 0 0 0
Dr 0.8128 0 0
At STD N 00E0FFFF
Ne 0 ""
Po 3.81 -3.81
$EndPAD
$PAD
Sh "21" O 1.5748 2.286 0 0 0
Dr 0.8128 0 0
At STD N 00E0FFFF
Ne 0 ""
Po 1.27 -3.81
$EndPAD
$PAD
Sh "22" O 1.5748 2.286 0 0 0
Dr 0.8128 0 0
At STD N 00E0FFFF
Ne 0 ""
Po -1.27 -3.81
$EndPAD
$PAD
Sh "23" O 1.5748 2.286 0 0 0
Dr 0.8128 0 0
At STD N 00E0FFFF
Ne 0 ""
Po -3.81 -3.81
$EndPAD
$PAD
Sh "24" O 1.5748 2.286 0 0 0
Dr 0.8128 0 0
At STD N 00E0FFFF
Ne 0 ""
Po -6.35 -3.81
$EndPAD
$PAD
Sh "25" O 1.5748 2.286 0 0 0
Dr 0.8128 0 0
At STD N 00E0FFFF
Ne 0 ""
Po -8.89 -3.81
$EndPAD
$PAD
Sh "26" O 1.5748 2.286 0 0 0
Dr 0.8128 0 0
At STD N 00E0FFFF
Ne 0 ""
Po -11.43 -3.81
$EndPAD
$PAD
Sh "27" O 1.5748 2.286 0 0 0
Dr 0.8128 0 0
At STD N 00E0FFFF
Ne 0 ""
Po -13.97 -3.81
$EndPAD
$PAD
Sh "28" O 1.5748 2.286 0 0 0
Dr 0.8128 0 0
At STD N 00E0FFFF
Ne 0 ""
Po -16.51 -3.81
$EndPAD
$SHAPE3D
Na "dil/dil_28-w300.wrl"
Sc 1 1 1
Of 0 0 0
Ro 0 0 0
$EndSHAPE3D
$EndMODULE DIP-28
$MODULE DIP-40
Po 0 0 0 15 55213EF2 00000000 ~~
Li DIP-40
Cd 40-Pin Dual In-Line Package, Width=600 mils
Kw DIL
Sc 0
AR 
Op 0 0 0
T0 -27.178 5.461 0.5 0.5 900 0.12 N V 21 N "IC**"
T1 0 0 0.127 0.127 0 0.000001 N I 21 N "DIP-40"
DS -26.67 -1.27 -25.4 -1.27 0.381 21
DS -25.4 -1.27 -25.4 1.27 0.381 21
DS -25.4 1.27 -26.67 1.27 0.381 21
DS -26.67 -6.35 26.67 -6.35 0.381 21
DS 26.67 -6.35 26.67 6.35 0.381 21
DS 26.67 6.35 -26.67 6.35 0.381 21
DS -26.67 6.35 -26.67 -6.35 0.381 21
$PAD
Sh "1" R 1.5748 2.286 0 0 0
Dr 0.8128 0 0
At STD N 00E0FFFF
Ne 0 ""
Po -24.13 7.62
$EndPAD
$PAD
Sh "2" O 1.5748 2.286 0 0 0
Dr 0.8128 0 0
At STD N 00E0FFFF
Ne 0 ""
Po -21.59 7.62
$EndPAD
$PAD
Sh "3" O 1.5748 2.286 0 0 0
Dr 0.8128 0 0
At STD N 00E0FFFF
Ne 0 ""
Po -19.05 7.62
$EndPAD
$PAD
Sh "4" O 1.5748 2.286 0 0 0
Dr 0.8128 0 0
At STD N 00E0FFFF
Ne 0 ""
Po -16.51 7.62
$EndPAD
$PAD
Sh "5" O 1.5748 2.286 0 0 0
Dr 0.8128 0 0
At STD N 00E0FFFF
Ne 0 ""
Po -13.97 7.62
$EndPAD
$PAD
Sh "6" O 1.5748 2.286 0 0 0
Dr 0.8128 0 0
At STD N 00E0FFFF
Ne 0 ""
Po -11.43 7.62
$EndPAD
$PAD
Sh "7" O 1.5748 2.286 0 0 0
Dr 0.8128 0 0
At STD N 00E0FFFF
Ne 0 ""
Po -8.89 7.62
$EndPAD
$PAD
Sh "8" O 1.5748 2.286 0 0 0
Dr 0.8128 0 0
At STD N 00E0FFFF
Ne 0 ""
Po -6.35 7.62
$EndPAD
$PAD
Sh "9" O 1.5748 2.286 0 0 0
Dr 0.8128 0 0
At STD N 00E0FFFF
Ne 0 ""
Po -3.81 7.62
$EndPAD
$PAD
Sh "10" O 1.5748 2.286 0 0 0
Dr 0.8128 0 0
At STD N 00E0FFFF
Ne 0 ""
Po -1.27 7.62
$EndPAD
$PAD
Sh "11" O 1.5748 2.286 0 0 0
Dr 0.8128 0 0
At STD N 00E0FFFF
Ne 0 ""
Po 1.27 7.62
$EndPAD
$PAD
Sh "12" O 1.5748 2.286 0 0 0
Dr 0.8128 0 0
At STD N 00E0FFFF
Ne 0 ""
Po 3.81 7.62
$EndPAD
$PAD
Sh "13" O 1.5748 2.286 0 0 0
Dr 0.8128 0 0
At STD N 00E0FFFF
Ne 0 ""
Po 6.35 7.62
$EndPAD
$PAD
Sh "14" O 1.5748 2.286 0 0 0
Dr 0.8128 0 0
At STD N 00E0FFFF
Ne 0 ""
Po 8.89 7.62
$EndPAD
$PAD
Sh "15" O 1.5748 2.286 0 0 0
Dr 0.8128 0 0
At STD N 00E0FFFF
Ne 0 ""
Po 11.43 7.62
$EndPAD
$PAD
Sh "16" O 1.5748 2.286 0 0 0
Dr 0.8128 0 0
At STD N 00E0FFFF
Ne 0 ""
Po 13.97 7.62
$EndPAD
$PAD
Sh "17" O 1.5748 2.286 0 0 0
Dr 0.8128 0 0
At STD N 00E0FFFF
Ne 0 ""
Po 16.51 7.62
$EndPAD
$PAD
Sh "18" O 1.5748 2.286 0 0 0
Dr 0.8128 0 0
At STD N 00E0FFFF
Ne 0 ""
Po 19.05 7.62
$EndPAD
$PAD
Sh "19" O 1.5748 2.286 0 0 0
Dr 0.8128 0 0
At STD N 00E0FFFF
Ne 0 ""
Po 21.59 7.62
$EndPAD
$PAD
Sh "20" O 1.5748 2.286 0 0 0
Dr 0.8128 0 0
At STD N 00E0FFFF
Ne 0 ""
Po 24.13 7.62
$EndPAD
$PAD
Sh "21" O 1.5748 2.286 0 0 0
Dr 0.8128 0 0
At STD N 00E0FFFF
Ne 0 ""
Po 24.13 -7.62
$EndPAD
$PAD
Sh "22" O 1.5748 2.286 0 0 0
Dr 0.8128 0 0
At STD N 00E0FFFF
Ne 0 ""
Po 21.59 -7.62
$EndPAD
$PAD
Sh "23" O 1.5748 2.286 0 0 0
Dr 0.8128 0 0
At STD N 00E0FFFF
Ne 0 ""
Po 19.05 -7.62
$EndPAD
$PAD
Sh "24" O 1.5748 2.286 0 0 0
Dr 0.8128 0 0
At STD N 00E0FFFF
Ne 0 ""
Po 16.51 -7.62
$EndPAD
$PAD
Sh "25" O 1.5748 2.286 0 0 0
Dr 0.8128 0 0
At STD N 00E0FFFF
Ne 0 ""
Po 13.97 -7.62
$EndPAD
$PAD
Sh "26" O 1.5748 2.286 0 0 0
Dr 0.8128 0 0
At STD N 00E0FFFF
Ne 0 ""
Po 11.43 -7.62
$EndPAD
$PAD
Sh "27" O 1.5748 2.286 0 0 0
Dr 0.8128 0 0
At STD N 00E0FFFF
Ne 0 ""
Po 8.89 -7.62
$EndPAD
$PAD
Sh "28" O 1.5748 2.286 0 0 0
Dr 0.8128 0 0
At STD N 00E0FFFF
Ne 0 ""
Po 6.35 -7.62
$EndPAD
$PAD
Sh "29" O 1.5748 2.286 0 0 0
Dr 0.8128 0 0
At STD N 00E0FFFF
Ne 0 ""
Po 3.81 -7.62
$EndPAD
$PAD
Sh "30" O 1.5748 2.286 0 0 0
Dr 0.8128 0 0
At STD N 00E0FFFF
Ne 0 ""
Po 1.27 -7.62
$EndPAD
$PAD
Sh "31" O 1.5748 2.286 0 0 0
Dr 0.8128 0 0
At STD N 00E0FFFF
Ne 0 ""
Po -1.27 -7.62
$EndPAD
$PAD
Sh "32" O 1.5748 2.286 0 0 0
Dr 0.8128 0 0
At STD N 00E0FFFF
Ne 0 ""
Po -3.81 -7.62
$EndPAD
$PAD
Sh "33" O 1.5748 2.286 0 0 0
Dr 0.8128 0 0
At STD N 00E0FFFF
Ne 0 ""
Po -6.35 -7.62
$EndPAD
$PAD
Sh "34" O 1.5748 2.286 0 0 0
Dr 0.8128 0 0
At STD N 00E0FFFF
Ne 0 ""
Po -8.89 -7.62
$EndPAD
$PAD
Sh "35" O 1.5748 2.286 0 0 0
Dr 0.8128 0 0
At STD N 00E0FFFF
Ne 0 ""
Po -11.43 -7.62
$EndPAD
$PAD
Sh "36" O 1.5748 2.286 0 0 0
Dr 0.8128 0 0
At STD N 00E0FFFF
Ne 0 ""
Po -13.97 -7.62
$EndPAD
$PAD
Sh "37" O 1.5748 2.286 0 0 0
Dr 0.8128 0 0
At STD N 00E0FFFF
Ne 0 ""
Po -16.51 -7.62
$EndPAD
$PAD
Sh "38" O 1.5748 2.286 0 0 0
Dr 0.8128 0 0
At STD N 00E0FFFF
Ne 0 ""
Po -19.05 -7.62
$EndPAD
$PAD
Sh "39" O 1.5748 2.286 0 0 0
Dr 0.8128 0 0
At STD N 00E0FFFF
Ne 0 ""
Po -21.59 -7.62
$EndPAD
$PAD
Sh "40" O 1.5748 2.286 0 0 0
Dr 0.8128 0 0
At STD N 00E0FFFF
Ne 0 ""
Po -24.13 -7.62
$EndPAD
$SHAPE3D
Na "dil\\dil_40-w600.wrl"
Sc 1 1 1
Of 0 0 0
Ro 0 0 0
$EndSHAPE3D
$EndMODULE DIP-40
$MODULE DIP-8
Po 0 0 0 15 554F7B41 00000000 ~~
Li DIP-8
Cd 8-Pin Dual In-Line Package
Kw Through Hole
Sc 0
AR 
Op 0 0 0
T0 -5.588 1.651 0.5 0.5 900 0.12 N V 21 N "IC**"
T1 0 0 0.127 0.127 0 0.000001 N I 21 N "DIP-8"
DS -5.08 -1.27 -3.81 -1.27 0.381 21
DS -3.81 -1.27 -3.81 1.27 0.381 21
DS -3.81 1.27 -5.08 1.27 0.381 21
DS -5.08 -2.54 5.08 -2.54 0.381 21
DS 5.08 -2.54 5.08 2.54 0.381 21
DS 5.08 2.54 -5.08 2.54 0.381 21
DS -5.08 2.54 -5.08 -2.54 0.381 21
$PAD
Sh "1" R 1.524 2.286 0 0 0
Dr 1.016 0 0
At STD N 00E0FFFF
Ne 0 ""
Po -3.81 3.81
$EndPAD
$PAD
Sh "2" O 1.524 2.286 0 0 0
Dr 1.016 0 0
At STD N 00E0FFFF
Ne 0 ""
Po -1.27 3.81
$EndPAD
$PAD
Sh "3" O 1.524 2.286 0 0 0
Dr 1.016 0 0
At STD N 00E0FFFF
Ne 0 ""
Po 1.27 3.81
$EndPAD
$PAD
Sh "4" O 1.524 2.286 0 0 0
Dr 1.016 0 0
At STD N 00E0FFFF
Ne 0 ""
Po 3.81 3.81
$EndPAD
$PAD
Sh "5" O 1.524 2.286 0 0 0
Dr 1.016 0 0
At STD N 00E0FFFF
Ne 0 ""
Po 3.81 -3.81
$EndPAD
$PAD
Sh "6" O 1.524 2.286 0 0 0
Dr 1.016 0 0
At STD N 00E0FFFF
Ne 0 ""
Po 1.27 -3.81
$EndPAD
$PAD
Sh "7" O 1.524 2.286 0 0 0
Dr 1.016 0 0
At STD N 00E0FFFF
Ne 0 ""
Po -1.27 -3.81
$EndPAD
$PAD
Sh "8" O 1.524 2.286 0 0 0
Dr 1.016 0 0
At STD N 00E0FFFF
Ne 0 ""
Po -3.81 -3.81
$EndPAD
$SHAPE3D
Na "dil/dil_8.wrl"
Sc 1 1 1
Of 0 0 0
Ro 0 0 0
$EndSHAPE3D
$EndMODULE DIP-8
$MODULE DIP-SWITCH-4-SPST
Po 0 0 0 15 55040351 00000000 ~~
Li DIP-SWITCH-4-SPST
Cd 4-Pin SPST DIP Switch
Kw Through Hole
Sc 0
AR 
Op 0 0 0
T0 0 -6.604 0.5 0.5 0 0.12 N V 21 N "SW**"
T1 0 0 0.127 0.127 0 0.001 N I 21 N "DIP-SWITCH"
DS -5 -6.17 5 -6.17 0.3048 21
DS 5 -6.17 5 6.17 0.3048 21
DS 5 6.17 -5 6.17 0.3048 21
DS -5 -6.17 -5 6.17 0.3048 21
$PAD
Sh "2" C 1.524 1.524 0 0 0
Dr 1.016 0 0
At STD N 00C0FFFF
Ne 0 ""
Po 3.81 -3.81
$EndPAD
$PAD
Sh "6" C 1.524 1.524 0 0 0
Dr 1.016 0 0
At STD N 00C0FFFF
Ne 0 ""
Po 3.81 1.27
$EndPAD
$PAD
Sh "1" C 1.524 1.524 0 0 0
Dr 1.016 0 0
At STD N 00C0FFFF
Ne 0 ""
Po -3.81 -3.81
$EndPAD
$PAD
Sh "5" C 1.524 1.524 0 0 0
Dr 1.016 0 0
At STD N 00C0FFFF
Ne 0 ""
Po -3.81 1.27
$EndPAD
$PAD
Sh "3" C 1.524 1.524 0 0 0
Dr 1.016 0 0
At STD N 00C0FFFF
Ne 0 ""
Po -3.81 -1.27
$EndPAD
$PAD
Sh "4" C 1.524 1.524 0 0 0
Dr 1.016 0 0
At STD N 00C0FFFF
Ne 0 ""
Po 3.81 -1.27
$EndPAD
$PAD
Sh "7" C 1.524 1.524 0 0 0
Dr 1.016 0 0
At STD N 00C0FFFF
Ne 0 ""
Po -3.81 3.81
$EndPAD
$PAD
Sh "8" C 1.524 1.524 0 0 0
Dr 1.016 0 0
At STD N 00C0FFFF
Ne 0 ""
Po 3.81 3.81
$EndPAD
$EndMODULE DIP-SWITCH-4-SPST
$MODULE DIP-SWITCH-5-SPST
Po 0 0 0 15 5504036F 00000000 ~~
Li DIP-SWITCH-5-SPST
Cd 5-Pin SPST DIP Switch
Kw Through Hole
Sc 0
AR 
Op 0 0 0
T0 0 -7.874 0.5 0.5 0 0.12 N V 21 N "SW**"
T1 0 0 0.127 0.127 0 0.001 N I 21 N "DIP-SWITCH"
DS -5 -7.44 5 -7.44 0.3048 21
DS 5 -7.44 5 7.44 0.3048 21
DS 5 7.44 -5 7.44 0.3048 21
DS -5 -7.44 -5 7.44 0.3048 21
$PAD
Sh "2" C 1.524 1.524 0 0 0
Dr 1.016 0 0
At STD N 00C0FFFF
Ne 0 ""
Po 3.81 -5.08
$EndPAD
$PAD
Sh "6" C 1.524 1.524 0 0 0
Dr 1.016 0 0
At STD N 00C0FFFF
Ne 0 ""
Po 3.81 0
$EndPAD
$PAD
Sh "1" C 1.524 1.524 0 0 0
Dr 1.016 0 0
At STD N 00C0FFFF
Ne 0 ""
Po -3.81 -5.08
$EndPAD
$PAD
Sh "5" C 1.524 1.524 0 0 0
Dr 1.016 0 0
At STD N 00C0FFFF
Ne 0 ""
Po -3.81 0
$EndPAD
$PAD
Sh "3" C 1.524 1.524 0 0 0
Dr 1.016 0 0
At STD N 00C0FFFF
Ne 0 ""
Po -3.81 -2.54
$EndPAD
$PAD
Sh "4" C 1.524 1.524 0 0 0
Dr 1.016 0 0
At STD N 00C0FFFF
Ne 0 ""
Po 3.81 -2.54
$EndPAD
$PAD
Sh "7" C 1.524 1.524 0 0 0
Dr 1.016 0 0
At STD N 00C0FFFF
Ne 0 ""
Po -3.81 2.54
$EndPAD
$PAD
Sh "8" C 1.524 1.524 0 0 0
Dr 1.016 0 0
At STD N 00C0FFFF
Ne 0 ""
Po 3.81 2.54
$EndPAD
$PAD
Sh "9" C 1.524 1.524 0 0 0
Dr 1.016 0 0
At STD N 00C0FFFF
Ne 0 ""
Po -3.81 5.08
$EndPAD
$PAD
Sh "10" C 1.524 1.524 0 0 0
Dr 1.016 0 0
At STD N 00C0FFFF
Ne 0 ""
Po 3.81 5.08
$EndPAD
$EndMODULE DIP-SWITCH-5-SPST
$MODULE DO-201
Po 0 0 0 15 55213D90 00000000 ~~
Li DO-201
Cd DO-201 Package
Kw Through Hole
Sc 0
AR /522B4765
Op 0 0 0
T0 -6.604 -4.064 0.5 0.5 0 0.12 N V 21 N "D**"
T1 0 0 0.127 0.127 0 0.000001 N I 21 N "DO-201"
DS -7.239 -3.6 7.239 -3.6 0.3048 21
DS 7.239 3.6 -7.239 3.6 0.3048 21
DS -7.239 3.6 -7.239 -3.6 0.3048 21
DS 7.239 -3.6 7.239 3.6 0.3048 21
DS 5.715 3.6 5.715 -3.6 0.3048 21
DS -7.239 0 -10.16 0 0.3048 21
DS 7.239 0 10.16 0 0.3048 21
$PAD
Sh "1" C 3.5 3.5 0 0 0
Dr 2 0 0
At STD N 00C0FFFF
Ne 0 ""
Po -10.16 0
$EndPAD
$PAD
Sh "2" R 3.5 3.5 0 0 0
Dr 2 0 0
At STD N 00C0FFFF
Ne 0 ""
Po 10.16 0
$EndPAD
$SHAPE3D
Na "discret/diode.wrl"
Sc 0.4 0.4 0.4
Of 0 0 0
Ro 0 0 0
$EndSHAPE3D
$EndMODULE DO-201
$MODULE DO-34
Po 0 0 0 15 554F730F 00000000 ~~
Li DO-34
Cd DO-34 Package
Kw Through Hole
Sc 0
AR 
Op 0 0 0
T0 -1.397 -1.524 0.5 0.5 0 0.12 N V 21 N "D**"
T1 0 0 0.127 0.127 0 0.000001 N I 21 N "DO-34"
DS 2.032 0 3.81 0 0.3175 21
DS -2.032 0 -3.81 0 0.3175 21
DS 1.524 -1.016 1.524 1.016 0.3175 21
DS -2.032 -1.016 -2.032 1.016 0.3175 21
DS -2.032 1.016 2.032 1.016 0.3175 21
DS 2.032 1.016 2.032 -1.016 0.3175 21
DS 2.032 -1.016 -2.032 -1.016 0.3175 21
$PAD
Sh "2" R 1.905 1.905 0 0 0
Dr 1.2192 0 0
At STD N 00E0FFFF
Ne 0 ""
Po 3.81 0
$EndPAD
$PAD
Sh "1" C 1.905 1.905 0 0 0
Dr 1.2192 0 0
At STD N 00E0FFFF
Ne 0 ""
Po -3.81 0
$EndPAD
$SHAPE3D
Na "discret/diode.wrl"
Sc 0.3 0.3 0.3
Of 0 0 0
Ro 0 0 0
$EndSHAPE3D
$EndMODULE DO-34
$MODULE DO-35
Po 0 0 0 15 554F7261 00000000 ~~
Li DO-35
Cd DO-35 Package
Kw Through Hole
Sc 0
AR 
Op 0 0 0
T0 -1.397 -1.524 0.5 0.5 0 0.12 N V 21 N "D**"
T1 0 0 0.127 0.127 0 0.000001 N I 21 N "DO-35"
DS 2.032 0 3.81 0 0.3175 21
DS -2.032 0 -3.81 0 0.3175 21
DS 1.524 -1.016 1.524 1.016 0.3175 21
DS -2.032 -1.016 -2.032 1.016 0.3175 21
DS -2.032 1.016 2.032 1.016 0.3175 21
DS 2.032 1.016 2.032 -1.016 0.3175 21
DS 2.032 -1.016 -2.032 -1.016 0.3175 21
$PAD
Sh "2" R 1.905 1.905 0 0 0
Dr 1.2192 0 0
At STD N 00E0FFFF
Ne 0 ""
Po 3.81 0
$EndPAD
$PAD
Sh "1" C 1.905 1.905 0 0 0
Dr 1.2192 0 0
At STD N 00E0FFFF
Ne 0 ""
Po -3.81 0
$EndPAD
$SHAPE3D
Na "discret/diode.wrl"
Sc 0.3 0.3 0.3
Of 0 0 0
Ro 0 0 0
$EndSHAPE3D
$EndMODULE DO-35
$MODULE DO-41
Po 0 0 0 15 554F7258 00000000 ~~
Li DO-41
Cd DO-41 Package
Kw Through Hole
Sc 0
AR /522B4765
Op 0 0 0
T0 -2.3876 -1.7272 0.5 0.5 0 0.12 N V 21 N "D**"
T1 0 0 0.127 0.127 0 0.000001 N I 21 N "DO-41"
DS -3.048 -1.27 3.048 -1.27 0.3048 21
DS 3.048 1.27 -3.048 1.27 0.3048 21
DS -3.048 1.27 -3.048 -1.27 0.3048 21
DS 3.048 -1.27 3.048 1.27 0.3048 21
DS 2.032 1.27 2.032 -1.27 0.3048 21
DS -3.048 0 -5.08 0 0.3048 21
DS 3.048 0 5.08 0 0.3048 21
$PAD
Sh "1" C 1.905 1.905 0 0 0
Dr 1.2192 0 0
At STD N 00C0FFFF
Ne 0 ""
Po -5.08 0
$EndPAD
$PAD
Sh "2" R 1.905 1.905 0 0 0
Dr 1.2192 0 0
At STD N 00C0FFFF
Ne 0 ""
Po 5.08 0
$EndPAD
$SHAPE3D
Na "discret/diode.wrl"
Sc 0.4 0.4 0.4
Of 0 0 0
Ro 0 0 0
$EndSHAPE3D
$EndMODULE DO-41
$MODULE HC-18UV
Po 0 0 0 15 5504039D 00000000 ~~
Li HC-18UV
Cd Crystal HC-18UV Package
Kw QUARTZ DEV
Sc 0
AR 
Op 0 A 0
At SMD
T0 -4.9022 -2.9464 0.5 0.5 0 0.12 N V 21 N "X***"
T1 0 0 0.127 0.127 0 0.000001 N I 21 N "HC-18UV"
DS -6.985 -1.27 -5.715 -2.54 0.3048 21
DS 5.715 -2.54 6.985 -1.27 0.3048 21
DS 6.985 1.27 5.715 2.54 0.3048 21
DS -6.985 1.27 -5.715 2.54 0.3048 21
DS -5.715 -2.54 5.715 -2.54 0.3048 21
DS -6.985 -1.27 -6.985 1.27 0.3048 21
DS -5.715 2.54 5.715 2.54 0.3048 21
DS 6.985 1.27 6.985 -1.27 0.3048 21
$PAD
Sh "1" C 1.778 1.778 0 0 0
Dr 0.8128 0 0
At STD N 00C0FFFF
Ne 0 ""
Po -2.54 0
$EndPAD
$PAD
Sh "2" C 1.778 1.778 0 0 0
Dr 0.8128 0 0
At STD N 00C0FFFF
Ne 0 ""
Po 2.54 0
$EndPAD
$SHAPE3D
Na "discret/crystal_hc18u_vertical.wrl"
Sc 1 1 1
Of 0 0 0
Ro 0 0 0
$EndSHAPE3D
$SHAPE3D
Na "discret/xtal/crystal_hc18u_vertical.wrl"
Sc 1 1 1
Of 0 0 0
Ro 0 0 0
$EndSHAPE3D
$EndMODULE HC-18UV
$MODULE LED-3mm
Po 0 0 0 15 551F0661 00000000 ~~
Li LED-3mm
Cd LED 3mm
Kw LED
Sc 0
AR 
Op 0 0 0
T0 0 -2.54 0.5 0.5 0 0.12 N V 21 N "D**"
T1 0 0 0.127 0.127 0 0.001 N I 21 N "LED-3mm"
DS 1.8288 1.27 1.8288 -1.27 0.254 21
DA 0.254 0 -1.27 0 398 0.1524 21
DA 0.254 0 -0.88392 1.01092 416 0.1524 21
DA 0.254 0 1.4097 -0.9906 406 0.1524 21
DA 0.254 0 1.778 0 398 0.1524 21
DA 0.254 0 0.254 -1.524 544 0.1524 21
DA 0.254 0 -0.9652 -0.9144 531 0.1524 21
DA 0.254 0 1.45542 0.93472 521 0.1524 21
DA 0.254 0 0.254 1.524 521 0.1524 21
DA 0.254 0 -0.381 0 900 0.1524 21
DA 0.254 0 -0.762 0 900 0.1524 21
DA 0.254 0 0.889 0 900 0.1524 21
DA 0.254 0 1.27 0 900 0.1524 21
DA 0.254 0 0.254 -2.032 501 0.254 21
DA 0.254 0 -1.5367 -0.95504 619 0.254 21
DA 0.254 0 1.8034 1.31064 497 0.254 21
DA 0.254 0 0.254 2.032 602 0.254 21
DA 0.254 0 -1.778 0 283 0.254 21
DA 0.254 0 -1.47574 1.06426 316 0.254 21
$PAD
Sh "1" C 1.6764 1.6764 0 0 0
Dr 0.8128 0 0
At STD N 00E0FFFF
Ne 0 ""
Po -1.27 0
$EndPAD
$PAD
Sh "2" C 1.6764 1.6764 0 0 0
Dr 0.8128 0 0
At STD N 00E0FFFF
Ne 0 ""
Po 1.27 0
$EndPAD
$SHAPE3D
Na "discret/leds/led3_vertical_verde.wrl"
Sc 1 1 1
Of 0 0 0
Ro 0 0 0
$EndSHAPE3D
$EndMODULE LED-3mm
$MODULE LED-5mm
Po 0 0 0 15 551F0651 00000000 ~~
Li LED-5mm
Cd LED 5mm
Kw LED
Sc 0
AR 
Op 0 0 0
T0 0 -3.81 0.5 0.5 0 0.12 N V 21 N "D**"
T1 0 0 0.127 0.127 0 0.001 N I 21 N "LED-5mm"
DS 2.8448 1.905 2.8448 -1.905 0.2032 21
DC 0.254 0 -1.016 1.27 0.0762 21
DA 0.254 0 2.794 1.905 2862 0.254 21
DA 0.254 0 -0.889 0 900 0.1524 21
DA 0.254 0 1.397 0 900 0.1524 21
DA 0.254 0 -1.397 0 900 0.1524 21
DA 0.254 0 1.905 0 900 0.1524 21
DA 0.254 0 -1.905 0 900 0.1524 21
DA 0.254 0 2.413 0 900 0.1524 21
$PAD
Sh "1" C 1.6764 1.6764 0 0 0
Dr 0.8128 0 0
At STD N 00E0FFFF
Ne 0 ""
Po -1.27 0
$EndPAD
$PAD
Sh "2" C 1.6764 1.6764 0 0 0
Dr 0.8128 0 0
At STD N 00E0FFFF
Ne 0 ""
Po 1.27 0
$EndPAD
$SHAPE3D
Na "discret/leds/led5_vertical_verde.wrl"
Sc 1 1 1
Of 0 0 0
Ro 0 0 0
$EndSHAPE3D
$EndMODULE LED-5mm
$MODULE RADIAL-LEAD-2.5mm
Po 0 0 0 15 5508A1DD 00000000 ~~
Li RADIAL-LEAD-2.5mm
Cd 2.5mm Radial-Lead Package
Kw Through Hole
Sc 0
AR 
Op 0 0 0
T0 -2.032 -2.286 0.5 0.5 0 0.12 N V 21 N "C**"
T1 0 0 0.127 0.127 0 0.001 N I 21 N "RADIAL-LEAD"
DC 0 0 0 -2.5 0.3048 21
$PAD
Sh "2" C 1.524 1.524 0 0 0
Dr 1.016 0 0
At STD N 00C0FFFF
Ne 0 ""
Po 1.25 0
$EndPAD
$PAD
Sh "1" C 1.524 1.524 0 0 0
Dr 1.016 0 0
At STD N 00C0FFFF
Ne 0 ""
Po -1.25 0
$EndPAD
$EndMODULE RADIAL-LEAD-2.5mm
$MODULE RADIAL-LEAD-5mm
Po 0 0 0 15 55037DF7 00000000 ~~
Li RADIAL-LEAD-5mm
Cd 5mm Radial-Lead Package
Kw Through Hole
Sc 0
AR 
Op 0 0 0
T0 -3.302 -4.064 0.5 0.5 0 0.12 N V 21 N "C**"
T1 0 0 0.127 0.127 0 0.001 N I 21 N "RADIAL-LEAD"
DC 0 0 0 -4.5 0.3048 21
$PAD
Sh "2" C 1.524 1.524 0 0 0
Dr 1.016 0 0
At STD N 00C0FFFF
Ne 0 ""
Po 2.54 0
$EndPAD
$PAD
Sh "1" C 1.524 1.524 0 0 0
Dr 1.016 0 0
At STD N 00C0FFFF
Ne 0 ""
Po -2.54 0
$EndPAD
$EndMODULE RADIAL-LEAD-5mm
$MODULE RADIAL-LEAD-7.5mm
Po 0 0 0 15 5508C0DE 00000000 ~~
Li RADIAL-LEAD-7.5mm
Cd 7.5mm Radial-Lead Package
Kw Through Hole
Sc 0
AR 
Op 0 0 0
T0 -12.954 -8.89 0.5 0.5 0 0.12 N V 21 N "C**"
T1 0 0 0.127 0.127 0 0.001 N I 21 N "RADIAL-LEAD"
DC 0 0 0 -15 0.3048 21
$PAD
Sh "2" C 2.032 2.032 0 0 0
Dr 1.524 0 0
At STD N 00C0FFFF
Ne 0 ""
Po 5.08 0
$EndPAD
$PAD
Sh "1" C 2.032 2.032 0 0 0
Dr 1.524 0 0
At STD N 00C0FFFF
Ne 0 ""
Po -5.08 0
$EndPAD
$EndMODULE RADIAL-LEAD-7.5mm
$MODULE RELAY-OMRON-8-MY2-PCB-DPDT
Po 0 0 0 15 550403D1 00000000 ~~
Li RELAY-OMRON-8-MY2-PCB-DPDT
Cd Omron 8-pin MY2 PCB Terminal DPDT Relay Package
Kw Through Hole
Sc 0
AR 
Op 0 0 0
T0 0 -15.113 0.5 0.5 0 0.12 N V 21 N "SW**"
T1 0 0 0.127 0.127 0 0.001 N I 21 N "RELAY"
DS -10.566 12.065 10.566 12.065 0.3048 21
DS 10.566 12.065 10.566 -14.605 0.3048 21
DS -10.566 -14.605 10.566 -14.605 0.3048 21
DS -10.566 12.065 -10.566 -14.605 0.3048 21
$PAD
Sh "14" C 2.54 2.54 0 0 0
Dr 1.27 0 0
At STD N 00C0FFFF
Ne 0 ""
Po 6.35 -8.255
$EndPAD
$PAD
Sh "8" C 2.54 2.54 0 0 0
Dr 1.27 0 0
At STD N 00C0FFFF
Ne 0 ""
Po 6.35 4.445
$EndPAD
$PAD
Sh "13" C 2.54 2.54 0 0 0
Dr 1.27 0 0
At STD N 00C0FFFF
Ne 0 ""
Po -6.35 -8.255
$EndPAD
$PAD
Sh "5" C 2.54 2.54 0 0 0
Dr 1.27 0 0
At STD N 00C0FFFF
Ne 0 ""
Po -6.35 4.445
$EndPAD
$PAD
Sh "9" C 2.54 2.54 0 0 0
Dr 1.27 0 0
At STD N 00C0FFFF
Ne 0 ""
Po -6.35 -1.905
$EndPAD
$PAD
Sh "12" C 2.54 2.54 0 0 0
Dr 1.27 0 0
At STD N 00C0FFFF
Ne 0 ""
Po 6.35 -1.905
$EndPAD
$PAD
Sh "1" C 2.54 2.54 0 0 0
Dr 1.27 0 0
At STD N 00C0FFFF
Ne 0 ""
Po -6.35 8.255
$EndPAD
$PAD
Sh "4" C 2.54 2.54 0 0 0
Dr 1.27 0 0
At STD N 00C0FFFF
Ne 0 ""
Po 6.35 8.255
$EndPAD
$EndMODULE RELAY-OMRON-8-MY2-PCB-DPDT
$MODULE SWITCH-6-DPDT
Po 0 0 0 15 55040402 00000000 ~~
Li SWITCH-6-DPDT
Cd 6-Legged DPDT Switch
Kw Through Hole
Sc 0
AR 
Op 0 0 0
T0 -0.127 -4.953 0.5 0.5 0 0.12 N V 21 N "SW**"
T1 0 0 0.127 0.127 0 0.001 N I 21 N "SWITCH"
DS -1.5 -1.5 -1.5 1.5 0.3048 21
DS -1.5 1.5 1.5 1.5 0.3048 21
DS 1.5 1.5 1.5 -1.5 0.3048 21
DS -1.5 -1.5 1.5 -1.5 0.3048 21
DS -4.5 -4.5 4.5 -4.5 0.3048 21
DS 4.5 -4.5 4.5 4.5 0.3048 21
DS 4.5 4.5 -4.5 4.5 0.3048 21
DS -4.5 -4.5 -4.5 4.5 0.3048 21
$PAD
Sh "4" C 1.524 1.524 0 0 0
Dr 1.016 0 0
At STD N 00C0FFFF
Ne 0 ""
Po 2.54 -2.54
$EndPAD
$PAD
Sh "6" C 1.524 1.524 0 0 0
Dr 1.016 0 0
At STD N 00C0FFFF
Ne 0 ""
Po 2.54 2.54
$EndPAD
$PAD
Sh "1" C 1.524 1.524 0 0 0
Dr 1.016 0 0
At STD N 00C0FFFF
Ne 0 ""
Po -2.54 -2.54
$EndPAD
$PAD
Sh "3" C 1.524 1.524 0 0 0
Dr 1.016 0 0
At STD N 00C0FFFF
Ne 0 ""
Po -2.54 2.54
$EndPAD
$PAD
Sh "2" C 1.524 1.524 0 0 0
Dr 1.016 0 0
At STD N 00C0FFFF
Ne 0 ""
Po -2.54 0
$EndPAD
$PAD
Sh "5" C 1.524 1.524 0 0 0
Dr 1.016 0 0
At STD N 00C0FFFF
Ne 0 ""
Po 2.54 0
$EndPAD
$EndMODULE SWITCH-6-DPDT
$MODULE TO-220-3
Po 0 0 0 15 55040836 00000000 ~~
Li TO-220-3
Cd 3-pin TO-220 Package
Kw Through Hole
Sc 0
AR /522B473C
Op 0 0 0
T0 5.9944 -5.5372 0.5 0.5 0 0.12 N V 21 N "IC**"
T1 8.636 0 0.127 0.127 0 0.000001 N I 21 N "TO-220"
DS 0 -2.54 5.08 -2.54 0.3048 21
DS 0 0 5.08 0 0.3048 21
DS 0 2.54 5.08 2.54 0.3048 21
DS 5.08 5.08 20.32 5.08 0.3048 21
DS 20.32 5.08 20.32 -5.08 0.3048 21
DS 20.32 -5.08 5.08 -5.08 0.3048 21
DS 5.08 -5.08 5.08 5.08 0.3048 21
DS 12.7 5.08 12.7 -5.08 0.3048 21
$PAD
Sh "3" O 1.8034 1.2954 0 0 0
Dr 1.143 0 0
At STD N 00C0FFFF
Ne 0 ""
Po 0 2.54
$EndPAD
$PAD
Sh "1" O 1.8034 1.2954 0 0 0
Dr 1.143 0 0
At STD N 00E0FFFF
Ne 0 ""
Po 0 -2.54
$EndPAD
$PAD
Sh "2" O 1.8034 1.2954 0 0 0
Dr 1.143 0 0
At STD N 00E0FFFF
Ne 0 ""
Po 0 0
$EndPAD
$PAD
Sh "4" R 6.5 8 0 0 0
Dr 0 0 0
At SMD N 00888000
Ne 0 ""
Po 16.764 0
$EndPAD
$PAD
Sh "4" C 6.5 6.5 0 0 0
Dr 3.5 0 0
At STD N 00C0FFFF
Ne 0 ""
Po 16.764 0
$EndPAD
$SHAPE3D
Na "discret/to220_horiz.wrl"
Sc 1 1 1
Of 0 0 0
Ro 0 0 0
$EndSHAPE3D
$EndMODULE TO-220-3
$MODULE TO-220-5
Po 0 0 0 15 55040A01 00000000 ~~
Li TO-220-5
Cd 5-pin TO-220 Package
Kw Through Hole
Sc 0
AR /522B473C
Op 0 0 0
T0 5.9944 -5.5372 0.5 0.5 0 0.12 N V 21 N "IC**"
T1 8.636 0 0.127 0.127 0 0.000001 N I 21 N "TO-220"
DS 0 1.7 5.08 1.7 0.3048 21
DS 0 -1.7 5.08 -1.7 0.3048 21
DS 0 -3.4 5.08 -3.4 0.3048 21
DS 0 0 5.08 0 0.3048 21
DS 0 3.4 5.08 3.4 0.3048 21
DS 5.08 5.08 20.32 5.08 0.3048 21
DS 20.32 5.08 20.32 -5.08 0.3048 21
DS 20.32 -5.08 5.08 -5.08 0.3048 21
DS 5.08 -5.08 5.08 5.08 0.3048 21
DS 12.7 5.08 12.7 -5.08 0.3048 21
$PAD
Sh "4" O 1.8034 1.2954 0 0 0
Dr 1.143 0 0
At STD N 00C0FFFF
Ne 0 ""
Po 0 1.7
$EndPAD
$PAD
Sh "2" O 1.8034 1.2954 0 0 0
Dr 1.143 0 0
At STD N 00E0FFFF
Ne 0 ""
Po 0 -1.7
$EndPAD
$PAD
Sh "3" O 1.8034 1.2954 0 0 0
Dr 1.143 0 0
At STD N 00E0FFFF
Ne 0 ""
Po 0 0
$EndPAD
$PAD
Sh "6" R 6.5 8 0 0 0
Dr 0 0 0
At SMD N 00888000
Ne 0 ""
Po 16.764 0
$EndPAD
$PAD
Sh "6" C 6.5 6.5 0 0 0
Dr 3.5 0 0
At STD N 00C0FFFF
Ne 0 ""
Po 16.764 0
$EndPAD
$PAD
Sh "1" O 1.8034 1.2954 0 0 0
Dr 1.143 0 0
At STD N 00C0FFFF
Ne 0 ""
Po 0 -3.4
$EndPAD
$PAD
Sh "5" O 1.8034 1.2954 0 0 0
Dr 1.143 0 0
At STD N 00C0FFFF
Ne 0 ""
Po 0 3.4
$EndPAD
$SHAPE3D
Na "discret/to220_horiz.wrl"
Sc 1 1 1
Of 0 0 0
Ro 0 0 0
$EndSHAPE3D
$EndMODULE TO-220-5
$MODULE TO-92
Po 0 0 0 15 555BB370 00000000 ~~
Li TO-92
Cd TO-92 Package
Kw Through Hole
Sc 0
AR 
Op 0 0 0
T0 0 2.032 0.5 0.5 0 0.12 N V 21 N "Q**"
T1 0 0 0.127 0.127 0 0.000001 N I 21 N "TO-92"
DS -2.54 1.524 -2.54 -1.27 0.15 21
DS -2.54 -1.27 -1.27 -2.54 0.15 21
DS -1.27 -2.54 1.27 -2.54 0.15 21
DS 1.27 -2.54 2.54 -1.27 0.15 21
DS 2.54 -1.27 2.54 1.524 0.15 21
DS 2.54 1.524 -2.54 1.524 0.15 21
$PAD
Sh "3" O 1 2 0 0 0
Dr 0.9 0 0
At STD N 00E0FFFF
Ne 0 ""
Po 1.524 0
$EndPAD
$PAD
Sh "2" O 1 2 0 0 0
Dr 0.9 0 0
At STD N 00E0FFFF
Ne 0 ""
Po 0 0
$EndPAD
$PAD
Sh "1" O 1 2 0 0 0
Dr 0.9 0 0
At STD N 00E0FFFF
Ne 0 ""
Po -1.524 0
$EndPAD
$SHAPE3D
Na "discret/to98.wrl"
Sc 1 1 1
Of 0 0 0
Ro 0 0 0
$EndSHAPE3D
$EndMODULE TO-92
$EndLIBRARY
