EESchema Schematic File Version 2
LIBS:power
LIBS:Components
LIBS:Connectors
LIBS:Devices
LIBS:ADC-Board-cache
EELAYER 27 0
EELAYER END
$Descr A4 11693 8268
encoding utf-8
Sheet 1 1
Title ""
Date "4 may 2014"
Rev ""
Comp ""
Comment1 ""
Comment2 ""
Comment3 ""
Comment4 ""
$EndDescr
$Comp
L AD8138 IC1
U 1 1 53622065
P 2450 2500
F 0 "IC1" H 2250 2800 40  0000 C CNN
F 1 "AD8138" H 2300 2200 40  0000 C CNN
F 2 "~" H 2600 2750 60  0000 C CNN
F 3 "~" H 2600 2750 60  0000 C CNN
	1    2450 2500
	1    0    0    -1  
$EndComp
NoConn ~ 2850 2350
NoConn ~ 2850 2450
NoConn ~ 2850 2550
NoConn ~ 2850 2650
NoConn ~ 2050 2600
NoConn ~ 2050 2500
NoConn ~ 2050 2400
$Comp
L THS3091 IC2
U 1 1 536220AA
P 2450 3150
F 0 "IC2" H 2250 3400 40  0000 C CNN
F 1 "THS3091" H 2350 2900 40  0000 C CNN
F 2 "~" H 2600 3400 60  0000 C CNN
F 3 "~" H 2600 3400 60  0000 C CNN
	1    2450 3150
	1    0    0    -1  
$EndComp
NoConn ~ 2050 3100
NoConn ~ 2050 3200
NoConn ~ 2850 3050
NoConn ~ 2850 3150
NoConn ~ 2850 3250
$Comp
L AD9235 IC3
U 1 1 5365ECA3
P 3800 2950
F 0 "IC3" H 3490 3740 40  0000 C CNN
F 1 "AD9235" H 3570 2150 40  0000 C CNN
F 2 "~" H 3950 3200 60  0000 C CNN
F 3 "~" H 3950 3200 60  0000 C CNN
	1    3800 2950
	1    0    0    -1  
$EndComp
NoConn ~ 3300 2300
NoConn ~ 3300 2400
NoConn ~ 3300 2500
NoConn ~ 3300 2600
NoConn ~ 3300 2700
NoConn ~ 3300 2800
NoConn ~ 3300 2900
NoConn ~ 3300 3000
NoConn ~ 3300 3100
NoConn ~ 3300 3200
NoConn ~ 3300 3300
NoConn ~ 3300 3400
NoConn ~ 3300 3500
NoConn ~ 3300 3600
NoConn ~ 4300 2300
NoConn ~ 4300 2400
NoConn ~ 4300 2500
NoConn ~ 4300 2600
NoConn ~ 4300 2700
NoConn ~ 4300 2800
NoConn ~ 4300 2900
NoConn ~ 4300 3000
NoConn ~ 4300 3100
NoConn ~ 4300 3200
NoConn ~ 4300 3300
NoConn ~ 4300 3400
NoConn ~ 4300 3500
NoConn ~ 4300 3600
$EndSCHEMATC
