EESchema Schematic File Version 2
LIBS:power
LIBS:Devices
LIBS:Components
LIBS:Connectors
LIBS:STM32-System-Minimum-Board-cache
EELAYER 27 0
EELAYER END
$Descr A3 16535 11693
encoding utf-8
Sheet 1 1
Title ""
Date "26 may 2015"
Rev ""
Comp ""
Comment1 ""
Comment2 ""
Comment3 ""
Comment4 ""
$EndDescr
$Comp
L +3.3V #PWR01
U 1 1 5563C0B9
P 5550 950
F 0 "#PWR01" H 5550 910 30  0001 C CNN
F 1 "+3.3V" H 5550 1060 30  0000 C CNN
F 2 "" H 5550 950 60  0000 C CNN
F 3 "" H 5550 950 60  0000 C CNN
	1    5550 950 
	1    0    0    -1  
$EndComp
$Comp
L HEADER-3X2 P4
U 1 1 5563C0BA
P 8450 950
F 0 "P4" V 8400 950 40  0000 C CNN
F 1 "HEADER-3X2" V 8500 950 40  0000 C CNN
F 2 "~" H 8450 950 60  0000 C CNN
F 3 "~" H 8450 950 60  0000 C CNN
	1    8450 950 
	1    0    0    -1  
$EndComp
$Comp
L RES R2
U 1 1 5563C0BB
P 7950 950
F 0 "R2" H 7950 1030 40  0000 C CNN
F 1 "10K" H 7950 950 40  0000 C CNN
F 2 "~" H 7950 880 30  0000 C CNN
F 3 "~" V 7950 950 30  0000 C CNN
	1    7950 950 
	1    0    0    -1  
$EndComp
$Comp
L RES R3
U 1 1 5563C0BC
P 8950 950
F 0 "R3" H 8950 1030 40  0000 C CNN
F 1 "10K" H 8950 950 40  0000 C CNN
F 2 "~" H 8950 880 30  0000 C CNN
F 3 "~" V 8950 950 30  0000 C CNN
	1    8950 950 
	1    0    0    -1  
$EndComp
$Comp
L +3.3V #PWR02
U 1 1 5563C0BD
P 8150 800
F 0 "#PWR02" H 8150 760 30  0001 C CNN
F 1 "+3.3V" H 8150 910 30  0000 C CNN
F 2 "" H 8150 800 60  0000 C CNN
F 3 "" H 8150 800 60  0000 C CNN
	1    8150 800 
	1    0    0    -1  
$EndComp
$Comp
L +3.3V #PWR03
U 1 1 5563C0BE
P 8750 800
F 0 "#PWR03" H 8750 760 30  0001 C CNN
F 1 "+3.3V" H 8750 910 30  0000 C CNN
F 2 "" H 8750 800 60  0000 C CNN
F 3 "" H 8750 800 60  0000 C CNN
	1    8750 800 
	1    0    0    -1  
$EndComp
$Comp
L GND #PWR04
U 1 1 5563C0BF
P 8150 1100
F 0 "#PWR04" H 8150 1100 30  0001 C CNN
F 1 "GND" H 8150 1030 30  0001 C CNN
F 2 "" H 8150 1100 60  0000 C CNN
F 3 "" H 8150 1100 60  0000 C CNN
	1    8150 1100
	1    0    0    -1  
$EndComp
$Comp
L GND #PWR05
U 1 1 5563C0C0
P 8750 1100
F 0 "#PWR05" H 8750 1100 30  0001 C CNN
F 1 "GND" H 8750 1030 30  0001 C CNN
F 2 "" H 8750 1100 60  0000 C CNN
F 3 "" H 8750 1100 60  0000 C CNN
	1    8750 1100
	1    0    0    -1  
$EndComp
Text Label 7500 950  0    39   ~ 0
BOOT0
Text Label 9200 950  0    39   ~ 0
BOOT1
$Comp
L HEADER-2X1 P1
U 1 1 5563C0C1
P 800 2100
F 0 "P1" V 750 2100 40  0000 C CNN
F 1 "HEADER-2X1" V 850 2100 40  0000 C CNN
F 2 "~" H 800 2100 60  0000 C CNN
F 3 "~" H 800 2100 60  0000 C CNN
	1    800  2100
	-1   0    0    1   
$EndComp
$Comp
L GND #PWR06
U 1 1 5563C0C3
P 1100 2250
F 0 "#PWR06" H 1100 2250 30  0001 C CNN
F 1 "GND" H 1100 2180 30  0001 C CNN
F 2 "" H 1100 2250 60  0000 C CNN
F 3 "" H 1100 2250 60  0000 C CNN
	1    1100 2250
	1    0    0    -1  
$EndComp
$Comp
L VDD #PWR07
U 1 1 5563C0C4
P 1200 1950
F 0 "#PWR07" H 1200 2050 30  0001 C CNN
F 1 "VDD" H 1200 2060 30  0000 C CNN
F 2 "" H 1200 1950 60  0000 C CNN
F 3 "" H 1200 1950 60  0000 C CNN
	1    1200 1950
	1    0    0    -1  
$EndComp
$Comp
L PWR_FLAG #FLG08
U 1 1 5563C0C5
P 1100 1850
F 0 "#FLG08" H 1100 1945 30  0001 C CNN
F 1 "PWR_FLAG" H 1100 2030 30  0000 C CNN
F 2 "" H 1100 1850 60  0000 C CNN
F 3 "" H 1100 1850 60  0000 C CNN
	1    1100 1850
	1    0    0    -1  
$EndComp
$Comp
L GND #PWR09
U 1 1 5563C0C7
P 3900 1400
F 0 "#PWR09" H 3900 1400 30  0001 C CNN
F 1 "GND" H 3900 1330 30  0001 C CNN
F 2 "" H 3900 1400 60  0000 C CNN
F 3 "" H 3900 1400 60  0000 C CNN
	1    3900 1400
	1    0    0    -1  
$EndComp
$Comp
L +3.3V #PWR010
U 1 1 5563C0C8
P 4900 900
F 0 "#PWR010" H 4900 860 30  0001 C CNN
F 1 "+3.3V" H 4900 1010 30  0000 C CNN
F 2 "" H 4900 900 60  0000 C CNN
F 3 "" H 4900 900 60  0000 C CNN
	1    4900 900 
	1    0    0    -1  
$EndComp
NoConn ~ 2100 2250
$Comp
L SWITCH SW1
U 1 1 5563C0C9
P 1750 2150
F 0 "SW1" H 1550 2250 40  0000 C CNN
F 1 "SWITCH" H 1600 2050 40  0000 C CNN
F 2 "~" H 1750 2150 60  0000 C CNN
F 3 "~" H 1750 2150 60  0000 C CNN
	1    1750 2150
	1    0    0    -1  
$EndComp
$Comp
L PWR_FLAG #FLG011
U 1 1 5563C0CA
P 2250 1950
F 0 "#FLG011" H 2250 2045 30  0001 C CNN
F 1 "PWR_FLAG" H 2250 2130 30  0000 C CNN
F 2 "" H 2250 1950 60  0000 C CNN
F 3 "" H 2250 1950 60  0000 C CNN
	1    2250 1950
	1    0    0    -1  
$EndComp
$Comp
L LED D1
U 1 1 5563C0CB
P 11550 1500
F 0 "D1" H 11550 1590 50  0000 C CNN
F 1 "LED" H 11560 1390 50  0000 C CNN
F 2 "~" H 11550 1500 60  0000 C CNN
F 3 "~" H 11550 1500 60  0000 C CNN
	1    11550 1500
	0    1    1    0   
$EndComp
$Comp
L RES R4
U 1 1 5563C0CC
P 11550 1050
F 0 "R4" H 11550 1130 40  0000 C CNN
F 1 "330" H 11550 1050 40  0000 C CNN
F 2 "~" H 11550 980 30  0000 C CNN
F 3 "~" V 11550 1050 30  0000 C CNN
	1    11550 1050
	0    -1   -1   0   
$EndComp
$Comp
L +3.3V #PWR012
U 1 1 5563C0CD
P 11550 800
F 0 "#PWR012" H 11550 760 30  0001 C CNN
F 1 "+3.3V" H 11550 910 30  0000 C CNN
F 2 "" H 11550 800 60  0000 C CNN
F 3 "" H 11550 800 60  0000 C CNN
	1    11550 800 
	1    0    0    -1  
$EndComp
$Comp
L GND #PWR013
U 1 1 5563C0CE
P 11550 1700
F 0 "#PWR013" H 11550 1700 30  0001 C CNN
F 1 "GND" H 11550 1630 30  0001 C CNN
F 2 "" H 11550 1700 60  0000 C CNN
F 3 "" H 11550 1700 60  0000 C CNN
	1    11550 1700
	1    0    0    -1  
$EndComp
$Comp
L HEADER-6X1 P7
U 1 1 5563C0CF
P 11250 1100
F 0 "P7" V 11200 1100 40  0000 C CNN
F 1 "HEADER-6X1" V 11300 1100 40  0000 C CNN
F 2 "~" H 11250 1100 60  0000 C CNN
F 3 "~" H 11250 1100 60  0000 C CNN
	1    11250 1100
	1    0    0    -1  
$EndComp
Text Label 10800 950  0    39   ~ 0
SWCLK
Text Label 10800 1150 0    39   ~ 0
SWDIO
Text Label 10850 1250 0    39   ~ 0
~RST
Text Label 10850 1350 0    39   ~ 0
SWO
$Comp
L +3.3V #PWR014
U 1 1 5563C0D0
P 10950 800
F 0 "#PWR014" H 10950 760 30  0001 C CNN
F 1 "+3.3V" H 10950 910 30  0000 C CNN
F 2 "" H 10950 800 60  0000 C CNN
F 3 "" H 10950 800 60  0000 C CNN
	1    10950 800 
	1    0    0    -1  
$EndComp
$Comp
L GND #PWR015
U 1 1 5563C0D1
P 10950 1050
F 0 "#PWR015" H 10950 1050 30  0001 C CNN
F 1 "GND" H 10950 980 30  0001 C CNN
F 2 "" H 10950 1050 60  0000 C CNN
F 3 "" H 10950 1050 60  0000 C CNN
	1    10950 1050
	0    1    1    0   
$EndComp
$Comp
L BUTTON PB1
U 1 1 5563C0D2
P 12150 1600
F 0 "PB1" H 12300 1710 40  0000 C CNN
F 1 "BUTTON" H 12150 1520 40  0000 C CNN
F 2 "~" H 12150 1600 60  0000 C CNN
F 3 "~" H 12150 1600 60  0000 C CNN
	1    12150 1600
	0    1    1    0   
$EndComp
$Comp
L RES R5
U 1 1 5563C0D3
P 12150 1050
F 0 "R5" H 12150 1130 40  0000 C CNN
F 1 "100K" H 12150 1050 40  0000 C CNN
F 2 "~" H 12150 980 30  0000 C CNN
F 3 "~" V 12150 1050 30  0000 C CNN
	1    12150 1050
	0    -1   -1   0   
$EndComp
$Comp
L +3.3V #PWR016
U 1 1 5563C0D4
P 12150 800
F 0 "#PWR016" H 12150 760 30  0001 C CNN
F 1 "+3.3V" H 12150 910 30  0000 C CNN
F 2 "" H 12150 800 60  0000 C CNN
F 3 "" H 12150 800 60  0000 C CNN
	1    12150 800 
	1    0    0    -1  
$EndComp
$Comp
L GND #PWR017
U 1 1 5563C0D5
P 12150 1950
F 0 "#PWR017" H 12150 1950 30  0001 C CNN
F 1 "GND" H 12150 1880 30  0001 C CNN
F 2 "" H 12150 1950 60  0000 C CNN
F 3 "" H 12150 1950 60  0000 C CNN
	1    12150 1950
	1    0    0    -1  
$EndComp
$Comp
L CAP C9
U 1 1 5563C0D6
P 11800 1550
F 0 "C9" H 11840 1650 40  0000 L CNN
F 1 "100nF" H 11840 1440 40  0000 L CNN
F 2 "~" H 11838 1400 30  0000 C CNN
F 3 "~" H 11800 1550 60  0000 C CNN
	1    11800 1550
	1    0    0    -1  
$EndComp
Text Label 12150 1300 0    39   ~ 0
~RST
$Comp
L CAP-POL C6
U 1 1 5563C0D7
P 3900 1150
F 0 "C6" H 3940 1255 40  0000 L CNN
F 1 "10uF" H 3940 1005 40  0000 L CNN
F 2 "~" H 3900 1135 60  0000 C CNN
F 3 "~" H 3900 1135 60  0000 C CNN
	1    3900 1150
	1    0    0    -1  
$EndComp
$Comp
L CAP-POL C8
U 1 1 5563C0D8
P 5050 1150
F 0 "C8" H 5090 1255 40  0000 L CNN
F 1 "22uF" H 5090 1005 40  0000 L CNN
F 2 "~" H 5050 1135 60  0000 C CNN
F 3 "~" H 5050 1135 60  0000 C CNN
	1    5050 1150
	1    0    0    -1  
$EndComp
$Comp
L GND #PWR018
U 1 1 5563C0D9
P 5050 1400
F 0 "#PWR018" H 5050 1400 30  0001 C CNN
F 1 "GND" H 5050 1330 30  0001 C CNN
F 2 "" H 5050 1400 60  0000 C CNN
F 3 "" H 5050 1400 60  0000 C CNN
	1    5050 1400
	1    0    0    -1  
$EndComp
$Comp
L CRYSTAL X1
U 1 1 5563C0DA
P 12800 1050
F 0 "X1" H 12800 1200 40  0000 C CNN
F 1 "8MHz" H 12800 900 40  0000 C CNN
F 2 "~" H 12800 1050 60  0000 C CNN
F 3 "~" H 12800 1050 60  0000 C CNN
	1    12800 1050
	-1   0    0    1   
$EndComp
$Comp
L CRYSTAL X2
U 1 1 5563C0DB
P 13850 1050
F 0 "X2" H 13850 1200 40  0000 C CNN
F 1 "32.768kHz" H 13850 900 40  0000 C CNN
F 2 "~" H 13850 1050 60  0000 C CNN
F 3 "~" H 13850 1050 60  0000 C CNN
	1    13850 1050
	-1   0    0    1   
$EndComp
$Comp
L CAP C10
U 1 1 5563C0DC
P 12500 1250
F 0 "C10" H 12540 1350 40  0000 L CNN
F 1 "22pF" H 12540 1140 40  0000 L CNN
F 2 "~" H 12538 1100 30  0000 C CNN
F 3 "~" H 12500 1250 60  0000 C CNN
	1    12500 1250
	1    0    0    -1  
$EndComp
$Comp
L CAP C14
U 1 1 5563C0DD
P 13100 1250
F 0 "C14" H 13140 1350 40  0000 L CNN
F 1 "22pF" H 13140 1140 40  0000 L CNN
F 2 "~" H 13138 1100 30  0000 C CNN
F 3 "~" H 13100 1250 60  0000 C CNN
	1    13100 1250
	1    0    0    -1  
$EndComp
$Comp
L CAP C17
U 1 1 5563C0DE
P 13550 1250
F 0 "C17" H 13590 1350 40  0000 L CNN
F 1 "6.8pF" H 13590 1140 40  0000 L CNN
F 2 "~" H 13588 1100 30  0000 C CNN
F 3 "~" H 13550 1250 60  0000 C CNN
	1    13550 1250
	1    0    0    -1  
$EndComp
$Comp
L CAP C19
U 1 1 5563C0DF
P 14150 1250
F 0 "C19" H 14190 1350 40  0000 L CNN
F 1 "6.8pF" H 14190 1140 40  0000 L CNN
F 2 "~" H 14188 1100 30  0000 C CNN
F 3 "~" H 14150 1250 60  0000 C CNN
	1    14150 1250
	1    0    0    -1  
$EndComp
$Comp
L GND #PWR019
U 1 1 5563C0E0
P 13100 1450
F 0 "#PWR019" H 13100 1450 30  0001 C CNN
F 1 "GND" H 13100 1380 30  0001 C CNN
F 2 "" H 13100 1450 60  0000 C CNN
F 3 "" H 13100 1450 60  0000 C CNN
	1    13100 1450
	1    0    0    -1  
$EndComp
$Comp
L GND #PWR020
U 1 1 5563C0E1
P 12500 1450
F 0 "#PWR020" H 12500 1450 30  0001 C CNN
F 1 "GND" H 12500 1380 30  0001 C CNN
F 2 "" H 12500 1450 60  0000 C CNN
F 3 "" H 12500 1450 60  0000 C CNN
	1    12500 1450
	1    0    0    -1  
$EndComp
$Comp
L GND #PWR021
U 1 1 5563C0E2
P 13550 1450
F 0 "#PWR021" H 13550 1450 30  0001 C CNN
F 1 "GND" H 13550 1380 30  0001 C CNN
F 2 "" H 13550 1450 60  0000 C CNN
F 3 "" H 13550 1450 60  0000 C CNN
	1    13550 1450
	1    0    0    -1  
$EndComp
$Comp
L GND #PWR022
U 1 1 5563C0E3
P 14150 1450
F 0 "#PWR022" H 14150 1450 30  0001 C CNN
F 1 "GND" H 14150 1380 30  0001 C CNN
F 2 "" H 14150 1450 60  0000 C CNN
F 3 "" H 14150 1450 60  0000 C CNN
	1    14150 1450
	1    0    0    -1  
$EndComp
$Comp
L RES R6
U 1 1 5563C0E4
P 12800 800
F 0 "R6" H 12800 880 40  0000 C CNN
F 1 "220" H 12800 800 40  0000 C CNN
F 2 "~" H 12800 730 30  0000 C CNN
F 3 "~" V 12800 800 30  0000 C CNN
	1    12800 800 
	1    0    0    -1  
$EndComp
Text Label 12300 1050 0    39   ~ 0
SYS_XTAL1
Text Label 12300 800  0    39   ~ 0
SYS_XTAL2
$Comp
L ST-LINK-V2-10 PROG1
U 1 1 5563C0E5
P 10050 1100
F 0 "PROG1" H 9890 1430 40  0000 C CNN
F 1 "ST-LINK-V2-10" H 10050 800 40  0000 C CNN
F 2 "IDC-5X2" V 10050 1100 10  0001 C CNN
F 3 "~" H 10400 1100 60  0000 C CNN
	1    10050 1100
	1    0    0    -1  
$EndComp
Text Label 10450 1100 0    39   ~ 0
SWCLK
Text Label 10450 900  0    39   ~ 0
SWDIO
$Comp
L GND #PWR023
U 1 1 5563C0E6
P 10500 1000
F 0 "#PWR023" H 10500 1000 30  0001 C CNN
F 1 "GND" H 10500 930 30  0001 C CNN
F 2 "" H 10500 1000 60  0000 C CNN
F 3 "" H 10500 1000 60  0000 C CNN
	1    10500 1000
	0    -1   1    0   
$EndComp
NoConn ~ 9650 1000
NoConn ~ 9650 1100
NoConn ~ 9650 1200
NoConn ~ 9650 1300
NoConn ~ 10450 1200
NoConn ~ 10450 1300
$Comp
L S1117 IC1
U 1 1 5563C0E7
P 4500 1100
F 0 "IC1" H 4350 1360 40  0000 C CNN
F 1 "S1117" H 4400 1290 40  0000 C CNN
F 2 "~" H 4500 1100 60  0000 C CNN
F 3 "~" H 4500 1100 60  0000 C CNN
	1    4500 1100
	1    0    0    -1  
$EndComp
Text Label 13250 800  0    39   ~ 0
RTC_XTAL2
Text Label 13250 1050 0    39   ~ 0
RTC_XTAL1
$Comp
L CAP C11
U 1 1 5563C0E8
P 12500 1900
F 0 "C11" H 12540 2000 40  0000 L CNN
F 1 "100nF" H 12540 1790 40  0000 L CNN
F 2 "~" H 12538 1750 30  0000 C CNN
F 3 "~" H 12500 1900 60  0000 C CNN
	1    12500 1900
	1    0    0    -1  
$EndComp
$Comp
L CAP C12
U 1 1 5563C0E9
P 12750 1900
F 0 "C12" H 12790 2000 40  0000 L CNN
F 1 "100nF" H 12790 1790 40  0000 L CNN
F 2 "~" H 12788 1750 30  0000 C CNN
F 3 "~" H 12750 1900 60  0000 C CNN
	1    12750 1900
	1    0    0    -1  
$EndComp
$Comp
L CAP C13
U 1 1 5563C0EA
P 13000 1900
F 0 "C13" H 13040 2000 40  0000 L CNN
F 1 "100nF" H 13040 1790 40  0000 L CNN
F 2 "~" H 13038 1750 30  0000 C CNN
F 3 "~" H 13000 1900 60  0000 C CNN
	1    13000 1900
	1    0    0    -1  
$EndComp
$Comp
L CAP C15
U 1 1 5563C0EB
P 13250 1900
F 0 "C15" H 13290 2000 40  0000 L CNN
F 1 "100nF" H 13290 1790 40  0000 L CNN
F 2 "~" H 13288 1750 30  0000 C CNN
F 3 "~" H 13250 1900 60  0000 C CNN
	1    13250 1900
	1    0    0    -1  
$EndComp
$Comp
L +3.3V #PWR024
U 1 1 5563C0EC
P 12500 1700
F 0 "#PWR024" H 12500 1660 30  0001 C CNN
F 1 "+3.3V" H 12500 1810 30  0000 C CNN
F 2 "" H 12500 1700 60  0000 C CNN
F 3 "" H 12500 1700 60  0000 C CNN
	1    12500 1700
	1    0    0    -1  
$EndComp
$Comp
L +3.3V #PWR025
U 1 1 5563C0ED
P 12750 1700
F 0 "#PWR025" H 12750 1660 30  0001 C CNN
F 1 "+3.3V" H 12750 1810 30  0000 C CNN
F 2 "" H 12750 1700 60  0000 C CNN
F 3 "" H 12750 1700 60  0000 C CNN
	1    12750 1700
	1    0    0    -1  
$EndComp
$Comp
L +3.3V #PWR026
U 1 1 5563C0EE
P 13000 1700
F 0 "#PWR026" H 13000 1660 30  0001 C CNN
F 1 "+3.3V" H 13000 1810 30  0000 C CNN
F 2 "" H 13000 1700 60  0000 C CNN
F 3 "" H 13000 1700 60  0000 C CNN
	1    13000 1700
	1    0    0    -1  
$EndComp
$Comp
L +3.3V #PWR027
U 1 1 5563C0EF
P 13250 1700
F 0 "#PWR027" H 13250 1660 30  0001 C CNN
F 1 "+3.3V" H 13250 1810 30  0000 C CNN
F 2 "" H 13250 1700 60  0000 C CNN
F 3 "" H 13250 1700 60  0000 C CNN
	1    13250 1700
	1    0    0    -1  
$EndComp
$Comp
L GND #PWR028
U 1 1 5563C0F0
P 12500 2100
F 0 "#PWR028" H 12500 2100 30  0001 C CNN
F 1 "GND" H 12500 2030 30  0001 C CNN
F 2 "" H 12500 2100 60  0000 C CNN
F 3 "" H 12500 2100 60  0000 C CNN
	1    12500 2100
	1    0    0    -1  
$EndComp
$Comp
L GND #PWR029
U 1 1 5563C0F1
P 12750 2100
F 0 "#PWR029" H 12750 2100 30  0001 C CNN
F 1 "GND" H 12750 2030 30  0001 C CNN
F 2 "" H 12750 2100 60  0000 C CNN
F 3 "" H 12750 2100 60  0000 C CNN
	1    12750 2100
	1    0    0    -1  
$EndComp
$Comp
L GND #PWR030
U 1 1 5563C0F2
P 13000 2100
F 0 "#PWR030" H 13000 2100 30  0001 C CNN
F 1 "GND" H 13000 2030 30  0001 C CNN
F 2 "" H 13000 2100 60  0000 C CNN
F 3 "" H 13000 2100 60  0000 C CNN
	1    13000 2100
	1    0    0    -1  
$EndComp
$Comp
L GND #PWR031
U 1 1 5563C0F3
P 13250 2100
F 0 "#PWR031" H 13250 2100 30  0001 C CNN
F 1 "GND" H 13250 2030 30  0001 C CNN
F 2 "" H 13250 2100 60  0000 C CNN
F 3 "" H 13250 2100 60  0000 C CNN
	1    13250 2100
	1    0    0    -1  
$EndComp
$Comp
L FERRITE-BEAD FB1
U 1 1 5563C0F4
P 5950 1000
F 0 "FB1" H 5950 1120 40  0000 C CNN
F 1 "FERRITE-BEAD" H 5950 890 40  0000 C CNN
F 2 "~" H 5950 1000 60  0000 C CNN
F 3 "~" H 5950 1000 60  0000 C CNN
	1    5950 1000
	1    0    0    -1  
$EndComp
$Comp
L GND #PWR032
U 1 1 5563C0F5
P 6300 1400
F 0 "#PWR032" H 6300 1400 30  0001 C CNN
F 1 "GND" H 6300 1330 30  0001 C CNN
F 2 "" H 6300 1400 60  0000 C CNN
F 3 "" H 6300 1400 60  0000 C CNN
	1    6300 1400
	1    0    0    -1  
$EndComp
$Comp
L CAP C4
U 1 1 5563C0F6
P 6550 1200
F 0 "C4" H 6590 1300 40  0000 L CNN
F 1 "100nF" H 6590 1090 40  0000 L CNN
F 2 "~" H 6588 1050 30  0000 C CNN
F 3 "~" H 6550 1200 60  0000 C CNN
	1    6550 1200
	1    0    0    -1  
$EndComp
$Comp
L GND #PWR033
U 1 1 5563C0F7
P 6550 1400
F 0 "#PWR033" H 6550 1400 30  0001 C CNN
F 1 "GND" H 6550 1330 30  0001 C CNN
F 2 "" H 6550 1400 60  0000 C CNN
F 3 "" H 6550 1400 60  0000 C CNN
	1    6550 1400
	1    0    0    -1  
$EndComp
$Comp
L CAP C3
U 1 1 5563C0F8
P 1600 2850
F 0 "C3" H 1640 2950 40  0000 L CNN
F 1 "100nF" H 1640 2740 40  0000 L CNN
F 2 "~" H 1638 2700 30  0000 C CNN
F 3 "~" H 1600 2850 60  0000 C CNN
	1    1600 2850
	-1   0    0    -1  
$EndComp
$Comp
L GND #PWR034
U 1 1 5563C0F9
P 1200 3050
F 0 "#PWR034" H 1200 3050 30  0001 C CNN
F 1 "GND" H 1200 2980 30  0001 C CNN
F 2 "" H 1200 3050 60  0000 C CNN
F 3 "" H 1200 3050 60  0000 C CNN
	1    1200 3050
	-1   0    0    -1  
$EndComp
$Comp
L GND #PWR035
U 1 1 5563C0FA
P 1600 3050
F 0 "#PWR035" H 1600 3050 30  0001 C CNN
F 1 "GND" H 1600 2980 30  0001 C CNN
F 2 "" H 1600 3050 60  0000 C CNN
F 3 "" H 1600 3050 60  0000 C CNN
	1    1600 3050
	-1   0    0    -1  
$EndComp
NoConn ~ 9650 900 
$Comp
L BATTERY BT1
U 1 1 5563C0FB
P 850 2950
F 0 "BT1" H 850 3150 50  0000 C CNN
F 1 "BATTERY" H 850 2760 40  0000 C CNN
F 2 "~" H 850 2950 60  0000 C CNN
F 3 "~" H 850 2950 60  0000 C CNN
	1    850  2950
	0    -1   1    0   
$EndComp
$Comp
L GND #PWR036
U 1 1 5563C0FC
P 850 3350
F 0 "#PWR036" H 850 3350 30  0001 C CNN
F 1 "GND" H 850 3280 30  0001 C CNN
F 2 "" H 850 3350 60  0000 C CNN
F 3 "" H 850 3350 60  0000 C CNN
	1    850  3350
	-1   0    0    -1  
$EndComp
Text Label 1200 2650 2    39   ~ 0
VBAT
Text Label 6550 1000 0    39   ~ 0
VDDA
$Comp
L RES R1
U 1 1 5563C0FD
P 6650 800
F 0 "R1" H 6650 880 40  0000 C CNN
F 1 "47" H 6650 800 40  0000 C CNN
F 2 "~" H 6650 730 30  0000 C CNN
F 3 "~" V 6650 800 30  0000 C CNN
	1    6650 800 
	1    0    0    -1  
$EndComp
$Comp
L CAP C7
U 1 1 5563C0FE
P 7250 1000
F 0 "C7" H 7290 1100 40  0000 L CNN
F 1 "100nF" H 7290 890 40  0000 L CNN
F 2 "~" H 7288 850 30  0000 C CNN
F 3 "~" H 7250 1000 60  0000 C CNN
	1    7250 1000
	1    0    0    -1  
$EndComp
$Comp
L CAP-POL C2
U 1 1 5563C0FF
P 6300 1200
F 0 "C2" H 6340 1305 40  0000 L CNN
F 1 "1uF" H 6340 1055 40  0000 L CNN
F 2 "~" H 6300 1185 60  0000 C CNN
F 3 "~" H 6300 1185 60  0000 C CNN
	1    6300 1200
	1    0    0    -1  
$EndComp
$Comp
L CAP-POL C5
U 1 1 5563C100
P 7000 1000
F 0 "C5" H 7040 1105 40  0000 L CNN
F 1 "1uF" H 7040 855 40  0000 L CNN
F 2 "~" H 7000 985 60  0000 C CNN
F 3 "~" H 7000 985 60  0000 C CNN
	1    7000 1000
	1    0    0    -1  
$EndComp
$Comp
L GND #PWR037
U 1 1 5563C101
P 7000 1200
F 0 "#PWR037" H 7000 1200 30  0001 C CNN
F 1 "GND" H 7000 1130 30  0001 C CNN
F 2 "" H 7000 1200 60  0000 C CNN
F 3 "" H 7000 1200 60  0000 C CNN
	1    7000 1200
	1    0    0    -1  
$EndComp
$Comp
L GND #PWR038
U 1 1 5563C102
P 7250 1200
F 0 "#PWR038" H 7250 1200 30  0001 C CNN
F 1 "GND" H 7250 1130 30  0001 C CNN
F 2 "" H 7250 1200 60  0000 C CNN
F 3 "" H 7250 1200 60  0000 C CNN
	1    7250 1200
	1    0    0    -1  
$EndComp
Text Label 7000 800  0    39   ~ 0
VREF
$Comp
L CAP-POL C1
U 1 1 5563C103
P 1200 2850
F 0 "C1" H 1240 2955 40  0000 L CNN
F 1 "1uF" H 1240 2705 40  0000 L CNN
F 2 "~" H 1200 2835 60  0000 C CNN
F 3 "~" H 1200 2835 60  0000 C CNN
	1    1200 2850
	1    0    0    -1  
$EndComp
$Comp
L CAP C16
U 1 1 5563C108
P 13500 1900
F 0 "C16" H 13540 2000 40  0000 L CNN
F 1 "2.2uF" H 13540 1790 40  0000 L CNN
F 2 "~" H 13538 1750 30  0000 C CNN
F 3 "~" H 13500 1900 60  0000 C CNN
	1    13500 1900
	1    0    0    -1  
$EndComp
$Comp
L GND #PWR039
U 1 1 5563C109
P 13500 2100
F 0 "#PWR039" H 13500 2100 30  0001 C CNN
F 1 "GND" H 13500 2030 30  0001 C CNN
F 2 "" H 13500 2100 60  0000 C CNN
F 3 "" H 13500 2100 60  0000 C CNN
	1    13500 2100
	1    0    0    -1  
$EndComp
Text Label 13500 1700 1    39   ~ 0
VCAP1
$Comp
L CAP C18
U 1 1 5563C10C
P 13750 1900
F 0 "C18" H 13790 2000 40  0000 L CNN
F 1 "2.2uF" H 13790 1790 40  0000 L CNN
F 2 "~" H 13788 1750 30  0000 C CNN
F 3 "~" H 13750 1900 60  0000 C CNN
	1    13750 1900
	1    0    0    -1  
$EndComp
$Comp
L GND #PWR040
U 1 1 5563C10D
P 13750 2100
F 0 "#PWR040" H 13750 2100 30  0001 C CNN
F 1 "GND" H 13750 2030 30  0001 C CNN
F 2 "" H 13750 2100 60  0000 C CNN
F 3 "" H 13750 2100 60  0000 C CNN
	1    13750 2100
	1    0    0    -1  
$EndComp
Text Label 13750 1700 1    39   ~ 0
VCAP2
$Comp
L PWR_FLAG #FLG041
U 1 1 5563C11D
P 4150 1350
F 0 "#FLG041" H 4150 1445 30  0001 C CNN
F 1 "PWR_FLAG" H 4150 1530 30  0000 C CNN
F 2 "" H 4150 1350 60  0000 C CNN
F 3 "" H 4150 1350 60  0000 C CNN
	1    4150 1350
	-1   0    0    1   
$EndComp
Text Label 3700 2550 0    39   ~ 0
SYS_XTAL1
Text Label 4500 2450 0    39   ~ 0
SYS_XTAL2
Text Label 3700 2750 0    39   ~ 0
RTC_XTAL1
Text Label 4500 2650 0    39   ~ 0
RTC_XTAL2
Text Label 4500 3050 0    39   ~ 0
PE2
Text Label 3900 3050 0    39   ~ 0
PE3
Text Label 4500 2950 0    39   ~ 0
PE4
Text Label 3900 2950 0    39   ~ 0
PE5
Text Label 4500 2850 0    39   ~ 0
PE6
Text Label 3850 2850 0    39   ~ 0
VBAT
Text Label 4500 2750 0    39   ~ 0
PC13
Text Label 3900 2450 0    39   ~ 0
~RST
Text Label 4500 2350 0    39   ~ 0
PC0
Text Label 3900 2350 0    39   ~ 0
PC1
Text Label 4500 2250 0    39   ~ 0
PC2
Text Label 3900 2250 0    39   ~ 0
PC3
Text Label 4500 2050 0    39   ~ 0
VREF
Text Label 3850 2050 0    39   ~ 0
VDDA
Text Label 4500 1950 0    39   ~ 0
PA0
Text Label 3900 1950 0    39   ~ 0
PA1
Text Label 4500 1850 0    39   ~ 0
PA2
$Comp
L HEADER-13X2 P2
U 1 1 5563C120
P 4250 2450
F 0 "P2" V 4200 2450 40  0000 C CNN
F 1 "HEADER-13X2" V 4300 2450 40  0000 C CNN
F 2 "~" H 4250 2500 60  0000 C CNN
F 3 "~" H 4250 2500 60  0000 C CNN
	1    4250 2450
	1    0    0    -1  
$EndComp
$Comp
L HEADER-13X2 P5
U 1 1 5563C121
P 5650 2450
F 0 "P5" V 5600 2450 40  0000 C CNN
F 1 "HEADER-13X2" V 5700 2450 40  0000 C CNN
F 2 "~" H 5650 2500 60  0000 C CNN
F 3 "~" H 5650 2500 60  0000 C CNN
	1    5650 2450
	1    0    0    -1  
$EndComp
$Comp
L HEADER-13X2 P3
U 1 1 5563C122
P 4250 3900
F 0 "P3" V 4200 3900 40  0000 C CNN
F 1 "HEADER-13X2" V 4300 3900 40  0000 C CNN
F 2 "~" H 4250 3950 60  0000 C CNN
F 3 "~" H 4250 3950 60  0000 C CNN
	1    4250 3900
	1    0    0    -1  
$EndComp
$Comp
L HEADER-13X2 P6
U 1 1 5563C123
P 5650 3900
F 0 "P6" V 5600 3900 40  0000 C CNN
F 1 "HEADER-13X2" V 5700 3900 40  0000 C CNN
F 2 "~" H 5650 3950 60  0000 C CNN
F 3 "~" H 5650 3950 60  0000 C CNN
	1    5650 3900
	1    0    0    -1  
$EndComp
NoConn ~ 4000 1850
NoConn ~ 5400 1850
NoConn ~ 5400 3300
NoConn ~ 4000 3300
Text Label 5900 3050 0    39   ~ 0
PA3
Text Label 5900 2750 0    39   ~ 0
PA7
Text Label 5300 2850 0    39   ~ 0
PA6
Text Label 5900 2850 0    39   ~ 0
PA5
Text Label 5300 2950 0    39   ~ 0
PA4
Text Label 5300 2750 0    39   ~ 0
PC4
Text Label 5900 2650 0    39   ~ 0
PC5
Text Label 5300 2650 0    39   ~ 0
PB0
Text Label 5900 2550 0    39   ~ 0
PB1
Text Label 5300 2550 0    39   ~ 0
PB2
Text Label 5900 2450 0    39   ~ 0
PE7
Text Label 5300 2450 0    39   ~ 0
PE8
Text Label 5900 2350 0    39   ~ 0
PE9
Text Label 5250 2350 0    39   ~ 0
PE10
Text Label 5900 2250 0    39   ~ 0
PE11
Text Label 5250 2250 0    39   ~ 0
PE12
Text Label 5900 2150 0    39   ~ 0
PE13
Text Label 5250 2150 0    39   ~ 0
PE14
Text Label 5900 2050 0    39   ~ 0
PE15
Text Label 5250 2050 0    39   ~ 0
PB10
Text Label 5900 1950 0    39   ~ 0
PB11
Text Label 5200 1950 0    39   ~ 0
VCAP1
Text Label 5900 4500 0    39   ~ 0
PB12
Text Label 5250 4500 0    39   ~ 0
PB13
Text Label 5900 4400 0    39   ~ 0
PB14
Text Label 5250 4400 0    39   ~ 0
PB15
Text Label 5900 4300 0    39   ~ 0
PD8
Text Label 5300 4300 0    39   ~ 0
PD9
Text Label 5900 4200 0    39   ~ 0
PD10
Text Label 5250 4200 0    39   ~ 0
PD11
Text Label 5900 4100 0    39   ~ 0
PD12
Text Label 5250 4100 0    39   ~ 0
PD13
Text Label 5900 4000 0    39   ~ 0
PD14
Text Label 5250 4000 0    39   ~ 0
PD15
Text Label 5900 3900 0    39   ~ 0
PC6
Text Label 5300 3900 0    39   ~ 0
PC7
Text Label 5900 3800 0    39   ~ 0
PC8
Text Label 5300 3800 0    39   ~ 0
PC9
Text Label 5250 3500 0    39   ~ 0
PA13
Text Label 5900 3500 0    39   ~ 0
PA12
Text Label 5250 3600 0    39   ~ 0
PA11
Text Label 5900 3600 0    39   ~ 0
PA10
Text Label 5300 3700 0    39   ~ 0
PA9
Text Label 5900 3700 0    39   ~ 0
PA8
Text Label 5900 3400 0    39   ~ 0
VCAP2
Text Label 4500 4500 0    39   ~ 0
PA14
Text Label 3850 4500 0    39   ~ 0
PA15
Text Label 4500 4400 0    39   ~ 0
PC10
Text Label 3850 4400 0    39   ~ 0
PC11
Text Label 4500 4300 0    39   ~ 0
PC12
Text Label 3900 4200 0    39   ~ 0
PD2
Text Label 3900 4300 0    39   ~ 0
PD0
Text Label 4500 4200 0    39   ~ 0
PD1
Text Label 4500 4100 0    39   ~ 0
PD3
Text Label 3900 4100 0    39   ~ 0
PD4
Text Label 4500 4000 0    39   ~ 0
PD5
Text Label 3900 4000 0    39   ~ 0
PD6
Text Label 4500 3900 0    39   ~ 0
PD7
Text Label 3900 3900 0    39   ~ 0
PB3
Text Label 4500 3800 0    39   ~ 0
PB4
Text Label 3900 3800 0    39   ~ 0
PB5
Text Label 4500 3700 0    39   ~ 0
PB6
Text Label 3900 3700 0    39   ~ 0
PB7
Text Label 3900 3600 0    39   ~ 0
PB8
Text Label 4500 3500 0    39   ~ 0
PB9
Text Label 4500 3600 0    39   ~ 0
BOOT0
Text Label 3900 3500 0    39   ~ 0
PE0
Text Label 4500 3400 0    39   ~ 0
PE1
Text Label 7100 2950 0    39   ~ 0
PE2
Text Label 7100 2750 0    39   ~ 0
PE4
Text Label 7100 2550 0    39   ~ 0
PE6
Text Label 7050 2450 0    39   ~ 0
PC13
Text Label 7100 2350 0    39   ~ 0
PC0
Text Label 7100 2150 0    39   ~ 0
PC2
Text Label 7100 1950 0    39   ~ 0
PA0
Text Label 7750 3950 0    39   ~ 0
PA2
Text Label 7100 2850 0    39   ~ 0
PE3
Text Label 7100 2650 0    39   ~ 0
PE5
Text Label 7100 2250 0    39   ~ 0
PC1
Text Label 7100 2050 0    39   ~ 0
PC3
Text Label 7100 1850 0    39   ~ 0
PA1
Text Label 7750 3550 0    39   ~ 0
PA6
Text Label 7750 3750 0    39   ~ 0
PA4
Text Label 7750 3350 0    39   ~ 0
PC4
Text Label 7750 3150 0    39   ~ 0
PB0
Text Label 7750 2950 0    39   ~ 0
PB2
Text Label 7750 2750 0    39   ~ 0
PE8
Text Label 7700 2550 0    39   ~ 0
PE10
Text Label 7700 2350 0    39   ~ 0
PE12
Text Label 7700 2150 0    39   ~ 0
PE14
Text Label 7700 1950 0    39   ~ 0
PB10
Text Label 7750 3850 0    39   ~ 0
PA3
Text Label 7750 3450 0    39   ~ 0
PA7
Text Label 7750 3650 0    39   ~ 0
PA5
Text Label 7750 3250 0    39   ~ 0
PC5
Text Label 7750 3050 0    39   ~ 0
PB1
Text Label 7750 2850 0    39   ~ 0
PE7
Text Label 7750 2650 0    39   ~ 0
PE9
Text Label 7700 2450 0    39   ~ 0
PE11
Text Label 7700 2250 0    39   ~ 0
PE13
Text Label 7700 2050 0    39   ~ 0
PE15
Text Label 7700 1850 0    39   ~ 0
PB11
Text Label 8350 3850 0    39   ~ 0
PA15
Text Label 8350 3650 0    39   ~ 0
PC11
Text Label 8400 3250 0    39   ~ 0
PD2
Text Label 8400 3450 0    39   ~ 0
PD0
Text Label 8400 3050 0    39   ~ 0
PD4
Text Label 8400 2850 0    39   ~ 0
PD6
Text Label 8400 2650 0    39   ~ 0
PB3
Text Label 8400 2450 0    39   ~ 0
PB5
Text Label 8400 2250 0    39   ~ 0
PB7
Text Label 8400 2150 0    39   ~ 0
PB8
Text Label 8400 1950 0    39   ~ 0
PE0
Text Label 8350 3950 0    39   ~ 0
PA14
Text Label 8350 3750 0    39   ~ 0
PC10
Text Label 8350 3550 0    39   ~ 0
PC12
Text Label 8400 3350 0    39   ~ 0
PD1
Text Label 8400 3150 0    39   ~ 0
PD3
Text Label 8400 2950 0    39   ~ 0
PD5
Text Label 8400 2750 0    39   ~ 0
PD7
Text Label 8400 2550 0    39   ~ 0
PB4
Text Label 8400 2350 0    39   ~ 0
PB6
Text Label 8400 2050 0    39   ~ 0
PB9
Text Label 8400 1850 0    39   ~ 0
PE1
Text Label 9000 3850 0    39   ~ 0
PB13
Text Label 9000 3650 0    39   ~ 0
PB15
Text Label 9050 3450 0    39   ~ 0
PD9
Text Label 9000 3250 0    39   ~ 0
PD11
Text Label 9000 3050 0    39   ~ 0
PD13
Text Label 9000 2850 0    39   ~ 0
PD15
Text Label 9050 2650 0    39   ~ 0
PC7
Text Label 9050 2450 0    39   ~ 0
PC9
Text Label 9000 1850 0    39   ~ 0
PA13
Text Label 9000 2050 0    39   ~ 0
PA11
Text Label 9050 2250 0    39   ~ 0
PA9
Text Label 9000 3950 0    39   ~ 0
PB12
Text Label 9000 3750 0    39   ~ 0
PB14
Text Label 9050 3550 0    39   ~ 0
PD8
Text Label 9000 3350 0    39   ~ 0
PD10
Text Label 9000 3150 0    39   ~ 0
PD12
Text Label 9000 2950 0    39   ~ 0
PD14
Text Label 9050 2750 0    39   ~ 0
PC6
Text Label 9050 2550 0    39   ~ 0
PC8
Text Label 9000 1950 0    39   ~ 0
PA12
Text Label 9000 2150 0    39   ~ 0
PA10
Text Label 9050 2350 0    39   ~ 0
PA8
$Comp
L +3.3V #PWR042
U 1 1 5563D203
P 4750 2150
F 0 "#PWR042" H 4750 2110 30  0001 C CNN
F 1 "+3.3V" H 4750 2260 30  0000 C CNN
F 2 "" H 4750 2150 60  0000 C CNN
F 3 "" H 4750 2150 60  0000 C CNN
	1    4750 2150
	1    0    0    -1  
$EndComp
$Comp
L +3.3V #PWR043
U 1 1 5563D404
P 4900 2550
F 0 "#PWR043" H 4900 2510 30  0001 C CNN
F 1 "+3.3V" H 4900 2660 30  0000 C CNN
F 2 "" H 4900 2550 60  0000 C CNN
F 3 "" H 4900 2550 60  0000 C CNN
	1    4900 2550
	1    0    0    -1  
$EndComp
$Comp
L +3.3V #PWR044
U 1 1 5563D50C
P 6050 1850
F 0 "#PWR044" H 6050 1810 30  0001 C CNN
F 1 "+3.3V" H 6050 1960 30  0000 C CNN
F 2 "" H 6050 1850 60  0000 C CNN
F 3 "" H 6050 1850 60  0000 C CNN
	1    6050 1850
	1    0    0    -1  
$EndComp
$Comp
L +3.3V #PWR045
U 1 1 5563D51B
P 6100 2950
F 0 "#PWR045" H 6100 2910 30  0001 C CNN
F 1 "+3.3V" H 6100 3060 30  0000 C CNN
F 2 "" H 6100 2950 60  0000 C CNN
F 3 "" H 6100 2950 60  0000 C CNN
	1    6100 2950
	1    0    0    -1  
$EndComp
$Comp
L +3.3V #PWR046
U 1 1 5563D71C
P 6050 3300
F 0 "#PWR046" H 6050 3260 30  0001 C CNN
F 1 "+3.3V" H 6050 3410 30  0000 C CNN
F 2 "" H 6050 3300 60  0000 C CNN
F 3 "" H 6050 3300 60  0000 C CNN
	1    6050 3300
	1    0    0    -1  
$EndComp
$Comp
L +3.3V #PWR047
U 1 1 5563D72B
P 4650 3300
F 0 "#PWR047" H 4650 3260 30  0001 C CNN
F 1 "+3.3V" H 4650 3410 30  0000 C CNN
F 2 "" H 4650 3300 60  0000 C CNN
F 3 "" H 4650 3300 60  0000 C CNN
	1    4650 3300
	1    0    0    -1  
$EndComp
$Comp
L GND #PWR048
U 1 1 5563D85A
P 3800 2200
F 0 "#PWR048" H 3800 2200 30  0001 C CNN
F 1 "GND" H 3800 2130 30  0001 C CNN
F 2 "" H 3800 2200 60  0000 C CNN
F 3 "" H 3800 2200 60  0000 C CNN
	1    3800 2200
	1    0    0    -1  
$EndComp
$Comp
L GND #PWR049
U 1 1 5563DB57
P 5250 3100
F 0 "#PWR049" H 5250 3100 30  0001 C CNN
F 1 "GND" H 5250 3030 30  0001 C CNN
F 2 "" H 5250 3100 60  0000 C CNN
F 3 "" H 5250 3100 60  0000 C CNN
	1    5250 3100
	1    0    0    -1  
$EndComp
$Comp
L GND #PWR050
U 1 1 5563DB66
P 5150 3450
F 0 "#PWR050" H 5150 3450 30  0001 C CNN
F 1 "GND" H 5150 3380 30  0001 C CNN
F 2 "" H 5150 3450 60  0000 C CNN
F 3 "" H 5150 3450 60  0000 C CNN
	1    5150 3450
	1    0    0    -1  
$EndComp
$Comp
L GND #PWR051
U 1 1 5563DD6C
P 3800 3450
F 0 "#PWR051" H 3800 3450 30  0001 C CNN
F 1 "GND" H 3800 3380 30  0001 C CNN
F 2 "" H 3800 3450 60  0000 C CNN
F 3 "" H 3800 3450 60  0000 C CNN
	1    3800 3450
	1    0    0    -1  
$EndComp
$Comp
L GND #PWR052
U 1 1 5563DD7B
P 3600 2700
F 0 "#PWR052" H 3600 2700 30  0001 C CNN
F 1 "GND" H 3600 2630 30  0001 C CNN
F 2 "" H 3600 2700 60  0000 C CNN
F 3 "" H 3600 2700 60  0000 C CNN
	1    3600 2700
	1    0    0    -1  
$EndComp
Text Label 3700 3900 0    39   ~ 0
SWO
Text Label 5050 2550 0    39   ~ 0
BOOT1
$Comp
L HEADER-12X1 P8
U 1 1 5563CE8F
P 7450 2400
F 0 "P8" V 7400 2400 40  0000 C CNN
F 1 "HEADER-12X1" V 7500 2400 40  0000 C CNN
F 2 "~" H 7450 2500 60  0000 C CNN
F 3 "~" H 7450 2500 60  0000 C CNN
	1    7450 2400
	1    0    0    -1  
$EndComp
$Comp
L HEADER-22X1 P9
U 1 1 5563D249
P 8100 2900
F 0 "P9" V 8050 2900 40  0000 C CNN
F 1 "HEADER-22X1" V 8150 2900 40  0000 C CNN
F 2 "~" H 8100 3500 60  0000 C CNN
F 3 "~" H 8100 3500 60  0000 C CNN
	1    8100 2900
	1    0    0    -1  
$EndComp
$Comp
L HEADER-22X1 P10
U 1 1 5563D258
P 8750 2900
F 0 "P10" V 8700 2900 40  0000 C CNN
F 1 "HEADER-22X1" V 8800 2900 40  0000 C CNN
F 2 "~" H 8750 3500 60  0000 C CNN
F 3 "~" H 8750 3500 60  0000 C CNN
	1    8750 2900
	1    0    0    -1  
$EndComp
$Comp
L HEADER-22X1 P11
U 1 1 5563D267
P 9400 2900
F 0 "P11" V 9350 2900 40  0000 C CNN
F 1 "HEADER-22X1" V 9450 2900 40  0000 C CNN
F 2 "~" H 9400 3500 60  0000 C CNN
F 3 "~" H 9400 3500 60  0000 C CNN
	1    9400 2900
	1    0    0    -1  
$EndComp
$Comp
L DC-JACK J1
U 1 1 5563E0C4
P 1000 1100
F 0 "J1" H 700 1300 40  0000 C CNN
F 1 "DC-JACK" H 800 950 40  0000 C CNN
F 2 "~" H 1000 1100 60  0000 C CNN
F 3 "~" H 1000 1100 60  0000 C CNN
	1    1000 1100
	1    0    0    -1  
$EndComp
$Comp
L +12V #PWR053
U 1 1 5563E0D3
P 1350 950
F 0 "#PWR053" H 1350 900 20  0001 C CNN
F 1 "+12V" H 1350 1050 30  0000 C CNN
F 2 "" H 1350 950 60  0000 C CNN
F 3 "" H 1350 950 60  0000 C CNN
	1    1350 950 
	1    0    0    -1  
$EndComp
$Comp
L GND #PWR054
U 1 1 5563E1E0
P 1350 1250
F 0 "#PWR054" H 1350 1250 30  0001 C CNN
F 1 "GND" H 1350 1180 30  0001 C CNN
F 2 "" H 1350 1250 60  0000 C CNN
F 3 "" H 1350 1250 60  0000 C CNN
	1    1350 1250
	1    0    0    -1  
$EndComp
$Comp
L LM2576 IC2
U 1 1 5563E705
P 2300 950
F 0 "IC2" H 2090 1210 40  0000 C CNN
F 1 "LM2576" H 2160 1140 40  0000 C CNN
F 2 "~" H 2300 950 60  0000 C CNN
F 3 "~" H 2300 950 60  0000 C CNN
	1    2300 950 
	1    0    0    -1  
$EndComp
$Comp
L CAP-POL C20
U 1 1 5563E714
P 1650 1200
F 0 "C20" H 1690 1305 40  0000 L CNN
F 1 "100uF" H 1690 1055 40  0000 L CNN
F 2 "~" H 1650 1185 60  0000 C CNN
F 3 "~" H 1650 1185 60  0000 C CNN
	1    1650 1200
	1    0    0    -1  
$EndComp
$Comp
L DIODE-SCH D2
U 1 1 5563EA53
P 2750 1200
F 0 "D2" H 2750 1290 40  0000 C CNN
F 1 "1N5822" H 2750 1100 40  0000 C CNN
F 2 "~" H 2750 1200 60  0000 C CNN
F 3 "~" H 2750 1200 60  0000 C CNN
	1    2750 1200
	0    -1   -1   0   
$EndComp
$Comp
L IND L1
U 1 1 5563F2D5
P 3100 1000
F 0 "L1" H 3100 1100 40  0000 C CNN
F 1 "100uH" H 3100 950 40  0000 C CNN
F 2 "~" V 3100 1000 60  0000 C CNN
F 3 "~" V 3100 1000 60  0000 C CNN
	1    3100 1000
	1    0    0    -1  
$EndComp
$Comp
L CAP-POL C21
U 1 1 5563F3FC
P 3450 1200
F 0 "C21" H 3490 1305 40  0000 L CNN
F 1 "1000uF" H 3490 1055 40  0000 L CNN
F 2 "~" H 3450 1185 60  0000 C CNN
F 3 "~" H 3450 1185 60  0000 C CNN
	1    3450 1200
	1    0    0    -1  
$EndComp
Wire Wire Line
	8150 1100 8150 1050
Wire Wire Line
	8150 1050 8200 1050
Wire Wire Line
	8150 800  8150 850 
Wire Wire Line
	8150 850  8200 850 
Wire Wire Line
	8700 850  8750 850 
Wire Wire Line
	8750 850  8750 800 
Wire Wire Line
	8700 1050 8750 1050
Wire Wire Line
	8750 1050 8750 1100
Wire Wire Line
	9200 950  9400 950 
Wire Wire Line
	7500 950  7700 950 
Wire Wire Line
	1050 2000 1400 2000
Wire Wire Line
	1100 1850 1100 2000
Wire Wire Line
	1400 2000 1400 2150
Connection ~ 1100 2000
Wire Wire Line
	1050 2200 1100 2200
Wire Wire Line
	1100 2200 1100 2250
Wire Wire Line
	2100 2050 2250 2050
Wire Wire Line
	1200 1950 1200 2000
Connection ~ 1200 2000
Wire Wire Line
	3900 900  3900 950 
Wire Wire Line
	3900 950  4150 950 
Wire Wire Line
	3900 1400 3900 1350
Wire Wire Line
	3900 1350 4150 1350
Wire Wire Line
	4900 1150 4850 1150
Connection ~ 4900 1050
Wire Wire Line
	2250 2050 2250 1950
Connection ~ 2150 2050
Wire Wire Line
	10950 800  10950 850 
Wire Wire Line
	10950 850  11000 850 
Wire Wire Line
	11000 1050 10950 1050
Wire Wire Line
	10800 950  11000 950 
Wire Wire Line
	11000 1150 10800 1150
Wire Wire Line
	10850 1250 11000 1250
Wire Wire Line
	10850 1350 11000 1350
Wire Wire Line
	11800 1300 12150 1300
Wire Wire Line
	11800 1750 11800 1900
Wire Wire Line
	11800 1900 12150 1900
Wire Wire Line
	12150 1900 12150 1950
Wire Wire Line
	4150 950  4150 1050
Wire Wire Line
	4150 1350 4150 1150
Wire Wire Line
	4900 1050 4850 1050
Wire Wire Line
	4900 900  4900 1150
Wire Wire Line
	13050 800  13100 800 
Wire Wire Line
	13100 800  13100 1050
Wire Wire Line
	12300 800  12550 800 
Wire Wire Line
	12300 1050 12500 1050
Wire Wire Line
	10450 1100 10650 1100
Wire Wire Line
	10650 900  10450 900 
Wire Wire Line
	10450 1000 10500 1000
Wire Wire Line
	11800 1300 11800 1350
Wire Wire Line
	5050 950  4900 950 
Connection ~ 4900 950 
Wire Wire Line
	5050 1350 5050 1400
Wire Wire Line
	5600 1000 5550 1000
Wire Wire Line
	13250 800  14150 800 
Wire Wire Line
	13550 1050 13250 1050
Wire Wire Line
	14150 800  14150 1050
Connection ~ 1200 2650
Connection ~ 6550 1000
Wire Wire Line
	6300 1000 6750 1000
Wire Wire Line
	850  3350 850  3250
Wire Wire Line
	6300 1000 6300 800 
Wire Wire Line
	6300 800  6400 800 
Wire Wire Line
	6900 800  7250 800 
Connection ~ 7000 800 
Wire Wire Line
	5550 1000 5550 950 
Wire Wire Line
	850  2650 1600 2650
Wire Wire Line
	4000 2750 3700 2750
Wire Wire Line
	4800 2650 4500 2650
Wire Wire Line
	4000 3050 3900 3050
Wire Wire Line
	3900 2950 4000 2950
Wire Wire Line
	3850 2850 4000 2850
Wire Wire Line
	4500 2750 4650 2750
Wire Wire Line
	3900 2450 4000 2450
Wire Wire Line
	3700 2550 4000 2550
Wire Wire Line
	4000 2250 3900 2250
Wire Wire Line
	3900 2350 4000 2350
Wire Wire Line
	4500 3050 4600 3050
Wire Wire Line
	4500 2950 4600 2950
Wire Wire Line
	4500 2850 4600 2850
Wire Wire Line
	4500 2450 4800 2450
Wire Wire Line
	4600 2350 4500 2350
Wire Wire Line
	4500 2250 4600 2250
Wire Wire Line
	4500 2050 4650 2050
Wire Wire Line
	4500 1850 4600 1850
Wire Wire Line
	4500 1950 4600 1950
Wire Wire Line
	3850 2050 4000 2050
Wire Wire Line
	4000 1950 3900 1950
Wire Wire Line
	4500 2150 4750 2150
Wire Wire Line
	5900 2950 6100 2950
Wire Wire Line
	6050 1850 5900 1850
Wire Wire Line
	6050 3300 5900 3300
Wire Wire Line
	4650 3300 4500 3300
Wire Wire Line
	4500 2550 4900 2550
Wire Wire Line
	3600 2650 4000 2650
Wire Wire Line
	3800 2150 4000 2150
Wire Wire Line
	5150 3400 5400 3400
Wire Wire Line
	3800 3400 4000 3400
Wire Wire Line
	5400 3050 5250 3050
Wire Wire Line
	5900 3050 6000 3050
Wire Wire Line
	5300 2950 5400 2950
Wire Wire Line
	6000 2850 5900 2850
Wire Wire Line
	5300 2850 5400 2850
Wire Wire Line
	6000 2750 5900 2750
Wire Wire Line
	6000 2650 5900 2650
Wire Wire Line
	5300 2750 5400 2750
Wire Wire Line
	5300 2650 5400 2650
Wire Wire Line
	5900 2550 6000 2550
Wire Wire Line
	5050 2550 5400 2550
Wire Wire Line
	5900 2050 6050 2050
Wire Wire Line
	5400 2150 5250 2150
Wire Wire Line
	5900 2150 6050 2150
Wire Wire Line
	5400 2250 5250 2250
Wire Wire Line
	5900 2250 6050 2250
Wire Wire Line
	5400 2350 5250 2350
Wire Wire Line
	5900 2350 6000 2350
Wire Wire Line
	5400 2450 5300 2450
Wire Wire Line
	5900 2450 6000 2450
Wire Wire Line
	5400 2050 5250 2050
Wire Wire Line
	6050 1950 5900 1950
Wire Wire Line
	5400 1950 5200 1950
Wire Wire Line
	6050 4500 5900 4500
Wire Wire Line
	5400 4500 5250 4500
Wire Wire Line
	6050 4400 5900 4400
Wire Wire Line
	5250 4400 5400 4400
Wire Wire Line
	5400 4000 5250 4000
Wire Wire Line
	5900 4000 6050 4000
Wire Wire Line
	5400 4100 5250 4100
Wire Wire Line
	5900 4100 6050 4100
Wire Wire Line
	5400 4200 5250 4200
Wire Wire Line
	5900 4200 6050 4200
Wire Wire Line
	5400 4300 5300 4300
Wire Wire Line
	5900 4300 6000 4300
Wire Wire Line
	5400 3800 5300 3800
Wire Wire Line
	5900 3800 6000 3800
Wire Wire Line
	5400 3900 5300 3900
Wire Wire Line
	5900 3900 6000 3900
Wire Wire Line
	5900 3700 6000 3700
Wire Wire Line
	5400 3700 5300 3700
Wire Wire Line
	6050 3600 5900 3600
Wire Wire Line
	5250 3600 5400 3600
Wire Wire Line
	6050 3500 5900 3500
Wire Wire Line
	5250 3500 5400 3500
Wire Wire Line
	5900 3400 6100 3400
Wire Wire Line
	3850 4500 4000 4500
Wire Wire Line
	4500 4500 4650 4500
Wire Wire Line
	4500 4400 4650 4400
Wire Wire Line
	4000 4400 3850 4400
Wire Wire Line
	4500 4300 4650 4300
Wire Wire Line
	3900 4200 4000 4200
Wire Wire Line
	4600 3900 4500 3900
Wire Wire Line
	3900 4000 4000 4000
Wire Wire Line
	4600 4000 4500 4000
Wire Wire Line
	3900 4100 4000 4100
Wire Wire Line
	4600 4100 4500 4100
Wire Wire Line
	4600 4200 4500 4200
Wire Wire Line
	3900 4300 4000 4300
Wire Wire Line
	4600 3800 4500 3800
Wire Wire Line
	4000 3800 3900 3800
Wire Wire Line
	4600 3700 4500 3700
Wire Wire Line
	4000 3700 3900 3700
Wire Wire Line
	4000 3600 3900 3600
Wire Wire Line
	4600 3500 4500 3500
Wire Wire Line
	3700 3900 4000 3900
Wire Wire Line
	4700 3600 4500 3600
Wire Wire Line
	4500 3400 4600 3400
Wire Wire Line
	4000 3500 3900 3500
Wire Wire Line
	7050 2450 7200 2450
Wire Wire Line
	7100 2950 7200 2950
Wire Wire Line
	7100 2750 7200 2750
Wire Wire Line
	7100 2550 7200 2550
Wire Wire Line
	7200 2350 7100 2350
Wire Wire Line
	7100 2150 7200 2150
Wire Wire Line
	7750 3950 7850 3950
Wire Wire Line
	7100 1950 7200 1950
Wire Wire Line
	7200 2850 7100 2850
Wire Wire Line
	7100 2650 7200 2650
Wire Wire Line
	7200 2050 7100 2050
Wire Wire Line
	7100 2250 7200 2250
Wire Wire Line
	7200 1850 7100 1850
Wire Wire Line
	7750 3750 7850 3750
Wire Wire Line
	7750 3550 7850 3550
Wire Wire Line
	7750 3350 7850 3350
Wire Wire Line
	7750 3150 7850 3150
Wire Wire Line
	7850 2950 7750 2950
Wire Wire Line
	7850 2150 7700 2150
Wire Wire Line
	7850 2350 7700 2350
Wire Wire Line
	7850 2550 7700 2550
Wire Wire Line
	7850 2750 7750 2750
Wire Wire Line
	7850 1950 7700 1950
Wire Wire Line
	7750 3850 7850 3850
Wire Wire Line
	7850 3650 7750 3650
Wire Wire Line
	7850 3450 7750 3450
Wire Wire Line
	7850 3250 7750 3250
Wire Wire Line
	7750 3050 7850 3050
Wire Wire Line
	7700 2050 7850 2050
Wire Wire Line
	7700 2250 7850 2250
Wire Wire Line
	7700 2450 7850 2450
Wire Wire Line
	7750 2650 7850 2650
Wire Wire Line
	7750 2850 7850 2850
Wire Wire Line
	7850 1850 7700 1850
Wire Wire Line
	8350 3850 8500 3850
Wire Wire Line
	8500 3650 8350 3650
Wire Wire Line
	8400 3250 8500 3250
Wire Wire Line
	8400 2850 8500 2850
Wire Wire Line
	8400 3050 8500 3050
Wire Wire Line
	8400 3450 8500 3450
Wire Wire Line
	8500 2450 8400 2450
Wire Wire Line
	8500 2250 8400 2250
Wire Wire Line
	8500 2150 8400 2150
Wire Wire Line
	8500 2650 8400 2650
Wire Wire Line
	8500 1950 8400 1950
Wire Wire Line
	8350 3950 8500 3950
Wire Wire Line
	8350 3750 8500 3750
Wire Wire Line
	8350 3550 8500 3550
Wire Wire Line
	8500 2750 8400 2750
Wire Wire Line
	8500 2950 8400 2950
Wire Wire Line
	8500 3150 8400 3150
Wire Wire Line
	8500 3350 8400 3350
Wire Wire Line
	8500 2550 8400 2550
Wire Wire Line
	8500 2350 8400 2350
Wire Wire Line
	8500 2050 8400 2050
Wire Wire Line
	8400 1850 8500 1850
Wire Wire Line
	9150 3850 9000 3850
Wire Wire Line
	9000 3650 9150 3650
Wire Wire Line
	9150 2850 9000 2850
Wire Wire Line
	9150 3050 9000 3050
Wire Wire Line
	9150 3250 9000 3250
Wire Wire Line
	9150 3450 9050 3450
Wire Wire Line
	9150 2450 9050 2450
Wire Wire Line
	9150 2650 9050 2650
Wire Wire Line
	9150 2250 9050 2250
Wire Wire Line
	9000 2050 9150 2050
Wire Wire Line
	9000 1850 9150 1850
Wire Wire Line
	9150 3950 9000 3950
Wire Wire Line
	9150 3750 9000 3750
Wire Wire Line
	9000 2950 9150 2950
Wire Wire Line
	9000 3150 9150 3150
Wire Wire Line
	9000 3350 9150 3350
Wire Wire Line
	9050 3550 9150 3550
Wire Wire Line
	9050 2550 9150 2550
Wire Wire Line
	9050 2750 9150 2750
Wire Wire Line
	9050 2350 9150 2350
Wire Wire Line
	9150 2150 9000 2150
Wire Wire Line
	9150 1950 9000 1950
Wire Wire Line
	3800 2200 3800 2150
Wire Wire Line
	5250 3050 5250 3100
Wire Wire Line
	5150 3450 5150 3400
Wire Wire Line
	3800 3450 3800 3400
Wire Wire Line
	3600 2700 3600 2650
Wire Wire Line
	1350 950  1350 1000
Wire Wire Line
	1350 1000 1300 1000
Wire Wire Line
	1350 1100 1350 1250
Wire Wire Line
	1350 1200 1300 1200
Wire Wire Line
	1300 1100 1350 1100
Connection ~ 1350 1200
Wire Wire Line
	2700 1000 2800 1000
Wire Wire Line
	1900 900  1650 900 
Wire Wire Line
	1650 1450 3450 1450
Wire Wire Line
	2300 1250 2300 1500
Connection ~ 2300 1450
Wire Wire Line
	1900 1000 1900 1450
Connection ~ 1900 1450
Wire Wire Line
	2750 1450 2750 1400
Wire Wire Line
	1650 1450 1650 1400
Wire Wire Line
	1650 850  1650 1000
Connection ~ 2750 1000
Wire Wire Line
	3450 1000 3400 1000
Wire Wire Line
	3450 1450 3450 1400
Connection ~ 2750 1450
Wire Wire Line
	2700 900  2700 850 
Wire Wire Line
	2700 850  3450 850 
Wire Wire Line
	3450 800  3450 1000
$Comp
L GND #PWR055
U 1 1 5563FF2D
P 2300 1500
F 0 "#PWR055" H 2300 1500 30  0001 C CNN
F 1 "GND" H 2300 1430 30  0001 C CNN
F 2 "" H 2300 1500 60  0000 C CNN
F 3 "" H 2300 1500 60  0000 C CNN
	1    2300 1500
	1    0    0    -1  
$EndComp
$Comp
L +12V #PWR056
U 1 1 5564005B
P 1650 850
F 0 "#PWR056" H 1650 800 20  0001 C CNN
F 1 "+12V" H 1650 950 30  0000 C CNN
F 2 "" H 1650 850 60  0000 C CNN
F 3 "" H 1650 850 60  0000 C CNN
	1    1650 850 
	1    0    0    -1  
$EndComp
Connection ~ 1650 900 
$Comp
L +5V #PWR057
U 1 1 556401A2
P 3450 800
F 0 "#PWR057" H 3450 890 20  0001 C CNN
F 1 "+5V" H 3450 890 30  0000 C CNN
F 2 "" H 3450 800 60  0000 C CNN
F 3 "" H 3450 800 60  0000 C CNN
	1    3450 800 
	1    0    0    -1  
$EndComp
Connection ~ 3450 850 
Connection ~ 3450 950 
$Comp
L +5V #PWR058
U 1 1 556402D7
P 3900 900
F 0 "#PWR058" H 3900 990 20  0001 C CNN
F 1 "+5V" H 3900 990 30  0000 C CNN
F 2 "" H 3900 900 60  0000 C CNN
F 3 "" H 3900 900 60  0000 C CNN
	1    3900 900 
	1    0    0    -1  
$EndComp
Wire Wire Line
	2150 2050 2150 2000
$Comp
L +12V #PWR059
U 1 1 55641771
P 2150 2000
F 0 "#PWR059" H 2150 1950 20  0001 C CNN
F 1 "+12V" H 2150 2100 30  0000 C CNN
F 2 "" H 2150 2000 60  0000 C CNN
F 3 "" H 2150 2000 60  0000 C CNN
	1    2150 2000
	1    0    0    -1  
$EndComp
$EndSCHEMATC
