EESchema Schematic File Version 2
LIBS:power
LIBS:Devices
LIBS:Components
LIBS:Connectors
LIBS:STM32F405-Board-cache
EELAYER 27 0
EELAYER END
$Descr A3 16535 11693
encoding utf-8
Sheet 1 1
Title ""
Date "7 apr 2015"
Rev ""
Comp ""
Comment1 ""
Comment2 ""
Comment3 ""
Comment4 ""
$EndDescr
Text Label 5100 4650 0    39   ~ 0
SYS_XTAL1
Text Label 5900 4550 0    39   ~ 0
SYS_XTAL2
Text Label 5100 4850 0    39   ~ 0
RTC_XTAL1
Text Label 5900 4750 0    39   ~ 0
RTC_XTAL2
Text Label 3700 4400 0    39   ~ 0
BOOT0
Text Label 3700 2050 0    39   ~ 0
PB0
Text Label 3700 2150 0    39   ~ 0
PB1
Text Label 3700 2250 0    39   ~ 0
PB2
Text Label 3700 2350 0    39   ~ 0
PB3
Text Label 3700 2450 0    39   ~ 0
PB4
Text Label 3700 2550 0    39   ~ 0
PB5
Text Label 3700 2650 0    39   ~ 0
PB6
Text Label 3700 2750 0    39   ~ 0
PB7
Text Label 3700 2850 0    39   ~ 0
PB8
Text Label 3700 2950 0    39   ~ 0
PB9
Text Label 3700 3050 0    39   ~ 0
PB10
Text Label 3700 3150 0    39   ~ 0
PB11
Text Label 3700 3250 0    39   ~ 0
PB12
Text Label 3700 3350 0    39   ~ 0
PB13
Text Label 3700 3450 0    39   ~ 0
PB14
Text Label 3700 3550 0    39   ~ 0
PB15
Text Label 1750 3000 0    39   ~ 0
PA13
Text Label 1750 3100 0    39   ~ 0
PA14
Text Label 1750 3200 0    39   ~ 0
PA15
Text Label 1750 2900 0    39   ~ 0
PA12
Text Label 1750 2800 0    39   ~ 0
PA11
Text Label 1750 2700 0    39   ~ 0
PA10
Text Label 1800 2600 0    39   ~ 0
PA9
Text Label 1800 2500 0    39   ~ 0
PA8
Text Label 1800 2400 0    39   ~ 0
PA7
Text Label 1800 2300 0    39   ~ 0
PA6
Text Label 1800 2200 0    39   ~ 0
PA5
Text Label 1800 2100 0    39   ~ 0
PA4
Text Label 1800 2000 0    39   ~ 0
PA3
Text Label 5250 4950 0    39   ~ 0
VBAT
Text Label 5900 4850 0    39   ~ 0
PC13
Text Label 5300 4550 0    39   ~ 0
~RST
Text Label 5900 4450 0    39   ~ 0
PC0
Text Label 5300 4450 0    39   ~ 0
PC1
Text Label 5900 4350 0    39   ~ 0
PC2
Text Label 5300 4350 0    39   ~ 0
PC3
Text Label 5250 4150 0    39   ~ 0
VDDA
Text Label 5900 4050 0    39   ~ 0
PA0
Text Label 5300 4050 0    39   ~ 0
PA1
Text Label 5900 3950 0    39   ~ 0
PA2
Text Label 1800 1900 0    39   ~ 0
PA2
Text Label 1800 1800 0    39   ~ 0
PA1
Text Label 1800 1700 0    39   ~ 0
PA0
Text Label 3700 1700 0    39   ~ 0
VDDA
Text Label 3700 1800 0    39   ~ 0
VBAT
Text Label 1750 4700 0    39   ~ 0
PC13
Text Label 1600 4800 0    39   ~ 0
RTC_XTAL1
Text Label 1600 4900 0    39   ~ 0
RTC_XTAL2
Text Label 3700 4000 0    39   ~ 0
SYS_XTAL1
Text Label 3700 4100 0    39   ~ 0
SYS_XTAL2
Text Label 3700 4300 0    39   ~ 0
~RST
Wire Wire Line
	3700 2050 3800 2050
Wire Wire Line
	3700 2150 3800 2150
Wire Wire Line
	3800 2450 3700 2450
Wire Wire Line
	3800 2550 3700 2550
Wire Wire Line
	3800 2650 3700 2650
Wire Wire Line
	3800 2750 3700 2750
Wire Wire Line
	3800 2850 3700 2850
Wire Wire Line
	3800 2950 3700 2950
Wire Wire Line
	3850 3050 3700 3050
Wire Wire Line
	3850 3150 3700 3150
Wire Wire Line
	3850 3250 3700 3250
Wire Wire Line
	3850 3350 3700 3350
Wire Wire Line
	3850 3450 3700 3450
Wire Wire Line
	3700 3550 3850 3550
Wire Wire Line
	5400 4850 5100 4850
Wire Wire Line
	6200 4750 5900 4750
Wire Wire Line
	3900 4400 3700 4400
Wire Wire Line
	1750 3200 1900 3200
Wire Wire Line
	1900 2000 1800 2000
Wire Wire Line
	1800 2100 1900 2100
Wire Wire Line
	1900 2200 1800 2200
Wire Wire Line
	1800 2300 1900 2300
Wire Wire Line
	1900 2400 1800 2400
Wire Wire Line
	1800 2500 1900 2500
Wire Wire Line
	1900 2600 1800 2600
Wire Wire Line
	1900 2700 1750 2700
Wire Wire Line
	1750 2800 1900 2800
Wire Wire Line
	1900 2900 1750 2900
Wire Wire Line
	5250 4950 5400 4950
Wire Wire Line
	5900 4850 6050 4850
Wire Wire Line
	5300 4550 5400 4550
Wire Wire Line
	5100 4650 5400 4650
Wire Wire Line
	5400 4350 5300 4350
Wire Wire Line
	5300 4450 5400 4450
Wire Wire Line
	5900 4550 6200 4550
Wire Wire Line
	6000 4450 5900 4450
Wire Wire Line
	5900 4350 6000 4350
Wire Wire Line
	5900 3950 6000 3950
Wire Wire Line
	5900 4050 6000 4050
Wire Wire Line
	5250 4150 5400 4150
Wire Wire Line
	5400 4050 5300 4050
Wire Wire Line
	1900 1700 1800 1700
Wire Wire Line
	1800 1800 1900 1800
Wire Wire Line
	1900 1900 1800 1900
Wire Wire Line
	3700 1700 3900 1700
Wire Wire Line
	3700 1800 4050 1800
Wire Wire Line
	1750 4700 1900 4700
Wire Wire Line
	1900 4800 1600 4800
Wire Wire Line
	1900 4900 1600 4900
Wire Wire Line
	3700 4000 4000 4000
Wire Wire Line
	3700 4100 4000 4100
Wire Wire Line
	3700 4300 3800 4300
Wire Wire Line
	1750 3000 1900 3000
Wire Wire Line
	1750 3100 1900 3100
Wire Wire Line
	3800 2250 3700 2250
Wire Wire Line
	3800 2350 3700 2350
$Comp
L PWR_FLAG #FLG01
U 1 1 551F4251
P 4050 1800
F 0 "#FLG01" H 4050 1895 30  0001 C CNN
F 1 "PWR_FLAG" H 4050 1980 30  0000 C CNN
F 2 "" H 4050 1800 60  0000 C CNN
F 3 "" H 4050 1800 60  0000 C CNN
	1    4050 1800
	1    0    0    -1  
$EndComp
Text Label 3700 3800 0    39   ~ 0
PD2
Wire Wire Line
	3700 3800 3800 3800
Text Label 3700 4600 0    39   ~ 0
VCAP1
Text Label 3700 4700 0    39   ~ 0
VCAP2
Wire Wire Line
	3700 4700 3900 4700
Wire Wire Line
	3900 4600 3700 4600
Text Label 1800 3400 0    39   ~ 0
PC0
Text Label 1800 3500 0    39   ~ 0
PC1
Text Label 1800 3600 0    39   ~ 0
PC2
Text Label 1800 3700 0    39   ~ 0
PC3
Text Label 1800 3800 0    39   ~ 0
PC4
Text Label 1800 3900 0    39   ~ 0
PC5
Text Label 1800 4000 0    39   ~ 0
PC6
Text Label 1800 4100 0    39   ~ 0
PC7
Text Label 1800 4200 0    39   ~ 0
PC8
Text Label 1800 4300 0    39   ~ 0
PC9
Text Label 1750 4400 0    39   ~ 0
PC10
Text Label 1750 4500 0    39   ~ 0
PC11
Text Label 1750 4600 0    39   ~ 0
PC12
Wire Wire Line
	1750 4400 1900 4400
Wire Wire Line
	1900 4500 1750 4500
Wire Wire Line
	1750 4600 1900 4600
Wire Wire Line
	1900 4300 1800 4300
Wire Wire Line
	1800 4200 1900 4200
Wire Wire Line
	1900 4100 1800 4100
Wire Wire Line
	1800 4000 1900 4000
Wire Wire Line
	1900 3900 1800 3900
Wire Wire Line
	1800 3800 1900 3800
Wire Wire Line
	1900 3700 1800 3700
Wire Wire Line
	1800 3600 1900 3600
Wire Wire Line
	1900 3500 1800 3500
Wire Wire Line
	1800 3400 1900 3400
$Comp
L HEADER-13X2 P1
U 1 1 55232290
P 5650 4550
F 0 "P1" V 5600 4550 40  0000 C CNN
F 1 "HEADER-13X2" V 5700 4550 40  0000 C CNN
F 2 "~" H 5650 4600 60  0000 C CNN
F 3 "~" H 5650 4600 60  0000 C CNN
	1    5650 4550
	1    0    0    -1  
$EndComp
$Comp
L HEADER-13X2 P3
U 1 1 5523229F
P 7000 4550
F 0 "P3" V 6950 4550 40  0000 C CNN
F 1 "HEADER-13X2" V 7050 4550 40  0000 C CNN
F 2 "~" H 7000 4600 60  0000 C CNN
F 3 "~" H 7000 4600 60  0000 C CNN
	1    7000 4550
	1    0    0    -1  
$EndComp
$Comp
L HEADER-13X2 P2
U 1 1 552322AE
P 5650 6000
F 0 "P2" V 5600 6000 40  0000 C CNN
F 1 "HEADER-13X2" V 5700 6000 40  0000 C CNN
F 2 "~" H 5650 6050 60  0000 C CNN
F 3 "~" H 5650 6050 60  0000 C CNN
	1    5650 6000
	1    0    0    -1  
$EndComp
$Comp
L HEADER-13X2 P4
U 1 1 552322BD
P 7000 6000
F 0 "P4" V 6950 6000 40  0000 C CNN
F 1 "HEADER-13X2" V 7050 6000 40  0000 C CNN
F 2 "~" H 7000 6050 60  0000 C CNN
F 3 "~" H 7000 6050 60  0000 C CNN
	1    7000 6000
	1    0    0    -1  
$EndComp
Text Label 2950 1300 1    39   ~ 0
VDD3
Text Label 2850 1300 1    39   ~ 0
VDD4
Text Label 2750 1300 1    39   ~ 0
VDD5
Text Label 2650 1300 1    39   ~ 0
VDD6
Wire Wire Line
	2650 1300 2650 1150
Wire Wire Line
	2750 1050 2750 1300
Text Label 7400 5050 2    39   ~ 0
VDD3
Text Label 7400 3950 2    39   ~ 0
VDD4
Text Label 7400 5400 2    39   ~ 0
VDD5
Text Label 6050 5400 2    39   ~ 0
VDD6
Wire Wire Line
	7400 5050 7250 5050
Wire Wire Line
	7400 3950 7250 3950
Wire Wire Line
	7400 5400 7250 5400
Wire Wire Line
	6050 5400 5900 5400
NoConn ~ 5400 3950
NoConn ~ 6750 3950
NoConn ~ 6750 5400
NoConn ~ 5400 5400
Text Label 5250 4250 0    39   ~ 0
VSSA
Text Label 2750 5450 1    39   ~ 0
VSS4
Wire Wire Line
	5400 4250 5250 4250
Text Label 3700 4900 0    39   ~ 0
VSSA
Wire Wire Line
	3700 4900 3850 4900
Text Label 2850 5450 1    39   ~ 0
VSS2
Wire Wire Line
	2750 5300 2750 5450
Text Label 5400 5500 2    39   ~ 0
VSS4
Wire Wire Line
	5250 5500 5400 5500
Text Label 6750 5150 2    39   ~ 0
VSS2
Wire Wire Line
	6750 5150 6600 5150
Wire Wire Line
	7250 5150 7350 5150
Text Label 7250 5150 0    39   ~ 0
PA3
Text Label 7250 4850 0    39   ~ 0
PA7
Text Label 6650 4950 0    39   ~ 0
PA6
Text Label 7250 4950 0    39   ~ 0
PA5
Text Label 6650 5050 0    39   ~ 0
PA4
Wire Wire Line
	6650 5050 6750 5050
Wire Wire Line
	7350 4950 7250 4950
Wire Wire Line
	6650 4950 6750 4950
Wire Wire Line
	7350 4850 7250 4850
Text Label 6650 4850 0    39   ~ 0
PC4
Text Label 7250 4750 0    39   ~ 0
PC5
Wire Wire Line
	7350 4750 7250 4750
Wire Wire Line
	6650 4850 6750 4850
Text Label 6650 4750 0    39   ~ 0
PB0
Text Label 7250 4650 0    39   ~ 0
PB1
Text Label 6650 4650 0    39   ~ 0
PB2
Wire Wire Line
	6650 4750 6750 4750
Wire Wire Line
	7250 4650 7350 4650
Wire Wire Line
	6750 4650 6650 4650
Text Label 6600 4150 0    39   ~ 0
PB10
Text Label 7250 4050 0    39   ~ 0
PB11
Wire Wire Line
	6750 4150 6600 4150
Wire Wire Line
	7400 4050 7250 4050
Text Label 6550 4050 0    39   ~ 0
VCAP1
Wire Wire Line
	6750 4050 6550 4050
Text Label 7250 6600 0    39   ~ 0
PB12
Text Label 6600 6600 0    39   ~ 0
PB13
Text Label 7250 6500 0    39   ~ 0
PB14
Text Label 6600 6500 0    39   ~ 0
PB15
Wire Wire Line
	7400 6600 7250 6600
Wire Wire Line
	6750 6600 6600 6600
Wire Wire Line
	7400 6500 7250 6500
Wire Wire Line
	6600 6500 6750 6500
Text Label 7250 6000 0    39   ~ 0
PC6
Text Label 6650 6000 0    39   ~ 0
PC7
Text Label 7250 5900 0    39   ~ 0
PC8
Text Label 6650 5900 0    39   ~ 0
PC9
Wire Wire Line
	6750 5900 6650 5900
Wire Wire Line
	7250 5900 7350 5900
Wire Wire Line
	6750 6000 6650 6000
Wire Wire Line
	7250 6000 7350 6000
Text Label 6600 5600 0    39   ~ 0
PA13
Text Label 7250 5600 0    39   ~ 0
PA12
Text Label 6600 5700 0    39   ~ 0
PA11
Text Label 7250 5700 0    39   ~ 0
PA10
Text Label 6650 5800 0    39   ~ 0
PA9
Text Label 7250 5800 0    39   ~ 0
PA8
Wire Wire Line
	7250 5800 7350 5800
Wire Wire Line
	6750 5800 6650 5800
Wire Wire Line
	7400 5700 7250 5700
Wire Wire Line
	6600 5700 6750 5700
Wire Wire Line
	7400 5600 7250 5600
Wire Wire Line
	6600 5600 6750 5600
Text Label 7250 5500 0    39   ~ 0
VCAP2
Wire Wire Line
	7250 5500 7450 5500
Text Label 5900 6600 0    39   ~ 0
PA14
Text Label 5250 6600 0    39   ~ 0
PA15
Wire Wire Line
	5250 6600 5400 6600
Wire Wire Line
	5900 6600 6050 6600
Text Label 5900 6500 0    39   ~ 0
PC10
Text Label 5250 6500 0    39   ~ 0
PC11
Text Label 5900 6400 0    39   ~ 0
PC12
Wire Wire Line
	5900 6500 6050 6500
Wire Wire Line
	5400 6500 5250 6500
Wire Wire Line
	5900 6400 6050 6400
Text Label 5300 6300 0    39   ~ 0
PD2
Wire Wire Line
	5300 6300 5400 6300
Text Label 5300 6000 0    39   ~ 0
PB3
Text Label 5900 5900 0    39   ~ 0
PB4
Text Label 5300 5900 0    39   ~ 0
PB5
Text Label 5900 5800 0    39   ~ 0
PB6
Text Label 5300 5800 0    39   ~ 0
PB7
Text Label 5300 5700 0    39   ~ 0
PB8
Text Label 5900 5600 0    39   ~ 0
PB9
Wire Wire Line
	6000 5900 5900 5900
Wire Wire Line
	5400 5900 5300 5900
Wire Wire Line
	6000 5800 5900 5800
Wire Wire Line
	5400 5800 5300 5800
Wire Wire Line
	5400 5700 5300 5700
Wire Wire Line
	6000 5600 5900 5600
Wire Wire Line
	5400 6000 5300 6000
Text Label 5900 5700 0    39   ~ 0
BOOT0
Wire Wire Line
	6100 5700 5900 5700
$Comp
L PWR_FLAG #FLG02
U 1 1 552331D2
P 2650 1150
F 0 "#FLG02" H 2650 1245 30  0001 C CNN
F 1 "PWR_FLAG" H 2650 1330 30  0000 C CNN
F 2 "" H 2650 1150 60  0000 C CNN
F 3 "" H 2650 1150 60  0000 C CNN
	1    2650 1150
	0    -1   -1   0   
$EndComp
$Comp
L PWR_FLAG #FLG03
U 1 1 552331F0
P 2650 1050
F 0 "#FLG03" H 2650 1145 30  0001 C CNN
F 1 "PWR_FLAG" H 2650 1230 30  0000 C CNN
F 2 "" H 2650 1050 60  0000 C CNN
F 3 "" H 2650 1050 60  0000 C CNN
	1    2650 1050
	1    0    0    -1  
$EndComp
$Comp
L PWR_FLAG #FLG04
U 1 1 552333C5
P 2950 1050
F 0 "#FLG04" H 2950 1145 30  0001 C CNN
F 1 "PWR_FLAG" H 2950 1230 30  0000 C CNN
F 2 "" H 2950 1050 60  0000 C CNN
F 3 "" H 2950 1050 60  0000 C CNN
	1    2950 1050
	1    0    0    -1  
$EndComp
$Comp
L PWR_FLAG #FLG05
U 1 1 55233753
P 2950 1150
F 0 "#FLG05" H 2950 1245 30  0001 C CNN
F 1 "PWR_FLAG" H 2950 1330 30  0000 C CNN
F 2 "" H 2950 1150 60  0000 C CNN
F 3 "" H 2950 1150 60  0000 C CNN
	1    2950 1150
	0    1    1    0   
$EndComp
$Comp
L PWR_FLAG #FLG06
U 1 1 552338D1
P 3900 1650
F 0 "#FLG06" H 3900 1745 30  0001 C CNN
F 1 "PWR_FLAG" H 3900 1830 30  0000 C CNN
F 2 "" H 3900 1650 60  0000 C CNN
F 3 "" H 3900 1650 60  0000 C CNN
	1    3900 1650
	1    0    0    -1  
$EndComp
Wire Wire Line
	3900 1700 3900 1650
$Comp
L PWR_FLAG #FLG07
U 1 1 55233BD5
P 2750 5450
F 0 "#FLG07" H 2750 5545 30  0001 C CNN
F 1 "PWR_FLAG" H 2750 5630 30  0000 C CNN
F 2 "" H 2750 5450 60  0000 C CNN
F 3 "" H 2750 5450 60  0000 C CNN
	1    2750 5450
	0    -1   -1   0   
$EndComp
$Comp
L PWR_FLAG #FLG08
U 1 1 55233C02
P 2850 5450
F 0 "#FLG08" H 2850 5545 30  0001 C CNN
F 1 "PWR_FLAG" H 2850 5630 30  0000 C CNN
F 2 "" H 2850 5450 60  0000 C CNN
F 3 "" H 2850 5450 60  0000 C CNN
	1    2850 5450
	0    1    1    0   
$EndComp
$Comp
L PWR_FLAG #FLG09
U 1 1 55233E5B
P 3850 4900
F 0 "#FLG09" H 3850 4995 30  0001 C CNN
F 1 "PWR_FLAG" H 3850 5080 30  0000 C CNN
F 2 "" H 3850 4900 60  0000 C CNN
F 3 "" H 3850 4900 60  0000 C CNN
	1    3850 4900
	0    1    1    0   
$EndComp
NoConn ~ 2900 3400
$Comp
L STM32F405RG-LQFP64 IC1
U 1 1 55233780
P 2800 3300
F 0 "IC1" H 2100 5200 40  0000 C CNN
F 1 "STM32F405RG-LQFP64" H 2400 1400 40  0000 C CNN
F 2 "LQFP-64" H 2800 3300 30  0000 C CIN
F 3 "~" H 2800 3350 60  0000 C CNN
	1    2800 3300
	1    0    0    -1  
$EndComp
Wire Wire Line
	2850 5450 2850 5300
Wire Wire Line
	2950 1150 2950 1300
Wire Wire Line
	2950 1050 2850 1050
Wire Wire Line
	2850 1050 2850 1300
Wire Wire Line
	2650 1050 2750 1050
NoConn ~ 7250 4150
NoConn ~ 7250 4250
NoConn ~ 7250 4350
NoConn ~ 7250 4450
NoConn ~ 7250 4550
NoConn ~ 6750 4550
NoConn ~ 6750 4450
NoConn ~ 6750 4350
NoConn ~ 6750 4250
NoConn ~ 5900 4150
NoConn ~ 5900 4250
NoConn ~ 5900 4650
NoConn ~ 5400 4750
NoConn ~ 5400 5050
NoConn ~ 5400 5150
NoConn ~ 5900 4950
NoConn ~ 5900 5050
NoConn ~ 5900 5150
NoConn ~ 5900 5500
NoConn ~ 5400 5600
NoConn ~ 6750 5500
NoConn ~ 5900 6000
NoConn ~ 5900 6100
NoConn ~ 5900 6200
NoConn ~ 5900 6300
NoConn ~ 5400 6200
NoConn ~ 5400 6100
NoConn ~ 5400 6400
NoConn ~ 6750 6100
NoConn ~ 6750 6200
NoConn ~ 6750 6300
NoConn ~ 6750 6400
NoConn ~ 7250 6400
NoConn ~ 7250 6300
NoConn ~ 7250 6200
NoConn ~ 7250 6100
$EndSCHEMATC
