EESchema Schematic File Version 2
LIBS:power
LIBS:Components
LIBS:Connectors
LIBS:Devices
LIBS:Audio-Codec-Board-cache
EELAYER 27 0
EELAYER END
$Descr A4 11693 8268
encoding utf-8
Sheet 1 1
Title ""
Date "10 mar 2015"
Rev ""
Comp ""
Comment1 ""
Comment2 ""
Comment3 ""
Comment4 ""
$EndDescr
NoConn ~ 2700 1400
NoConn ~ 2700 1500
NoConn ~ 2700 2200
NoConn ~ 1700 2200
$Comp
L RES R3
U 1 1 5365F2A1
P 4250 1200
F 0 "R3" H 4250 1280 40  0000 C CNN
F 1 "4.7K" H 4250 1200 40  0000 C CNN
F 2 "~" H 4250 1130 30  0000 C CNN
F 3 "~" V 4250 1200 30  0000 C CNN
	1    4250 1200
	1    0    0    -1  
$EndComp
$Comp
L RES R4
U 1 1 5365F2B0
P 4250 1400
F 0 "R4" H 4250 1480 40  0000 C CNN
F 1 "4.7K" H 4250 1400 40  0000 C CNN
F 2 "~" H 4250 1330 30  0000 C CNN
F 3 "~" V 4250 1400 30  0000 C CNN
	1    4250 1400
	1    0    0    -1  
$EndComp
$Comp
L RES R2
U 1 1 5365F2BF
P 3900 1750
F 0 "R2" H 3900 1830 40  0000 C CNN
F 1 "4.7K" H 3900 1750 40  0000 C CNN
F 2 "~" H 3900 1680 30  0000 C CNN
F 3 "~" V 3900 1750 30  0000 C CNN
	1    3900 1750
	0    -1   -1   0   
$EndComp
$Comp
L RES R1
U 1 1 5365F2CE
P 3700 1750
F 0 "R1" H 3700 1830 40  0000 C CNN
F 1 "4.7K" H 3700 1750 40  0000 C CNN
F 2 "~" H 3700 1680 30  0000 C CNN
F 3 "~" V 3700 1750 30  0000 C CNN
	1    3700 1750
	0    -1   -1   0   
$EndComp
Wire Wire Line
	4000 1200 3700 1200
Wire Wire Line
	3700 1100 3700 1500
Wire Wire Line
	3900 1100 3900 1500
Wire Wire Line
	3900 1400 4000 1400
Wire Wire Line
	4500 1200 4700 1200
Wire Wire Line
	4700 1200 4700 1700
Wire Wire Line
	4700 1700 4850 1700
Wire Wire Line
	4850 1700 4850 1600
Wire Wire Line
	4500 1400 4500 1800
Wire Wire Line
	4500 1800 5050 1800
Wire Wire Line
	5050 1800 5050 1600
$Comp
L CAP C2
U 1 1 5365F359
P 3900 900
F 0 "C2" H 3940 1000 40  0000 L CNN
F 1 "1uF" H 3940 790 40  0000 L CNN
F 2 "~" H 3938 750 30  0000 C CNN
F 3 "~" H 3900 900 60  0000 C CNN
	1    3900 900 
	-1   0    0    1   
$EndComp
$Comp
L CAP C1
U 1 1 5365F368
P 3700 900
F 0 "C1" H 3740 1000 40  0000 L CNN
F 1 "1uF" H 3740 790 40  0000 L CNN
F 2 "~" H 3738 750 30  0000 C CNN
F 3 "~" H 3700 900 60  0000 C CNN
	1    3700 900 
	-1   0    0    1   
$EndComp
Connection ~ 3900 1400
Connection ~ 3700 1200
$Comp
L AGND #PWR16
U 1 1 5365F326
P 5250 3250
F 0 "#PWR16" H 5250 3250 40  0001 C CNN
F 1 "AGND" H 5250 3180 50  0000 C CNN
F 2 "" H 5250 3250 60  0000 C CNN
F 3 "" H 5250 3250 60  0000 C CNN
	1    5250 3250
	1    0    0    -1  
$EndComp
$Comp
L AGND #PWR15
U 1 1 5365F335
P 5250 1850
F 0 "#PWR15" H 5250 1850 40  0001 C CNN
F 1 "AGND" H 5250 1780 50  0000 C CNN
F 2 "" H 5250 1850 60  0000 C CNN
F 3 "" H 5250 1850 60  0000 C CNN
	1    5250 1850
	1    0    0    -1  
$EndComp
Wire Wire Line
	5250 3000 5250 3250
Wire Wire Line
	5250 1600 5250 1850
$Comp
L AGND #PWR10
U 1 1 5365F391
P 3700 2050
F 0 "#PWR10" H 3700 2050 40  0001 C CNN
F 1 "AGND" H 3700 1980 50  0000 C CNN
F 2 "" H 3700 2050 60  0000 C CNN
F 3 "" H 3700 2050 60  0000 C CNN
	1    3700 2050
	1    0    0    -1  
$EndComp
$Comp
L AGND #PWR11
U 1 1 5365F3A0
P 3900 2050
F 0 "#PWR11" H 3900 2050 40  0001 C CNN
F 1 "AGND" H 3900 1980 50  0000 C CNN
F 2 "" H 3900 2050 60  0000 C CNN
F 3 "" H 3900 2050 60  0000 C CNN
	1    3900 2050
	1    0    0    -1  
$EndComp
Wire Wire Line
	3700 2000 3700 2050
Wire Wire Line
	3900 2000 3900 2050
Text Label 3350 700  0    60   ~ 0
RLINEIN
Text Label 3900 700  0    60   ~ 0
LLINEIN
Wire Wire Line
	3350 700  3700 700 
Wire Wire Line
	3900 700  4250 700 
Text Label 2700 1000 0    60   ~ 0
LLINEIN
Text Label 2700 1100 0    60   ~ 0
RLINEIN
Wire Wire Line
	2700 1000 3050 1000
Wire Wire Line
	2700 1100 3050 1100
$Comp
L GND #PWR8
U 1 1 5365F593
P 3250 2100
F 0 "#PWR8" H 3250 2100 30  0001 C CNN
F 1 "GND" H 3250 2030 30  0001 C CNN
F 2 "" H 3250 2100 60  0000 C CNN
F 3 "" H 3250 2100 60  0000 C CNN
	1    3250 2100
	1    0    0    -1  
$EndComp
$Comp
L AGND #PWR7
U 1 1 5365F654
P 2200 2700
F 0 "#PWR7" H 2200 2700 40  0001 C CNN
F 1 "AGND" H 2200 2630 50  0000 C CNN
F 2 "" H 2200 2700 60  0000 C CNN
F 3 "" H 2200 2700 60  0000 C CNN
	1    2200 2700
	1    0    0    -1  
$EndComp
Wire Wire Line
	2200 2600 2200 2700
Wire Wire Line
	1700 2300 1600 2300
Wire Wire Line
	1600 2300 1600 2600
Wire Wire Line
	2700 2300 2800 2300
Wire Wire Line
	2800 2300 2800 2600
Connection ~ 2200 2600
Wire Wire Line
	3250 2000 2700 2000
$Comp
L CAP C3
U 1 1 53661D5C
P 2950 2350
F 0 "C3" H 2990 2450 40  0000 L CNN
F 1 "10uF" H 2990 2240 40  0000 L CNN
F 2 "~" H 2988 2200 30  0000 C CNN
F 3 "~" H 2950 2350 60  0000 C CNN
	1    2950 2350
	-1   0    0    1   
$EndComp
Wire Wire Line
	2700 2100 2950 2100
Wire Wire Line
	2700 1600 3050 1600
Wire Wire Line
	2700 1700 3050 1700
Wire Wire Line
	2700 1200 3050 1200
Wire Wire Line
	2700 1300 3050 1300
Text Label 2700 1200 0    60   ~ 0
MICIN
Text Label 2700 1300 0    60   ~ 0
MICBIAS
Text Label 2700 1600 0    60   ~ 0
LHPOUT
Text Label 2700 1700 0    60   ~ 0
RHPOUT
Wire Wire Line
	2700 1800 3250 1800
Wire Wire Line
	2700 1900 3250 1900
Connection ~ 3250 1900
Connection ~ 3250 2000
$Comp
L +3.3V #PWR1
U 1 1 53662385
P 1250 3200
F 0 "#PWR1" H 1250 3160 30  0001 C CNN
F 1 "+3.3V" H 1250 3310 30  0000 C CNN
F 2 "" H 1250 3200 60  0000 C CNN
F 3 "" H 1250 3200 60  0000 C CNN
	1    1250 3200
	1    0    0    -1  
$EndComp
$Comp
L AGND #PWR6
U 1 1 536623A3
P 2050 4000
F 0 "#PWR6" H 2050 4000 40  0001 C CNN
F 1 "AGND" H 2050 3930 50  0000 C CNN
F 2 "" H 2050 4000 60  0000 C CNN
F 3 "" H 2050 4000 60  0000 C CNN
	1    2050 4000
	1    0    0    -1  
$EndComp
$Comp
L CAP C4
U 1 1 536623B2
P 2050 3600
F 0 "C4" H 2090 3700 40  0000 L CNN
F 1 "10uF" H 2090 3490 40  0000 L CNN
F 2 "~" H 2088 3450 30  0000 C CNN
F 3 "~" H 2050 3600 60  0000 C CNN
	1    2050 3600
	1    0    0    -1  
$EndComp
$Comp
L FERRITE-BEAD FB1
U 1 1 536623C1
P 1650 3300
F 0 "FB1" H 1650 3420 60  0000 C CNN
F 1 "FERRITE-BEAD" H 1650 3190 60  0000 C CNN
F 2 "~" H 1650 3300 60  0000 C CNN
F 3 "~" H 1650 3300 60  0000 C CNN
	1    1650 3300
	1    0    0    -1  
$EndComp
Wire Wire Line
	1250 3200 1250 3500
Wire Wire Line
	1100 3300 1300 3300
Wire Wire Line
	2000 3300 2300 3300
Wire Wire Line
	2050 3200 2050 3400
Connection ~ 2050 3300
Wire Wire Line
	2050 3800 2050 4000
$Comp
L GND #PWR2
U 1 1 5366255E
P 1250 4000
F 0 "#PWR2" H 1250 4000 30  0001 C CNN
F 1 "GND" H 1250 3930 30  0001 C CNN
F 2 "" H 1250 4000 60  0000 C CNN
F 3 "" H 1250 4000 60  0000 C CNN
	1    1250 4000
	1    0    0    -1  
$EndComp
$Comp
L FERRITE-BEAD FB2
U 1 1 5366256D
P 1650 3900
F 0 "FB2" H 1650 4020 60  0000 C CNN
F 1 "FERRITE-BEAD" H 1650 3790 60  0000 C CNN
F 2 "~" H 1650 3900 60  0000 C CNN
F 3 "~" H 1650 3900 60  0000 C CNN
	1    1650 3900
	1    0    0    -1  
$EndComp
Connection ~ 2050 3900
Wire Wire Line
	1250 3700 1250 4000
Wire Wire Line
	1000 3900 1300 3900
$Comp
L VCC #PWR5
U 1 1 536626BA
P 2050 3200
F 0 "#PWR5" H 2050 3300 30  0001 C CNN
F 1 "VCC" H 2050 3300 30  0000 C CNN
F 2 "" H 2050 3200 60  0000 C CNN
F 3 "" H 2050 3200 60  0000 C CNN
	1    2050 3200
	1    0    0    -1  
$EndComp
Wire Wire Line
	1700 1000 1600 1000
Wire Wire Line
	1600 1100 1700 1100
Wire Wire Line
	1600 1200 1700 1200
Connection ~ 1600 1100
Wire Wire Line
	1600 1300 1700 1300
Wire Wire Line
	1600 900  1600 1300
Connection ~ 1600 1200
Connection ~ 1600 1000
$Comp
L VCC #PWR4
U 1 1 53662B41
P 1600 900
F 0 "#PWR4" H 1600 1000 30  0001 C CNN
F 1 "VCC" H 1600 1000 30  0000 C CNN
F 2 "" H 1600 900 60  0000 C CNN
F 3 "" H 1600 900 60  0000 C CNN
	1    1600 900 
	1    0    0    -1  
$EndComp
Wire Wire Line
	1150 2100 1700 2100
Wire Wire Line
	1150 2000 1700 2000
Wire Wire Line
	1150 1900 1700 1900
Wire Wire Line
	1150 1800 1700 1800
Wire Wire Line
	1150 1700 1700 1700
Wire Wire Line
	1150 1600 1700 1600
Wire Wire Line
	1150 1500 1700 1500
Wire Wire Line
	1150 1400 1700 1400
$Comp
L RES R6
U 1 1 5366306E
P 1450 1050
F 0 "R6" H 1450 1130 40  0000 C CNN
F 1 "2K" H 1450 1050 40  0000 C CNN
F 2 "~" H 1450 980 30  0000 C CNN
F 3 "~" V 1450 1050 30  0000 C CNN
	1    1450 1050
	0    -1   -1   0   
$EndComp
$Comp
L RES R5
U 1 1 5366307D
P 1250 1050
F 0 "R5" H 1250 1130 40  0000 C CNN
F 1 "2K" H 1250 1050 40  0000 C CNN
F 2 "~" H 1250 980 30  0000 C CNN
F 3 "~" V 1250 1050 30  0000 C CNN
	1    1250 1050
	0    -1   -1   0   
$EndComp
Wire Wire Line
	1250 1300 1250 1400
Connection ~ 1250 1400
Wire Wire Line
	1450 1300 1450 1500
Connection ~ 1450 1500
$Comp
L +3.3V #PWR3
U 1 1 5366311A
P 1350 700
F 0 "#PWR3" H 1350 660 30  0001 C CNN
F 1 "+3.3V" H 1350 810 30  0000 C CNN
F 2 "" H 1350 700 60  0000 C CNN
F 3 "" H 1350 700 60  0000 C CNN
	1    1350 700 
	1    0    0    -1  
$EndComp
Wire Wire Line
	1450 700  1450 800 
Wire Wire Line
	1250 700  1450 700 
Wire Wire Line
	1250 700  1250 800 
Connection ~ 1350 700 
$Comp
L PWR_FLAG #FLG2
U 1 1 53663596
P 1100 3150
F 0 "#FLG2" H 1100 3245 30  0001 C CNN
F 1 "PWR_FLAG" H 1100 3330 30  0000 C CNN
F 2 "" H 1100 3150 60  0000 C CNN
F 3 "" H 1100 3150 60  0000 C CNN
	1    1100 3150
	1    0    0    -1  
$EndComp
Wire Wire Line
	1100 3150 1100 3300
Connection ~ 1250 3300
$Comp
L PWR_FLAG #FLG1
U 1 1 5366364F
P 1000 3900
F 0 "#FLG1" H 1000 3995 30  0001 C CNN
F 1 "PWR_FLAG" H 1000 4080 30  0000 C CNN
F 2 "" H 1000 3900 60  0000 C CNN
F 3 "" H 1000 3900 60  0000 C CNN
	1    1000 3900
	-1   0    0    1   
$EndComp
$Comp
L PWR_FLAG #FLG4
U 1 1 5366365E
P 2300 3900
F 0 "#FLG4" H 2300 3995 30  0001 C CNN
F 1 "PWR_FLAG" H 2300 4080 30  0000 C CNN
F 2 "" H 2300 3900 60  0000 C CNN
F 3 "" H 2300 3900 60  0000 C CNN
	1    2300 3900
	-1   0    0    1   
$EndComp
Connection ~ 1250 3900
Wire Wire Line
	2000 3900 2300 3900
$Comp
L PWR_FLAG #FLG3
U 1 1 536638D4
P 2200 3150
F 0 "#FLG3" H 2200 3245 30  0001 C CNN
F 1 "PWR_FLAG" H 2200 3330 30  0000 C CNN
F 2 "" H 2200 3150 60  0000 C CNN
F 3 "" H 2200 3150 60  0000 C CNN
	1    2200 3150
	1    0    0    -1  
$EndComp
Wire Wire Line
	2200 3300 2200 3150
Wire Wire Line
	1250 3500 1150 3500
Wire Wire Line
	1150 3700 1250 3700
$Comp
L RES R9
U 1 1 536641C4
P 4550 3450
F 0 "R9" H 4550 3530 40  0000 C CNN
F 1 "47K" H 4550 3450 40  0000 C CNN
F 2 "~" H 4550 3380 30  0000 C CNN
F 3 "~" V 4550 3450 30  0000 C CNN
	1    4550 3450
	0    -1   -1   0   
$EndComp
$Comp
L CAP C5
U 1 1 536641D8
P 4250 3450
F 0 "C5" H 4290 3550 40  0000 L CNN
F 1 "1nF" H 4290 3340 40  0000 L CNN
F 2 "~" H 4288 3300 30  0000 C CNN
F 3 "~" H 4250 3450 60  0000 C CNN
	1    4250 3450
	1    0    0    -1  
$EndComp
Wire Wire Line
	5050 3100 5050 3000
Wire Wire Line
	4550 3000 4550 3200
Wire Wire Line
	4250 3100 4250 3250
Connection ~ 4550 3100
Wire Wire Line
	4250 3650 4250 3750
Wire Wire Line
	4250 3750 4550 3750
Wire Wire Line
	4550 3750 4550 3700
Wire Wire Line
	4400 3750 4400 3800
Connection ~ 4400 3750
$Comp
L AGND #PWR13
U 1 1 53664530
P 4400 3800
F 0 "#PWR13" H 4400 3800 40  0001 C CNN
F 1 "AGND" H 4400 3730 50  0000 C CNN
F 2 "" H 4400 3800 60  0000 C CNN
F 3 "" H 4400 3800 60  0000 C CNN
	1    4400 3800
	1    0    0    -1  
$EndComp
$Comp
L CAP C6
U 1 1 536645F8
P 4550 2800
F 0 "C6" H 4590 2900 40  0000 L CNN
F 1 "1uF" H 4590 2690 40  0000 L CNN
F 2 "~" H 4588 2650 30  0000 C CNN
F 3 "~" H 4550 2800 60  0000 C CNN
	1    4550 2800
	1    0    0    -1  
$EndComp
$Comp
L RES R8
U 1 1 53664792
P 3900 3100
F 0 "R8" H 3900 3180 40  0000 C CNN
F 1 "680" H 3900 3100 40  0000 C CNN
F 2 "~" H 3900 3030 30  0000 C CNN
F 3 "~" V 3900 3100 30  0000 C CNN
	1    3900 3100
	1    0    0    -1  
$EndComp
$Comp
L RES R7
U 1 1 536647AB
P 3900 2500
F 0 "R7" H 3900 2580 40  0000 C CNN
F 1 "330" H 3900 2500 40  0000 C CNN
F 2 "~" H 3900 2430 30  0000 C CNN
F 3 "~" V 3900 2500 30  0000 C CNN
	1    3900 2500
	1    0    0    -1  
$EndComp
Wire Wire Line
	4150 2500 4550 2500
Wire Wire Line
	4550 2500 4550 2600
Connection ~ 4250 3100
Text Label 3650 2950 0    60   ~ 0
MICBIAS
Text Label 3650 2350 0    60   ~ 0
MICIN
Wire Wire Line
	3650 2500 3650 2350
Wire Wire Line
	3650 2350 3900 2350
Wire Wire Line
	3650 3100 3650 2950
Wire Wire Line
	3650 2950 4000 2950
Wire Wire Line
	4150 3100 5050 3100
$Comp
L RES R11
U 1 1 5366529C
P 3900 5100
F 0 "R11" H 3900 5180 40  0000 C CNN
F 1 "47K" H 3900 5100 40  0000 C CNN
F 2 "~" H 3900 5030 30  0000 C CNN
F 3 "~" V 3900 5100 30  0000 C CNN
	1    3900 5100
	0    -1   -1   0   
$EndComp
$Comp
L RES R10
U 1 1 536652A2
P 3550 5100
F 0 "R10" H 3550 5180 40  0000 C CNN
F 1 "47K" H 3550 5100 40  0000 C CNN
F 2 "~" H 3550 5030 30  0000 C CNN
F 3 "~" V 3550 5100 30  0000 C CNN
	1    3550 5100
	0    -1   -1   0   
$EndComp
Wire Wire Line
	3550 4450 3550 4850
Wire Wire Line
	3900 4450 3900 4850
Wire Wire Line
	4300 4550 4300 5050
Wire Wire Line
	4300 5050 4450 5050
Wire Wire Line
	4450 5050 4450 4950
Wire Wire Line
	4100 4750 4100 5150
Wire Wire Line
	4100 5150 4650 5150
Wire Wire Line
	4650 5150 4650 4950
Connection ~ 3900 4750
$Comp
L AGND #PWR14
U 1 1 536652C1
P 4850 5200
F 0 "#PWR14" H 4850 5200 40  0001 C CNN
F 1 "AGND" H 4850 5130 50  0000 C CNN
F 2 "" H 4850 5200 60  0000 C CNN
F 3 "" H 4850 5200 60  0000 C CNN
	1    4850 5200
	1    0    0    -1  
$EndComp
Wire Wire Line
	4850 4950 4850 5200
$Comp
L AGND #PWR9
U 1 1 536652C8
P 3550 5400
F 0 "#PWR9" H 3550 5400 40  0001 C CNN
F 1 "AGND" H 3550 5330 50  0000 C CNN
F 2 "" H 3550 5400 60  0000 C CNN
F 3 "" H 3550 5400 60  0000 C CNN
	1    3550 5400
	1    0    0    -1  
$EndComp
$Comp
L AGND #PWR12
U 1 1 536652CE
P 3900 5400
F 0 "#PWR12" H 3900 5400 40  0001 C CNN
F 1 "AGND" H 3900 5330 50  0000 C CNN
F 2 "" H 3900 5400 60  0000 C CNN
F 3 "" H 3900 5400 60  0000 C CNN
	1    3900 5400
	1    0    0    -1  
$EndComp
Wire Wire Line
	3550 5350 3550 5400
Wire Wire Line
	3900 5350 3900 5400
Text Label 3200 4050 0    60   ~ 0
RHPOUT
Text Label 3900 4050 0    60   ~ 0
LHPOUT
Wire Wire Line
	3200 4050 3550 4050
Wire Wire Line
	3900 4050 4250 4050
$Comp
L CAP-POL C8
U 1 1 53665480
P 3900 4250
F 0 "C8" H 3940 4355 50  0000 L CNN
F 1 "100uF" H 3940 4105 50  0000 L CNN
F 2 "~" H 3900 4235 60  0000 C CNN
F 3 "~" H 3900 4235 60  0000 C CNN
	1    3900 4250
	1    0    0    -1  
$EndComp
$Comp
L CAP-POL C7
U 1 1 5366548F
P 3550 4250
F 0 "C7" H 3590 4355 50  0000 L CNN
F 1 "100uF" H 3590 4105 50  0000 L CNN
F 2 "~" H 3550 4235 60  0000 C CNN
F 3 "~" H 3550 4235 60  0000 C CNN
	1    3550 4250
	1    0    0    -1  
$EndComp
Connection ~ 3550 4550
Wire Wire Line
	4100 4750 3900 4750
Wire Wire Line
	3550 4550 4300 4550
Connection ~ 2800 2600
Wire Wire Line
	1600 2600 2950 2600
Wire Wire Line
	2950 2600 2950 2550
Wire Wire Line
	2950 2100 2950 2150
Wire Wire Line
	3250 1800 3250 2100
$Comp
L CAP C9
U 1 1 537F74A0
P 2300 3600
F 0 "C9" H 2340 3700 40  0000 L CNN
F 1 "100nF" H 2340 3490 40  0000 L CNN
F 2 "~" H 2338 3450 30  0000 C CNN
F 3 "~" H 2300 3600 60  0000 C CNN
	1    2300 3600
	1    0    0    -1  
$EndComp
Wire Wire Line
	2300 3300 2300 3400
Connection ~ 2200 3300
Wire Wire Line
	2300 3900 2300 3800
NoConn ~ 4850 3000
$Comp
L AUDIO-JACK J2
U 1 1 54FEB448
P 5050 1300
F 0 "J2" H 4850 1500 40  0000 C CNN
F 1 "AUDIO-JACK" H 5050 1400 40  0000 C CNN
F 2 "AVR-ISP-10" V 5130 1200 0   0001 C CNN
F 3 "~" H 5400 1200 60  0000 C CNN
	1    5050 1300
	1    0    0    -1  
$EndComp
$Comp
L AUDIO-JACK J3
U 1 1 54FEB457
P 5050 2700
F 0 "J3" H 4850 2900 40  0000 C CNN
F 1 "AUDIO-JACK" H 5050 2800 40  0000 C CNN
F 2 "AVR-ISP-10" V 5130 2600 0   0001 C CNN
F 3 "~" H 5400 2600 60  0000 C CNN
	1    5050 2700
	1    0    0    -1  
$EndComp
$Comp
L AUDIO-JACK J1
U 1 1 54FEB466
P 4650 4650
F 0 "J1" H 4450 4850 40  0000 C CNN
F 1 "AUDIO-JACK" H 4650 4750 40  0000 C CNN
F 2 "AVR-ISP-10" V 4730 4550 0   0001 C CNN
F 3 "~" H 5000 4550 60  0000 C CNN
	1    4650 4650
	1    0    0    -1  
$EndComp
$Comp
L HEADER-2X1 P2
U 1 1 54FEB475
P 900 3600
F 0 "P2" V 850 3600 40  0000 C CNN
F 1 "HEADER-2X1" V 950 3600 40  0000 C CNN
F 2 "~" H 900 3600 60  0000 C CNN
F 3 "~" H 900 3600 60  0000 C CNN
	1    900  3600
	-1   0    0    1   
$EndComp
$Comp
L HEADER-8X1 P1
U 1 1 54FEB484
P 900 1750
F 0 "P1" V 850 1750 40  0000 C CNN
F 1 "HEADER-8X1" V 950 1750 40  0000 C CNN
F 2 "~" H 900 1750 60  0000 C CNN
F 3 "~" H 900 1750 60  0000 C CNN
	1    900  1750
	-1   0    0    1   
$EndComp
$Comp
L WM8731 IC1
U 1 1 54FEB7E5
P 2200 1650
F 0 "IC1" H 1890 2440 40  0000 C CNN
F 1 "WM8731" H 1970 850 40  0000 C CNN
F 2 "~" H 2350 1900 60  0000 C CNN
F 3 "~" H 2350 1900 60  0000 C CNN
	1    2200 1650
	1    0    0    -1  
$EndComp
$EndSCHEMATC
