EESchema Schematic File Version 2
LIBS:power
LIBS:Components
LIBS:Devices
LIBS:Connectors
LIBS:Token-Tapping-Board-cache
EELAYER 27 0
EELAYER END
$Descr A4 11693 8268
encoding utf-8
Sheet 1 1
Title ""
Date "24 may 2015"
Rev ""
Comp ""
Comment1 ""
Comment2 ""
Comment3 ""
Comment4 ""
$EndDescr
Text Label 650  1950 0    39   ~ 0
MOSI
Text Label 700  2150 0    39   ~ 0
RST
Text Label 700  2250 0    39   ~ 0
SCK
Text Label 650  2350 0    39   ~ 0
MISO
$Comp
L GND #PWR5
U 1 1 54E8B902
P 1700 2400
F 0 "#PWR5" H 1700 2400 30  0001 C CNN
F 1 "GND" H 1700 2330 30  0001 C CNN
F 2 "" H 1700 2400 60  0000 C CNN
F 3 "" H 1700 2400 60  0000 C CNN
	1    1700 2400
	1    0    0    -1  
$EndComp
$Comp
L GND #PWR47
U 1 1 54E8BE3B
P 8200 3350
F 0 "#PWR47" H 8200 3350 30  0001 C CNN
F 1 "GND" H 8200 3280 30  0001 C CNN
F 2 "" H 8200 3350 60  0000 C CNN
F 3 "" H 8200 3350 60  0000 C CNN
	1    8200 3350
	1    0    0    -1  
$EndComp
Text Label 6600 2800 0    39   ~ 0
RST
Text Label 6500 1700 0    39   ~ 0
SCK
Text Label 6500 1600 0    39   ~ 0
MISO
Text Label 6500 1500 0    39   ~ 0
MOSI
$Comp
L LED D3
U 1 1 54E8D974
P 4250 1850
F 0 "D3" H 4250 1950 50  0000 C CNN
F 1 "LED" H 4250 1750 50  0000 C CNN
F 2 "~" H 4250 1850 60  0000 C CNN
F 3 "~" H 4250 1850 60  0000 C CNN
	1    4250 1850
	0    1    1    0   
$EndComp
$Comp
L LED D4
U 1 1 54E8D983
P 4550 1850
F 0 "D4" H 4550 1950 50  0000 C CNN
F 1 "LED" H 4550 1750 50  0000 C CNN
F 2 "~" H 4550 1850 60  0000 C CNN
F 3 "~" H 4550 1850 60  0000 C CNN
	1    4550 1850
	0    1    1    0   
$EndComp
$Comp
L RES R5
U 1 1 54E8D992
P 4550 2350
F 0 "R5" V 4550 2430 40  0000 C CNN
F 1 "220" H 4550 2350 40  0000 C CNN
F 2 "~" H 4550 2280 30  0000 C CNN
F 3 "~" V 4550 2350 30  0000 C CNN
	1    4550 2350
	0    -1   -1   0   
$EndComp
$Comp
L RES R4
U 1 1 54E8D9A6
P 4250 2350
F 0 "R4" H 4250 2430 40  0000 C CNN
F 1 "220" H 4250 2350 40  0000 C CNN
F 2 "~" H 4250 2280 30  0000 C CNN
F 3 "~" V 4250 2350 30  0000 C CNN
	1    4250 2350
	0    -1   -1   0   
$EndComp
Text Label 4550 2650 0    39   ~ 0
RX
Text Label 4250 2650 0    39   ~ 0
TX
$Comp
L CAP C4
U 1 1 54E8E891
P 2850 2200
F 0 "C4" H 2890 2300 40  0000 L CNN
F 1 "100nF" H 2890 2090 40  0000 L CNN
F 2 "~" H 2888 2050 30  0000 C CNN
F 3 "~" H 2850 2200 60  0000 C CNN
	1    2850 2200
	1    0    0    -1  
$EndComp
$Comp
L GND #PWR14
U 1 1 54E8E974
P 2850 2500
F 0 "#PWR14" H 2850 2500 30  0001 C CNN
F 1 "GND" H 2850 2430 30  0001 C CNN
F 2 "" H 2850 2500 60  0000 C CNN
F 3 "" H 2850 2500 60  0000 C CNN
	1    2850 2500
	1    0    0    -1  
$EndComp
NoConn ~ 800  900 
$Comp
L +5V #PWR1
U 1 1 54E8F695
P 600 1100
F 0 "#PWR1" H 600 1190 20  0001 C CNN
F 1 "+5V" H 600 1190 30  0000 C CNN
F 2 "" H 600 1100 60  0000 C CNN
F 3 "" H 600 1100 60  0000 C CNN
	1    600  1100
	1    0    0    -1  
$EndComp
$Comp
L GND #PWR2
U 1 1 54E8F6AE
P 700 1500
F 0 "#PWR2" H 700 1500 30  0001 C CNN
F 1 "GND" H 700 1430 30  0001 C CNN
F 2 "" H 700 1500 60  0000 C CNN
F 3 "" H 700 1500 60  0000 C CNN
	1    700  1500
	1    0    0    -1  
$EndComp
Text Label 700  1000 0    39   ~ 0
RX
Text Label 700  1100 0    39   ~ 0
TX
NoConn ~ 800  1300
$Comp
L GND #PWR32
U 1 1 54E909AD
P 4250 1250
F 0 "#PWR32" H 4250 1250 30  0001 C CNN
F 1 "GND" H 4250 1180 30  0001 C CNN
F 2 "" H 4250 1250 60  0000 C CNN
F 3 "" H 4250 1250 60  0000 C CNN
	1    4250 1250
	1    0    0    -1  
$EndComp
$Comp
L LED D2
U 1 1 54E91832
P 3950 1850
F 0 "D2" H 3950 1950 50  0000 C CNN
F 1 "LED" H 3950 1750 50  0000 C CNN
F 2 "~" H 3950 1850 60  0000 C CNN
F 3 "~" H 3950 1850 60  0000 C CNN
	1    3950 1850
	0    1    1    0   
$EndComp
$Comp
L RES R3
U 1 1 54E91838
P 3950 2350
F 0 "R3" V 3950 2430 40  0000 C CNN
F 1 "470" H 3950 2350 40  0000 C CNN
F 2 "~" H 3950 2280 30  0000 C CNN
F 3 "~" V 3950 2350 30  0000 C CNN
	1    3950 2350
	0    -1   -1   0   
$EndComp
$Comp
L GND #PWR30
U 1 1 54E9195E
P 3950 2650
F 0 "#PWR30" H 3950 2650 30  0001 C CNN
F 1 "GND" H 3950 2580 30  0001 C CNN
F 2 "" H 3950 2650 60  0000 C CNN
F 3 "" H 3950 2650 60  0000 C CNN
	1    3950 2650
	1    0    0    -1  
$EndComp
$Comp
L GND #PWR29
U 1 1 54E91DC6
P 3650 1200
F 0 "#PWR29" H 3650 1200 30  0001 C CNN
F 1 "GND" H 3650 1130 30  0001 C CNN
F 2 "" H 3650 1200 60  0000 C CNN
F 3 "" H 3650 1200 60  0000 C CNN
	1    3650 1200
	1    0    0    -1  
$EndComp
$Comp
L +BATT #PWR28
U 1 1 54E91E62
P 3650 800
F 0 "#PWR28" H 3650 750 20  0001 C CNN
F 1 "+BATT" H 3650 900 30  0000 C CNN
F 2 "" H 3650 800 60  0000 C CNN
F 3 "" H 3650 800 60  0000 C CNN
	1    3650 800 
	1    0    0    -1  
$EndComp
$Comp
L +BATT #PWR31
U 1 1 54E91E71
P 4250 750
F 0 "#PWR31" H 4250 700 20  0001 C CNN
F 1 "+BATT" H 4250 850 30  0000 C CNN
F 2 "" H 4250 750 60  0000 C CNN
F 3 "" H 4250 750 60  0000 C CNN
	1    4250 750 
	1    0    0    -1  
$EndComp
NoConn ~ 800  2050
Text Label 600  3000 0    39   ~ 0
LCD1
Text Label 600  3100 0    39   ~ 0
LCD2
Text Label 600  3200 0    39   ~ 0
LCD3
Text Label 600  3300 0    39   ~ 0
LCD4
Text Label 600  3400 0    39   ~ 0
LCD5
Text Label 600  3500 0    39   ~ 0
LCD6
Text Label 600  3600 0    39   ~ 0
LCD7
Text Label 600  3700 0    39   ~ 0
LCD8
Text Label 600  3800 0    39   ~ 0
LCD9
Text Label 550  3900 0    39   ~ 0
LCD10
Text Label 550  4000 0    39   ~ 0
LCD11
Text Label 550  4100 0    39   ~ 0
LCD12
Text Label 550  4200 0    39   ~ 0
LCD13
Text Label 550  4300 0    39   ~ 0
LCD14
Text Label 550  4400 0    39   ~ 0
LCD15
Text Label 550  4500 0    39   ~ 0
LCD16
Text Label 1750 4600 0    39   ~ 0
LCD35
Text Label 1750 3000 0    39   ~ 0
LCD19
Text Label 1750 3100 0    39   ~ 0
LCD20
Text Label 1750 3200 0    39   ~ 0
LCD21
Text Label 1750 3300 0    39   ~ 0
LCD22
Text Label 1750 3400 0    39   ~ 0
LCD23
Text Label 1750 3500 0    39   ~ 0
LCD24
Text Label 1750 3600 0    39   ~ 0
LCD25
Text Label 1750 3700 0    39   ~ 0
LCD26
Text Label 1750 3800 0    39   ~ 0
LCD27
Text Label 1750 3900 0    39   ~ 0
LCD28
Text Label 1750 4000 0    39   ~ 0
LCD29
Text Label 1750 4100 0    39   ~ 0
LCD30
Text Label 1750 4200 0    39   ~ 0
LCD31
Text Label 1750 4300 0    39   ~ 0
LCD32
Text Label 1750 4400 0    39   ~ 0
LCD33
Text Label 1750 4500 0    39   ~ 0
LCD34
Text Label 600  2900 0    39   ~ 0
LCD0
$Comp
L GND #PWR17
U 1 1 54E99608
P 3100 1600
F 0 "#PWR17" H 3100 1600 30  0001 C CNN
F 1 "GND" H 3100 1530 30  0001 C CNN
F 2 "" H 3100 1600 60  0000 C CNN
F 3 "" H 3100 1600 60  0000 C CNN
	1    3100 1600
	1    0    0    -1  
$EndComp
$Comp
L RES R1
U 1 1 54E99614
P 1900 1150
F 0 "R1" H 1900 1230 40  0000 C CNN
F 1 "330" H 1900 1150 40  0000 C CNN
F 2 "~" H 1900 1080 30  0000 C CNN
F 3 "~" V 1900 1150 30  0000 C CNN
	1    1900 1150
	0    -1   -1   0   
$EndComp
$Comp
L RES R2
U 1 1 54E9961A
P 3100 1300
F 0 "R2" H 3100 1380 40  0000 C CNN
F 1 "2K" H 3100 1300 40  0000 C CNN
F 2 "~" H 3100 1230 30  0000 C CNN
F 3 "~" V 3100 1300 30  0000 C CNN
	1    3100 1300
	0    -1   -1   0   
$EndComp
$Comp
L PWR_FLAG #FLG3
U 1 1 54E99630
P 1900 750
F 0 "#FLG3" H 1900 845 30  0001 C CNN
F 1 "PWR_FLAG" H 1900 930 30  0000 C CNN
F 2 "" H 1900 750 60  0000 C CNN
F 3 "" H 1900 750 60  0000 C CNN
	1    1900 750 
	1    0    0    -1  
$EndComp
$Comp
L +BATT #PWR15
U 1 1 54E99637
P 2900 800
F 0 "#PWR15" H 2900 750 20  0001 C CNN
F 1 "+BATT" H 2900 900 30  0000 C CNN
F 2 "" H 2900 800 60  0000 C CNN
F 3 "" H 2900 800 60  0000 C CNN
	1    2900 800 
	1    0    0    -1  
$EndComp
$Comp
L +5V #PWR6
U 1 1 54E99959
P 2000 800
F 0 "#PWR6" H 2000 890 20  0001 C CNN
F 1 "+5V" H 2000 890 30  0000 C CNN
F 2 "" H 2000 800 60  0000 C CNN
F 3 "" H 2000 800 60  0000 C CNN
	1    2000 800 
	1    0    0    -1  
$EndComp
$Comp
L GND #PWR16
U 1 1 54E99D40
P 2900 1100
F 0 "#PWR16" H 2900 1100 30  0001 C CNN
F 1 "GND" H 2900 1030 30  0001 C CNN
F 2 "" H 2900 1100 60  0000 C CNN
F 3 "" H 2900 1100 60  0000 C CNN
	1    2900 1100
	1    0    0    -1  
$EndComp
$Comp
L GND #PWR3
U 1 1 54E9A4B2
P 1650 1450
F 0 "#PWR3" H 1650 1450 30  0001 C CNN
F 1 "GND" H 1650 1380 30  0001 C CNN
F 2 "" H 1650 1450 60  0000 C CNN
F 3 "" H 1650 1450 60  0000 C CNN
	1    1650 1450
	1    0    0    -1  
$EndComp
$Comp
L PWR_FLAG #FLG2
U 1 1 54E9D081
P 1800 2450
F 0 "#FLG2" H 1800 2545 30  0001 C CNN
F 1 "PWR_FLAG" H 1800 2630 30  0000 C CNN
F 2 "" H 1800 2450 60  0000 C CNN
F 3 "" H 1800 2450 60  0000 C CNN
	1    1800 2450
	-1   0    0    1   
$EndComp
$Comp
L HEADER-2X1 P3
U 1 1 54FEB92A
P 4000 1000
F 0 "P3" V 3950 1000 40  0000 C CNN
F 1 "HEADER-2X1" V 4050 1000 40  0000 C CNN
F 2 "~" H 4000 1000 60  0000 C CNN
F 3 "~" H 4000 1000 60  0000 C CNN
	1    4000 1000
	1    0    0    -1  
$EndComp
$Comp
L CAP C11
U 1 1 55063A99
P 5850 2750
F 0 "C11" H 5700 2850 40  0000 L CNN
F 1 "22pF" H 5675 2650 40  0000 L CNN
F 2 "~" H 5888 2600 30  0000 C CNN
F 3 "~" H 5850 2750 60  0000 C CNN
	1    5850 2750
	0    -1   -1   0   
$EndComp
$Comp
L CAP C12
U 1 1 55063A9F
P 5850 3350
F 0 "C12" H 5890 3450 40  0000 L CNN
F 1 "22pF" H 5890 3240 40  0000 L CNN
F 2 "~" H 5888 3200 30  0000 C CNN
F 3 "~" H 5850 3350 60  0000 C CNN
	1    5850 3350
	0    -1   -1   0   
$EndComp
$Comp
L GND #PWR42
U 1 1 55063AA5
P 5550 3400
F 0 "#PWR42" H 5550 3400 30  0001 C CNN
F 1 "GND" H 5550 3330 30  0001 C CNN
F 2 "" H 5550 3400 60  0000 C CNN
F 3 "" H 5550 3400 60  0000 C CNN
	1    5550 3400
	1    0    0    -1  
$EndComp
$Comp
L LED D1
U 1 1 550638D7
P 2150 1450
F 0 "D1" H 2150 1540 40  0000 C CNN
F 1 "LED" H 2160 1340 40  0000 C CNN
F 2 "~" H 2150 1450 60  0000 C CNN
F 3 "~" H 2150 1450 60  0000 C CNN
	1    2150 1450
	1    0    0    -1  
$EndComp
$Comp
L AVR-ISP-10 PROG1
U 1 1 550638FA
P 1200 2150
F 0 "PROG1" H 1040 2480 40  0000 C CNN
F 1 "AVR-ISP-10" H 1130 1850 40  0000 C CNN
F 2 "IDC-5X2" V 1200 2150 10  0001 C CNN
F 3 "~" H 1550 2150 60  0000 C CNN
	1    1200 2150
	1    0    0    -1  
$EndComp
$Comp
L S1117 IC6
U 1 1 55078AC1
P 4800 1000
F 0 "IC6" H 4650 1260 40  0000 C CNN
F 1 "S1117" H 4700 1190 40  0000 C CNN
F 2 "~" H 4800 1000 60  0000 C CNN
F 3 "~" H 4800 1000 60  0000 C CNN
	1    4800 1000
	1    0    0    -1  
$EndComp
$Comp
L CAP-POL C8
U 1 1 55079368
P 4250 1000
F 0 "C8" H 4290 1105 40  0000 L CNN
F 1 "10uF" H 4290 855 40  0000 L CNN
F 2 "~" H 4250 985 60  0000 C CNN
F 3 "~" H 4250 985 60  0000 C CNN
	1    4250 1000
	1    0    0    -1  
$EndComp
$Comp
L CAP-POL C10
U 1 1 5507A1C8
P 5350 1000
F 0 "C10" H 5400 1100 40  0000 L CNN
F 1 "22uF" H 5400 850 40  0000 L CNN
F 2 "~" H 5350 985 60  0000 C CNN
F 3 "~" H 5350 985 60  0000 C CNN
	1    5350 1000
	1    0    0    -1  
$EndComp
$Comp
L GND #PWR25
U 1 1 5507B739
P 3450 4750
F 0 "#PWR25" H 3450 4750 30  0001 C CNN
F 1 "GND" H 3450 4680 30  0001 C CNN
F 2 "" H 3450 4750 60  0000 C CNN
F 3 "" H 3450 4750 60  0000 C CNN
	1    3450 4750
	1    0    0    -1  
$EndComp
$Comp
L 4051 IC3
U 1 1 5507C1FF
P 2900 4300
F 0 "IC3" H 2550 4780 40  0000 C CNN
F 1 "4051" H 2575 3800 40  0000 C CNN
F 2 "~" H 3350 4100 60  0000 C CNN
F 3 "~" H 3350 4100 60  0000 C CNN
	1    2900 4300
	1    0    0    -1  
$EndComp
Text Label 2200 2850 0    39   ~ 0
LCD1
Text Label 2200 2950 0    39   ~ 0
LCD2
Text Label 2200 3050 0    39   ~ 0
LCD3
Text Label 2200 3150 0    39   ~ 0
LCD4
Text Label 2200 3250 0    39   ~ 0
LCD5
Text Label 2200 3350 0    39   ~ 0
LCD6
Text Label 2200 3450 0    39   ~ 0
LCD7
Text Label 2200 3550 0    39   ~ 0
LCD8
Text Label 2200 3950 0    39   ~ 0
LCD9
Text Label 2150 4050 0    39   ~ 0
LCD10
Text Label 2150 4150 0    39   ~ 0
LCD11
Text Label 2150 4250 0    39   ~ 0
LCD12
Text Label 2150 4350 0    39   ~ 0
LCD13
Text Label 2150 4450 0    39   ~ 0
LCD14
Text Label 2150 4550 0    39   ~ 0
LCD15
Text Label 2150 4650 0    39   ~ 0
LCD16
Text Label 3850 2850 0    39   ~ 0
LCD19
Text Label 3850 2950 0    39   ~ 0
LCD20
Text Label 3850 3050 0    39   ~ 0
LCD21
Text Label 3850 3150 0    39   ~ 0
LCD22
Text Label 3850 3250 0    39   ~ 0
LCD23
Text Label 3850 3350 0    39   ~ 0
LCD24
Text Label 3850 3450 0    39   ~ 0
LCD25
Text Label 3850 3550 0    39   ~ 0
LCD26
Text Label 3850 3950 0    39   ~ 0
LCD27
Text Label 3850 4050 0    39   ~ 0
LCD28
Text Label 3850 4150 0    39   ~ 0
LCD29
Text Label 3850 4250 0    39   ~ 0
LCD30
Text Label 3850 4350 0    39   ~ 0
LCD31
Text Label 3850 4450 0    39   ~ 0
LCD32
Text Label 3850 4550 0    39   ~ 0
LCD33
Text Label 3850 4650 0    39   ~ 0
LCD34
$Comp
L GND #PWR23
U 1 1 5507CCF7
P 3450 3650
F 0 "#PWR23" H 3450 3650 30  0001 C CNN
F 1 "GND" H 3450 3580 30  0001 C CNN
F 2 "" H 3450 3650 60  0000 C CNN
F 3 "" H 3450 3650 60  0000 C CNN
	1    3450 3650
	1    0    0    -1  
$EndComp
$Comp
L 4051 IC4
U 1 1 5507D503
P 4600 3200
F 0 "IC4" H 4250 3680 40  0000 C CNN
F 1 "4051" H 4275 2700 40  0000 C CNN
F 2 "~" H 5050 3000 60  0000 C CNN
F 3 "~" H 5050 3000 60  0000 C CNN
	1    4600 3200
	1    0    0    -1  
$EndComp
$Comp
L GND #PWR38
U 1 1 5507D747
P 5150 3650
F 0 "#PWR38" H 5150 3650 30  0001 C CNN
F 1 "GND" H 5150 3580 30  0001 C CNN
F 2 "" H 5150 3650 60  0000 C CNN
F 3 "" H 5150 3650 60  0000 C CNN
	1    5150 3650
	1    0    0    -1  
$EndComp
$Comp
L GND #PWR40
U 1 1 5507D756
P 5150 4750
F 0 "#PWR40" H 5150 4750 30  0001 C CNN
F 1 "GND" H 5150 4680 30  0001 C CNN
F 2 "" H 5150 4750 60  0000 C CNN
F 3 "" H 5150 4750 60  0000 C CNN
	1    5150 4750
	1    0    0    -1  
$EndComp
Text Label 6600 2000 0    39   ~ 0
RX
Text Label 6600 1900 0    39   ~ 0
TX
Text Label 3450 2950 0    40   ~ 0
MUX0
Text Label 5150 2950 0    40   ~ 0
MUX2
Text Label 5150 4050 0    40   ~ 0
MUX3
Text Label 3450 4050 0    40   ~ 0
MUX1
$Comp
L VCC #PWR41
U 1 1 5507FA76
P 5350 750
F 0 "#PWR41" H 5350 850 30  0001 C CNN
F 1 "VCC" H 5350 850 30  0000 C CNN
F 2 "" H 5350 750 60  0000 C CNN
F 3 "" H 5350 750 60  0000 C CNN
	1    5350 750 
	1    0    0    -1  
$EndComp
$Comp
L VCC #PWR9
U 1 1 5507FA8F
P 2500 1450
F 0 "#PWR9" H 2500 1550 30  0001 C CNN
F 1 "VCC" H 2500 1550 30  0000 C CNN
F 2 "" H 2500 1450 60  0000 C CNN
F 3 "" H 2500 1450 60  0000 C CNN
	1    2500 1450
	1    0    0    -1  
$EndComp
$Comp
L VCC #PWR13
U 1 1 5507FAAD
P 2850 1900
F 0 "#PWR13" H 2850 2000 30  0001 C CNN
F 1 "VCC" H 2850 2000 30  0000 C CNN
F 2 "" H 2850 1900 60  0000 C CNN
F 3 "" H 2850 1900 60  0000 C CNN
	1    2850 1900
	1    0    0    -1  
$EndComp
$Comp
L VCC #PWR48
U 1 1 5507FABC
P 8300 3000
F 0 "#PWR48" H 8300 3100 30  0001 C CNN
F 1 "VCC" H 8300 3100 30  0000 C CNN
F 2 "" H 8300 3000 60  0000 C CNN
F 3 "" H 8300 3000 60  0000 C CNN
	1    8300 3000
	1    0    0    -1  
$EndComp
$Comp
L 4051 IC5
U 1 1 5507D526
P 4600 4300
F 0 "IC5" H 4250 4780 40  0000 C CNN
F 1 "4051" H 4275 3800 40  0000 C CNN
F 2 "~" H 5050 4100 60  0000 C CNN
F 3 "~" H 5050 4100 60  0000 C CNN
	1    4600 4300
	1    0    0    -1  
$EndComp
$Comp
L 4051 IC2
U 1 1 5507C9D9
P 2900 3200
F 0 "IC2" H 2550 3680 40  0000 C CNN
F 1 "4051" H 2575 2700 40  0000 C CNN
F 2 "~" H 3350 3000 60  0000 C CNN
F 3 "~" H 3350 3000 60  0000 C CNN
	1    2900 3200
	1    0    0    -1  
$EndComp
$Comp
L VCC #PWR22
U 1 1 5507FACB
P 3450 2800
F 0 "#PWR22" H 3450 2900 30  0001 C CNN
F 1 "VCC" H 3450 2900 30  0000 C CNN
F 2 "" H 3450 2800 60  0000 C CNN
F 3 "" H 3450 2800 60  0000 C CNN
	1    3450 2800
	1    0    0    -1  
$EndComp
$Comp
L VCC #PWR37
U 1 1 5507FADA
P 5150 2800
F 0 "#PWR37" H 5150 2900 30  0001 C CNN
F 1 "VCC" H 5150 2900 30  0000 C CNN
F 2 "" H 5150 2800 60  0000 C CNN
F 3 "" H 5150 2800 60  0000 C CNN
	1    5150 2800
	1    0    0    -1  
$EndComp
$Comp
L VCC #PWR39
U 1 1 5507FAE9
P 5150 3900
F 0 "#PWR39" H 5150 4000 30  0001 C CNN
F 1 "VCC" H 5150 4000 30  0000 C CNN
F 2 "" H 5150 3900 60  0000 C CNN
F 3 "" H 5150 3900 60  0000 C CNN
	1    5150 3900
	1    0    0    -1  
$EndComp
$Comp
L VCC #PWR24
U 1 1 5507FAF8
P 3450 3900
F 0 "#PWR24" H 3450 4000 30  0001 C CNN
F 1 "VCC" H 3450 4000 30  0000 C CNN
F 2 "" H 3450 3900 60  0000 C CNN
F 3 "" H 3450 3900 60  0000 C CNN
	1    3450 3900
	1    0    0    -1  
$EndComp
$Comp
L VCC #PWR33
U 1 1 5507FB07
P 4250 1550
F 0 "#PWR33" H 4250 1650 30  0001 C CNN
F 1 "VCC" H 4250 1650 30  0000 C CNN
F 2 "" H 4250 1550 60  0000 C CNN
F 3 "" H 4250 1550 60  0000 C CNN
	1    4250 1550
	1    0    0    -1  
$EndComp
$Comp
L BUTTON PB1
U 1 1 55080BA0
P 5400 2250
F 0 "PB1" H 5550 2360 40  0000 C CNN
F 1 "BUTTON" H 5400 2250 40  0000 C CNN
F 2 "~" H 5400 2250 60  0000 C CNN
F 3 "~" H 5400 2250 60  0000 C CNN
	1    5400 2250
	0    1    1    0   
$EndComp
$Comp
L CAP C9
U 1 1 55080BBE
P 5100 2250
F 0 "C9" H 5140 2350 40  0000 L CNN
F 1 "100nF" H 5140 2140 40  0000 L CNN
F 2 "~" H 5138 2100 30  0000 C CNN
F 3 "~" H 5100 2250 60  0000 C CNN
	1    5100 2250
	1    0    0    -1  
$EndComp
$Comp
L RES R7
U 1 1 55080BCD
P 5100 1700
F 0 "R7" H 5100 1780 40  0000 C CNN
F 1 "10K" H 5100 1700 40  0000 C CNN
F 2 "~" H 5100 1630 30  0000 C CNN
F 3 "~" V 5100 1700 30  0000 C CNN
	1    5100 1700
	0    -1   -1   0   
$EndComp
$Comp
L VCC #PWR35
U 1 1 55080E50
P 5100 1400
F 0 "#PWR35" H 5100 1500 30  0001 C CNN
F 1 "VCC" H 5100 1500 30  0000 C CNN
F 2 "" H 5100 1400 60  0000 C CNN
F 3 "" H 5100 1400 60  0000 C CNN
	1    5100 1400
	1    0    0    -1  
$EndComp
$Comp
L GND #PWR36
U 1 1 55080F47
P 5100 2600
F 0 "#PWR36" H 5100 2600 30  0001 C CNN
F 1 "GND" H 5100 2530 30  0001 C CNN
F 2 "" H 5100 2600 60  0000 C CNN
F 3 "" H 5100 2600 60  0000 C CNN
	1    5100 2600
	1    0    0    -1  
$EndComp
Text Label 5200 1950 0    39   ~ 0
RST
Text Label 3450 3050 0    40   ~ 0
SEL0
Text Label 3450 3150 0    40   ~ 0
SEL1
Text Label 3450 3250 0    40   ~ 0
SEL2
Text Label 5150 3050 0    40   ~ 0
SEL0
Text Label 5150 3150 0    40   ~ 0
SEL1
Text Label 5150 3250 0    40   ~ 0
SEL2
Text Label 5150 4150 0    40   ~ 0
SEL0
Text Label 5150 4250 0    40   ~ 0
SEL1
Text Label 5150 4350 0    40   ~ 0
SEL2
Text Label 3450 4150 0    40   ~ 0
SEL0
Text Label 3450 4250 0    40   ~ 0
SEL1
Text Label 3450 4350 0    40   ~ 0
SEL2
Text Label 6550 1400 0    40   ~ 0
MUX3
Text Label 6550 1000 0    40   ~ 0
SEL2
Text Label 6550 1100 0    40   ~ 0
SEL1
Text Label 6550 1200 0    40   ~ 0
SEL0
Text Label 6550 1300 0    40   ~ 0
MUX2
Text Label 8200 2600 0    40   ~ 0
MUX0
Text Label 8200 2500 0    40   ~ 0
MUX1
Text Label 8200 1000 0    39   ~ 0
LCD35
$Comp
L RES R8
U 1 1 55081BF4
P 5700 1700
F 0 "R8" H 5700 1780 40  0000 C CNN
F 1 "75K" H 5700 1700 40  0000 C CNN
F 2 "~" H 5700 1630 30  0000 C CNN
F 3 "~" V 5700 1700 30  0000 C CNN
	1    5700 1700
	0    -1   -1   0   
$EndComp
$Comp
L RES R9
U 1 1 55081C03
P 5700 2300
F 0 "R9" H 5700 2380 40  0000 C CNN
F 1 "100K" H 5700 2300 40  0000 C CNN
F 2 "~" H 5700 2230 30  0000 C CNN
F 3 "~" V 5700 2300 30  0000 C CNN
	1    5700 2300
	0    -1   -1   0   
$EndComp
$Comp
L GND #PWR44
U 1 1 55081EE8
P 5700 2600
F 0 "#PWR44" H 5700 2600 30  0001 C CNN
F 1 "GND" H 5700 2530 30  0001 C CNN
F 2 "" H 5700 2600 60  0000 C CNN
F 3 "" H 5700 2600 60  0000 C CNN
	1    5700 2600
	1    0    0    -1  
$EndComp
Text Label 5750 2000 0    40   ~ 0
VCC_DATA
Text Label 8200 1400 0    40   ~ 0
VCC_DATA
$Comp
L CAP C5
U 1 1 550826A5
P 3100 2200
F 0 "C5" H 3140 2300 40  0000 L CNN
F 1 "100nF" H 3140 2090 40  0000 L CNN
F 2 "~" H 3138 2050 30  0000 C CNN
F 3 "~" H 3100 2200 60  0000 C CNN
	1    3100 2200
	1    0    0    -1  
$EndComp
$Comp
L GND #PWR19
U 1 1 550826AB
P 3100 2500
F 0 "#PWR19" H 3100 2500 30  0001 C CNN
F 1 "GND" H 3100 2430 30  0001 C CNN
F 2 "" H 3100 2500 60  0000 C CNN
F 3 "" H 3100 2500 60  0000 C CNN
	1    3100 2500
	1    0    0    -1  
$EndComp
$Comp
L VCC #PWR18
U 1 1 550826B3
P 3100 1900
F 0 "#PWR18" H 3100 2000 30  0001 C CNN
F 1 "VCC" H 3100 2000 30  0000 C CNN
F 2 "" H 3100 1900 60  0000 C CNN
F 3 "" H 3100 1900 60  0000 C CNN
	1    3100 1900
	1    0    0    -1  
$EndComp
$Comp
L CAP C6
U 1 1 550826B9
P 3350 2200
F 0 "C6" H 3390 2300 40  0000 L CNN
F 1 "100nF" H 3390 2090 40  0000 L CNN
F 2 "~" H 3388 2050 30  0000 C CNN
F 3 "~" H 3350 2200 60  0000 C CNN
	1    3350 2200
	1    0    0    -1  
$EndComp
$Comp
L GND #PWR21
U 1 1 550826BF
P 3350 2500
F 0 "#PWR21" H 3350 2500 30  0001 C CNN
F 1 "GND" H 3350 2430 30  0001 C CNN
F 2 "" H 3350 2500 60  0000 C CNN
F 3 "" H 3350 2500 60  0000 C CNN
	1    3350 2500
	1    0    0    -1  
$EndComp
$Comp
L VCC #PWR20
U 1 1 550826C7
P 3350 1900
F 0 "#PWR20" H 3350 2000 30  0001 C CNN
F 1 "VCC" H 3350 2000 30  0000 C CNN
F 2 "" H 3350 1900 60  0000 C CNN
F 3 "" H 3350 1900 60  0000 C CNN
	1    3350 1900
	1    0    0    -1  
$EndComp
$Comp
L CAP C7
U 1 1 550826CD
P 3600 2200
F 0 "C7" H 3640 2300 40  0000 L CNN
F 1 "100nF" H 3640 2090 40  0000 L CNN
F 2 "~" H 3638 2050 30  0000 C CNN
F 3 "~" H 3600 2200 60  0000 C CNN
	1    3600 2200
	1    0    0    -1  
$EndComp
$Comp
L GND #PWR27
U 1 1 550826D3
P 3600 2500
F 0 "#PWR27" H 3600 2500 30  0001 C CNN
F 1 "GND" H 3600 2430 30  0001 C CNN
F 2 "" H 3600 2500 60  0000 C CNN
F 3 "" H 3600 2500 60  0000 C CNN
	1    3600 2500
	1    0    0    -1  
$EndComp
$Comp
L VCC #PWR26
U 1 1 550826DB
P 3600 1900
F 0 "#PWR26" H 3600 2000 30  0001 C CNN
F 1 "VCC" H 3600 2000 30  0000 C CNN
F 2 "" H 3600 1900 60  0000 C CNN
F 3 "" H 3600 1900 60  0000 C CNN
	1    3600 1900
	1    0    0    -1  
$EndComp
$Comp
L CAP-POL C1
U 1 1 55082A00
P 1650 1150
F 0 "C1" H 1690 1255 40  0000 L CNN
F 1 "4.7uF" H 1690 1005 40  0000 L CNN
F 2 "~" H 1650 1135 60  0000 C CNN
F 3 "~" H 1650 1135 60  0000 C CNN
	1    1650 1150
	1    0    0    -1  
$EndComp
$Comp
L HEADER-3X1 P2
U 1 1 55082BA5
P 2850 1450
F 0 "P2" V 2800 1450 40  0000 C CNN
F 1 "HEADER-3X1" V 2900 1450 40  0000 C CNN
F 2 "~" H 2850 1450 60  0000 C CNN
F 3 "~" H 2850 1450 60  0000 C CNN
	1    2850 1450
	1    0    0    -1  
$EndComp
$Comp
L VDD #PWR4
U 1 1 55082BBE
P 1700 1900
F 0 "#PWR4" H 1700 2000 30  0001 C CNN
F 1 "VDD" H 1700 2010 30  0000 C CNN
F 2 "" H 1700 1900 60  0000 C CNN
F 3 "" H 1700 1900 60  0000 C CNN
	1    1700 1900
	1    0    0    -1  
$EndComp
$Comp
L VDD #PWR10
U 1 1 55082BCD
P 2500 1600
F 0 "#PWR10" H 2500 1700 30  0001 C CNN
F 1 "VDD" H 2500 1710 30  0000 C CNN
F 2 "" H 2500 1600 60  0000 C CNN
F 3 "" H 2500 1600 60  0000 C CNN
	1    2500 1600
	1    0    0    -1  
$EndComp
NoConn ~ 2600 1350
$Comp
L RES R6
U 1 1 5508415A
P 4850 2350
F 0 "R6" H 4850 2430 40  0000 C CNN
F 1 "680" H 4850 2350 40  0000 C CNN
F 2 "~" H 4850 2280 30  0000 C CNN
F 3 "~" V 4850 2350 30  0000 C CNN
	1    4850 2350
	0    -1   -1   0   
$EndComp
$Comp
L LED D5
U 1 1 55084173
P 4850 1850
F 0 "D5" H 4850 1940 40  0000 C CNN
F 1 "LED" H 4860 1740 40  0000 C CNN
F 2 "~" H 4850 1850 60  0000 C CNN
F 3 "~" H 4850 1850 60  0000 C CNN
	1    4850 1850
	0    1    1    0   
$EndComp
$Comp
L GND #PWR34
U 1 1 55084552
P 4850 2650
F 0 "#PWR34" H 4850 2650 30  0001 C CNN
F 1 "GND" H 4850 2580 30  0001 C CNN
F 2 "" H 4850 2650 60  0000 C CNN
F 3 "" H 4850 2650 60  0000 C CNN
	1    4850 2650
	1    0    0    -1  
$EndComp
Text Label 4750 1600 0    40   ~ 0
STATUS
Text Label 8200 1300 0    40   ~ 0
STATUS
$Comp
L GND #PWR8
U 1 1 550850DB
P 2350 2500
F 0 "#PWR8" H 2350 2500 30  0001 C CNN
F 1 "GND" H 2350 2430 30  0001 C CNN
F 2 "" H 2350 2500 60  0000 C CNN
F 3 "" H 2350 2500 60  0000 C CNN
	1    2350 2500
	1    0    0    -1  
$EndComp
$Comp
L VCC #PWR7
U 1 1 550850E1
P 2350 1900
F 0 "#PWR7" H 2350 2000 30  0001 C CNN
F 1 "VCC" H 2350 2000 30  0000 C CNN
F 2 "" H 2350 1900 60  0000 C CNN
F 3 "" H 2350 1900 60  0000 C CNN
	1    2350 1900
	1    0    0    -1  
$EndComp
$Comp
L CAP-POL C2
U 1 1 550850E7
P 2350 2200
F 0 "C2" H 2390 2305 40  0000 L CNN
F 1 "1000uF" H 2350 2060 40  0000 L CNN
F 2 "~" H 2350 2185 60  0000 C CNN
F 3 "~" H 2350 2185 60  0000 C CNN
	1    2350 2200
	1    0    0    -1  
$EndComp
NoConn ~ 6250 3700
NoConn ~ 6250 3850
NoConn ~ 6250 4000
NoConn ~ 6700 4150
NoConn ~ 7150 3700
NoConn ~ 7150 3850
NoConn ~ 7150 4000
NoConn ~ 7000 4150
NoConn ~ 7450 3700
NoConn ~ 7450 3850
NoConn ~ 7450 4000
Text Label 5550 3700 0    40   ~ 0
KEY1
Text Label 6450 3700 0    40   ~ 0
KEY2
Text Label 8050 3700 0    40   ~ 0
KEY3
Text Label 5550 3850 0    40   ~ 0
KEY4
Text Label 6450 3850 0    40   ~ 0
KEY5
Text Label 8050 3850 0    40   ~ 0
KEY6
Text Label 5550 4000 0    40   ~ 0
KEY7
Text Label 6450 4000 0    40   ~ 0
KEY8
Text Label 8050 4000 0    40   ~ 0
KEY9
Text Label 6000 4150 0    40   ~ 0
KEY0
Text Label 7600 4150 0    40   ~ 0
KEY_ENTER
Wire Wire Line
	650  1950 800  1950
Wire Wire Line
	700  2150 800  2150
Wire Wire Line
	700  2250 800  2250
Wire Wire Line
	650  2350 800  2350
Wire Wire Line
	1600 2350 1800 2350
Wire Wire Line
	1700 2350 1700 2400
Wire Wire Line
	1700 1950 1700 1900
Wire Wire Line
	6600 2800 6700 2800
Wire Wire Line
	6500 1700 6700 1700
Wire Wire Line
	6500 1500 6700 1500
Wire Wire Line
	6500 1600 6700 1600
Wire Wire Line
	4250 2050 4250 2100
Wire Wire Line
	4550 2050 4550 2100
Wire Wire Line
	4250 2600 4250 2650
Wire Wire Line
	4550 2600 4550 2650
Wire Wire Line
	4250 1550 4250 1650
Wire Wire Line
	4550 1600 4550 1650
Wire Wire Line
	3950 1600 4550 1600
Connection ~ 4250 1600
Wire Wire Line
	2850 1900 2850 2000
Wire Wire Line
	2850 2400 2850 2500
Wire Wire Line
	700  1500 700  1400
Wire Wire Line
	700  1400 800  1400
Wire Wire Line
	800  1100 700  1100
Wire Wire Line
	800  1000 700  1000
Wire Wire Line
	800  1200 600  1200
Wire Wire Line
	600  1200 600  1100
Wire Wire Line
	5150 800  5350 800 
Wire Wire Line
	5350 800  5350 750 
Wire Wire Line
	3950 2050 3950 2100
Wire Wire Line
	3950 2600 3950 2650
Wire Wire Line
	3950 1600 3950 1650
Wire Wire Line
	3750 900  3650 900 
Wire Wire Line
	3650 900  3650 800 
Wire Wire Line
	3750 1100 3650 1100
Wire Wire Line
	3650 1100 3650 1200
Wire Wire Line
	1600 2050 1600 2350
Connection ~ 1600 2150
Connection ~ 1600 2250
Wire Wire Line
	600  3000 750  3000
Wire Wire Line
	600  3100 750  3100
Wire Wire Line
	750  3200 600  3200
Wire Wire Line
	600  3300 750  3300
Wire Wire Line
	750  3400 600  3400
Wire Wire Line
	600  3500 750  3500
Wire Wire Line
	750  3600 600  3600
Wire Wire Line
	600  3700 750  3700
Wire Wire Line
	750  3800 600  3800
Wire Wire Line
	550  3900 750  3900
Wire Wire Line
	550  4000 750  4000
Wire Wire Line
	550  4100 750  4100
Wire Wire Line
	550  4200 750  4200
Wire Wire Line
	550  4300 750  4300
Wire Wire Line
	550  4400 750  4400
Wire Wire Line
	550  4500 750  4500
Wire Wire Line
	1750 4600 1950 4600
Wire Wire Line
	1750 4500 1950 4500
Wire Wire Line
	1950 4400 1750 4400
Wire Wire Line
	1750 4300 1950 4300
Wire Wire Line
	1950 4200 1750 4200
Wire Wire Line
	1750 4100 1950 4100
Wire Wire Line
	1950 4000 1750 4000
Wire Wire Line
	1750 3900 1950 3900
Wire Wire Line
	1950 3800 1750 3800
Wire Wire Line
	1750 3700 1950 3700
Wire Wire Line
	1950 3600 1750 3600
Wire Wire Line
	1750 3500 1950 3500
Wire Wire Line
	1950 3400 1750 3400
Wire Wire Line
	1750 3300 1950 3300
Wire Wire Line
	1750 3200 1950 3200
Wire Wire Line
	1950 3100 1750 3100
Wire Wire Line
	1650 850  2100 850 
Wire Wire Line
	2000 850  2000 800 
Wire Wire Line
	2900 850  2900 800 
Wire Wire Line
	1900 750  1900 900 
Connection ~ 2000 850 
Wire Wire Line
	3100 1550 3100 1600
Wire Wire Line
	2800 1050 2900 1050
Wire Wire Line
	2900 1050 2900 1100
Connection ~ 1900 850 
Wire Wire Line
	1950 1450 1900 1450
Wire Wire Line
	1900 1450 1900 1400
Wire Wire Line
	1650 850  1650 950 
Wire Wire Line
	1650 1350 1650 1450
Wire Wire Line
	1800 2350 1800 2450
Connection ~ 1700 2350
Wire Wire Line
	6400 2750 6400 3000
Wire Wire Line
	6400 3000 6700 3000
Wire Wire Line
	6700 3100 6400 3100
Wire Wire Line
	6400 3100 6400 3350
Wire Wire Line
	5650 2750 5550 2750
Wire Wire Line
	5550 2750 5550 3400
Wire Wire Line
	5550 3350 5650 3350
Connection ~ 5550 3350
Wire Wire Line
	6050 2750 6400 2750
Connection ~ 6150 2750
Wire Wire Line
	6400 3350 6050 3350
Connection ~ 6150 3350
Wire Wire Line
	8200 3200 8200 3350
Connection ~ 8200 3300
Wire Wire Line
	8200 3000 8300 3000
Wire Wire Line
	8200 2800 8200 3000
Connection ~ 8200 2900
Wire Wire Line
	1600 1950 1800 1950
Wire Wire Line
	4250 750  4250 800 
Wire Wire Line
	4250 1200 4250 1250
Wire Wire Line
	4450 800  4450 950 
Wire Wire Line
	4450 1200 4450 1050
Wire Wire Line
	4250 800  4450 800 
Connection ~ 4450 1200
Wire Wire Line
	5150 800  5150 1050
Wire Wire Line
	4250 1200 5350 1200
Wire Wire Line
	3450 4450 3450 4750
Connection ~ 3450 4650
Connection ~ 3450 4550
Wire Wire Line
	2200 2850 2350 2850
Wire Wire Line
	2200 2950 2350 2950
Wire Wire Line
	2350 3050 2200 3050
Wire Wire Line
	2200 3150 2350 3150
Wire Wire Line
	2350 3250 2200 3250
Wire Wire Line
	2200 3350 2350 3350
Wire Wire Line
	2350 3450 2200 3450
Wire Wire Line
	2200 3550 2350 3550
Wire Wire Line
	2350 3950 2200 3950
Wire Wire Line
	2150 4050 2350 4050
Wire Wire Line
	2150 4150 2350 4150
Wire Wire Line
	2150 4250 2350 4250
Wire Wire Line
	2150 4350 2350 4350
Wire Wire Line
	2150 4450 2350 4450
Wire Wire Line
	2150 4550 2350 4550
Wire Wire Line
	2150 4650 2350 4650
Wire Wire Line
	1750 3000 1950 3000
Wire Wire Line
	3850 4650 4050 4650
Wire Wire Line
	4050 4550 3850 4550
Wire Wire Line
	3850 4450 4050 4450
Wire Wire Line
	4050 4350 3850 4350
Wire Wire Line
	3850 4250 4050 4250
Wire Wire Line
	4050 4150 3850 4150
Wire Wire Line
	3850 4050 4050 4050
Wire Wire Line
	4050 3950 3850 3950
Wire Wire Line
	3850 3550 4050 3550
Wire Wire Line
	4050 3450 3850 3450
Wire Wire Line
	3850 3350 4050 3350
Wire Wire Line
	4050 3250 3850 3250
Wire Wire Line
	3850 3150 4050 3150
Wire Wire Line
	3850 3050 4050 3050
Wire Wire Line
	4050 2950 3850 2950
Wire Wire Line
	3850 2850 4050 2850
Wire Wire Line
	3450 3350 3450 3650
Connection ~ 3450 3550
Connection ~ 3450 3450
Wire Wire Line
	3450 3900 3450 3950
Wire Wire Line
	5150 4450 5150 4750
Connection ~ 5150 4650
Connection ~ 5150 4550
Wire Wire Line
	5150 3950 5150 3900
Wire Wire Line
	5150 3350 5150 3650
Connection ~ 5150 3550
Connection ~ 5150 3450
Wire Wire Line
	5150 2800 5150 2850
Wire Wire Line
	3450 2800 3450 2850
Wire Wire Line
	6700 2000 6600 2000
Wire Wire Line
	6700 1900 6600 1900
Wire Wire Line
	3450 4050 3600 4050
Wire Wire Line
	3450 2950 3600 2950
Wire Wire Line
	5150 2950 5300 2950
Wire Wire Line
	5150 4050 5300 4050
Wire Wire Line
	5100 1950 5100 2050
Wire Wire Line
	5100 1950 5400 1950
Wire Wire Line
	5100 2450 5100 2600
Wire Wire Line
	5100 2550 5400 2550
Wire Wire Line
	5100 1400 5100 1450
Connection ~ 5100 2550
Wire Wire Line
	3450 3250 3600 3250
Wire Wire Line
	3600 3150 3450 3150
Wire Wire Line
	3450 3050 3600 3050
Wire Wire Line
	5150 3250 5300 3250
Wire Wire Line
	5300 3150 5150 3150
Wire Wire Line
	5150 3050 5300 3050
Wire Wire Line
	5150 4350 5300 4350
Wire Wire Line
	5300 4250 5150 4250
Wire Wire Line
	5150 4150 5300 4150
Wire Wire Line
	3450 4350 3600 4350
Wire Wire Line
	3600 4250 3450 4250
Wire Wire Line
	3450 4150 3600 4150
Wire Wire Line
	6550 1400 6700 1400
Wire Wire Line
	6550 1200 6700 1200
Wire Wire Line
	6700 1100 6550 1100
Wire Wire Line
	6550 1000 6700 1000
Wire Wire Line
	6550 1300 6700 1300
Wire Wire Line
	8200 2500 8350 2500
Wire Wire Line
	8200 2600 8350 2600
Wire Wire Line
	8200 1400 8500 1400
Wire Wire Line
	5700 1400 5700 1450
Wire Wire Line
	5700 1950 5700 2050
Wire Wire Line
	5700 2550 5700 2600
Wire Wire Line
	5700 2000 6050 2000
Connection ~ 5700 2000
Wire Wire Line
	3100 1900 3100 2000
Wire Wire Line
	3100 2400 3100 2500
Wire Wire Line
	3350 1900 3350 2000
Wire Wire Line
	3350 2400 3350 2500
Wire Wire Line
	3600 1900 3600 2000
Wire Wire Line
	3600 2400 3600 2500
Wire Wire Line
	2500 1450 2600 1450
Wire Wire Line
	2600 1550 2600 1600
Wire Wire Line
	2600 1600 2500 1600
Wire Wire Line
	4850 1650 4850 1600
Wire Wire Line
	4850 2050 4850 2100
Wire Wire Line
	4850 2600 4850 2650
Wire Wire Line
	4750 1600 4950 1600
Connection ~ 4850 1600
Wire Wire Line
	8200 1300 8400 1300
Wire Wire Line
	2350 1900 2350 2000
Wire Wire Line
	2350 2400 2350 2500
Wire Wire Line
	5550 3700 5650 3700
Wire Wire Line
	6450 3700 6550 3700
Wire Wire Line
	8050 3700 8200 3700
Wire Wire Line
	8050 3850 8200 3850
Wire Wire Line
	8050 4000 8200 4000
Wire Wire Line
	6550 3850 6450 3850
Wire Wire Line
	6550 4000 6450 4000
Wire Wire Line
	5650 3850 5550 3850
Wire Wire Line
	5650 4000 5550 4000
Wire Wire Line
	6100 4150 6000 4150
Wire Wire Line
	7600 4150 7950 4150
Text Label 8200 2200 0    40   ~ 0
KEY1
Wire Wire Line
	8200 2200 8350 2200
Text Label 8200 2300 0    40   ~ 0
KEY2
Wire Wire Line
	8200 2300 8350 2300
Text Label 6550 2100 0    40   ~ 0
KEY3
Wire Wire Line
	6550 2100 6700 2100
Text Label 6550 2400 0    40   ~ 0
KEY4
Wire Wire Line
	6550 2400 6700 2400
Text Label 6550 2300 0    40   ~ 0
KEY5
Wire Wire Line
	6550 2300 6700 2300
Text Label 6550 2200 0    40   ~ 0
KEY6
Wire Wire Line
	6550 2200 6700 2200
Text Label 6550 2500 0    40   ~ 0
KEY7
Wire Wire Line
	6550 2500 6700 2500
Text Label 8200 2000 0    40   ~ 0
KEY8
Wire Wire Line
	8200 2000 8350 2000
Text Label 8200 1900 0    40   ~ 0
KEY9
Wire Wire Line
	8200 1900 8350 1900
Text Label 8200 2100 0    40   ~ 0
KEY0
Wire Wire Line
	8200 2100 8350 2100
Text Label 6350 2600 0    40   ~ 0
KEY_ENTER
Wire Wire Line
	6350 2600 6700 2600
$Comp
L HEADER-2X1 P4
U 1 1 550890CD
P 6250 900
F 0 "P4" V 6200 900 40  0000 C CNN
F 1 "HEADER-2X1" V 6300 900 40  0000 C CNN
F 2 "~" H 6250 900 60  0000 C CNN
F 3 "~" H 6250 900 60  0000 C CNN
	1    6250 900 
	1    0    0    -1  
$EndComp
Wire Wire Line
	8200 1200 8350 1200
Text Label 8200 1200 0    40   ~ 0
BUZ0
$Comp
L +BATT #PWR45
U 1 1 550893C7
P 6000 800
F 0 "#PWR45" H 6000 750 20  0001 C CNN
F 1 "+BATT" H 6000 900 30  0000 C CNN
F 2 "" H 6000 800 60  0000 C CNN
F 3 "" H 6000 800 60  0000 C CNN
	1    6000 800 
	1    0    0    -1  
$EndComp
$Comp
L GND #PWR46
U 1 1 550893D6
P 6000 1400
F 0 "#PWR46" H 6000 1400 30  0001 C CNN
F 1 "GND" H 6000 1330 30  0001 C CNN
F 2 "" H 6000 1400 60  0000 C CNN
F 3 "" H 6000 1400 60  0000 C CNN
	1    6000 1400
	1    0    0    -1  
$EndComp
Text Label 5500 1200 0    40   ~ 0
BUZ0
Wire Wire Line
	5500 1200 5700 1200
$Comp
L PWR_FLAG #FLG1
U 1 1 5507F01D
P 1800 1850
F 0 "#FLG1" H 1800 1945 30  0001 C CNN
F 1 "PWR_FLAG" H 1800 2030 30  0000 C CNN
F 2 "" H 1800 1850 60  0000 C CNN
F 3 "" H 1800 1850 60  0000 C CNN
	1    1800 1850
	1    0    0    -1  
$EndComp
Wire Wire Line
	1800 1950 1800 1850
Connection ~ 1700 1950
$Comp
L CRYSTAL X1
U 1 1 5507F368
P 6150 3050
F 0 "X1" H 6150 3200 40  0000 C CNN
F 1 "7.3728 MHz" H 6150 2900 40  0000 C CNN
F 2 "~" H 6150 3050 60  0000 C CNN
F 3 "~" H 6150 3050 60  0000 C CNN
	1    6150 3050
	0    -1   -1   0   
$EndComp
$Comp
L TOKEN-KEYPAD KPD1
U 1 1 5507FF5D
P 6850 3850
F 0 "KPD1" H 6850 4150 40  0000 C CNN
F 1 "TOKEN-KEYPAD" H 6850 3450 40  0000 C CNN
F 2 "~" H 6850 3850 60  0000 C CNN
F 3 "~" H 6850 3850 60  0000 C CNN
	1    6850 3850
	1    0    0    -1  
$EndComp
$Comp
L ATMEGA32A-PDIP40 IC7
U 1 1 550801A8
P 7450 2150
F 0 "IC7" H 6890 3440 40  0000 C CNN
F 1 "ATMEGA32A-PDIP40" H 7150 850 40  0000 C CNN
F 2 "PDIP-40" H 7450 2150 30  0000 C CIN
F 3 "~" H 7450 1600 60  0000 C CNN
	1    7450 2150
	1    0    0    -1  
$EndComp
$Comp
L CAP C3
U 1 1 5508C73C
P 2600 2200
F 0 "C3" H 2640 2300 40  0000 L CNN
F 1 "100nF" H 2640 2090 40  0000 L CNN
F 2 "~" H 2638 2050 30  0000 C CNN
F 3 "~" H 2600 2200 60  0000 C CNN
	1    2600 2200
	1    0    0    -1  
$EndComp
$Comp
L GND #PWR12
U 1 1 5508C742
P 2600 2500
F 0 "#PWR12" H 2600 2500 30  0001 C CNN
F 1 "GND" H 2600 2430 30  0001 C CNN
F 2 "" H 2600 2500 60  0000 C CNN
F 3 "" H 2600 2500 60  0000 C CNN
	1    2600 2500
	1    0    0    -1  
$EndComp
$Comp
L VCC #PWR11
U 1 1 5508C748
P 2600 1900
F 0 "#PWR11" H 2600 2000 30  0001 C CNN
F 1 "VCC" H 2600 2000 30  0000 C CNN
F 2 "" H 2600 1900 60  0000 C CNN
F 3 "" H 2600 1900 60  0000 C CNN
	1    2600 1900
	1    0    0    -1  
$EndComp
Wire Wire Line
	2600 1900 2600 2000
Wire Wire Line
	2600 2400 2600 2500
$Comp
L MCP73831-ADJ IC1
U 1 1 5508C6F5
P 2450 950
F 0 "IC1" H 2300 1260 40  0000 C CNN
F 1 "MCP73831-ADJ" H 2490 1190 40  0000 C CNN
F 2 "~" H 2450 1000 60  0000 C CNN
F 3 "~" H 2450 1000 60  0000 C CNN
	1    2450 950 
	1    0    0    -1  
$EndComp
Connection ~ 5150 950 
$Comp
L HEADER-6X2 P1
U 1 1 5509390A
P 1050 1150
F 0 "P1" V 1000 1150 40  0000 C CNN
F 1 "HEADER-6X2" V 1100 1150 40  0000 C CNN
F 2 "~" H 1050 1150 60  0000 C CNN
F 3 "~" H 1050 1150 60  0000 C CNN
	1    1050 1150
	1    0    0    -1  
$EndComp
NoConn ~ 1300 900 
NoConn ~ 1300 1000
NoConn ~ 1300 1100
NoConn ~ 1300 1200
NoConn ~ 1300 1300
NoConn ~ 1300 1400
$Comp
L 2N3904 Q1
U 1 1 55093B31
P 5900 1200
F 0 "Q1" H 5900 1052 40  0000 R CNN
F 1 "2N3904" H 5900 1350 40  0000 R CNN
F 2 "TO-92" H 5800 1302 29  0000 C CNN
F 3 "~" H 5900 1200 60  0000 C CNN
	1    5900 1200
	1    0    0    -1  
$EndComp
Wire Wire Line
	2800 950  3100 950 
Wire Wire Line
	3100 950  3100 1050
$Comp
L +BATT #PWR43
U 1 1 55094D4F
P 5700 1400
F 0 "#PWR43" H 5700 1350 20  0001 C CNN
F 1 "+BATT" H 5700 1500 30  0000 C CNN
F 2 "" H 5700 1400 60  0000 C CNN
F 3 "" H 5700 1400 60  0000 C CNN
	1    5700 1400
	1    0    0    -1  
$EndComp
Text Label 8200 1100 0    39   ~ 0
LCD0
Wire Wire Line
	2800 850  2900 850 
Wire Wire Line
	2100 1050 2100 1250
Wire Wire Line
	2100 1250 2350 1250
Wire Wire Line
	2350 1250 2350 1450
Wire Wire Line
	8200 1000 8400 1000
$Comp
L HEADER-4X1 P5
U 1 1 550973BD
P 9650 2000
F 0 "P5" V 9600 2000 40  0000 C CNN
F 1 "HEADER-4X1" V 9700 2000 40  0000 C CNN
F 2 "~" H 9650 2000 60  0000 C CNN
F 3 "~" H 9650 2000 60  0000 C CNN
	1    9650 2000
	1    0    0    -1  
$EndComp
Text Label 550  4600 0    39   ~ 0
LCD35
Wire Wire Line
	550  4600 750  4600
Text Label 1750 2900 0    39   ~ 0
LCD0
Wire Wire Line
	600  2900 750  2900
Wire Wire Line
	1750 2900 1900 2900
Wire Wire Line
	8350 1100 8200 1100
Text Label 8200 1500 0    40   ~ 0
GPIO0
Text Label 8200 1600 0    40   ~ 0
GPIO1
Text Label 8200 1700 0    40   ~ 0
GPIO2
Text Label 8200 2400 0    40   ~ 0
GPIO3
Wire Wire Line
	8200 1500 8400 1500
Wire Wire Line
	8400 1600 8200 1600
Wire Wire Line
	8400 1700 8200 1700
Wire Wire Line
	8400 2400 8200 2400
Text Label 9200 2150 0    40   ~ 0
GPIO3
Wire Wire Line
	9400 2150 9200 2150
Text Label 9200 1850 0    40   ~ 0
GPIO0
Text Label 9200 1950 0    40   ~ 0
GPIO1
Text Label 9200 2050 0    40   ~ 0
GPIO2
Wire Wire Line
	9200 1850 9400 1850
Wire Wire Line
	9400 1950 9200 1950
Wire Wire Line
	9400 2050 9200 2050
NoConn ~ 1750 2800
NoConn ~ 750  2800
NoConn ~ 750  4700
NoConn ~ 1750 4700
$Comp
L LCD-TOKEN LCD1
U 1 1 55622A9E
P 1250 3750
F 0 "LCD1" V 100 3475 40  0000 C CNN
F 1 "LCD-TOKEN" V 2400 3575 40  0000 C CNN
F 2 "LCD-TOKEN" V 2400 3575 40  0000 C CNN
F 3 "~" H 1375 4103 60  0000 C CNN
	1    1250 3750
	0    1    -1   0   
$EndComp
$EndSCHEMATC
