EESchema Schematic File Version 2
LIBS:power
LIBS:Components
LIBS:Devices
LIBS:Connectors
LIBS:Token-Tapping-Board-cache
EELAYER 27 0
EELAYER END
$Descr A4 11693 8268
encoding utf-8
Sheet 1 1
Title ""
Date "31 may 2015"
Rev ""
Comp ""
Comment1 ""
Comment2 ""
Comment3 ""
Comment4 ""
$EndDescr
Text Label 650  1950 0    39   ~ 0
MOSI
Text Label 700  2150 0    39   ~ 0
RST
Text Label 700  2250 0    39   ~ 0
SCK
Text Label 650  2350 0    39   ~ 0
MISO
$Comp
L GND #PWR01
U 1 1 54E8B902
P 1700 2400
F 0 "#PWR01" H 1700 2400 30  0001 C CNN
F 1 "GND" H 1700 2330 30  0001 C CNN
F 2 "" H 1700 2400 60  0000 C CNN
F 3 "" H 1700 2400 60  0000 C CNN
	1    1700 2400
	1    0    0    -1  
$EndComp
$Comp
L GND #PWR02
U 1 1 54E8BE3B
P 8200 3350
F 0 "#PWR02" H 8200 3350 30  0001 C CNN
F 1 "GND" H 8200 3280 30  0001 C CNN
F 2 "" H 8200 3350 60  0000 C CNN
F 3 "" H 8200 3350 60  0000 C CNN
	1    8200 3350
	1    0    0    -1  
$EndComp
Text Label 6600 2800 0    39   ~ 0
RST
Text Label 6500 1700 0    39   ~ 0
SCK
Text Label 6500 1600 0    39   ~ 0
MISO
Text Label 6500 1500 0    39   ~ 0
MOSI
$Comp
L LED D3
U 1 1 54E8D974
P 4250 1850
F 0 "D3" H 4250 1950 50  0000 C CNN
F 1 "LED" H 4250 1750 50  0000 C CNN
F 2 "~" H 4250 1850 60  0000 C CNN
F 3 "~" H 4250 1850 60  0000 C CNN
	1    4250 1850
	0    1    1    0   
$EndComp
$Comp
L LED D4
U 1 1 54E8D983
P 4550 1850
F 0 "D4" H 4550 1950 50  0000 C CNN
F 1 "LED" H 4550 1750 50  0000 C CNN
F 2 "~" H 4550 1850 60  0000 C CNN
F 3 "~" H 4550 1850 60  0000 C CNN
	1    4550 1850
	0    1    1    0   
$EndComp
$Comp
L RES R5
U 1 1 54E8D992
P 4550 2350
F 0 "R5" V 4550 2430 40  0000 C CNN
F 1 "220" H 4550 2350 40  0000 C CNN
F 2 "~" H 4550 2280 30  0000 C CNN
F 3 "~" V 4550 2350 30  0000 C CNN
	1    4550 2350
	0    -1   -1   0   
$EndComp
$Comp
L RES R4
U 1 1 54E8D9A6
P 4250 2350
F 0 "R4" H 4250 2430 40  0000 C CNN
F 1 "220" H 4250 2350 40  0000 C CNN
F 2 "~" H 4250 2280 30  0000 C CNN
F 3 "~" V 4250 2350 30  0000 C CNN
	1    4250 2350
	0    -1   -1   0   
$EndComp
Text Label 4550 2650 0    39   ~ 0
RX
Text Label 4250 2650 0    39   ~ 0
TX
$Comp
L CAP C5
U 1 1 54E8E891
P 2850 2200
F 0 "C5" H 2890 2300 40  0000 L CNN
F 1 "100nF" H 2890 2090 40  0000 L CNN
F 2 "~" H 2888 2050 30  0000 C CNN
F 3 "~" H 2850 2200 60  0000 C CNN
	1    2850 2200
	1    0    0    -1  
$EndComp
$Comp
L GND #PWR03
U 1 1 54E8E974
P 2850 2500
F 0 "#PWR03" H 2850 2500 30  0001 C CNN
F 1 "GND" H 2850 2430 30  0001 C CNN
F 2 "" H 2850 2500 60  0000 C CNN
F 3 "" H 2850 2500 60  0000 C CNN
	1    2850 2500
	1    0    0    -1  
$EndComp
NoConn ~ 800  900 
$Comp
L +5V #PWR04
U 1 1 54E8F695
P 600 1100
F 0 "#PWR04" H 600 1190 20  0001 C CNN
F 1 "+5V" H 600 1190 30  0000 C CNN
F 2 "" H 600 1100 60  0000 C CNN
F 3 "" H 600 1100 60  0000 C CNN
	1    600  1100
	1    0    0    -1  
$EndComp
$Comp
L GND #PWR05
U 1 1 54E8F6AE
P 700 1500
F 0 "#PWR05" H 700 1500 30  0001 C CNN
F 1 "GND" H 700 1430 30  0001 C CNN
F 2 "" H 700 1500 60  0000 C CNN
F 3 "" H 700 1500 60  0000 C CNN
	1    700  1500
	1    0    0    -1  
$EndComp
Text Label 700  1000 0    39   ~ 0
RX
Text Label 700  1100 0    39   ~ 0
TX
NoConn ~ 800  1300
$Comp
L GND #PWR06
U 1 1 54E909AD
P 4150 1250
F 0 "#PWR06" H 4150 1250 30  0001 C CNN
F 1 "GND" H 4150 1180 30  0001 C CNN
F 2 "" H 4150 1250 60  0000 C CNN
F 3 "" H 4150 1250 60  0000 C CNN
	1    4150 1250
	1    0    0    -1  
$EndComp
$Comp
L LED D2
U 1 1 54E91832
P 3950 1850
F 0 "D2" H 3950 1950 50  0000 C CNN
F 1 "LED" H 3950 1750 50  0000 C CNN
F 2 "~" H 3950 1850 60  0000 C CNN
F 3 "~" H 3950 1850 60  0000 C CNN
	1    3950 1850
	0    1    1    0   
$EndComp
$Comp
L RES R3
U 1 1 54E91838
P 3950 2350
F 0 "R3" V 3950 2430 40  0000 C CNN
F 1 "470" H 3950 2350 40  0000 C CNN
F 2 "~" H 3950 2280 30  0000 C CNN
F 3 "~" V 3950 2350 30  0000 C CNN
	1    3950 2350
	0    -1   -1   0   
$EndComp
$Comp
L GND #PWR07
U 1 1 54E9195E
P 3950 2650
F 0 "#PWR07" H 3950 2650 30  0001 C CNN
F 1 "GND" H 3950 2580 30  0001 C CNN
F 2 "" H 3950 2650 60  0000 C CNN
F 3 "" H 3950 2650 60  0000 C CNN
	1    3950 2650
	1    0    0    -1  
$EndComp
$Comp
L GND #PWR08
U 1 1 54E91DC6
P 3400 1200
F 0 "#PWR08" H 3400 1200 30  0001 C CNN
F 1 "GND" H 3400 1130 30  0001 C CNN
F 2 "" H 3400 1200 60  0000 C CNN
F 3 "" H 3400 1200 60  0000 C CNN
	1    3400 1200
	1    0    0    -1  
$EndComp
$Comp
L +BATT #PWR09
U 1 1 54E91E62
P 3400 800
F 0 "#PWR09" H 3400 750 20  0001 C CNN
F 1 "+BATT" H 3400 900 30  0000 C CNN
F 2 "" H 3400 800 60  0000 C CNN
F 3 "" H 3400 800 60  0000 C CNN
	1    3400 800 
	1    0    0    -1  
$EndComp
NoConn ~ 800  2050
Text Label 1500 4900 0    39   ~ 0
LCD36
Text Label 800  4900 0    39   ~ 0
LCD37
Text Label 1500 5000 0    39   ~ 0
LCD38
Text Label 800  5000 0    39   ~ 0
LCD39
$Comp
L GND #PWR010
U 1 1 54E99608
P 3100 1600
F 0 "#PWR010" H 3100 1600 30  0001 C CNN
F 1 "GND" H 3100 1530 30  0001 C CNN
F 2 "" H 3100 1600 60  0000 C CNN
F 3 "" H 3100 1600 60  0000 C CNN
	1    3100 1600
	1    0    0    -1  
$EndComp
$Comp
L RES R1
U 1 1 54E99614
P 1900 1150
F 0 "R1" H 1900 1230 40  0000 C CNN
F 1 "330" H 1900 1150 40  0000 C CNN
F 2 "~" H 1900 1080 30  0000 C CNN
F 3 "~" V 1900 1150 30  0000 C CNN
	1    1900 1150
	0    -1   -1   0   
$EndComp
$Comp
L RES R2
U 1 1 54E9961A
P 3100 1300
F 0 "R2" H 3100 1380 40  0000 C CNN
F 1 "2K" H 3100 1300 40  0000 C CNN
F 2 "~" H 3100 1230 30  0000 C CNN
F 3 "~" V 3100 1300 30  0000 C CNN
	1    3100 1300
	0    -1   -1   0   
$EndComp
$Comp
L PWR_FLAG #FLG011
U 1 1 54E99630
P 1900 750
F 0 "#FLG011" H 1900 845 30  0001 C CNN
F 1 "PWR_FLAG" H 1900 930 30  0000 C CNN
F 2 "" H 1900 750 60  0000 C CNN
F 3 "" H 1900 750 60  0000 C CNN
	1    1900 750 
	1    0    0    -1  
$EndComp
$Comp
L +BATT #PWR012
U 1 1 54E99637
P 2900 800
F 0 "#PWR012" H 2900 750 20  0001 C CNN
F 1 "+BATT" H 2900 900 30  0000 C CNN
F 2 "" H 2900 800 60  0000 C CNN
F 3 "" H 2900 800 60  0000 C CNN
	1    2900 800 
	1    0    0    -1  
$EndComp
$Comp
L +5V #PWR013
U 1 1 54E99959
P 2000 800
F 0 "#PWR013" H 2000 890 20  0001 C CNN
F 1 "+5V" H 2000 890 30  0000 C CNN
F 2 "" H 2000 800 60  0000 C CNN
F 3 "" H 2000 800 60  0000 C CNN
	1    2000 800 
	1    0    0    -1  
$EndComp
$Comp
L GND #PWR014
U 1 1 54E99D40
P 2900 1100
F 0 "#PWR014" H 2900 1100 30  0001 C CNN
F 1 "GND" H 2900 1030 30  0001 C CNN
F 2 "" H 2900 1100 60  0000 C CNN
F 3 "" H 2900 1100 60  0000 C CNN
	1    2900 1100
	1    0    0    -1  
$EndComp
$Comp
L GND #PWR015
U 1 1 54E9A4B2
P 1650 1450
F 0 "#PWR015" H 1650 1450 30  0001 C CNN
F 1 "GND" H 1650 1380 30  0001 C CNN
F 2 "" H 1650 1450 60  0000 C CNN
F 3 "" H 1650 1450 60  0000 C CNN
	1    1650 1450
	1    0    0    -1  
$EndComp
$Comp
L PWR_FLAG #FLG016
U 1 1 54E9D081
P 1800 2450
F 0 "#FLG016" H 1800 2545 30  0001 C CNN
F 1 "PWR_FLAG" H 1800 2630 30  0000 C CNN
F 2 "" H 1800 2450 60  0000 C CNN
F 3 "" H 1800 2450 60  0000 C CNN
	1    1800 2450
	-1   0    0    1   
$EndComp
$Comp
L HEADER-2X1 P3
U 1 1 54FEB92A
P 3750 1000
F 0 "P3" V 3700 1000 40  0000 C CNN
F 1 "HEADER-2X1" V 3800 1000 40  0000 C CNN
F 2 "~" H 3750 1000 60  0000 C CNN
F 3 "~" H 3750 1000 60  0000 C CNN
	1    3750 1000
	1    0    0    -1  
$EndComp
$Comp
L CAP C12
U 1 1 55063A99
P 5850 2750
F 0 "C12" H 5700 2850 40  0000 L CNN
F 1 "22pF" H 5675 2650 40  0000 L CNN
F 2 "~" H 5888 2600 30  0000 C CNN
F 3 "~" H 5850 2750 60  0000 C CNN
	1    5850 2750
	0    -1   -1   0   
$EndComp
$Comp
L CAP C13
U 1 1 55063A9F
P 5850 3350
F 0 "C13" H 5890 3450 40  0000 L CNN
F 1 "22pF" H 5890 3240 40  0000 L CNN
F 2 "~" H 5888 3200 30  0000 C CNN
F 3 "~" H 5850 3350 60  0000 C CNN
	1    5850 3350
	0    -1   -1   0   
$EndComp
$Comp
L GND #PWR017
U 1 1 55063AA5
P 5550 3400
F 0 "#PWR017" H 5550 3400 30  0001 C CNN
F 1 "GND" H 5550 3330 30  0001 C CNN
F 2 "" H 5550 3400 60  0000 C CNN
F 3 "" H 5550 3400 60  0000 C CNN
	1    5550 3400
	1    0    0    -1  
$EndComp
$Comp
L LED D1
U 1 1 550638D7
P 2150 1450
F 0 "D1" H 2150 1540 40  0000 C CNN
F 1 "LED" H 2160 1340 40  0000 C CNN
F 2 "~" H 2150 1450 60  0000 C CNN
F 3 "~" H 2150 1450 60  0000 C CNN
	1    2150 1450
	1    0    0    -1  
$EndComp
$Comp
L AVR-ISP-10 PROG1
U 1 1 550638FA
P 1200 2150
F 0 "PROG1" H 1040 2480 40  0000 C CNN
F 1 "AVR-ISP-10" H 1130 1850 40  0000 C CNN
F 2 "IDC-5X2" V 1200 2150 10  0001 C CNN
F 3 "~" H 1550 2150 60  0000 C CNN
	1    1200 2150
	1    0    0    -1  
$EndComp
$Comp
L S1117 IC6
U 1 1 55078AC1
P 4700 1000
F 0 "IC6" H 4550 1260 40  0000 C CNN
F 1 "S1117" H 4600 1190 40  0000 C CNN
F 2 "~" H 4700 1000 60  0000 C CNN
F 3 "~" H 4700 1000 60  0000 C CNN
	1    4700 1000
	1    0    0    -1  
$EndComp
$Comp
L CAP-POL C11
U 1 1 5507A1C8
P 5250 1000
F 0 "C11" H 5300 1100 40  0000 L CNN
F 1 "22uF" H 5300 850 40  0000 L CNN
F 2 "~" H 5250 985 60  0000 C CNN
F 3 "~" H 5250 985 60  0000 C CNN
	1    5250 1000
	1    0    0    -1  
$EndComp
$Comp
L GND #PWR018
U 1 1 5507B739
P 3450 4750
F 0 "#PWR018" H 3450 4750 30  0001 C CNN
F 1 "GND" H 3450 4680 30  0001 C CNN
F 2 "" H 3450 4750 60  0000 C CNN
F 3 "" H 3450 4750 60  0000 C CNN
	1    3450 4750
	1    0    0    -1  
$EndComp
$Comp
L 4051 IC3
U 1 1 5507C1FF
P 2900 4300
F 0 "IC3" H 2550 4780 40  0000 C CNN
F 1 "4051" H 2575 3800 40  0000 C CNN
F 2 "~" H 3350 4100 60  0000 C CNN
F 3 "~" H 3350 4100 60  0000 C CNN
	1    2900 4300
	1    0    0    -1  
$EndComp
Text Label 2200 2950 0    39   ~ 0
LCD1
Text Label 2200 3050 0    39   ~ 0
LCD2
Text Label 2200 3150 0    39   ~ 0
LCD3
Text Label 2200 3250 0    39   ~ 0
LCD4
Text Label 2200 3350 0    39   ~ 0
LCD5
Text Label 2200 3450 0    39   ~ 0
LCD6
Text Label 2200 3550 0    39   ~ 0
LCD7
Text Label 2200 2850 0    39   ~ 0
LCD0
Text Label 2200 5150 0    39   ~ 0
LCD9
Text Label 2150 5250 0    39   ~ 0
LCD10
Text Label 2150 5350 0    39   ~ 0
LCD11
Text Label 2150 3950 0    39   ~ 0
LCD12
Text Label 2150 4050 0    39   ~ 0
LCD13
Text Label 2150 4150 0    39   ~ 0
LCD14
Text Label 2150 4250 0    39   ~ 0
LCD15
Text Label 2200 5050 0    39   ~ 0
LCD8
Text Label 2150 4650 0    39   ~ 0
LCD19
Text Label 3850 2850 0    39   ~ 0
LCD20
Text Label 3850 2950 0    39   ~ 0
LCD21
Text Label 3850 3050 0    39   ~ 0
LCD22
Text Label 3850 3150 0    39   ~ 0
LCD23
Text Label 2150 4350 0    39   ~ 0
LCD16
Text Label 2150 4450 0    39   ~ 0
LCD17
Text Label 2150 4550 0    39   ~ 0
LCD18
Text Label 3850 3550 0    39   ~ 0
LCD27
Text Label 2150 5450 0    39   ~ 0
LCD28
Text Label 2150 5550 0    39   ~ 0
LCD29
Text Label 2150 5650 0    39   ~ 0
LCD30
Text Label 2150 5750 0    39   ~ 0
LCD31
Text Label 3850 3250 0    39   ~ 0
LCD24
Text Label 3850 3350 0    39   ~ 0
LCD25
Text Label 3850 3450 0    39   ~ 0
LCD26
$Comp
L GND #PWR019
U 1 1 5507CCF7
P 3450 3650
F 0 "#PWR019" H 3450 3650 30  0001 C CNN
F 1 "GND" H 3450 3580 30  0001 C CNN
F 2 "" H 3450 3650 60  0000 C CNN
F 3 "" H 3450 3650 60  0000 C CNN
	1    3450 3650
	1    0    0    -1  
$EndComp
$Comp
L 4051 IC4
U 1 1 5507D503
P 4600 3200
F 0 "IC4" H 4250 3680 40  0000 C CNN
F 1 "4051" H 4275 2700 40  0000 C CNN
F 2 "~" H 5050 3000 60  0000 C CNN
F 3 "~" H 5050 3000 60  0000 C CNN
	1    4600 3200
	1    0    0    -1  
$EndComp
$Comp
L GND #PWR020
U 1 1 5507D747
P 5150 3650
F 0 "#PWR020" H 5150 3650 30  0001 C CNN
F 1 "GND" H 5150 3580 30  0001 C CNN
F 2 "" H 5150 3650 60  0000 C CNN
F 3 "" H 5150 3650 60  0000 C CNN
	1    5150 3650
	1    0    0    -1  
$EndComp
$Comp
L GND #PWR021
U 1 1 5507D756
P 5150 4750
F 0 "#PWR021" H 5150 4750 30  0001 C CNN
F 1 "GND" H 5150 4680 30  0001 C CNN
F 2 "" H 5150 4750 60  0000 C CNN
F 3 "" H 5150 4750 60  0000 C CNN
	1    5150 4750
	1    0    0    -1  
$EndComp
Text Label 6600 2000 0    39   ~ 0
RX
Text Label 6600 1900 0    39   ~ 0
TX
Text Label 3450 2950 0    40   ~ 0
MUX0
Text Label 5150 2950 0    40   ~ 0
MUX2
Text Label 5150 4050 0    40   ~ 0
MUX3
Text Label 3450 4050 0    40   ~ 0
MUX1
$Comp
L 4051 IC5
U 1 1 5507D526
P 4600 4300
F 0 "IC5" H 4250 4780 40  0000 C CNN
F 1 "4051" H 4275 3800 40  0000 C CNN
F 2 "~" H 5050 4100 60  0000 C CNN
F 3 "~" H 5050 4100 60  0000 C CNN
	1    4600 4300
	1    0    0    -1  
$EndComp
$Comp
L 4051 IC2
U 1 1 5507C9D9
P 2900 3200
F 0 "IC2" H 2550 3680 40  0000 C CNN
F 1 "4051" H 2575 2700 40  0000 C CNN
F 2 "~" H 3350 3000 60  0000 C CNN
F 3 "~" H 3350 3000 60  0000 C CNN
	1    2900 3200
	1    0    0    -1  
$EndComp
$Comp
L BUTTON PB1
U 1 1 55080BA0
P 5400 2250
F 0 "PB1" H 5550 2360 40  0000 C CNN
F 1 "BUTTON" H 5400 2250 40  0000 C CNN
F 2 "~" H 5400 2250 60  0000 C CNN
F 3 "~" H 5400 2250 60  0000 C CNN
	1    5400 2250
	0    1    1    0   
$EndComp
$Comp
L CAP C10
U 1 1 55080BBE
P 5100 2250
F 0 "C10" H 5140 2350 40  0000 L CNN
F 1 "100nF" H 5140 2140 40  0000 L CNN
F 2 "~" H 5138 2100 30  0000 C CNN
F 3 "~" H 5100 2250 60  0000 C CNN
	1    5100 2250
	1    0    0    -1  
$EndComp
$Comp
L RES R8
U 1 1 55080BCD
P 5100 1700
F 0 "R8" H 5100 1780 40  0000 C CNN
F 1 "10K" H 5100 1700 40  0000 C CNN
F 2 "~" H 5100 1630 30  0000 C CNN
F 3 "~" V 5100 1700 30  0000 C CNN
	1    5100 1700
	0    -1   -1   0   
$EndComp
$Comp
L GND #PWR022
U 1 1 55080F47
P 5100 2600
F 0 "#PWR022" H 5100 2600 30  0001 C CNN
F 1 "GND" H 5100 2530 30  0001 C CNN
F 2 "" H 5100 2600 60  0000 C CNN
F 3 "" H 5100 2600 60  0000 C CNN
	1    5100 2600
	1    0    0    -1  
$EndComp
Text Label 5200 1950 0    39   ~ 0
RST
Text Label 3450 3050 0    40   ~ 0
SEL0
Text Label 3450 3150 0    40   ~ 0
SEL1
Text Label 3450 3250 0    40   ~ 0
SEL2
Text Label 5150 3050 0    40   ~ 0
SEL0
Text Label 5150 3150 0    40   ~ 0
SEL1
Text Label 5150 3250 0    40   ~ 0
SEL2
Text Label 5150 4150 0    40   ~ 0
SEL0
Text Label 5150 4250 0    40   ~ 0
SEL1
Text Label 5150 4350 0    40   ~ 0
SEL2
Text Label 3450 4150 0    40   ~ 0
SEL0
Text Label 3450 4250 0    40   ~ 0
SEL1
Text Label 3450 4350 0    40   ~ 0
SEL2
Text Label 8200 1100 0    40   ~ 0
MUX3
Text Label 6550 1000 0    40   ~ 0
SEL2
Text Label 6550 1100 0    40   ~ 0
SEL1
Text Label 6550 1200 0    40   ~ 0
SEL0
Text Label 8200 1000 0    40   ~ 0
MUX2
Text Label 8200 1300 0    40   ~ 0
MUX0
Text Label 8200 1200 0    40   ~ 0
MUX1
$Comp
L CAP C6
U 1 1 550826A5
P 3100 2200
F 0 "C6" H 3140 2300 40  0000 L CNN
F 1 "100nF" H 3140 2090 40  0000 L CNN
F 2 "~" H 3138 2050 30  0000 C CNN
F 3 "~" H 3100 2200 60  0000 C CNN
	1    3100 2200
	1    0    0    -1  
$EndComp
$Comp
L GND #PWR023
U 1 1 550826AB
P 3100 2500
F 0 "#PWR023" H 3100 2500 30  0001 C CNN
F 1 "GND" H 3100 2430 30  0001 C CNN
F 2 "" H 3100 2500 60  0000 C CNN
F 3 "" H 3100 2500 60  0000 C CNN
	1    3100 2500
	1    0    0    -1  
$EndComp
$Comp
L CAP C7
U 1 1 550826B9
P 3350 2200
F 0 "C7" H 3390 2300 40  0000 L CNN
F 1 "100nF" H 3390 2090 40  0000 L CNN
F 2 "~" H 3388 2050 30  0000 C CNN
F 3 "~" H 3350 2200 60  0000 C CNN
	1    3350 2200
	1    0    0    -1  
$EndComp
$Comp
L GND #PWR024
U 1 1 550826BF
P 3350 2500
F 0 "#PWR024" H 3350 2500 30  0001 C CNN
F 1 "GND" H 3350 2430 30  0001 C CNN
F 2 "" H 3350 2500 60  0000 C CNN
F 3 "" H 3350 2500 60  0000 C CNN
	1    3350 2500
	1    0    0    -1  
$EndComp
$Comp
L CAP C8
U 1 1 550826CD
P 3600 2200
F 0 "C8" H 3640 2300 40  0000 L CNN
F 1 "100nF" H 3640 2090 40  0000 L CNN
F 2 "~" H 3638 2050 30  0000 C CNN
F 3 "~" H 3600 2200 60  0000 C CNN
	1    3600 2200
	1    0    0    -1  
$EndComp
$Comp
L GND #PWR025
U 1 1 550826D3
P 3600 2500
F 0 "#PWR025" H 3600 2500 30  0001 C CNN
F 1 "GND" H 3600 2430 30  0001 C CNN
F 2 "" H 3600 2500 60  0000 C CNN
F 3 "" H 3600 2500 60  0000 C CNN
	1    3600 2500
	1    0    0    -1  
$EndComp
$Comp
L CAP-POL C1
U 1 1 55082A00
P 1650 1150
F 0 "C1" H 1690 1255 40  0000 L CNN
F 1 "10uF" H 1690 1005 40  0000 L CNN
F 2 "~" H 1650 1135 60  0000 C CNN
F 3 "~" H 1650 1135 60  0000 C CNN
	1    1650 1150
	1    0    0    -1  
$EndComp
$Comp
L HEADER-3X1 P2
U 1 1 55082BA5
P 2850 1450
F 0 "P2" V 2800 1450 40  0000 C CNN
F 1 "HEADER-3X1" V 2900 1450 40  0000 C CNN
F 2 "~" H 2850 1450 60  0000 C CNN
F 3 "~" H 2850 1450 60  0000 C CNN
	1    2850 1450
	1    0    0    -1  
$EndComp
$Comp
L VDD #PWR026
U 1 1 55082BBE
P 1700 1900
F 0 "#PWR026" H 1700 2000 30  0001 C CNN
F 1 "VDD" H 1700 2010 30  0000 C CNN
F 2 "" H 1700 1900 60  0000 C CNN
F 3 "" H 1700 1900 60  0000 C CNN
	1    1700 1900
	1    0    0    -1  
$EndComp
$Comp
L VDD #PWR027
U 1 1 55082BCD
P 2500 1600
F 0 "#PWR027" H 2500 1700 30  0001 C CNN
F 1 "VDD" H 2500 1710 30  0000 C CNN
F 2 "" H 2500 1600 60  0000 C CNN
F 3 "" H 2500 1600 60  0000 C CNN
	1    2500 1600
	1    0    0    -1  
$EndComp
NoConn ~ 2600 1350
$Comp
L RES R6
U 1 1 5508415A
P 4850 2350
F 0 "R6" H 4850 2430 40  0000 C CNN
F 1 "680" H 4850 2350 40  0000 C CNN
F 2 "~" H 4850 2280 30  0000 C CNN
F 3 "~" V 4850 2350 30  0000 C CNN
	1    4850 2350
	0    -1   -1   0   
$EndComp
$Comp
L LED D5
U 1 1 55084173
P 4850 1850
F 0 "D5" H 4850 1940 40  0000 C CNN
F 1 "LED" H 4860 1740 40  0000 C CNN
F 2 "~" H 4850 1850 60  0000 C CNN
F 3 "~" H 4850 1850 60  0000 C CNN
	1    4850 1850
	0    1    1    0   
$EndComp
$Comp
L GND #PWR028
U 1 1 55084552
P 4850 2650
F 0 "#PWR028" H 4850 2650 30  0001 C CNN
F 1 "GND" H 4850 2580 30  0001 C CNN
F 2 "" H 4850 2650 60  0000 C CNN
F 3 "" H 4850 2650 60  0000 C CNN
	1    4850 2650
	1    0    0    -1  
$EndComp
Text Label 4750 1600 0    40   ~ 0
STATUS
Text Label 8200 1700 0    40   ~ 0
STATUS
$Comp
L GND #PWR029
U 1 1 550850DB
P 2350 2500
F 0 "#PWR029" H 2350 2500 30  0001 C CNN
F 1 "GND" H 2350 2430 30  0001 C CNN
F 2 "" H 2350 2500 60  0000 C CNN
F 3 "" H 2350 2500 60  0000 C CNN
	1    2350 2500
	1    0    0    -1  
$EndComp
$Comp
L VCC #PWR030
U 1 1 550850E1
P 2350 1900
F 0 "#PWR030" H 2350 2000 30  0001 C CNN
F 1 "VCC" H 2350 2000 30  0000 C CNN
F 2 "" H 2350 1900 60  0000 C CNN
F 3 "" H 2350 1900 60  0000 C CNN
	1    2350 1900
	1    0    0    -1  
$EndComp
$Comp
L CAP-POL C3
U 1 1 550850E7
P 2350 2200
F 0 "C3" H 2390 2305 40  0000 L CNN
F 1 "1000uF" H 2350 2060 40  0000 L CNN
F 2 "~" H 2350 2185 60  0000 C CNN
F 3 "~" H 2350 2185 60  0000 C CNN
	1    2350 2200
	1    0    0    -1  
$EndComp
Text Label 8200 2100 0    40   ~ 0
KEY1
Text Label 6550 2500 0    40   ~ 0
KEY2
Text Label 6550 2400 0    40   ~ 0
KEY3
Text Label 8200 2000 0    40   ~ 0
KEY4
Text Label 6550 2600 0    40   ~ 0
KEY5
Text Label 8200 2200 0    40   ~ 0
KEY6
Text Label 6550 2100 0    40   ~ 0
KEY7
Text Label 8200 1900 0    40   ~ 0
KEY8
Text Label 8200 2300 0    40   ~ 0
KEY9
Text Label 6550 2200 0    40   ~ 0
KEY0
Text Label 6350 2300 0    40   ~ 0
KEY_ENTER
$Comp
L PWR_FLAG #FLG031
U 1 1 5507F01D
P 1800 1850
F 0 "#FLG031" H 1800 1945 30  0001 C CNN
F 1 "PWR_FLAG" H 1800 2030 30  0000 C CNN
F 2 "" H 1800 1850 60  0000 C CNN
F 3 "" H 1800 1850 60  0000 C CNN
	1    1800 1850
	1    0    0    -1  
$EndComp
$Comp
L CRYSTAL X1
U 1 1 5507F368
P 6150 3050
F 0 "X1" H 6150 3200 40  0000 C CNN
F 1 "7.3728 MHz" H 6150 2900 40  0000 C CNN
F 2 "~" H 6150 3050 60  0000 C CNN
F 3 "~" H 6150 3050 60  0000 C CNN
	1    6150 3050
	0    -1   -1   0   
$EndComp
$Comp
L ATMEGA32A-PDIP40 IC7
U 1 1 550801A8
P 7450 2150
F 0 "IC7" H 6890 3440 40  0000 C CNN
F 1 "ATMEGA32A-PDIP40" H 7150 850 40  0000 C CNN
F 2 "PDIP-40" H 7450 2150 30  0000 C CIN
F 3 "~" H 7450 1600 60  0000 C CNN
	1    7450 2150
	1    0    0    -1  
$EndComp
$Comp
L CAP C4
U 1 1 5508C73C
P 2600 2200
F 0 "C4" H 2640 2300 40  0000 L CNN
F 1 "100nF" H 2640 2090 40  0000 L CNN
F 2 "~" H 2638 2050 30  0000 C CNN
F 3 "~" H 2600 2200 60  0000 C CNN
	1    2600 2200
	1    0    0    -1  
$EndComp
$Comp
L GND #PWR032
U 1 1 5508C742
P 2600 2500
F 0 "#PWR032" H 2600 2500 30  0001 C CNN
F 1 "GND" H 2600 2430 30  0001 C CNN
F 2 "" H 2600 2500 60  0000 C CNN
F 3 "" H 2600 2500 60  0000 C CNN
	1    2600 2500
	1    0    0    -1  
$EndComp
$Comp
L VCC #PWR033
U 1 1 5508C748
P 2600 1900
F 0 "#PWR033" H 2600 2000 30  0001 C CNN
F 1 "VCC" H 2600 2000 30  0000 C CNN
F 2 "" H 2600 1900 60  0000 C CNN
F 3 "" H 2600 1900 60  0000 C CNN
	1    2600 1900
	1    0    0    -1  
$EndComp
$Comp
L MCP73831-ADJ IC1
U 1 1 5508C6F5
P 2450 950
F 0 "IC1" H 2300 1260 40  0000 C CNN
F 1 "MCP73831-ADJ" H 2490 1190 40  0000 C CNN
F 2 "~" H 2450 1000 60  0000 C CNN
F 3 "~" H 2450 1000 60  0000 C CNN
	1    2450 950 
	1    0    0    -1  
$EndComp
$Comp
L HEADER-6X2 P1
U 1 1 5509390A
P 1050 1150
F 0 "P1" V 1000 1150 40  0000 C CNN
F 1 "HEADER-6X2" V 1100 1150 40  0000 C CNN
F 2 "~" H 1050 1150 60  0000 C CNN
F 3 "~" H 1050 1150 60  0000 C CNN
	1    1050 1150
	1    0    0    -1  
$EndComp
NoConn ~ 1300 900 
NoConn ~ 1300 1000
NoConn ~ 1300 1100
NoConn ~ 1300 1200
NoConn ~ 1300 1300
NoConn ~ 1300 1400
Text Label 850  2950 0    39   ~ 0
LCD1
Text Label 1500 3050 0    39   ~ 0
LCD2
Text Label 850  3050 0    39   ~ 0
LCD3
Text Label 1500 3150 0    39   ~ 0
LCD4
Text Label 850  3150 0    39   ~ 0
LCD5
Text Label 1500 3250 0    39   ~ 0
LCD6
Text Label 850  3250 0    39   ~ 0
LCD7
Text Label 1500 3350 0    39   ~ 0
LCD8
Text Label 850  3350 0    39   ~ 0
LCD9
Text Label 1500 3450 0    39   ~ 0
LCD10
Text Label 800  3450 0    39   ~ 0
LCD11
Text Label 1500 3550 0    39   ~ 0
LCD12
Text Label 800  3550 0    39   ~ 0
LCD13
Text Label 1500 3650 0    39   ~ 0
LCD14
Text Label 800  3650 0    39   ~ 0
LCD15
Text Label 1500 3750 0    39   ~ 0
LCD16
Text Label 800  4800 0    39   ~ 0
LCD35
Text Label 800  3850 0    39   ~ 0
LCD19
Text Label 1500 4100 0    39   ~ 0
LCD20
Text Label 800  4100 0    39   ~ 0
LCD21
Text Label 1500 4200 0    39   ~ 0
LCD22
Text Label 800  4200 0    39   ~ 0
LCD23
Text Label 1500 4300 0    39   ~ 0
LCD24
Text Label 800  4300 0    39   ~ 0
LCD25
Text Label 1500 4400 0    39   ~ 0
LCD26
Text Label 800  4400 0    39   ~ 0
LCD27
Text Label 1500 4500 0    39   ~ 0
LCD28
Text Label 800  4500 0    39   ~ 0
LCD29
Text Label 1500 4600 0    39   ~ 0
LCD30
Text Label 800  4600 0    39   ~ 0
LCD31
Text Label 1500 4700 0    39   ~ 0
LCD32
Text Label 800  4700 0    39   ~ 0
LCD33
Text Label 1500 4800 0    39   ~ 0
LCD34
Text Label 1500 2950 0    39   ~ 0
LCD0
Text Label 800  3750 0    39   ~ 0
LCD17
Text Label 1500 3850 0    39   ~ 0
LCD18
$Comp
L DIODE-ZENER D6
U 1 1 555A33F5
P 5700 1600
F 0 "D6" H 5700 1700 40  0000 C CNN
F 1 "ZENER 3V3" H 5700 1500 40  0000 C CNN
F 2 "~" H 5700 1600 60  0000 C CNN
F 3 "~" H 5700 1600 60  0000 C CNN
	1    5700 1600
	0    -1   -1   0   
$EndComp
$Comp
L RES R9
U 1 1 555A3404
P 5700 1050
F 0 "R9" H 5700 1130 40  0000 C CNN
F 1 "50" H 5700 1050 40  0000 C CNN
F 2 "~" H 5700 980 30  0000 C CNN
F 3 "~" V 5700 1050 30  0000 C CNN
	1    5700 1050
	0    -1   -1   0   
$EndComp
$Comp
L RES R7
U 1 1 555A3413
P 5500 1600
F 0 "R7" H 5500 1680 40  0000 C CNN
F 1 "330" H 5500 1600 40  0000 C CNN
F 2 "~" H 5500 1530 30  0000 C CNN
F 3 "~" V 5500 1600 30  0000 C CNN
	1    5500 1600
	0    -1   -1   0   
$EndComp
$Comp
L GND #PWR034
U 1 1 555A37C9
P 5700 1900
F 0 "#PWR034" H 5700 1900 30  0001 C CNN
F 1 "GND" H 5700 1830 30  0001 C CNN
F 2 "" H 5700 1900 60  0000 C CNN
F 3 "" H 5700 1900 60  0000 C CNN
	1    5700 1900
	1    0    0    -1  
$EndComp
$Comp
L +BATT #PWR035
U 1 1 555A3911
P 5700 750
F 0 "#PWR035" H 5700 700 20  0001 C CNN
F 1 "+BATT" H 5700 850 30  0000 C CNN
F 2 "" H 5700 750 60  0000 C CNN
F 3 "" H 5700 750 60  0000 C CNN
	1    5700 750 
	1    0    0    -1  
$EndComp
$Comp
L DIODE D7
U 1 1 555A3B7E
P 5950 1350
F 0 "D7" H 5950 1440 40  0000 C CNN
F 1 "BAT85" H 5950 1250 40  0000 C CNN
F 2 "~" H 5950 1350 60  0000 C CNN
F 3 "~" H 5950 1350 60  0000 C CNN
	1    5950 1350
	1    0    0    -1  
$EndComp
$Comp
L RES R10
U 1 1 555A3CC0
P 6200 1600
F 0 "R10" H 6200 1680 40  0000 C CNN
F 1 "1k" H 6200 1600 40  0000 C CNN
F 2 "~" H 6200 1530 30  0000 C CNN
F 3 "~" V 6200 1600 30  0000 C CNN
	1    6200 1600
	0    -1   -1   0   
$EndComp
$Comp
L +5V #PWR036
U 1 1 555B3A94
P 4150 750
F 0 "#PWR036" H 4150 840 20  0001 C CNN
F 1 "+5V" H 4150 840 30  0000 C CNN
F 2 "" H 4150 750 60  0000 C CNN
F 3 "" H 4150 750 60  0000 C CNN
	1    4150 750 
	1    0    0    -1  
$EndComp
$Comp
L +3.3V #PWR037
U 1 1 555B3ACE
P 5250 750
F 0 "#PWR037" H 5250 710 30  0001 C CNN
F 1 "+3.3V" H 5250 860 30  0000 C CNN
F 2 "" H 5250 750 60  0000 C CNN
F 3 "" H 5250 750 60  0000 C CNN
	1    5250 750 
	1    0    0    -1  
$EndComp
$Comp
L +3.3V #PWR038
U 1 1 555B3C12
P 8300 2800
F 0 "#PWR038" H 8300 2760 30  0001 C CNN
F 1 "+3.3V" H 8300 2910 30  0000 C CNN
F 2 "" H 8300 2800 60  0000 C CNN
F 3 "" H 8300 2800 60  0000 C CNN
	1    8300 2800
	1    0    0    -1  
$EndComp
$Comp
L VCC #PWR039
U 1 1 555B3C21
P 8400 2900
F 0 "#PWR039" H 8400 3000 30  0001 C CNN
F 1 "VCC" H 8400 3000 30  0000 C CNN
F 2 "" H 8400 2900 60  0000 C CNN
F 3 "" H 8400 2900 60  0000 C CNN
	1    8400 2900
	1    0    0    -1  
$EndComp
$Comp
L VCC #PWR040
U 1 1 555B40AC
P 6200 1300
F 0 "#PWR040" H 6200 1400 30  0001 C CNN
F 1 "VCC" H 6200 1400 30  0000 C CNN
F 2 "" H 6200 1300 60  0000 C CNN
F 3 "" H 6200 1300 60  0000 C CNN
	1    6200 1300
	1    0    0    -1  
$EndComp
Wire Wire Line
	650  1950 800  1950
Wire Wire Line
	700  2150 800  2150
Wire Wire Line
	700  2250 800  2250
Wire Wire Line
	650  2350 800  2350
Wire Wire Line
	1600 2350 1800 2350
Wire Wire Line
	1700 2350 1700 2400
Wire Wire Line
	1700 1950 1700 1900
Wire Wire Line
	6600 2800 6700 2800
Wire Wire Line
	6500 1700 6700 1700
Wire Wire Line
	6500 1500 6700 1500
Wire Wire Line
	6500 1600 6700 1600
Wire Wire Line
	4250 2050 4250 2100
Wire Wire Line
	4550 2050 4550 2100
Wire Wire Line
	4250 2600 4250 2650
Wire Wire Line
	4550 2600 4550 2650
Wire Wire Line
	4250 1550 4250 1650
Wire Wire Line
	4550 1600 4550 1650
Wire Wire Line
	3950 1600 4550 1600
Connection ~ 4250 1600
Wire Wire Line
	2850 1900 2850 2000
Wire Wire Line
	2850 2400 2850 2500
Wire Wire Line
	700  1500 700  1400
Wire Wire Line
	700  1400 800  1400
Wire Wire Line
	800  1100 700  1100
Wire Wire Line
	800  1000 700  1000
Wire Wire Line
	800  1200 600  1200
Wire Wire Line
	600  1200 600  1100
Wire Wire Line
	5050 800  5250 800 
Wire Wire Line
	5250 800  5250 750 
Wire Wire Line
	3950 2050 3950 2100
Wire Wire Line
	3950 2600 3950 2650
Wire Wire Line
	3950 1600 3950 1650
Wire Wire Line
	3500 900  3400 900 
Wire Wire Line
	3400 900  3400 800 
Wire Wire Line
	3500 1100 3400 1100
Wire Wire Line
	3400 1100 3400 1200
Wire Wire Line
	1600 2050 1600 2350
Connection ~ 1600 2150
Connection ~ 1600 2250
Wire Wire Line
	800  5000 1000 5000
Wire Wire Line
	1700 5000 1500 5000
Wire Wire Line
	800  4900 1000 4900
Wire Wire Line
	1700 4900 1500 4900
Wire Wire Line
	1650 850  2100 850 
Wire Wire Line
	2000 850  2000 800 
Wire Wire Line
	2900 850  2900 800 
Wire Wire Line
	1900 750  1900 900 
Connection ~ 2000 850 
Wire Wire Line
	3100 1550 3100 1600
Wire Wire Line
	2800 1050 2900 1050
Wire Wire Line
	2900 1050 2900 1100
Connection ~ 1900 850 
Wire Wire Line
	1950 1450 1900 1450
Wire Wire Line
	1900 1450 1900 1400
Wire Wire Line
	1650 850  1650 950 
Wire Wire Line
	1650 1350 1650 1450
Wire Wire Line
	1800 2350 1800 2450
Connection ~ 1700 2350
Wire Wire Line
	6400 2750 6400 3000
Wire Wire Line
	6400 3000 6700 3000
Wire Wire Line
	6700 3100 6400 3100
Wire Wire Line
	6400 3100 6400 3350
Wire Wire Line
	5650 2750 5550 2750
Wire Wire Line
	5550 2750 5550 3400
Wire Wire Line
	5550 3350 5650 3350
Connection ~ 5550 3350
Wire Wire Line
	6050 2750 6400 2750
Connection ~ 6150 2750
Wire Wire Line
	6400 3350 6050 3350
Connection ~ 6150 3350
Wire Wire Line
	8200 3200 8200 3350
Connection ~ 8200 3300
Wire Wire Line
	8200 3000 8300 3000
Wire Wire Line
	1600 1950 1800 1950
Wire Wire Line
	4150 750  4150 800 
Wire Wire Line
	4150 1200 4150 1250
Wire Wire Line
	4350 800  4350 950 
Wire Wire Line
	4350 1200 4350 1050
Wire Wire Line
	4150 800  4350 800 
Connection ~ 4350 1200
Wire Wire Line
	5050 800  5050 1050
Wire Wire Line
	4150 1200 5250 1200
Wire Wire Line
	3450 4450 3450 4750
Connection ~ 3450 4650
Connection ~ 3450 4550
Wire Wire Line
	2200 2950 2350 2950
Wire Wire Line
	2200 3050 2350 3050
Wire Wire Line
	2350 3150 2200 3150
Wire Wire Line
	2200 3250 2350 3250
Wire Wire Line
	2350 3350 2200 3350
Wire Wire Line
	2200 3450 2350 3450
Wire Wire Line
	2350 3550 2200 3550
Wire Wire Line
	2200 2850 2350 2850
Wire Wire Line
	2350 5150 2200 5150
Wire Wire Line
	2150 5250 2350 5250
Wire Wire Line
	2150 5350 2350 5350
Wire Wire Line
	2150 3950 2350 3950
Wire Wire Line
	2150 4050 2350 4050
Wire Wire Line
	2150 4150 2350 4150
Wire Wire Line
	2150 4250 2350 4250
Wire Wire Line
	3850 3450 4050 3450
Wire Wire Line
	4050 3350 3850 3350
Wire Wire Line
	3850 3250 4050 3250
Wire Wire Line
	2350 5750 2150 5750
Wire Wire Line
	2150 5650 2350 5650
Wire Wire Line
	2350 5550 2150 5550
Wire Wire Line
	2150 5450 2350 5450
Wire Wire Line
	4050 3550 3850 3550
Wire Wire Line
	2150 4550 2350 4550
Wire Wire Line
	2350 4450 2150 4450
Wire Wire Line
	2150 4350 2350 4350
Wire Wire Line
	4050 3150 3850 3150
Wire Wire Line
	3850 3050 4050 3050
Wire Wire Line
	3850 2950 4050 2950
Wire Wire Line
	4050 2850 3850 2850
Wire Wire Line
	2150 4650 2350 4650
Wire Wire Line
	3450 3350 3450 3650
Connection ~ 3450 3550
Connection ~ 3450 3450
Wire Wire Line
	3450 3900 3450 3950
Wire Wire Line
	5150 4450 5150 4750
Connection ~ 5150 4650
Connection ~ 5150 4550
Wire Wire Line
	5150 3950 5150 3900
Wire Wire Line
	5150 3350 5150 3650
Connection ~ 5150 3550
Connection ~ 5150 3450
Wire Wire Line
	5150 2800 5150 2850
Wire Wire Line
	3450 2800 3450 2850
Wire Wire Line
	6700 2000 6600 2000
Wire Wire Line
	6700 1900 6600 1900
Wire Wire Line
	3450 4050 3600 4050
Wire Wire Line
	3450 2950 3600 2950
Wire Wire Line
	5150 2950 5300 2950
Wire Wire Line
	5150 4050 5300 4050
Wire Wire Line
	5100 1950 5100 2050
Wire Wire Line
	5100 1950 5400 1950
Wire Wire Line
	5100 2450 5100 2600
Wire Wire Line
	5100 2550 5400 2550
Wire Wire Line
	5100 1400 5100 1450
Connection ~ 5100 2550
Wire Wire Line
	3450 3250 3600 3250
Wire Wire Line
	3600 3150 3450 3150
Wire Wire Line
	3450 3050 3600 3050
Wire Wire Line
	5150 3250 5300 3250
Wire Wire Line
	5300 3150 5150 3150
Wire Wire Line
	5150 3050 5300 3050
Wire Wire Line
	5150 4350 5300 4350
Wire Wire Line
	5300 4250 5150 4250
Wire Wire Line
	5150 4150 5300 4150
Wire Wire Line
	3450 4350 3600 4350
Wire Wire Line
	3600 4250 3450 4250
Wire Wire Line
	3450 4150 3600 4150
Wire Wire Line
	8200 1100 8350 1100
Wire Wire Line
	6550 1200 6700 1200
Wire Wire Line
	6700 1100 6550 1100
Wire Wire Line
	6550 1000 6700 1000
Wire Wire Line
	8200 1000 8350 1000
Wire Wire Line
	8200 1200 8350 1200
Wire Wire Line
	8200 1300 8350 1300
Wire Wire Line
	3100 1900 3100 2000
Wire Wire Line
	3100 2400 3100 2500
Wire Wire Line
	3350 1900 3350 2000
Wire Wire Line
	3350 2400 3350 2500
Wire Wire Line
	3600 1900 3600 2000
Wire Wire Line
	3600 2400 3600 2500
Wire Wire Line
	2500 1450 2600 1450
Wire Wire Line
	2600 1550 2600 1600
Wire Wire Line
	2600 1600 2500 1600
Wire Wire Line
	4850 1650 4850 1600
Wire Wire Line
	4850 2050 4850 2100
Wire Wire Line
	4850 2600 4850 2650
Wire Wire Line
	4750 1600 4950 1600
Connection ~ 4850 1600
Wire Wire Line
	8200 1700 8400 1700
Wire Wire Line
	2350 1900 2350 2000
Wire Wire Line
	2350 2400 2350 2500
Wire Wire Line
	8200 2100 8350 2100
Wire Wire Line
	6550 2500 6700 2500
Wire Wire Line
	6550 2400 6700 2400
Wire Wire Line
	8200 2000 8350 2000
Wire Wire Line
	6550 2600 6700 2600
Wire Wire Line
	8200 2200 8350 2200
Wire Wire Line
	6550 2100 6700 2100
Wire Wire Line
	8200 1900 8350 1900
Wire Wire Line
	8200 2300 8350 2300
Wire Wire Line
	6550 2200 6700 2200
Wire Wire Line
	6350 2300 6700 2300
Wire Wire Line
	1800 1950 1800 1850
Connection ~ 1700 1950
Wire Wire Line
	2600 1900 2600 2000
Wire Wire Line
	2600 2400 2600 2500
Connection ~ 5050 950 
Wire Wire Line
	2800 950  3100 950 
Wire Wire Line
	3100 950  3100 1050
Wire Wire Line
	2800 850  2900 850 
Wire Wire Line
	2100 1050 2100 1250
Wire Wire Line
	2100 1250 2350 1250
Wire Wire Line
	2350 1250 2350 1450
Wire Wire Line
	850  2950 1000 2950
Wire Wire Line
	1500 3050 1650 3050
Wire Wire Line
	1000 3050 850  3050
Wire Wire Line
	1500 3150 1650 3150
Wire Wire Line
	1000 3150 850  3150
Wire Wire Line
	1500 3250 1650 3250
Wire Wire Line
	1000 3250 850  3250
Wire Wire Line
	1000 3350 850  3350
Wire Wire Line
	1500 3450 1700 3450
Wire Wire Line
	800  3450 1000 3450
Wire Wire Line
	1500 3550 1700 3550
Wire Wire Line
	800  3550 1000 3550
Wire Wire Line
	1500 3650 1700 3650
Wire Wire Line
	800  3650 1000 3650
Wire Wire Line
	1500 3750 1700 3750
Wire Wire Line
	800  4800 1000 4800
Wire Wire Line
	1500 4800 1700 4800
Wire Wire Line
	1000 4700 800  4700
Wire Wire Line
	1500 4700 1700 4700
Wire Wire Line
	1000 4600 800  4600
Wire Wire Line
	1500 4600 1700 4600
Wire Wire Line
	1000 4500 800  4500
Wire Wire Line
	1500 4500 1700 4500
Wire Wire Line
	1000 4400 800  4400
Wire Wire Line
	1500 4400 1700 4400
Wire Wire Line
	1000 4300 800  4300
Wire Wire Line
	1500 4300 1700 4300
Wire Wire Line
	1000 4200 800  4200
Wire Wire Line
	1500 4200 1700 4200
Wire Wire Line
	800  4100 1000 4100
Wire Wire Line
	1700 4100 1500 4100
Wire Wire Line
	800  3850 1000 3850
Wire Wire Line
	800  3750 1000 3750
Wire Wire Line
	1500 2950 1650 2950
Wire Wire Line
	1500 3850 1700 3850
Wire Wire Line
	5500 1350 5750 1350
Wire Wire Line
	5700 1300 5700 1400
Connection ~ 5700 1350
Wire Wire Line
	5700 1800 5700 1900
Connection ~ 5700 1850
Wire Wire Line
	5700 800  5700 750 
Wire Wire Line
	8200 2800 8300 2800
Wire Wire Line
	8300 2800 8300 3000
Wire Wire Line
	8200 2900 8400 2900
Wire Wire Line
	5500 1850 6200 1850
Wire Wire Line
	6150 1350 6300 1350
Wire Wire Line
	6200 1350 6200 1300
$Comp
L +3.3V #PWR041
U 1 1 555B4C28
P 5100 1400
F 0 "#PWR041" H 5100 1360 30  0001 C CNN
F 1 "+3.3V" H 5100 1510 30  0000 C CNN
F 2 "" H 5100 1400 60  0000 C CNN
F 3 "" H 5100 1400 60  0000 C CNN
	1    5100 1400
	1    0    0    -1  
$EndComp
$Comp
L +3.3V #PWR042
U 1 1 555B4C41
P 4250 1550
F 0 "#PWR042" H 4250 1510 30  0001 C CNN
F 1 "+3.3V" H 4250 1660 30  0000 C CNN
F 2 "" H 4250 1550 60  0000 C CNN
F 3 "" H 4250 1550 60  0000 C CNN
	1    4250 1550
	1    0    0    -1  
$EndComp
$Comp
L +3.3V #PWR043
U 1 1 555B4C50
P 2850 1900
F 0 "#PWR043" H 2850 1860 30  0001 C CNN
F 1 "+3.3V" H 2850 2010 30  0000 C CNN
F 2 "" H 2850 1900 60  0000 C CNN
F 3 "" H 2850 1900 60  0000 C CNN
	1    2850 1900
	1    0    0    -1  
$EndComp
$Comp
L +3.3V #PWR044
U 1 1 555B4C5F
P 3100 1900
F 0 "#PWR044" H 3100 1860 30  0001 C CNN
F 1 "+3.3V" H 3100 2010 30  0000 C CNN
F 2 "" H 3100 1900 60  0000 C CNN
F 3 "" H 3100 1900 60  0000 C CNN
	1    3100 1900
	1    0    0    -1  
$EndComp
$Comp
L +3.3V #PWR045
U 1 1 555B4C6E
P 3350 1900
F 0 "#PWR045" H 3350 1860 30  0001 C CNN
F 1 "+3.3V" H 3350 2010 30  0000 C CNN
F 2 "" H 3350 1900 60  0000 C CNN
F 3 "" H 3350 1900 60  0000 C CNN
	1    3350 1900
	1    0    0    -1  
$EndComp
$Comp
L +3.3V #PWR046
U 1 1 555B4C7D
P 3600 1900
F 0 "#PWR046" H 3600 1860 30  0001 C CNN
F 1 "+3.3V" H 3600 2010 30  0000 C CNN
F 2 "" H 3600 1900 60  0000 C CNN
F 3 "" H 3600 1900 60  0000 C CNN
	1    3600 1900
	1    0    0    -1  
$EndComp
$Comp
L CAP-POL C2
U 1 1 555B4C8A
P 2100 2200
F 0 "C2" H 2140 2305 40  0000 L CNN
F 1 "10uF" H 2140 2055 40  0000 L CNN
F 2 "~" H 2100 2185 60  0000 C CNN
F 3 "~" H 2100 2185 60  0000 C CNN
	1    2100 2200
	1    0    0    -1  
$EndComp
$Comp
L +BATT #PWR047
U 1 1 555B4C90
P 2100 1900
F 0 "#PWR047" H 2100 1850 20  0001 C CNN
F 1 "+BATT" H 2100 2000 30  0000 C CNN
F 2 "" H 2100 1900 60  0000 C CNN
F 3 "" H 2100 1900 60  0000 C CNN
	1    2100 1900
	1    0    0    -1  
$EndComp
Wire Wire Line
	2100 2000 2100 1900
$Comp
L GND #PWR048
U 1 1 555B4C97
P 2100 2500
F 0 "#PWR048" H 2100 2500 30  0001 C CNN
F 1 "GND" H 2100 2430 30  0001 C CNN
F 2 "" H 2100 2500 60  0000 C CNN
F 3 "" H 2100 2500 60  0000 C CNN
	1    2100 2500
	1    0    0    -1  
$EndComp
Wire Wire Line
	2100 2400 2100 2500
$Comp
L +3.3V #PWR049
U 1 1 555B52D0
P 2500 1450
F 0 "#PWR049" H 2500 1410 30  0001 C CNN
F 1 "+3.3V" H 2500 1560 30  0000 C CNN
F 2 "" H 2500 1450 60  0000 C CNN
F 3 "" H 2500 1450 60  0000 C CNN
	1    2500 1450
	1    0    0    -1  
$EndComp
$Comp
L +3.3V #PWR050
U 1 1 555B698F
P 3450 2800
F 0 "#PWR050" H 3450 2760 30  0001 C CNN
F 1 "+3.3V" H 3450 2910 30  0000 C CNN
F 2 "" H 3450 2800 60  0000 C CNN
F 3 "" H 3450 2800 60  0000 C CNN
	1    3450 2800
	1    0    0    -1  
$EndComp
$Comp
L +3.3V #PWR051
U 1 1 555B69A8
P 5150 2800
F 0 "#PWR051" H 5150 2760 30  0001 C CNN
F 1 "+3.3V" H 5150 2910 30  0000 C CNN
F 2 "" H 5150 2800 60  0000 C CNN
F 3 "" H 5150 2800 60  0000 C CNN
	1    5150 2800
	1    0    0    -1  
$EndComp
$Comp
L +3.3V #PWR052
U 1 1 555B69B7
P 5150 3900
F 0 "#PWR052" H 5150 3860 30  0001 C CNN
F 1 "+3.3V" H 5150 4010 30  0000 C CNN
F 2 "" H 5150 3900 60  0000 C CNN
F 3 "" H 5150 3900 60  0000 C CNN
	1    5150 3900
	1    0    0    -1  
$EndComp
$Comp
L +3.3V #PWR053
U 1 1 555B69C6
P 3450 3900
F 0 "#PWR053" H 3450 3860 30  0001 C CNN
F 1 "+3.3V" H 3450 4010 30  0000 C CNN
F 2 "" H 3450 3900 60  0000 C CNN
F 3 "" H 3450 3900 60  0000 C CNN
	1    3450 3900
	1    0    0    -1  
$EndComp
$Comp
L PWR_FLAG #FLG054
U 1 1 555B7C6C
P 6300 1250
F 0 "#FLG054" H 6300 1345 30  0001 C CNN
F 1 "PWR_FLAG" H 6300 1430 30  0000 C CNN
F 2 "" H 6300 1250 60  0000 C CNN
F 3 "" H 6300 1250 60  0000 C CNN
	1    6300 1250
	1    0    0    -1  
$EndComp
Wire Wire Line
	6300 1350 6300 1250
Connection ~ 6200 1350
Text Label 8200 1400 0    40   ~ 0
MUX4
Wire Wire Line
	8200 1400 8350 1400
NoConn ~ 8200 1500
NoConn ~ 8200 1600
NoConn ~ 8200 2400
NoConn ~ 8200 2500
NoConn ~ 8200 2600
NoConn ~ 6700 1300
NoConn ~ 6700 1400
Wire Wire Line
	2200 5050 2350 5050
Text Label 3850 4250 0    39   ~ 0
LCD35
Text Label 3850 4350 0    39   ~ 0
LCD36
Text Label 3850 4450 0    39   ~ 0
LCD37
Text Label 3850 4550 0    39   ~ 0
LCD38
Text Label 3850 4650 0    39   ~ 0
LCD39
Text Label 3850 3950 0    39   ~ 0
LCD32
Text Label 3850 4050 0    39   ~ 0
LCD33
Text Label 3850 4150 0    39   ~ 0
LCD34
$Comp
L GND #PWR055
U 1 1 555BD760
P 3450 5850
F 0 "#PWR055" H 3450 5850 30  0001 C CNN
F 1 "GND" H 3450 5780 30  0001 C CNN
F 2 "" H 3450 5850 60  0000 C CNN
F 3 "" H 3450 5850 60  0000 C CNN
	1    3450 5850
	1    0    0    -1  
$EndComp
Text Label 3450 5150 0    40   ~ 0
MUX4
$Comp
L 4051 IC8
U 1 1 555BD767
P 2900 5400
F 0 "IC8" H 2550 5880 40  0000 C CNN
F 1 "4051" H 2575 4900 40  0000 C CNN
F 2 "~" H 3350 5200 60  0000 C CNN
F 3 "~" H 3350 5200 60  0000 C CNN
	1    2900 5400
	1    0    0    -1  
$EndComp
Text Label 3450 5250 0    40   ~ 0
SEL0
Text Label 3450 5350 0    40   ~ 0
SEL1
Text Label 3450 5450 0    40   ~ 0
SEL2
Wire Wire Line
	3850 4150 4050 4150
Wire Wire Line
	4050 4050 3850 4050
Wire Wire Line
	3850 3950 4050 3950
Wire Wire Line
	4050 4650 3850 4650
Wire Wire Line
	3850 4550 4050 4550
Wire Wire Line
	4050 4450 3850 4450
Wire Wire Line
	3850 4350 4050 4350
Wire Wire Line
	4050 4250 3850 4250
Wire Wire Line
	3450 5550 3450 5850
Connection ~ 3450 5750
Connection ~ 3450 5650
Wire Wire Line
	3450 5050 3450 5000
Wire Wire Line
	3450 5150 3600 5150
Wire Wire Line
	3450 5450 3600 5450
Wire Wire Line
	3600 5350 3450 5350
Wire Wire Line
	3450 5250 3600 5250
$Comp
L +3.3V #PWR056
U 1 1 555BD780
P 3450 5000
F 0 "#PWR056" H 3450 4960 30  0001 C CNN
F 1 "+3.3V" H 3450 5110 30  0000 C CNN
F 2 "" H 3450 5000 60  0000 C CNN
F 3 "" H 3450 5000 60  0000 C CNN
	1    3450 5000
	1    0    0    -1  
$EndComp
$Comp
L 2N3904 Q1
U 1 1 555BE080
P 7650 3950
F 0 "Q1" H 7650 3802 40  0000 R CNN
F 1 "2N3904" H 7650 4100 40  0000 R CNN
F 2 "TO-92" H 7550 4052 29  0000 C CNN
F 3 "~" H 7650 3950 60  0000 C CNN
	1    7650 3950
	0    -1   -1   0   
$EndComp
Text Label 5850 3850 0    40   ~ 0
C1
Wire Wire Line
	5850 3850 5950 3850
Text Label 6400 3850 0    40   ~ 0
E1
Wire Wire Line
	6350 3850 6500 3850
Text Label 6150 4150 0    40   ~ 0
KEY1
Wire Wire Line
	6150 4150 6300 4150
$Comp
L 2N3904 Q5
U 1 1 555BEBA8
P 6500 5300
F 0 "Q5" H 6500 5152 40  0000 R CNN
F 1 "2N3904" H 6500 5450 40  0000 R CNN
F 2 "TO-92" H 6400 5402 29  0000 C CNN
F 3 "~" H 6500 5300 60  0000 C CNN
	1    6500 5300
	0    -1   -1   0   
$EndComp
Text Label 6600 3850 0    40   ~ 0
C2
Wire Wire Line
	6600 3850 6700 3850
Text Label 7150 3850 0    40   ~ 0
E2
Wire Wire Line
	7100 3850 7250 3850
Text Label 6900 4150 0    40   ~ 0
KEY2
Wire Wire Line
	6900 4150 7050 4150
$Comp
L 2N3904 Q9
U 1 1 555BECDE
P 6150 3950
F 0 "Q9" H 6150 3802 40  0000 R CNN
F 1 "2N3904" H 6150 4100 40  0000 R CNN
F 2 "TO-92" H 6050 4052 29  0000 C CNN
F 3 "~" H 6150 3950 60  0000 C CNN
	1    6150 3950
	0    -1   -1   0   
$EndComp
Text Label 7350 3850 0    40   ~ 0
C3
Wire Wire Line
	7350 3850 7450 3850
Text Label 7900 3850 0    40   ~ 0
E3
Wire Wire Line
	7850 3850 8000 3850
Text Label 7650 4150 0    40   ~ 0
KEY3
Wire Wire Line
	7650 4150 7800 4150
$Comp
L 2N3904 Q2
U 1 1 555BECEE
P 7650 4400
F 0 "Q2" H 7650 4252 40  0000 R CNN
F 1 "2N3904" H 7650 4550 40  0000 R CNN
F 2 "TO-92" H 7550 4502 29  0000 C CNN
F 3 "~" H 7650 4400 60  0000 C CNN
	1    7650 4400
	0    -1   -1   0   
$EndComp
Text Label 5850 4300 0    40   ~ 0
C4
Wire Wire Line
	5850 4300 5950 4300
Text Label 6400 4300 0    40   ~ 0
E4
Wire Wire Line
	6350 4300 6500 4300
Text Label 6150 4600 0    40   ~ 0
KEY4
Wire Wire Line
	6150 4600 6300 4600
$Comp
L 2N3904 Q6
U 1 1 555BECFA
P 6900 4850
F 0 "Q6" H 6900 4702 40  0000 R CNN
F 1 "2N3904" H 6900 5000 40  0000 R CNN
F 2 "TO-92" H 6800 4952 29  0000 C CNN
F 3 "~" H 6900 4850 60  0000 C CNN
	1    6900 4850
	0    -1   -1   0   
$EndComp
Text Label 6600 4300 0    40   ~ 0
C5
Wire Wire Line
	6600 4300 6700 4300
Text Label 7150 4300 0    40   ~ 0
E5
Wire Wire Line
	7100 4300 7250 4300
Text Label 6900 4600 0    40   ~ 0
KEY5
Wire Wire Line
	6900 4600 7050 4600
$Comp
L 2N3904 Q10
U 1 1 555BED06
P 6150 4400
F 0 "Q10" H 6150 4252 40  0000 R CNN
F 1 "2N3904" H 6150 4550 40  0000 R CNN
F 2 "TO-92" H 6050 4502 29  0000 C CNN
F 3 "~" H 6150 4400 60  0000 C CNN
	1    6150 4400
	0    -1   -1   0   
$EndComp
Text Label 7350 4300 0    40   ~ 0
C6
Wire Wire Line
	7350 4300 7450 4300
Text Label 7900 4300 0    40   ~ 0
E6
Wire Wire Line
	7850 4300 8000 4300
Text Label 7650 4600 0    40   ~ 0
KEY6
Wire Wire Line
	7650 4600 7800 4600
$Comp
L 2N3904 Q3
U 1 1 555BEE57
P 7650 4850
F 0 "Q3" H 7650 4702 40  0000 R CNN
F 1 "2N3904" H 7650 5000 40  0000 R CNN
F 2 "TO-92" H 7550 4952 29  0000 C CNN
F 3 "~" H 7650 4850 60  0000 C CNN
	1    7650 4850
	0    -1   -1   0   
$EndComp
Text Label 5850 4750 0    40   ~ 0
C7
Wire Wire Line
	5850 4750 5950 4750
Text Label 6400 4750 0    40   ~ 0
E7
Wire Wire Line
	6350 4750 6500 4750
Text Label 6150 5050 0    40   ~ 0
KEY7
Wire Wire Line
	6150 5050 6300 5050
$Comp
L 2N3904 Q7
U 1 1 555BEE63
P 7250 5300
F 0 "Q7" H 7250 5152 40  0000 R CNN
F 1 "2N3904" H 7250 5450 40  0000 R CNN
F 2 "TO-92" H 7150 5402 29  0000 C CNN
F 3 "~" H 7250 5300 60  0000 C CNN
	1    7250 5300
	0    -1   -1   0   
$EndComp
Text Label 6600 4750 0    40   ~ 0
C8
Wire Wire Line
	6600 4750 6700 4750
Text Label 7150 4750 0    40   ~ 0
E8
Wire Wire Line
	7100 4750 7250 4750
Text Label 6900 5050 0    40   ~ 0
KEY8
Wire Wire Line
	6900 5050 7050 5050
$Comp
L 2N3904 Q11
U 1 1 555BEE6F
P 6150 4850
F 0 "Q11" H 6150 4702 40  0000 R CNN
F 1 "2N3904" H 6150 5000 40  0000 R CNN
F 2 "TO-92" H 6050 4952 29  0000 C CNN
F 3 "~" H 6150 4850 60  0000 C CNN
	1    6150 4850
	0    -1   -1   0   
$EndComp
Text Label 7350 4750 0    40   ~ 0
C9
Wire Wire Line
	7350 4750 7450 4750
Text Label 7900 4750 0    40   ~ 0
E9
Wire Wire Line
	7850 4750 8000 4750
Text Label 7650 5050 0    40   ~ 0
KEY9
Wire Wire Line
	7650 5050 7800 5050
$Comp
L 2N3904 Q4
U 1 1 555BEE7B
P 6900 3950
F 0 "Q4" H 6900 3802 40  0000 R CNN
F 1 "2N3904" H 6900 4100 40  0000 R CNN
F 2 "TO-92" H 6800 4052 29  0000 C CNN
F 3 "~" H 6900 3950 60  0000 C CNN
	1    6900 3950
	0    -1   -1   0   
$EndComp
Text Label 6200 5200 0    40   ~ 0
C0
Wire Wire Line
	6200 5200 6300 5200
Text Label 6750 5200 0    40   ~ 0
E0
Wire Wire Line
	6700 5200 6850 5200
Text Label 6500 5500 0    40   ~ 0
KEY0
Wire Wire Line
	6500 5500 6650 5500
$Comp
L 2N3904 Q8
U 1 1 555BEE87
P 6900 4400
F 0 "Q8" H 6900 4252 40  0000 R CNN
F 1 "2N3904" H 6900 4550 40  0000 R CNN
F 2 "TO-92" H 6800 4502 29  0000 C CNN
F 3 "~" H 6900 4400 60  0000 C CNN
	1    6900 4400
	0    -1   -1   0   
$EndComp
Text Label 6950 5200 0    40   ~ 0
CE
Wire Wire Line
	6950 5200 7050 5200
Text Label 7500 5200 0    40   ~ 0
EE
Wire Wire Line
	7450 5200 7600 5200
Text Label 7250 5500 0    40   ~ 0
KEY_ENTER
Wire Wire Line
	7250 5500 7400 5500
Text Label 9100 4850 0    40   ~ 0
C1
Wire Wire Line
	9100 4850 9200 4850
Text Label 9100 4750 0    40   ~ 0
C4
Wire Wire Line
	9100 4750 9200 4750
Text Label 9100 4650 0    40   ~ 0
C7
Wire Wire Line
	9100 4650 9200 4650
Text Label 9100 4150 0    40   ~ 0
C2
Wire Wire Line
	9100 4150 9200 4150
Text Label 9100 4550 0    40   ~ 0
C5
Wire Wire Line
	9100 4550 9200 4550
Text Label 9100 4350 0    40   ~ 0
C8
Wire Wire Line
	9100 4350 9200 4350
Text Label 9100 3850 0    40   ~ 0
C3
Wire Wire Line
	9100 3850 9200 3850
Text Label 9100 3950 0    40   ~ 0
C6
Wire Wire Line
	9100 3950 9200 3950
Text Label 9100 4050 0    40   ~ 0
C9
Wire Wire Line
	9100 4050 9200 4050
Text Label 9100 4450 0    40   ~ 0
C0
Wire Wire Line
	9100 4450 9200 4450
Text Label 9100 4250 0    40   ~ 0
CE
Wire Wire Line
	9100 4250 9200 4250
Text Label 8500 4050 0    40   ~ 0
E9
Wire Wire Line
	8450 4050 8600 4050
Text Label 8500 4450 0    40   ~ 0
E0
Wire Wire Line
	8450 4450 8600 4450
Text Label 8500 4250 0    40   ~ 0
EE
Wire Wire Line
	8450 4250 8600 4250
Text Label 8500 3950 0    40   ~ 0
E6
Wire Wire Line
	8450 3950 8600 3950
Text Label 8500 4650 0    40   ~ 0
E7
Wire Wire Line
	8450 4650 8600 4650
Text Label 8500 4350 0    40   ~ 0
E8
Wire Wire Line
	8450 4350 8600 4350
Text Label 8500 3850 0    40   ~ 0
E3
Wire Wire Line
	8450 3850 8600 3850
Text Label 8500 4750 0    40   ~ 0
E4
Wire Wire Line
	8450 4750 8600 4750
Text Label 8500 4550 0    40   ~ 0
E5
Wire Wire Line
	8450 4550 8600 4550
Text Label 8500 4850 0    40   ~ 0
E1
Wire Wire Line
	8450 4850 8600 4850
Text Label 8500 4150 0    40   ~ 0
E2
Wire Wire Line
	8450 4150 8600 4150
$Comp
L HEADER-12X2 P6
U 1 1 555C1A83
P 8850 4300
F 0 "P6" V 8800 4300 40  0000 C CNN
F 1 "HEADER-12X2" V 8900 4300 40  0000 C CNN
F 2 "~" H 8850 4300 60  0000 C CNN
F 3 "~" H 8850 4300 60  0000 C CNN
	1    8850 4300
	1    0    0    -1  
$EndComp
$Comp
L VCC #PWR057
U 1 1 555C1A90
P 8500 3750
F 0 "#PWR057" H 8500 3850 30  0001 C CNN
F 1 "VCC" H 8500 3850 30  0000 C CNN
F 2 "" H 8500 3750 60  0000 C CNN
F 3 "" H 8500 3750 60  0000 C CNN
	1    8500 3750
	1    0    0    -1  
$EndComp
Wire Wire Line
	9100 3750 9300 3750
$Comp
L GND #PWR058
U 1 1 555C1BE3
P 9300 3850
F 0 "#PWR058" H 9300 3850 30  0001 C CNN
F 1 "GND" H 9300 3780 30  0001 C CNN
F 2 "" H 9300 3850 60  0000 C CNN
F 3 "" H 9300 3850 60  0000 C CNN
	1    9300 3850
	1    0    0    -1  
$EndComp
Wire Wire Line
	9300 3750 9300 3850
Wire Wire Line
	8500 3750 8600 3750
$Comp
L HEADER-10X2 P7
U 1 1 555C30C7
P 1250 3400
F 0 "P7" V 1200 3400 40  0000 C CNN
F 1 "HEADER-10X2" V 1300 3400 40  0000 C CNN
F 2 "~" H 1250 3300 60  0000 C CNN
F 3 "~" H 1250 3300 60  0000 C CNN
	1    1250 3400
	1    0    0    -1  
$EndComp
Wire Wire Line
	1650 3350 1500 3350
$Comp
L HEADER-10X2 P5
U 1 1 555C40F3
P 1250 4550
F 0 "P5" V 1200 4550 40  0000 C CNN
F 1 "HEADER-10X2" V 1300 4550 40  0000 C CNN
F 2 "~" H 1250 4450 60  0000 C CNN
F 3 "~" H 1250 4450 60  0000 C CNN
	1    1250 4550
	1    0    0    -1  
$EndComp
$EndSCHEMATC
