EESchema Schematic File Version 2
LIBS:power
LIBS:Connectors
LIBS:Devices
LIBS:Components
LIBS:Servo-Controller-cache
EELAYER 27 0
EELAYER END
$Descr A4 11693 8268
encoding utf-8
Sheet 1 1
Title "Servo-Controller"
Date "9 mar 2014"
Rev ""
Comp ""
Comment1 ""
Comment2 ""
Comment3 ""
Comment4 ""
$EndDescr
$Comp
L +8V #PWR02
U 1 1 522B5296
P 1650 2650
F 0 "#PWR02" H 1650 2620 20  0001 C CNN
F 1 "+8V" H 1650 2760 30  0000 C CNN
F 2 "" H 1650 2650 60  0001 C CNN
F 3 "" H 1650 2650 60  0001 C CNN
	1    1650 2650
	1    0    0    -1  
$EndComp
$Comp
L +3.3V #PWR07
U 1 1 522B4D86
P 1350 850
F 0 "#PWR07" H 1350 810 30  0001 C CNN
F 1 "+3.3V" H 1350 960 30  0000 C CNN
F 2 "" H 1350 850 60  0001 C CNN
F 3 "" H 1350 850 60  0001 C CNN
	1    1350 850 
	1    0    0    -1  
$EndComp
NoConn ~ 2550 900 
Text Label 2400 2900 0    60   ~ 0
SR2
Text Label 2400 3600 0    60   ~ 0
SR9
Text Label 2400 3500 0    60   ~ 0
SR8
Text Label 2400 3400 0    60   ~ 0
SR7
Text Label 2400 3300 0    60   ~ 0
SR6
Text Label 2400 3200 0    60   ~ 0
SR5
Text Label 2400 3100 0    60   ~ 0
SR4
Text Label 2400 3000 0    60   ~ 0
SR3
Text Label 2400 2800 0    60   ~ 0
SR1
Text Label 2400 2700 0    60   ~ 0
SR0
$Comp
L GND #PWR012
U 1 1 522B4494
P 900 3650
F 0 "#PWR012" H 900 3650 30  0001 C CNN
F 1 "GND" H 900 3580 30  0001 C CNN
F 2 "" H 900 3650 60  0001 C CNN
F 3 "" H 900 3650 60  0001 C CNN
	1    900  3650
	1    0    0    -1  
$EndComp
Text Label 1250 1900 0    60   ~ 0
P22
Text Label 1250 1700 0    60   ~ 0
P21
$Comp
L GND #PWR015
U 1 1 522B3B50
P 1350 1050
F 0 "#PWR015" H 1350 1050 30  0001 C CNN
F 1 "GND" H 1350 980 30  0001 C CNN
F 2 "" H 1350 1050 60  0001 C CNN
F 3 "" H 1350 1050 60  0001 C CNN
	1    1350 1050
	1    0    0    -1  
$EndComp
Text Label 2600 1900 0    60   ~ 0
SR9
Text Label 2600 1800 0    60   ~ 0
SR8
Text Label 2600 1700 0    60   ~ 0
SR7
Text Label 2600 1600 0    60   ~ 0
SR6
Text Label 2600 1500 0    60   ~ 0
SR5
Text Label 2600 1400 0    60   ~ 0
SR4
Text Label 2600 1300 0    60   ~ 0
SR3
Text Label 2600 1200 0    60   ~ 0
SR2
Text Label 2600 1100 0    60   ~ 0
SR1
Text Label 2600 1000 0    60   ~ 0
SR0
Connection ~ 1750 2700
Wire Wire Line
	1750 2450 1750 2700
Wire Wire Line
	2600 2900 2400 2900
Connection ~ 900  3600
Connection ~ 1650 3400
Connection ~ 1650 3200
Connection ~ 1650 3000
Connection ~ 1650 2800
Connection ~ 900  3500
Wire Wire Line
	900  3500 1100 3500
Connection ~ 900  3400
Connection ~ 900  3200
Connection ~ 900  3000
Connection ~ 900  2800
Wire Wire Line
	2600 3600 2400 3600
Wire Wire Line
	2600 3400 2400 3400
Wire Wire Line
	2600 3200 2400 3200
Wire Wire Line
	2600 3000 2400 3000
Wire Wire Line
	2600 2700 2400 2700
Wire Wire Line
	1650 3500 1850 3500
Wire Wire Line
	1650 3300 1850 3300
Wire Wire Line
	1650 3100 1850 3100
Wire Wire Line
	1650 2900 1850 2900
Wire Wire Line
	1650 2700 1850 2700
Wire Wire Line
	900  3300 1100 3300
Wire Wire Line
	900  3100 1100 3100
Wire Wire Line
	900  2900 1100 2900
Wire Wire Line
	900  2700 1100 2700
Wire Wire Line
	1450 1700 1250 1700
Wire Wire Line
	1450 1900 1250 1900
Wire Wire Line
	2550 1800 2750 1800
Wire Wire Line
	2550 1600 2750 1600
Wire Wire Line
	2550 1400 2750 1400
Wire Wire Line
	2550 1200 2750 1200
Wire Wire Line
	2750 1000 2550 1000
Wire Wire Line
	2550 1100 2750 1100
Wire Wire Line
	2550 1300 2750 1300
Wire Wire Line
	2550 1500 2750 1500
Wire Wire Line
	2550 1700 2750 1700
Wire Wire Line
	2550 1900 2750 1900
Wire Wire Line
	1100 2800 900  2800
Wire Wire Line
	900  3000 1100 3000
Wire Wire Line
	900  3200 1100 3200
Wire Wire Line
	900  3400 1100 3400
Wire Wire Line
	900  3600 1100 3600
Wire Wire Line
	1650 2800 1850 2800
Wire Wire Line
	1650 3000 1850 3000
Wire Wire Line
	1650 3200 1850 3200
Wire Wire Line
	1650 3400 1850 3400
Wire Wire Line
	1650 3600 1850 3600
Wire Wire Line
	2600 2800 2400 2800
Wire Wire Line
	2600 3100 2400 3100
Wire Wire Line
	2600 3300 2400 3300
Wire Wire Line
	2600 3500 2400 3500
Connection ~ 900  2700
Connection ~ 900  2900
Connection ~ 900  3100
Connection ~ 900  3300
Connection ~ 1650 2900
Connection ~ 1650 3100
Connection ~ 1650 3300
Connection ~ 1650 3500
Wire Wire Line
	1650 2650 1650 3600
Connection ~ 1650 2700
Wire Wire Line
	1350 850  1350 900 
Wire Wire Line
	1350 900  1450 900 
Wire Wire Line
	1350 1050 1350 1000
Wire Wire Line
	1200 1000 1450 1000
Wire Wire Line
	1450 1800 1200 1800
Wire Wire Line
	1200 1800 1200 1000
Connection ~ 1350 1000
$Comp
L 4017 IC2
U 1 1 53169C0C
P 2000 1400
F 0 "IC2" H 1640 2040 40  0000 C CNN
F 1 "4017" H 1670 750 40  0000 C CNN
F 2 "~" H 2050 1400 60  0000 C CNN
F 3 "~" H 2050 1400 60  0000 C CNN
	1    2000 1400
	1    0    0    -1  
$EndComp
$Comp
L HEADER-10X1 P6
U 1 1 5318B312
P 1350 3150
F 0 "P6" V 1300 3150 40  0000 C CNN
F 1 "SERVO-GND" V 1400 3150 40  0000 C CNN
F 2 "~" H 1350 3150 60  0000 C CNN
F 3 "~" H 1350 3150 60  0000 C CNN
	1    1350 3150
	1    0    0    -1  
$EndComp
$Comp
L HEADER-10X1 P7
U 1 1 5318B321
P 2100 3150
F 0 "P7" V 2050 3150 40  0000 C CNN
F 1 "SERVO-VCC" V 2150 3150 40  0000 C CNN
F 2 "~" H 2100 3150 60  0000 C CNN
F 3 "~" H 2100 3150 60  0000 C CNN
	1    2100 3150
	1    0    0    -1  
$EndComp
$Comp
L HEADER-10X1 P8
U 1 1 5318B330
P 2850 3150
F 0 "P8" V 2800 3150 40  0000 C CNN
F 1 "SERVO-SIGNAL" V 2900 3150 40  0000 C CNN
F 2 "~" H 2850 3150 60  0000 C CNN
F 3 "~" H 2850 3150 60  0000 C CNN
	1    2850 3150
	1    0    0    -1  
$EndComp
$Comp
L PWR_FLAG #FLG018
U 1 1 522B5370
P 1750 2450
F 0 "#FLG018" H 1750 2545 30  0001 C CNN
F 1 "PWR_FLAG" H 1750 2630 30  0000 C CNN
F 2 "" H 1750 2450 60  0001 C CNN
F 3 "" H 1750 2450 60  0001 C CNN
	1    1750 2450
	1    0    0    -1  
$EndComp
$Comp
L PWR_FLAG #FLG019
U 1 1 53134995
P 900 2450
F 0 "#FLG019" H 900 2545 30  0001 C CNN
F 1 "PWR_FLAG" H 900 2630 30  0000 C CNN
F 2 "" H 900 2450 60  0001 C CNN
F 3 "" H 900 2450 60  0001 C CNN
	1    900  2450
	1    0    0    -1  
$EndComp
Wire Wire Line
	900  3650 900  2450
$EndSCHEMATC
