EESchema Schematic File Version 2
LIBS:power
LIBS:Connectors
LIBS:Devices
LIBS:Components
LIBS:Bi-Directional-Logic-Level-Converter-Board-cache
EELAYER 27 0
EELAYER END
$Descr A4 11693 8268
encoding utf-8
Sheet 1 1
Title ""
Date "10 mar 2015"
Rev ""
Comp ""
Comment1 ""
Comment2 ""
Comment3 ""
Comment4 ""
$EndDescr
$Comp
L BSS138 Q1
U 1 1 54FABFEF
P 1200 1250
F 0 "Q1" H 1200 1101 40  0000 R CNN
F 1 "BSS138" H 1200 1400 40  0000 R CNN
F 2 "SOT-23" H 1070 1352 29  0000 C CNN
F 3 "~" H 1200 1250 60  0000 C CNN
	1    1200 1250
	0    1    1    0   
$EndComp
$Comp
L BSS138 Q3
U 1 1 54FABFFE
P 2450 1250
F 0 "Q3" H 2450 1101 40  0000 R CNN
F 1 "BSS138" H 2450 1400 40  0000 R CNN
F 2 "SOT-23" H 2320 1352 29  0000 C CNN
F 3 "~" H 2450 1250 60  0000 C CNN
	1    2450 1250
	0    1    1    0   
$EndComp
$Comp
L BSS138 Q2
U 1 1 54FAC00D
P 1200 2050
F 0 "Q2" H 1200 1901 40  0000 R CNN
F 1 "BSS138" H 1200 2200 40  0000 R CNN
F 2 "SOT-23" H 1070 2152 29  0000 C CNN
F 3 "~" H 1200 2050 60  0000 C CNN
	1    1200 2050
	0    1    1    0   
$EndComp
$Comp
L BSS138 Q4
U 1 1 54FAC01C
P 2450 2050
F 0 "Q4" H 2450 1901 40  0000 R CNN
F 1 "BSS138" H 2450 2200 40  0000 R CNN
F 2 "SOT-23" H 2320 2152 29  0000 C CNN
F 3 "~" H 2450 2050 60  0000 C CNN
	1    2450 2050
	0    1    1    0   
$EndComp
$Comp
L RES R1
U 1 1 54FAC02B
P 900 1050
F 0 "R1" H 900 1130 40  0000 C CNN
F 1 "10K" H 900 1050 40  0000 C CNN
F 2 "~" H 900 980 30  0000 C CNN
F 3 "~" V 900 1050 30  0000 C CNN
	1    900  1050
	0    -1   -1   0   
$EndComp
$Comp
L RES R3
U 1 1 54FAC03A
P 1500 1050
F 0 "R3" H 1500 1130 40  0000 C CNN
F 1 "10K" H 1500 1050 40  0000 C CNN
F 2 "~" H 1500 980 30  0000 C CNN
F 3 "~" V 1500 1050 30  0000 C CNN
	1    1500 1050
	0    -1   -1   0   
$EndComp
$Comp
L RES R5
U 1 1 54FAC053
P 2150 1050
F 0 "R5" H 2150 1130 40  0000 C CNN
F 1 "10K" H 2150 1050 40  0000 C CNN
F 2 "~" H 2150 980 30  0000 C CNN
F 3 "~" V 2150 1050 30  0000 C CNN
	1    2150 1050
	0    -1   -1   0   
$EndComp
$Comp
L RES R7
U 1 1 54FAC062
P 2750 1050
F 0 "R7" H 2750 1130 40  0000 C CNN
F 1 "10K" H 2750 1050 40  0000 C CNN
F 2 "~" H 2750 980 30  0000 C CNN
F 3 "~" V 2750 1050 30  0000 C CNN
	1    2750 1050
	0    -1   -1   0   
$EndComp
$Comp
L RES R2
U 1 1 54FAC099
P 900 1850
F 0 "R2" H 900 1930 40  0000 C CNN
F 1 "10K" H 900 1850 40  0000 C CNN
F 2 "~" H 900 1780 30  0000 C CNN
F 3 "~" V 900 1850 30  0000 C CNN
	1    900  1850
	0    -1   -1   0   
$EndComp
$Comp
L RES R4
U 1 1 54FAC0A8
P 1500 1850
F 0 "R4" H 1500 1930 40  0000 C CNN
F 1 "10K" H 1500 1850 40  0000 C CNN
F 2 "~" H 1500 1780 30  0000 C CNN
F 3 "~" V 1500 1850 30  0000 C CNN
	1    1500 1850
	0    -1   -1   0   
$EndComp
$Comp
L RES R6
U 1 1 54FAC0C1
P 2150 1850
F 0 "R6" H 2150 1930 40  0000 C CNN
F 1 "10K" H 2150 1850 40  0000 C CNN
F 2 "~" H 2150 1780 30  0000 C CNN
F 3 "~" V 2150 1850 30  0000 C CNN
	1    2150 1850
	0    -1   -1   0   
$EndComp
$Comp
L RES R8
U 1 1 54FAC0D0
P 2750 1850
F 0 "R8" H 2750 1930 40  0000 C CNN
F 1 "10K" H 2750 1850 40  0000 C CNN
F 2 "~" H 2750 1780 30  0000 C CNN
F 3 "~" V 2750 1850 30  0000 C CNN
	1    2750 1850
	0    -1   -1   0   
$EndComp
Wire Wire Line
	2150 2100 2150 2150
Wire Wire Line
	2000 2150 2250 2150
Wire Wire Line
	2650 2150 2950 2150
Wire Wire Line
	2750 2150 2750 2100
Wire Wire Line
	900  2100 900  2150
Wire Wire Line
	750  2150 1000 2150
Wire Wire Line
	1400 2150 1700 2150
Wire Wire Line
	1500 2150 1500 2100
Wire Wire Line
	2150 1300 2150 1350
Wire Wire Line
	2000 1350 2250 1350
Wire Wire Line
	2650 1350 2950 1350
Wire Wire Line
	2750 1350 2750 1300
Wire Wire Line
	900  1300 900  1350
Wire Wire Line
	750  1350 1000 1350
Wire Wire Line
	1400 1350 1700 1350
Wire Wire Line
	1500 1350 1500 1300
$Comp
L +3.3V #PWR01
U 1 1 54FAC154
P 900 750
F 0 "#PWR01" H 900 710 30  0001 C CNN
F 1 "+3.3V" H 900 860 30  0000 C CNN
F 2 "" H 900 750 60  0000 C CNN
F 3 "" H 900 750 60  0000 C CNN
	1    900  750 
	1    0    0    -1  
$EndComp
$Comp
L +3.3V #PWR02
U 1 1 54FAC16D
P 2150 750
F 0 "#PWR02" H 2150 710 30  0001 C CNN
F 1 "+3.3V" H 2150 860 30  0000 C CNN
F 2 "" H 2150 750 60  0000 C CNN
F 3 "" H 2150 750 60  0000 C CNN
	1    2150 750 
	1    0    0    -1  
$EndComp
$Comp
L +3.3V #PWR03
U 1 1 54FAC17C
P 900 1550
F 0 "#PWR03" H 900 1510 30  0001 C CNN
F 1 "+3.3V" H 900 1660 30  0000 C CNN
F 2 "" H 900 1550 60  0000 C CNN
F 3 "" H 900 1550 60  0000 C CNN
	1    900  1550
	1    0    0    -1  
$EndComp
$Comp
L +3.3V #PWR04
U 1 1 54FAC18B
P 2150 1550
F 0 "#PWR04" H 2150 1510 30  0001 C CNN
F 1 "+3.3V" H 2150 1660 30  0000 C CNN
F 2 "" H 2150 1550 60  0000 C CNN
F 3 "" H 2150 1550 60  0000 C CNN
	1    2150 1550
	1    0    0    -1  
$EndComp
Wire Wire Line
	900  1550 900  1600
Wire Wire Line
	900  750  900  800 
Wire Wire Line
	2150 750  2150 800 
Wire Wire Line
	2150 1550 2150 1600
$Comp
L +5V #PWR05
U 1 1 54FAC21A
P 1500 750
F 0 "#PWR05" H 1500 840 20  0001 C CNN
F 1 "+5V" H 1500 840 30  0000 C CNN
F 2 "" H 1500 750 60  0000 C CNN
F 3 "" H 1500 750 60  0000 C CNN
	1    1500 750 
	1    0    0    -1  
$EndComp
$Comp
L +5V #PWR06
U 1 1 54FAC229
P 2750 750
F 0 "#PWR06" H 2750 840 20  0001 C CNN
F 1 "+5V" H 2750 840 30  0000 C CNN
F 2 "" H 2750 750 60  0000 C CNN
F 3 "" H 2750 750 60  0000 C CNN
	1    2750 750 
	1    0    0    -1  
$EndComp
$Comp
L +5V #PWR07
U 1 1 54FAC238
P 1500 1550
F 0 "#PWR07" H 1500 1640 20  0001 C CNN
F 1 "+5V" H 1500 1640 30  0000 C CNN
F 2 "" H 1500 1550 60  0000 C CNN
F 3 "" H 1500 1550 60  0000 C CNN
	1    1500 1550
	1    0    0    -1  
$EndComp
$Comp
L +5V #PWR08
U 1 1 54FAC247
P 2750 1550
F 0 "#PWR08" H 2750 1640 20  0001 C CNN
F 1 "+5V" H 2750 1640 30  0000 C CNN
F 2 "" H 2750 1550 60  0000 C CNN
F 3 "" H 2750 1550 60  0000 C CNN
	1    2750 1550
	1    0    0    -1  
$EndComp
Wire Wire Line
	1500 1550 1500 1600
Wire Wire Line
	2750 1550 2750 1600
Wire Wire Line
	2750 750  2750 800 
Wire Wire Line
	1500 750  1500 800 
Wire Wire Line
	900  800  1150 800 
Wire Wire Line
	1150 800  1150 1050
Wire Wire Line
	2000 800  2400 800 
Wire Wire Line
	2400 800  2400 1050
Wire Wire Line
	900  1600 1150 1600
Wire Wire Line
	1150 1600 1150 1850
Wire Wire Line
	2150 1600 2400 1600
Wire Wire Line
	2400 1600 2400 1850
Text Label 750  1350 0    39   ~ 0
LV0
Text Label 1550 1350 0    39   ~ 0
HV0
Text Label 2000 1350 0    39   ~ 0
LV2
Text Label 750  2150 0    39   ~ 0
LV1
Text Label 2000 2150 0    39   ~ 0
LV3
Text Label 2800 1350 0    39   ~ 0
HV2
Text Label 1550 2150 0    39   ~ 0
HV1
Text Label 2800 2150 0    39   ~ 0
HV3
Connection ~ 900  2150
Connection ~ 900  1350
Connection ~ 1500 1350
Connection ~ 1500 2150
Connection ~ 2150 2150
Connection ~ 2150 1350
Connection ~ 2750 1350
Connection ~ 2750 2150
$Comp
L GND #PWR09
U 1 1 54FAC58B
P 3500 2000
F 0 "#PWR09" H 3500 2000 30  0001 C CNN
F 1 "GND" H 3500 1930 30  0001 C CNN
F 2 "" H 3500 2000 60  0000 C CNN
F 3 "" H 3500 2000 60  0000 C CNN
	1    3500 2000
	1    0    0    -1  
$EndComp
$Comp
L +5V #PWR010
U 1 1 54FAC59A
P 3050 1950
F 0 "#PWR010" H 3050 2040 20  0001 C CNN
F 1 "+5V" H 3050 2040 30  0000 C CNN
F 2 "" H 3050 1950 60  0000 C CNN
F 3 "" H 3050 1950 60  0000 C CNN
	1    3050 1950
	1    0    0    -1  
$EndComp
$Comp
L +3.3V #PWR011
U 1 1 54FAC5A9
P 3050 1150
F 0 "#PWR011" H 3050 1110 30  0001 C CNN
F 1 "+3.3V" H 3050 1260 30  0000 C CNN
F 2 "" H 3050 1150 60  0000 C CNN
F 3 "" H 3050 1150 60  0000 C CNN
	1    3050 1150
	1    0    0    -1  
$EndComp
Wire Wire Line
	3500 1850 3500 2000
Text Label 3200 1150 1    39   ~ 0
LV0
Text Label 3300 1150 1    39   ~ 0
LV1
Text Label 3600 1150 1    39   ~ 0
LV2
Text Label 3700 1150 1    39   ~ 0
LV3
Text Label 3200 1950 1    39   ~ 0
HV0
Text Label 3300 1950 1    39   ~ 0
HV1
Text Label 3600 1950 1    39   ~ 0
HV2
Text Label 3700 1950 1    39   ~ 0
HV3
Wire Wire Line
	3200 1850 3200 1950
Wire Wire Line
	3300 1950 3300 1850
Wire Wire Line
	3600 1950 3600 1850
Wire Wire Line
	3700 1950 3700 1850
Wire Wire Line
	3200 1150 3200 1050
Wire Wire Line
	3300 1150 3300 1050
Wire Wire Line
	3600 1150 3600 1050
Wire Wire Line
	3700 1150 3700 1050
$Comp
L PWR_FLAG #FLG012
U 1 1 54FACACE
P 1650 750
F 0 "#FLG012" H 1650 845 30  0001 C CNN
F 1 "PWR_FLAG" H 1650 930 30  0000 C CNN
F 2 "" H 1650 750 60  0000 C CNN
F 3 "" H 1650 750 60  0000 C CNN
	1    1650 750 
	1    0    0    -1  
$EndComp
$Comp
L PWR_FLAG #FLG013
U 1 1 54FACADD
P 2000 750
F 0 "#FLG013" H 2000 845 30  0001 C CNN
F 1 "PWR_FLAG" H 2000 930 30  0000 C CNN
F 2 "" H 2000 750 60  0000 C CNN
F 3 "" H 2000 750 60  0000 C CNN
	1    2000 750 
	1    0    0    -1  
$EndComp
Wire Wire Line
	2000 750  2000 800 
Connection ~ 2150 800 
Wire Wire Line
	1650 750  1650 800 
Wire Wire Line
	1650 800  1500 800 
$Comp
L PWR_FLAG #FLG014
U 1 1 54FACBCB
P 3250 1350
F 0 "#FLG014" H 3250 1445 30  0001 C CNN
F 1 "PWR_FLAG" H 3250 1530 30  0000 C CNN
F 2 "" H 3250 1350 60  0000 C CNN
F 3 "" H 3250 1350 60  0000 C CNN
	1    3250 1350
	0    -1   -1   0   
$EndComp
$Comp
L GND #PWR015
U 1 1 54FACBDA
P 3300 1350
F 0 "#PWR015" H 3300 1350 30  0001 C CNN
F 1 "GND" H 3300 1280 30  0001 C CNN
F 2 "" H 3300 1350 60  0000 C CNN
F 3 "" H 3300 1350 60  0000 C CNN
	1    3300 1350
	0    -1   -1   0   
$EndComp
Wire Wire Line
	3300 1350 3250 1350
$Comp
L HEADER-6X1 P2
U 1 1 54FEB8DA
P 3450 1600
F 0 "P2" V 3400 1600 40  0000 C CNN
F 1 "HEADER-6X1" V 3500 1600 40  0000 C CNN
F 2 "~" H 3450 1600 60  0000 C CNN
F 3 "~" H 3450 1600 60  0000 C CNN
	1    3450 1600
	0    -1   -1   0   
$EndComp
Wire Wire Line
	3050 1950 3050 2000
Wire Wire Line
	3050 2000 3400 2000
Wire Wire Line
	3400 2000 3400 1850
$Comp
L GND #PWR016
U 1 1 54FEBDF5
P 3500 1200
F 0 "#PWR016" H 3500 1200 30  0001 C CNN
F 1 "GND" H 3500 1130 30  0001 C CNN
F 2 "" H 3500 1200 60  0000 C CNN
F 3 "" H 3500 1200 60  0000 C CNN
	1    3500 1200
	1    0    0    -1  
$EndComp
Wire Wire Line
	3500 1050 3500 1200
$Comp
L HEADER-6X1 P1
U 1 1 54FEBE0A
P 3450 800
F 0 "P1" V 3400 800 40  0000 C CNN
F 1 "HEADER-6X1" V 3500 800 40  0000 C CNN
F 2 "~" H 3450 800 60  0000 C CNN
F 3 "~" H 3450 800 60  0000 C CNN
	1    3450 800 
	0    -1   -1   0   
$EndComp
Wire Wire Line
	3050 1150 3050 1200
Wire Wire Line
	3050 1200 3400 1200
Wire Wire Line
	3400 1200 3400 1050
$EndSCHEMATC
