(kicad_pcb (version 3) (host pcbnew "(2013-may-18)-stable")

  (general
    (links 29)
    (no_connects 29)
    (area 0 0 0 0)
    (thickness 1.6)
    (drawings 0)
    (tracks 0)
    (zones 0)
    (modules 14)
    (nets 12)
  )

  (page A3)
  (layers
    (15 F.Cu signal)
    (0 B.Cu signal)
    (16 B.Adhes user)
    (17 F.Adhes user)
    (18 B.Paste user)
    (19 F.Paste user)
    (20 B.SilkS user)
    (21 F.SilkS user)
    (22 B.Mask user)
    (23 F.Mask user)
    (24 Dwgs.User user)
    (25 Cmts.User user)
    (26 Eco1.User user)
    (27 Eco2.User user)
    (28 Edge.Cuts user)
  )

  (setup
    (last_trace_width 0.254)
    (trace_clearance 0.254)
    (zone_clearance 0.508)
    (zone_45_only no)
    (trace_min 0.254)
    (segment_width 0.2)
    (edge_width 0.1)
    (via_size 0.889)
    (via_drill 0.635)
    (via_min_size 0.889)
    (via_min_drill 0.508)
    (uvia_size 0.508)
    (uvia_drill 0.127)
    (uvias_allowed no)
    (uvia_min_size 0.508)
    (uvia_min_drill 0.127)
    (pcb_text_width 0.3)
    (pcb_text_size 1.5 1.5)
    (mod_edge_width 0.15)
    (mod_text_size 1 1)
    (mod_text_width 0.15)
    (pad_size 1.5 1.5)
    (pad_drill 0.6)
    (pad_to_mask_clearance 0)
    (aux_axis_origin 0 0)
    (visible_elements FFFFFFBF)
    (pcbplotparams
      (layerselection 3178497)
      (usegerberextensions true)
      (excludeedgelayer true)
      (linewidth 0.150000)
      (plotframeref false)
      (viasonmask false)
      (mode 1)
      (useauxorigin false)
      (hpglpennumber 1)
      (hpglpenspeed 20)
      (hpglpendiameter 15)
      (hpglpenoverlay 2)
      (psnegative false)
      (psa4output false)
      (plotreference true)
      (plotvalue true)
      (plotothertext true)
      (plotinvisibletext false)
      (padsonsilk false)
      (subtractmaskfromsilk false)
      (outputformat 1)
      (mirror false)
      (drillshape 1)
      (scaleselection 1)
      (outputdirectory ""))
  )

  (net 0 "")
  (net 1 +3.3V)
  (net 2 +5V)
  (net 3 /HV0)
  (net 4 /HV1)
  (net 5 /HV2)
  (net 6 /HV3)
  (net 7 /LV0)
  (net 8 /LV1)
  (net 9 /LV2)
  (net 10 /LV3)
  (net 11 GND)

  (net_class Default "This is the default net class."
    (clearance 0.254)
    (trace_width 0.254)
    (via_dia 0.889)
    (via_drill 0.635)
    (uvia_dia 0.508)
    (uvia_drill 0.127)
    (add_net "")
    (add_net +3.3V)
    (add_net +5V)
    (add_net /HV0)
    (add_net /HV1)
    (add_net /HV2)
    (add_net /HV3)
    (add_net /LV0)
    (add_net /LV1)
    (add_net /LV2)
    (add_net /LV3)
    (add_net GND)
  )

  (module SOT-23 (layer F.Cu) (tedit 54FEB88A) (tstamp 54FEB97F)
    (at 65.405 60.96)
    (descr "SMD SOIC-8 Package")
    (tags SMD)
    (path /54FABFEF)
    (attr smd)
    (fp_text reference Q1 (at -1.9812 0 90) (layer F.SilkS)
      (effects (font (size 0.5 0.5) (thickness 0.12)))
    )
    (fp_text value BSS138 (at 0 0) (layer F.SilkS) hide
      (effects (font (size 0.127 0.127) (thickness 0.000001)))
    )
    (fp_line (start -1.55 -0.75) (end 1.55 -0.75) (layer F.SilkS) (width 0.127))
    (fp_line (start 1.55 -0.75) (end 1.55 0.75) (layer F.SilkS) (width 0.127))
    (fp_line (start 1.55 0.75) (end -1.55 0.75) (layer F.SilkS) (width 0.127))
    (fp_line (start -1.55 0.75) (end -1.55 -0.75) (layer F.SilkS) (width 0.127))
    (pad 1 smd rect (at -0.95 1) (size 0.8 0.9)
      (layers F.Cu F.Paste F.Mask)
      (net 1 +3.3V)
    )
    (pad 2 smd rect (at 0 -1) (size 0.8 0.9)
      (layers F.Cu F.Paste F.Mask)
      (net 7 /LV0)
    )
    (pad 3 smd rect (at 0.95 1) (size 0.8 0.9)
      (layers F.Cu F.Paste F.Mask)
      (net 3 /HV0)
    )
    (model smd/smd_transistors/sot23.wrl
      (at (xyz 0 0 0))
      (scale (xyz 1 1 1))
      (rotate (xyz 0 0 0))
    )
  )

  (module SOT-23 (layer F.Cu) (tedit 54FEB88A) (tstamp 54FEB98A)
    (at 73.66 60.96)
    (descr "SMD SOIC-8 Package")
    (tags SMD)
    (path /54FABFFE)
    (attr smd)
    (fp_text reference Q3 (at -1.9812 0 90) (layer F.SilkS)
      (effects (font (size 0.5 0.5) (thickness 0.12)))
    )
    (fp_text value BSS138 (at 0 0) (layer F.SilkS) hide
      (effects (font (size 0.127 0.127) (thickness 0.000001)))
    )
    (fp_line (start -1.55 -0.75) (end 1.55 -0.75) (layer F.SilkS) (width 0.127))
    (fp_line (start 1.55 -0.75) (end 1.55 0.75) (layer F.SilkS) (width 0.127))
    (fp_line (start 1.55 0.75) (end -1.55 0.75) (layer F.SilkS) (width 0.127))
    (fp_line (start -1.55 0.75) (end -1.55 -0.75) (layer F.SilkS) (width 0.127))
    (pad 1 smd rect (at -0.95 1) (size 0.8 0.9)
      (layers F.Cu F.Paste F.Mask)
      (net 1 +3.3V)
    )
    (pad 2 smd rect (at 0 -1) (size 0.8 0.9)
      (layers F.Cu F.Paste F.Mask)
      (net 9 /LV2)
    )
    (pad 3 smd rect (at 0.95 1) (size 0.8 0.9)
      (layers F.Cu F.Paste F.Mask)
      (net 5 /HV2)
    )
    (model smd/smd_transistors/sot23.wrl
      (at (xyz 0 0 0))
      (scale (xyz 1 1 1))
      (rotate (xyz 0 0 0))
    )
  )

  (module SOT-23 (layer F.Cu) (tedit 54FEB88A) (tstamp 54FEB995)
    (at 69.215 60.96)
    (descr "SMD SOIC-8 Package")
    (tags SMD)
    (path /54FAC00D)
    (attr smd)
    (fp_text reference Q2 (at -1.9812 0 90) (layer F.SilkS)
      (effects (font (size 0.5 0.5) (thickness 0.12)))
    )
    (fp_text value BSS138 (at 0 0) (layer F.SilkS) hide
      (effects (font (size 0.127 0.127) (thickness 0.000001)))
    )
    (fp_line (start -1.55 -0.75) (end 1.55 -0.75) (layer F.SilkS) (width 0.127))
    (fp_line (start 1.55 -0.75) (end 1.55 0.75) (layer F.SilkS) (width 0.127))
    (fp_line (start 1.55 0.75) (end -1.55 0.75) (layer F.SilkS) (width 0.127))
    (fp_line (start -1.55 0.75) (end -1.55 -0.75) (layer F.SilkS) (width 0.127))
    (pad 1 smd rect (at -0.95 1) (size 0.8 0.9)
      (layers F.Cu F.Paste F.Mask)
      (net 1 +3.3V)
    )
    (pad 2 smd rect (at 0 -1) (size 0.8 0.9)
      (layers F.Cu F.Paste F.Mask)
      (net 8 /LV1)
    )
    (pad 3 smd rect (at 0.95 1) (size 0.8 0.9)
      (layers F.Cu F.Paste F.Mask)
      (net 4 /HV1)
    )
    (model smd/smd_transistors/sot23.wrl
      (at (xyz 0 0 0))
      (scale (xyz 1 1 1))
      (rotate (xyz 0 0 0))
    )
  )

  (module SOT-23 (layer F.Cu) (tedit 54FEB88A) (tstamp 54FEB9A0)
    (at 77.47 60.96)
    (descr "SMD SOIC-8 Package")
    (tags SMD)
    (path /54FAC01C)
    (attr smd)
    (fp_text reference Q4 (at -1.9812 0 90) (layer F.SilkS)
      (effects (font (size 0.5 0.5) (thickness 0.12)))
    )
    (fp_text value BSS138 (at 0 0) (layer F.SilkS) hide
      (effects (font (size 0.127 0.127) (thickness 0.000001)))
    )
    (fp_line (start -1.55 -0.75) (end 1.55 -0.75) (layer F.SilkS) (width 0.127))
    (fp_line (start 1.55 -0.75) (end 1.55 0.75) (layer F.SilkS) (width 0.127))
    (fp_line (start 1.55 0.75) (end -1.55 0.75) (layer F.SilkS) (width 0.127))
    (fp_line (start -1.55 0.75) (end -1.55 -0.75) (layer F.SilkS) (width 0.127))
    (pad 1 smd rect (at -0.95 1) (size 0.8 0.9)
      (layers F.Cu F.Paste F.Mask)
      (net 1 +3.3V)
    )
    (pad 2 smd rect (at 0 -1) (size 0.8 0.9)
      (layers F.Cu F.Paste F.Mask)
      (net 10 /LV3)
    )
    (pad 3 smd rect (at 0.95 1) (size 0.8 0.9)
      (layers F.Cu F.Paste F.Mask)
      (net 6 /HV3)
    )
    (model smd/smd_transistors/sot23.wrl
      (at (xyz 0 0 0))
      (scale (xyz 1 1 1))
      (rotate (xyz 0 0 0))
    )
  )

  (module HEADER-6X1 (layer F.Cu) (tedit 54FA30CF) (tstamp 54FEB9AF)
    (at 71.12 67.31)
    (descr "6x1-Pin Connector")
    (tags Connector)
    (path /54FEB8DA)
    (fp_text reference P2 (at 0 -1.524) (layer F.SilkS) hide
      (effects (font (size 0.127 0.127) (thickness 0.000001)))
    )
    (fp_text value HEADER-6X1 (at 0 -1.778) (layer F.SilkS) hide
      (effects (font (size 0.127 0.127) (thickness 0.000001)))
    )
    (fp_line (start -7.62 1.27) (end -7.62 -1.27) (layer F.SilkS) (width 0.3048))
    (fp_line (start -7.62 -1.27) (end 7.62 -1.27) (layer F.SilkS) (width 0.3048))
    (fp_line (start 7.62 -1.27) (end 7.62 1.27) (layer F.SilkS) (width 0.3048))
    (fp_line (start 7.62 1.27) (end -7.62 1.27) (layer F.SilkS) (width 0.3048))
    (fp_line (start -5.08 1.27) (end -5.08 -1.27) (layer F.SilkS) (width 0.3048))
    (pad 1 thru_hole rect (at -6.35 0) (size 1.524 1.524) (drill 1.016)
      (layers *.Cu *.Mask)
      (net 3 /HV0)
    )
    (pad 2 thru_hole circle (at -3.81 0) (size 1.524 1.524) (drill 1.016)
      (layers *.Cu *.Mask)
      (net 4 /HV1)
    )
    (pad 3 thru_hole circle (at -1.27 0) (size 1.524 1.524) (drill 1.016)
      (layers *.Cu *.Mask)
      (net 2 +5V)
    )
    (pad 4 thru_hole circle (at 1.27 0) (size 1.524 1.524) (drill 1.016)
      (layers *.Cu *.Mask)
      (net 11 GND)
    )
    (pad 5 thru_hole circle (at 3.81 0) (size 1.524 1.524) (drill 1.016)
      (layers *.Cu *.Mask)
      (net 5 /HV2)
    )
    (pad 6 thru_hole circle (at 6.35 0) (size 1.524 1.524) (drill 1.016)
      (layers *.Cu *.Mask)
      (net 6 /HV3)
    )
  )

  (module HEADER-6X1 (layer F.Cu) (tedit 54FA30CF) (tstamp 54FEB9BE)
    (at 71.12 54.61)
    (descr "6x1-Pin Connector")
    (tags Connector)
    (path /54FEBE0A)
    (fp_text reference P1 (at 0 -1.524) (layer F.SilkS) hide
      (effects (font (size 0.127 0.127) (thickness 0.000001)))
    )
    (fp_text value HEADER-6X1 (at 0 -1.778) (layer F.SilkS) hide
      (effects (font (size 0.127 0.127) (thickness 0.000001)))
    )
    (fp_line (start -7.62 1.27) (end -7.62 -1.27) (layer F.SilkS) (width 0.3048))
    (fp_line (start -7.62 -1.27) (end 7.62 -1.27) (layer F.SilkS) (width 0.3048))
    (fp_line (start 7.62 -1.27) (end 7.62 1.27) (layer F.SilkS) (width 0.3048))
    (fp_line (start 7.62 1.27) (end -7.62 1.27) (layer F.SilkS) (width 0.3048))
    (fp_line (start -5.08 1.27) (end -5.08 -1.27) (layer F.SilkS) (width 0.3048))
    (pad 1 thru_hole rect (at -6.35 0) (size 1.524 1.524) (drill 1.016)
      (layers *.Cu *.Mask)
      (net 7 /LV0)
    )
    (pad 2 thru_hole circle (at -3.81 0) (size 1.524 1.524) (drill 1.016)
      (layers *.Cu *.Mask)
      (net 8 /LV1)
    )
    (pad 3 thru_hole circle (at -1.27 0) (size 1.524 1.524) (drill 1.016)
      (layers *.Cu *.Mask)
      (net 1 +3.3V)
    )
    (pad 4 thru_hole circle (at 1.27 0) (size 1.524 1.524) (drill 1.016)
      (layers *.Cu *.Mask)
      (net 11 GND)
    )
    (pad 5 thru_hole circle (at 3.81 0) (size 1.524 1.524) (drill 1.016)
      (layers *.Cu *.Mask)
      (net 9 /LV2)
    )
    (pad 6 thru_hole circle (at 6.35 0) (size 1.524 1.524) (drill 1.016)
      (layers *.Cu *.Mask)
      (net 10 /LV3)
    )
  )

  (module 0402 (layer F.Cu) (tedit 531B6D9E) (tstamp 54FEBB5E)
    (at 65.405 57.785)
    (descr "SMD 0402 Package")
    (tags SMD)
    (path /54FAC02B)
    (fp_text reference R1 (at -0.8128 -1.016) (layer F.SilkS)
      (effects (font (size 0.3 0.3) (thickness 0.06)))
    )
    (fp_text value 10K (at 0 0) (layer F.SilkS) hide
      (effects (font (size 0.127 0.127) (thickness 0.000001)))
    )
    (fp_line (start -1.30556 0.70612) (end -0.24892 0.70612) (layer F.SilkS) (width 0.2032))
    (fp_line (start -1.30556 -0.70612) (end -0.24892 -0.70612) (layer F.SilkS) (width 0.2032))
    (fp_line (start -1.30556 -0.70612) (end -1.30556 0.70612) (layer F.SilkS) (width 0.2032))
    (fp_line (start 0.24892 0.70612) (end 1.30556 0.70612) (layer F.SilkS) (width 0.2032))
    (fp_line (start 1.30556 0.70612) (end 1.30556 -0.70612) (layer F.SilkS) (width 0.2032))
    (fp_line (start 1.30556 -0.70612) (end 0.24892 -0.70612) (layer F.SilkS) (width 0.2032))
    (pad 1 smd rect (at 0.54864 0) (size 0.8001 0.6985)
      (layers F.Cu F.Paste F.Mask)
      (net 7 /LV0)
    )
    (pad 2 smd rect (at -0.54864 0) (size 0.8001 0.6985)
      (layers F.Cu F.Paste F.Mask)
      (net 1 +3.3V)
    )
    (model smd/capacitors/c_0402.wrl
      (at (xyz 0 0 0))
      (scale (xyz 1 1 1))
      (rotate (xyz 0 0 0))
    )
  )

  (module 0402 (layer F.Cu) (tedit 531B6D9E) (tstamp 54FEBB6A)
    (at 65.405 64.135 180)
    (descr "SMD 0402 Package")
    (tags SMD)
    (path /54FAC03A)
    (fp_text reference R3 (at -0.8128 -1.016 180) (layer F.SilkS)
      (effects (font (size 0.3 0.3) (thickness 0.06)))
    )
    (fp_text value 10K (at 0 0 180) (layer F.SilkS) hide
      (effects (font (size 0.127 0.127) (thickness 0.000001)))
    )
    (fp_line (start -1.30556 0.70612) (end -0.24892 0.70612) (layer F.SilkS) (width 0.2032))
    (fp_line (start -1.30556 -0.70612) (end -0.24892 -0.70612) (layer F.SilkS) (width 0.2032))
    (fp_line (start -1.30556 -0.70612) (end -1.30556 0.70612) (layer F.SilkS) (width 0.2032))
    (fp_line (start 0.24892 0.70612) (end 1.30556 0.70612) (layer F.SilkS) (width 0.2032))
    (fp_line (start 1.30556 0.70612) (end 1.30556 -0.70612) (layer F.SilkS) (width 0.2032))
    (fp_line (start 1.30556 -0.70612) (end 0.24892 -0.70612) (layer F.SilkS) (width 0.2032))
    (pad 1 smd rect (at 0.54864 0 180) (size 0.8001 0.6985)
      (layers F.Cu F.Paste F.Mask)
      (net 3 /HV0)
    )
    (pad 2 smd rect (at -0.54864 0 180) (size 0.8001 0.6985)
      (layers F.Cu F.Paste F.Mask)
      (net 2 +5V)
    )
    (model smd/capacitors/c_0402.wrl
      (at (xyz 0 0 0))
      (scale (xyz 1 1 1))
      (rotate (xyz 0 0 0))
    )
  )

  (module 0402 (layer F.Cu) (tedit 531B6D9E) (tstamp 54FEBB76)
    (at 73.66 57.785)
    (descr "SMD 0402 Package")
    (tags SMD)
    (path /54FAC053)
    (fp_text reference R5 (at -0.8128 -1.016) (layer F.SilkS)
      (effects (font (size 0.3 0.3) (thickness 0.06)))
    )
    (fp_text value 10K (at 0 0) (layer F.SilkS) hide
      (effects (font (size 0.127 0.127) (thickness 0.000001)))
    )
    (fp_line (start -1.30556 0.70612) (end -0.24892 0.70612) (layer F.SilkS) (width 0.2032))
    (fp_line (start -1.30556 -0.70612) (end -0.24892 -0.70612) (layer F.SilkS) (width 0.2032))
    (fp_line (start -1.30556 -0.70612) (end -1.30556 0.70612) (layer F.SilkS) (width 0.2032))
    (fp_line (start 0.24892 0.70612) (end 1.30556 0.70612) (layer F.SilkS) (width 0.2032))
    (fp_line (start 1.30556 0.70612) (end 1.30556 -0.70612) (layer F.SilkS) (width 0.2032))
    (fp_line (start 1.30556 -0.70612) (end 0.24892 -0.70612) (layer F.SilkS) (width 0.2032))
    (pad 1 smd rect (at 0.54864 0) (size 0.8001 0.6985)
      (layers F.Cu F.Paste F.Mask)
      (net 9 /LV2)
    )
    (pad 2 smd rect (at -0.54864 0) (size 0.8001 0.6985)
      (layers F.Cu F.Paste F.Mask)
      (net 1 +3.3V)
    )
    (model smd/capacitors/c_0402.wrl
      (at (xyz 0 0 0))
      (scale (xyz 1 1 1))
      (rotate (xyz 0 0 0))
    )
  )

  (module 0402 (layer F.Cu) (tedit 531B6D9E) (tstamp 54FEBB82)
    (at 73.66 64.135 180)
    (descr "SMD 0402 Package")
    (tags SMD)
    (path /54FAC062)
    (fp_text reference R7 (at -0.8128 -1.016 180) (layer F.SilkS)
      (effects (font (size 0.3 0.3) (thickness 0.06)))
    )
    (fp_text value 10K (at 0 0 180) (layer F.SilkS) hide
      (effects (font (size 0.127 0.127) (thickness 0.000001)))
    )
    (fp_line (start -1.30556 0.70612) (end -0.24892 0.70612) (layer F.SilkS) (width 0.2032))
    (fp_line (start -1.30556 -0.70612) (end -0.24892 -0.70612) (layer F.SilkS) (width 0.2032))
    (fp_line (start -1.30556 -0.70612) (end -1.30556 0.70612) (layer F.SilkS) (width 0.2032))
    (fp_line (start 0.24892 0.70612) (end 1.30556 0.70612) (layer F.SilkS) (width 0.2032))
    (fp_line (start 1.30556 0.70612) (end 1.30556 -0.70612) (layer F.SilkS) (width 0.2032))
    (fp_line (start 1.30556 -0.70612) (end 0.24892 -0.70612) (layer F.SilkS) (width 0.2032))
    (pad 1 smd rect (at 0.54864 0 180) (size 0.8001 0.6985)
      (layers F.Cu F.Paste F.Mask)
      (net 5 /HV2)
    )
    (pad 2 smd rect (at -0.54864 0 180) (size 0.8001 0.6985)
      (layers F.Cu F.Paste F.Mask)
      (net 2 +5V)
    )
    (model smd/capacitors/c_0402.wrl
      (at (xyz 0 0 0))
      (scale (xyz 1 1 1))
      (rotate (xyz 0 0 0))
    )
  )

  (module 0402 (layer F.Cu) (tedit 531B6D9E) (tstamp 54FEBB8E)
    (at 69.215 57.785)
    (descr "SMD 0402 Package")
    (tags SMD)
    (path /54FAC099)
    (fp_text reference R2 (at -0.8128 -1.016) (layer F.SilkS)
      (effects (font (size 0.3 0.3) (thickness 0.06)))
    )
    (fp_text value 10K (at 0 0) (layer F.SilkS) hide
      (effects (font (size 0.127 0.127) (thickness 0.000001)))
    )
    (fp_line (start -1.30556 0.70612) (end -0.24892 0.70612) (layer F.SilkS) (width 0.2032))
    (fp_line (start -1.30556 -0.70612) (end -0.24892 -0.70612) (layer F.SilkS) (width 0.2032))
    (fp_line (start -1.30556 -0.70612) (end -1.30556 0.70612) (layer F.SilkS) (width 0.2032))
    (fp_line (start 0.24892 0.70612) (end 1.30556 0.70612) (layer F.SilkS) (width 0.2032))
    (fp_line (start 1.30556 0.70612) (end 1.30556 -0.70612) (layer F.SilkS) (width 0.2032))
    (fp_line (start 1.30556 -0.70612) (end 0.24892 -0.70612) (layer F.SilkS) (width 0.2032))
    (pad 1 smd rect (at 0.54864 0) (size 0.8001 0.6985)
      (layers F.Cu F.Paste F.Mask)
      (net 8 /LV1)
    )
    (pad 2 smd rect (at -0.54864 0) (size 0.8001 0.6985)
      (layers F.Cu F.Paste F.Mask)
      (net 1 +3.3V)
    )
    (model smd/capacitors/c_0402.wrl
      (at (xyz 0 0 0))
      (scale (xyz 1 1 1))
      (rotate (xyz 0 0 0))
    )
  )

  (module 0402 (layer F.Cu) (tedit 531B6D9E) (tstamp 54FEBB9A)
    (at 69.215 64.135 180)
    (descr "SMD 0402 Package")
    (tags SMD)
    (path /54FAC0A8)
    (fp_text reference R4 (at -0.8128 -1.016 180) (layer F.SilkS)
      (effects (font (size 0.3 0.3) (thickness 0.06)))
    )
    (fp_text value 10K (at 0 0 180) (layer F.SilkS) hide
      (effects (font (size 0.127 0.127) (thickness 0.000001)))
    )
    (fp_line (start -1.30556 0.70612) (end -0.24892 0.70612) (layer F.SilkS) (width 0.2032))
    (fp_line (start -1.30556 -0.70612) (end -0.24892 -0.70612) (layer F.SilkS) (width 0.2032))
    (fp_line (start -1.30556 -0.70612) (end -1.30556 0.70612) (layer F.SilkS) (width 0.2032))
    (fp_line (start 0.24892 0.70612) (end 1.30556 0.70612) (layer F.SilkS) (width 0.2032))
    (fp_line (start 1.30556 0.70612) (end 1.30556 -0.70612) (layer F.SilkS) (width 0.2032))
    (fp_line (start 1.30556 -0.70612) (end 0.24892 -0.70612) (layer F.SilkS) (width 0.2032))
    (pad 1 smd rect (at 0.54864 0 180) (size 0.8001 0.6985)
      (layers F.Cu F.Paste F.Mask)
      (net 4 /HV1)
    )
    (pad 2 smd rect (at -0.54864 0 180) (size 0.8001 0.6985)
      (layers F.Cu F.Paste F.Mask)
      (net 2 +5V)
    )
    (model smd/capacitors/c_0402.wrl
      (at (xyz 0 0 0))
      (scale (xyz 1 1 1))
      (rotate (xyz 0 0 0))
    )
  )

  (module 0402 (layer F.Cu) (tedit 531B6D9E) (tstamp 54FEBBA6)
    (at 77.47 57.785)
    (descr "SMD 0402 Package")
    (tags SMD)
    (path /54FAC0C1)
    (fp_text reference R6 (at -0.8128 -1.016) (layer F.SilkS)
      (effects (font (size 0.3 0.3) (thickness 0.06)))
    )
    (fp_text value 10K (at 0 0) (layer F.SilkS) hide
      (effects (font (size 0.127 0.127) (thickness 0.000001)))
    )
    (fp_line (start -1.30556 0.70612) (end -0.24892 0.70612) (layer F.SilkS) (width 0.2032))
    (fp_line (start -1.30556 -0.70612) (end -0.24892 -0.70612) (layer F.SilkS) (width 0.2032))
    (fp_line (start -1.30556 -0.70612) (end -1.30556 0.70612) (layer F.SilkS) (width 0.2032))
    (fp_line (start 0.24892 0.70612) (end 1.30556 0.70612) (layer F.SilkS) (width 0.2032))
    (fp_line (start 1.30556 0.70612) (end 1.30556 -0.70612) (layer F.SilkS) (width 0.2032))
    (fp_line (start 1.30556 -0.70612) (end 0.24892 -0.70612) (layer F.SilkS) (width 0.2032))
    (pad 1 smd rect (at 0.54864 0) (size 0.8001 0.6985)
      (layers F.Cu F.Paste F.Mask)
      (net 10 /LV3)
    )
    (pad 2 smd rect (at -0.54864 0) (size 0.8001 0.6985)
      (layers F.Cu F.Paste F.Mask)
      (net 1 +3.3V)
    )
    (model smd/capacitors/c_0402.wrl
      (at (xyz 0 0 0))
      (scale (xyz 1 1 1))
      (rotate (xyz 0 0 0))
    )
  )

  (module 0402 (layer F.Cu) (tedit 531B6D9E) (tstamp 54FEBBB2)
    (at 77.47 64.135 180)
    (descr "SMD 0402 Package")
    (tags SMD)
    (path /54FAC0D0)
    (fp_text reference R8 (at -0.8128 -1.016 180) (layer F.SilkS)
      (effects (font (size 0.3 0.3) (thickness 0.06)))
    )
    (fp_text value 10K (at 0 0 180) (layer F.SilkS) hide
      (effects (font (size 0.127 0.127) (thickness 0.000001)))
    )
    (fp_line (start -1.30556 0.70612) (end -0.24892 0.70612) (layer F.SilkS) (width 0.2032))
    (fp_line (start -1.30556 -0.70612) (end -0.24892 -0.70612) (layer F.SilkS) (width 0.2032))
    (fp_line (start -1.30556 -0.70612) (end -1.30556 0.70612) (layer F.SilkS) (width 0.2032))
    (fp_line (start 0.24892 0.70612) (end 1.30556 0.70612) (layer F.SilkS) (width 0.2032))
    (fp_line (start 1.30556 0.70612) (end 1.30556 -0.70612) (layer F.SilkS) (width 0.2032))
    (fp_line (start 1.30556 -0.70612) (end 0.24892 -0.70612) (layer F.SilkS) (width 0.2032))
    (pad 1 smd rect (at 0.54864 0 180) (size 0.8001 0.6985)
      (layers F.Cu F.Paste F.Mask)
      (net 6 /HV3)
    )
    (pad 2 smd rect (at -0.54864 0 180) (size 0.8001 0.6985)
      (layers F.Cu F.Paste F.Mask)
      (net 2 +5V)
    )
    (model smd/capacitors/c_0402.wrl
      (at (xyz 0 0 0))
      (scale (xyz 1 1 1))
      (rotate (xyz 0 0 0))
    )
  )

)
