EESchema Schematic File Version 2
LIBS:power
LIBS:Connectors
LIBS:Devices
LIBS:Components
LIBS:mbed-Board-cache
EELAYER 27 0
EELAYER END
$Descr A4 11693 8268
encoding utf-8
Sheet 1 1
Title "mbed-Board"
Date "10 mar 2015"
Rev ""
Comp ""
Comment1 ""
Comment2 ""
Comment3 ""
Comment4 ""
$EndDescr
Text Label 6750 4300 2    60   ~ 0
P21
Text Label 6750 4200 2    60   ~ 0
P22
Text Label 6750 3700 2    60   ~ 0
P27
Text Label 6750 3600 2    60   ~ 0
P28
Text Label 800  6000 0    60   ~ 0
CP (footprint 2917 belum ketemu)
Text Label 2100 2000 1    60   ~ 0
P14
Text Label 2000 2000 1    60   ~ 0
P13
Text Label 1400 2000 1    60   ~ 0
P12
Text Label 1200 2000 1    60   ~ 0
P11
Text Label 2300 2000 1    60   ~ 0
P16
Text Label 2200 2000 1    60   ~ 0
P15
NoConn ~ 1900 1800
NoConn ~ 1600 1800
NoConn ~ 1700 1800
NoConn ~ 1800 1800
$Comp
L GND #PWR1
U 1 1 522C20A4
P 700 2250
F 0 "#PWR1" H 700 2250 30  0001 C CNN
F 1 "GND" H 700 2180 30  0001 C CNN
F 2 "" H 700 2250 60  0001 C CNN
F 3 "" H 700 2250 60  0001 C CNN
	1    700  2250
	1    0    0    -1  
$EndComp
Text Label 6750 3800 2    60   ~ 0
P26
Text Label 6750 3900 2    60   ~ 0
P25
Text Label 6750 4000 2    60   ~ 0
P24
Text Label 6750 4100 2    60   ~ 0
P23
Text Label 6750 3500 2    60   ~ 0
P29
Text Label 6750 3400 2    60   ~ 0
P30
Text Label 6750 3300 2    60   ~ 0
D+
Text Label 6750 3200 2    60   ~ 0
D-
Text Label 6750 3100 2    60   ~ 0
TD+
Text Label 6750 3000 2    60   ~ 0
TD-
Text Label 6750 2900 2    60   ~ 0
RD+
Text Label 6750 2800 2    60   ~ 0
RD-
Text Label 6750 2700 2    60   ~ 0
IF+
Text Label 6750 2600 2    60   ~ 0
IF-
Text Label 4200 4300 2    60   ~ 0
P20
Text Label 4200 4200 2    60   ~ 0
P19
Text Label 4200 4100 2    60   ~ 0
P18
Text Label 4200 4000 2    60   ~ 0
P17
Text Label 4200 3900 2    60   ~ 0
P16
Text Label 4200 3800 2    60   ~ 0
P15
Text Label 4200 3700 2    60   ~ 0
P14
Text Label 4200 3600 2    60   ~ 0
P13
Text Label 4200 3500 2    60   ~ 0
P12
Text Label 4200 3400 2    60   ~ 0
P11
Text Label 4200 3300 2    60   ~ 0
P10
Text Label 4200 3200 2    60   ~ 0
P9
Text Label 4200 3100 2    60   ~ 0
P8
Text Label 4200 3000 2    60   ~ 0
P7
Text Label 4200 2900 2    60   ~ 0
P6
Text Label 4200 2800 2    60   ~ 0
P5
Text Label 4200 2700 2    60   ~ 0
nR
Text Label 4200 2600 2    60   ~ 0
VB
Text Label 6150 3300 0    60   ~ 0
D+
Text Label 6150 3200 0    60   ~ 0
D-
Text Label 6150 3100 0    60   ~ 0
TD+
Text Label 6150 3000 0    60   ~ 0
TD-
Text Label 6150 2900 0    60   ~ 0
RD+
Text Label 6150 2800 0    60   ~ 0
RD-
Text Label 6150 2700 0    60   ~ 0
IF+
Text Label 6150 2600 0    60   ~ 0
IF-
Text Label 4500 2600 0    60   ~ 0
VB
Text Label 4500 2700 0    60   ~ 0
nR
$Comp
L GND #PWR12
U 1 1 522B4E1D
P 4350 2450
F 0 "#PWR12" H 4350 2450 30  0001 C CNN
F 1 "GND" H 4350 2380 30  0001 C CNN
F 2 "" H 4350 2450 60  0001 C CNN
F 3 "" H 4350 2450 60  0001 C CNN
	1    4350 2450
	1    0    0    -1  
$EndComp
$Comp
L +8V #PWR13
U 1 1 522B4E1C
P 4500 2450
F 0 "#PWR13" H 4500 2420 20  0001 C CNN
F 1 "+8V" H 4500 2560 30  0000 C CNN
F 2 "" H 4500 2450 60  0001 C CNN
F 3 "" H 4500 2450 60  0001 C CNN
	1    4500 2450
	1    0    0    -1  
$EndComp
$Comp
L GND #PWR6
U 1 1 522B4DF9
P 2150 4150
F 0 "#PWR6" H 2150 4150 30  0001 C CNN
F 1 "GND" H 2150 4080 30  0001 C CNN
F 2 "" H 2150 4150 60  0001 C CNN
F 3 "" H 2150 4150 60  0001 C CNN
	1    2150 4150
	1    0    0    -1  
$EndComp
$Comp
L +3.3V #PWR8
U 1 1 522B4DD5
P 3000 850
F 0 "#PWR8" H 3000 810 30  0001 C CNN
F 1 "+3.3V" H 3000 960 30  0000 C CNN
F 2 "" H 3000 850 60  0001 C CNN
F 3 "" H 3000 850 60  0001 C CNN
	1    3000 850 
	1    0    0    -1  
$EndComp
$Comp
L +8V #PWR5
U 1 1 522B4D78
P 1350 2800
F 0 "#PWR5" H 1350 2770 20  0001 C CNN
F 1 "+8V" H 1350 2910 30  0000 C CNN
F 2 "" H 1350 2800 60  0001 C CNN
F 3 "" H 1350 2800 60  0001 C CNN
	1    1350 2800
	1    0    0    -1  
$EndComp
$Comp
L GND #PWR3
U 1 1 522B4D6B
P 700 3100
F 0 "#PWR3" H 700 3100 30  0001 C CNN
F 1 "GND" H 700 3030 30  0001 C CNN
F 2 "" H 700 3100 60  0001 C CNN
F 3 "" H 700 3100 60  0001 C CNN
	1    700  3100
	1    0    0    -1  
$EndComp
$Comp
L +8V #PWR2
U 1 1 522B4D49
P 700 2800
F 0 "#PWR2" H 700 2770 20  0001 C CNN
F 1 "+8V" H 700 2910 30  0000 C CNN
F 2 "" H 700 2800 60  0001 C CNN
F 3 "" H 700 2800 60  0001 C CNN
	1    700  2800
	1    0    0    -1  
$EndComp
$Comp
L +5V #PWR10
U 1 1 522B4B18
P 3150 2800
F 0 "#PWR10" H 3150 2890 20  0001 C CNN
F 1 "+5V" H 3150 2890 30  0000 C CNN
F 2 "" H 3150 2800 60  0001 C CNN
F 3 "" H 3150 2800 60  0001 C CNN
	1    3150 2800
	1    0    0    -1  
$EndComp
Text Label 800  5700 0    60   ~ 0
Joystick
Text Label 800  5550 0    60   ~ 0
XBee
Text Label 3200 1600 0    60   ~ 0
P24
Text Label 3200 1500 0    60   ~ 0
P25
Text Label 3200 1400 0    60   ~ 0
P26
$Comp
L +5V #PWR11
U 1 1 522B4179
P 3200 850
F 0 "#PWR11" H 3200 940 20  0001 C CNN
F 1 "+5V" H 3200 940 30  0000 C CNN
F 2 "" H 3200 850 60  0001 C CNN
F 3 "" H 3200 850 60  0001 C CNN
	1    3200 850 
	1    0    0    -1  
$EndComp
$Comp
L GND #PWR9
U 1 1 522B3DF0
P 3100 1050
F 0 "#PWR9" H 3100 1050 30  0001 C CNN
F 1 "GND" H 3100 980 30  0001 C CNN
F 2 "" H 3100 1050 60  0001 C CNN
F 3 "" H 3100 1050 60  0001 C CNN
	1    3100 1050
	1    0    0    -1  
$EndComp
Text Label 3200 1200 0    60   ~ 0
P28
Text Label 3200 1300 0    60   ~ 0
P27
Text Label 4500 2800 0    60   ~ 0
P5
Text Label 4500 2900 0    60   ~ 0
P6
Text Label 4500 3000 0    60   ~ 0
P7
Text Label 4500 3100 0    60   ~ 0
P8
Text Label 4500 3200 0    60   ~ 0
P9
Text Label 4500 3300 0    60   ~ 0
P10
Text Label 4500 3400 0    60   ~ 0
P11
Text Label 4500 3500 0    60   ~ 0
P12
Text Label 4500 3600 0    60   ~ 0
P13
Text Label 4500 3700 0    60   ~ 0
P14
Text Label 4500 3800 0    60   ~ 0
P15
Text Label 4500 3900 0    60   ~ 0
P16
Text Label 4500 4000 0    60   ~ 0
P17
Text Label 4500 4100 0    60   ~ 0
P18
Text Label 4500 4200 0    60   ~ 0
P19
Text Label 4500 4300 0    60   ~ 0
P20
Text Label 6150 4300 0    60   ~ 0
P21
Text Label 6150 4200 0    60   ~ 0
P22
Text Label 6150 4100 0    60   ~ 0
P23
Text Label 6150 4000 0    60   ~ 0
P24
Text Label 6150 3900 0    60   ~ 0
P25
Text Label 6150 3800 0    60   ~ 0
P26
Text Label 6150 3700 0    60   ~ 0
P27
Text Label 6150 3600 0    60   ~ 0
P28
Text Label 6150 3500 0    60   ~ 0
P29
Text Label 6150 3400 0    60   ~ 0
P30
$Comp
L +5V #PWR4
U 1 1 53132F54
P 800 2050
F 0 "#PWR4" H 800 2140 20  0001 C CNN
F 1 "+5V" H 800 2140 30  0000 C CNN
F 2 "" H 800 2050 60  0001 C CNN
F 3 "" H 800 2050 60  0001 C CNN
	1    800  2050
	1    0    0    -1  
$EndComp
$Comp
L DIODE D1
U 1 1 5315FA90
P 2000 2400
F 0 "D1" H 2000 2490 40  0000 C CNN
F 1 "1N4002" H 2000 2300 40  0000 C CNN
F 2 "~" H 2000 2400 60  0000 C CNN
F 3 "~" H 2000 2400 60  0000 C CNN
	1    2000 2400
	-1   0    0    1   
$EndComp
$Comp
L DIODE D2
U 1 1 5315FAB2
P 2500 3150
F 0 "D2" H 2500 3240 40  0000 C CNN
F 1 "1N4002" H 2500 3050 40  0000 C CNN
F 2 "~" H 2500 3150 60  0000 C CNN
F 3 "~" H 2500 3150 60  0000 C CNN
	1    2500 3150
	0    -1   -1   0   
$EndComp
$Comp
L RES R2
U 1 1 5315FAD0
P 2750 3150
F 0 "R2" H 2750 3230 40  0000 C CNN
F 1 "120" H 2750 3150 40  0000 C CNN
F 2 "~" H 2750 3080 30  0000 C CNN
F 3 "~" V 2750 3150 30  0000 C CNN
	1    2750 3150
	0    -1   -1   0   
$EndComp
$Comp
L RES R1
U 1 1 5315FAEB
P 2000 3800
F 0 "R1" H 2000 3880 40  0000 C CNN
F 1 "360" H 2000 3800 40  0000 C CNN
F 2 "~" H 2000 3730 30  0000 C CNN
F 3 "~" V 2000 3800 30  0000 C CNN
	1    2000 3800
	0    1    1    0   
$EndComp
$Comp
L CAP-POL C2
U 1 1 5315FC20
P 3050 3150
F 0 "C2" H 3090 3255 50  0000 L CNN
F 1 "1uF" H 3090 3005 50  0000 L CNN
F 2 "~" H 3050 3135 60  0000 C CNN
F 3 "~" H 3050 3135 60  0000 C CNN
	1    3050 3150
	1    0    0    -1  
$EndComp
$Comp
L CAP-POL C1
U 1 1 5315FC2F
P 2500 3800
F 0 "C1" H 2540 3905 50  0000 L CNN
F 1 "10uF" H 2540 3655 50  0000 L CNN
F 2 "~" H 2500 3785 60  0000 C CNN
F 3 "~" H 2500 3785 60  0000 C CNN
	1    2500 3800
	1    0    0    -1  
$EndComp
$Comp
L LM317 IC1
U 1 1 53169506
P 2000 2900
F 0 "IC1" H 1845 3155 40  0000 C CNN
F 1 "LM317" H 1800 3090 40  0000 L CNN
F 2 "~" H 2000 2900 60  0000 C CNN
F 3 "~" H 2000 2900 60  0000 C CNN
	1    2000 2900
	1    0    0    -1  
$EndComp
NoConn ~ 6100 2400
NoConn ~ 6100 2500
$Comp
L PWR_FLAG #FLG1
U 1 1 531C1BCE
P 1250 2700
F 0 "#FLG1" H 1250 2795 30  0001 C CNN
F 1 "PWR_FLAG" H 1250 2880 30  0000 C CNN
F 2 "" H 1250 2700 60  0000 C CNN
F 3 "" H 1250 2700 60  0000 C CNN
	1    1250 2700
	1    0    0    -1  
$EndComp
$Comp
L PWR_FLAG #FLG2
U 1 1 531C1D9D
P 4350 2250
F 0 "#FLG2" H 4350 2345 30  0001 C CNN
F 1 "PWR_FLAG" H 4350 2430 30  0000 C CNN
F 2 "" H 4350 2250 60  0000 C CNN
F 3 "" H 4350 2250 60  0000 C CNN
	1    4350 2250
	1    0    0    -1  
$EndComp
$Comp
L +5V #PWR7
U 1 1 531C29BA
P 2400 2050
F 0 "#PWR7" H 2400 2140 20  0001 C CNN
F 1 "+5V" H 2400 2140 30  0000 C CNN
F 2 "" H 2400 2050 60  0001 C CNN
F 3 "" H 2400 2050 60  0001 C CNN
	1    2400 2050
	1    0    0    -1  
$EndComp
Wire Wire Line
	2000 3450 2750 3450
Connection ~ 2150 4050
Wire Wire Line
	2150 4050 2150 4150
Connection ~ 2000 3450
Wire Wire Line
	2000 3200 2000 3550
Connection ~ 1300 2200
Wire Wire Line
	1300 1800 1300 2200
Wire Wire Line
	2400 2100 2500 2100
Wire Wire Line
	2400 2050 2400 2100
Wire Wire Line
	2500 2100 2500 1800
Connection ~ 4350 2300
Connection ~ 1350 2850
Wire Wire Line
	1250 2850 1250 2700
Wire Wire Line
	3150 2850 3150 2800
Wire Wire Line
	2350 2850 3150 2850
Wire Wire Line
	4700 2500 4500 2500
Wire Wire Line
	4650 2400 4700 2400
Wire Wire Line
	2600 2200 2600 1800
Connection ~ 1000 2200
Connection ~ 700  2200
Wire Wire Line
	700  2200 2600 2200
Wire Wire Line
	1000 1800 1000 2200
Wire Wire Line
	800  1900 700  1900
Wire Wire Line
	800  1800 800  1900
Wire Wire Line
	900  2100 900  1800
Wire Wire Line
	800  2100 900  2100
Wire Wire Line
	800  2050 800  2100
Wire Wire Line
	6800 4200 6600 4200
Wire Wire Line
	6800 3600 6600 3600
Wire Wire Line
	2100 1800 2100 2000
Wire Wire Line
	2300 1800 2300 2000
Wire Wire Line
	1400 1800 1400 2000
Wire Wire Line
	1200 1800 1200 2000
Wire Wire Line
	6800 4000 6600 4000
Wire Wire Line
	6800 3800 6600 3800
Wire Wire Line
	4000 4200 4200 4200
Wire Wire Line
	4000 4000 4200 4000
Wire Wire Line
	4000 3800 4200 3800
Wire Wire Line
	4200 3600 4000 3600
Wire Wire Line
	4000 3500 4200 3500
Wire Wire Line
	4000 3300 4200 3300
Wire Wire Line
	6800 3400 6600 3400
Wire Wire Line
	6800 3200 6600 3200
Wire Wire Line
	6800 3000 6600 3000
Wire Wire Line
	6800 2800 6600 2800
Wire Wire Line
	6800 2600 6600 2600
Wire Wire Line
	4000 3100 4200 3100
Wire Wire Line
	4000 2900 4200 2900
Wire Wire Line
	4000 2700 4200 2700
Wire Wire Line
	6100 3300 6300 3300
Wire Wire Line
	6100 3100 6300 3100
Wire Wire Line
	6100 2900 6300 2900
Wire Wire Line
	6100 2700 6300 2700
Wire Wire Line
	4700 2600 4500 2600
Connection ~ 3050 2850
Connection ~ 2750 2850
Wire Wire Line
	3050 2850 3050 2950
Connection ~ 1500 2850
Wire Wire Line
	1350 2850 1350 2800
Wire Wire Line
	1250 2850 1650 2850
Wire Wire Line
	2750 2850 2750 2900
Connection ~ 2500 3450
Wire Wire Line
	2500 3350 2500 3600
Connection ~ 2500 2850
Wire Wire Line
	2500 2400 2500 2950
Wire Wire Line
	2200 2400 2500 2400
Wire Wire Line
	3400 1600 3200 1600
Wire Wire Line
	3200 1100 3400 1100
Wire Wire Line
	3200 1150 3200 1100
Wire Wire Line
	3000 1150 3200 1150
Wire Wire Line
	3400 1300 3200 1300
Wire Wire Line
	3200 900  3200 850 
Wire Wire Line
	3400 900  3200 900 
Wire Wire Line
	4500 2500 4500 2450
Wire Wire Line
	6100 3700 6300 3700
Wire Wire Line
	6100 3900 6300 3900
Wire Wire Line
	6100 4100 6300 4100
Wire Wire Line
	6100 4300 6300 4300
Wire Wire Line
	4700 4200 4500 4200
Wire Wire Line
	4700 4000 4500 4000
Wire Wire Line
	4700 3800 4500 3800
Wire Wire Line
	4700 3600 4500 3600
Wire Wire Line
	4700 3400 4500 3400
Wire Wire Line
	4700 3200 4500 3200
Wire Wire Line
	4700 3000 4500 3000
Wire Wire Line
	4700 2800 4500 2800
Wire Wire Line
	700  2850 700  2800
Wire Wire Line
	800  2850 700  2850
Wire Wire Line
	4650 2300 4650 2400
Wire Wire Line
	700  3050 700  3100
Wire Wire Line
	800  3050 700  3050
Wire Wire Line
	4700 2900 4500 2900
Wire Wire Line
	4700 3100 4500 3100
Wire Wire Line
	4700 3300 4500 3300
Wire Wire Line
	4700 3500 4500 3500
Wire Wire Line
	4700 3700 4500 3700
Wire Wire Line
	4700 3900 4500 3900
Wire Wire Line
	4500 4100 4700 4100
Wire Wire Line
	4700 4300 4500 4300
Wire Wire Line
	6100 4200 6300 4200
Wire Wire Line
	6100 4000 6300 4000
Wire Wire Line
	6100 3800 6300 3800
Wire Wire Line
	6100 3600 6300 3600
Wire Wire Line
	4350 2300 4650 2300
Wire Wire Line
	4350 2250 4350 2450
Wire Wire Line
	3400 1500 3200 1500
Wire Wire Line
	3400 1200 3200 1200
Wire Wire Line
	3100 1000 3100 1050
Wire Wire Line
	3400 1000 3100 1000
Wire Wire Line
	3000 850  3000 1150
Wire Wire Line
	3400 1400 3200 1400
Wire Wire Line
	1500 2400 1500 2850
Wire Wire Line
	1800 2400 1500 2400
Wire Wire Line
	2500 4000 2500 4050
Wire Wire Line
	2750 3450 2750 3400
Wire Wire Line
	2000 4050 3050 4050
Wire Wire Line
	3050 4050 3050 3350
Connection ~ 2500 4050
Wire Wire Line
	6300 3400 6100 3400
Wire Wire Line
	6300 3500 6100 3500
Wire Wire Line
	4700 2700 4500 2700
Wire Wire Line
	6100 2600 6300 2600
Wire Wire Line
	6100 2800 6300 2800
Wire Wire Line
	6100 3000 6300 3000
Wire Wire Line
	6100 3200 6300 3200
Wire Wire Line
	4000 2600 4200 2600
Wire Wire Line
	4000 2800 4200 2800
Wire Wire Line
	4000 3000 4200 3000
Wire Wire Line
	4000 3200 4200 3200
Wire Wire Line
	6800 2700 6600 2700
Wire Wire Line
	6800 2900 6600 2900
Wire Wire Line
	6800 3100 6600 3100
Wire Wire Line
	6800 3300 6600 3300
Wire Wire Line
	6800 3500 6600 3500
Wire Wire Line
	4000 3400 4200 3400
Wire Wire Line
	4000 3700 4200 3700
Wire Wire Line
	4000 3900 4200 3900
Wire Wire Line
	4000 4100 4200 4100
Wire Wire Line
	4000 4300 4200 4300
Wire Wire Line
	6800 3900 6600 3900
Wire Wire Line
	6800 4100 6600 4100
Wire Wire Line
	700  1900 700  2250
Wire Wire Line
	2200 1800 2200 2000
Wire Wire Line
	2000 1800 2000 2000
Wire Wire Line
	6800 3700 6600 3700
Wire Wire Line
	6800 4300 6600 4300
$Comp
L LCD-16X2 LCD1
U 1 1 54FEB33E
P 1750 1150
F 0 "LCD1" H 695 1598 40  0000 C CNN
F 1 "LCD-16X2" H 780 1540 40  0000 C CNN
F 2 "LCD-16X2" H 780 1540 40  0000 C CNN
F 3 "~" H 1775 1353 60  0000 C CNN
	1    1750 1150
	1    0    0    -1  
$EndComp
$Comp
L FREEIMU M1
U 1 1 54FEB34D
P 3700 1250
F 0 "M1" H 3590 1740 40  0000 C CNN
F 1 "FREEIMU" H 3670 750 40  0000 C CNN
F 2 "FREEIMU" H 3670 750 40  0000 C CNN
F 3 "~" H 3700 1250 60  0000 C CNN
	1    3700 1250
	1    0    0    -1  
$EndComp
$Comp
L MBED M2
U 1 1 54FEB35C
P 5400 3350
F 0 "M2" H 4880 4440 40  0000 C CNN
F 1 "MBED" H 4920 2250 40  0000 C CNN
F 2 "MBED" H 4920 2250 40  0000 C CNN
F 3 "~" H 5100 4050 60  0000 C CNN
	1    5400 3350
	1    0    0    -1  
$EndComp
$Comp
L HEADER-18X1 P3
U 1 1 54FEB36B
P 7050 3450
F 0 "P3" V 7000 3450 40  0000 C CNN
F 1 "HEADER-18X1" V 7100 3450 40  0000 C CNN
F 2 "~" H 7050 3850 60  0000 C CNN
F 3 "~" H 7050 3850 60  0000 C CNN
	1    7050 3450
	1    0    0    -1  
$EndComp
$Comp
L HEADER-18X1 P2
U 1 1 54FEB37A
P 3750 3450
F 0 "P2" V 3700 3450 40  0000 C CNN
F 1 "HEADER-18X1" V 3800 3450 40  0000 C CNN
F 2 "~" H 3750 3850 60  0000 C CNN
F 3 "~" H 3750 3850 60  0000 C CNN
	1    3750 3450
	-1   0    0    1   
$EndComp
$Comp
L HEADER-2X1 P1
U 1 1 54FEB389
P 1050 2950
F 0 "P1" V 1000 2950 40  0000 C CNN
F 1 "HEADER-2X1" V 1100 2950 40  0000 C CNN
F 2 "~" H 1050 2950 60  0000 C CNN
F 3 "~" H 1050 2950 60  0000 C CNN
	1    1050 2950
	1    0    0    -1  
$EndComp
$EndSCHEMATC
