eeschema (2012-apr-16-27)-stable  >> Creation date: Sun 08 Sep 2013 04:59:37 PM WIT

#Cmp ( order = Reference )
| 120R1      R           
| 360R1      R           
| C1         100nF       
| C2         10uF        
| D1         1N4002      
| D2         1N4002      
| P1         mbed_Top_Left
| P2         mbed_Bottom_Left
| P3         Power_Plug  
| P4         FreeIMU     
| P5         Servo_GND   
| P6         Servo_8V    
| P7         Servo_Signal
| P8         CONN_9      
| P9         CONN_9      
| P10        CONN_9      
| P11        CONN_9      
| P12        mbed_Top_Right
| P13        mbed_Bottom_Right
| S1         LCD 16x2    
| U1         4017        
| U2         LM317       
#End Cmp

#Cmp ( order = Value )
| 100nF        C1        
| 10uF         C2        
| 1N4002       D1        
| 1N4002       D2        
| 4017         U1        
| CONN_9       P8        
| CONN_9       P9        
| CONN_9       P10       
| CONN_9       P11       
| FreeIMU      P4        
| LCD 16x2     S1        
| LM317        U2        
| mbed_Bottom_Left P2        
| mbed_Bottom_Right P13       
| mbed_Top_Left P1        
| mbed_Top_Right P12       
| Power_Plug   P3        
| R            120R1     
| R            360R1     
| Servo_8V     P6        
| Servo_GND    P5        
| Servo_Signal P7        
#End Cmp

#End List
