(export (version D)
  (design
    (source /home/zero/Kicad/Projects/Token-Sub-Board-v1.0a/Token-Sub-Board.sch)
    (date "Tue Jul  7 14:02:34 2015")
    (tool "eeschema (2013-may-18)-stable"))
  (components
    (comp (ref KPD1)
      (value TOKEN-KEYPAD)
      (libsource (lib Devices) (part TOKEN-KEYPAD))
      (sheetpath (names /) (tstamps /))
      (tstamp 5507FF5D))
    (comp (ref P3)
      (value HEADER-12X2)
      (libsource (lib Connectors) (part HEADER-12X2))
      (sheetpath (names /) (tstamps /))
      (tstamp 55623562))
    (comp (ref P4)
      (value HEADER-2X1)
      (libsource (lib Connectors) (part HEADER-2X1))
      (sheetpath (names /) (tstamps /))
      (tstamp 55905BF2)))
  (libparts
    (libpart (lib Devices) (part TOKEN-KEYPAD)
      (fields
        (field (name Reference) KPD)
        (field (name Value) TOKEN-KEYPAD)
        (field (name Footprint) ~)
        (field (name Datasheet) ~))
      (pins
        (pin (num 1) (name 1) (type passive))
        (pin (num 2) (name 2) (type passive))
        (pin (num 3) (name 3) (type passive))
        (pin (num 4) (name 4) (type passive))
        (pin (num 5) (name 5) (type passive))
        (pin (num 6) (name 6) (type passive))
        (pin (num 7) (name 7) (type passive))
        (pin (num 8) (name 8) (type passive))
        (pin (num 9) (name 9) (type passive))
        (pin (num 10) (name 10) (type passive))
        (pin (num 11) (name 11) (type passive))
        (pin (num 12) (name 12) (type passive))
        (pin (num 13) (name 13) (type passive))
        (pin (num 14) (name 14) (type passive))
        (pin (num 15) (name 15) (type passive))
        (pin (num 16) (name 16) (type passive))
        (pin (num 17) (name 17) (type passive))
        (pin (num 18) (name 18) (type passive))
        (pin (num 19) (name 19) (type passive))
        (pin (num 20) (name 20) (type passive))
        (pin (num 21) (name 21) (type passive))
        (pin (num 22) (name 22) (type passive))))
    (libpart (lib Connectors) (part HEADER-12X2)
      (footprints
        (fp HEADER-12X2)
        (fp HEADER-5MIL-12X2))
      (fields
        (field (name Reference) P)
        (field (name Value) HEADER-12X2)
        (field (name Footprint) ~)
        (field (name Datasheet) ~))
      (pins
        (pin (num 1) (name P1) (type passive))
        (pin (num 2) (name P2) (type passive))
        (pin (num 3) (name P3) (type passive))
        (pin (num 4) (name P4) (type passive))
        (pin (num 5) (name P5) (type passive))
        (pin (num 6) (name P6) (type passive))
        (pin (num 7) (name P7) (type passive))
        (pin (num 8) (name P8) (type passive))
        (pin (num 9) (name P9) (type passive))
        (pin (num 10) (name P10) (type passive))
        (pin (num 11) (name P11) (type passive))
        (pin (num 12) (name P12) (type passive))
        (pin (num 13) (name P13) (type passive))
        (pin (num 14) (name P14) (type passive))
        (pin (num 15) (name P15) (type passive))
        (pin (num 16) (name P16) (type passive))
        (pin (num 17) (name P17) (type passive))
        (pin (num 18) (name P18) (type passive))
        (pin (num 19) (name P19) (type passive))
        (pin (num 20) (name P20) (type passive))
        (pin (num 21) (name P21) (type passive))
        (pin (num 22) (name P22) (type passive))
        (pin (num 23) (name P23) (type passive))
        (pin (num 24) (name P24) (type passive))))
    (libpart (lib Connectors) (part HEADER-2X1)
      (footprints
        (fp HEADER-2X1))
      (fields
        (field (name Reference) P)
        (field (name Value) HEADER-2X1)
        (field (name Footprint) ~)
        (field (name Datasheet) ~))
      (pins
        (pin (num 1) (name P1) (type passive))
        (pin (num 2) (name P2) (type passive)))))
  (libraries
    (library (logical Connectors)
      (uri /home/zero/Kicad/Library/Libraries/Connectors.lib))
    (library (logical Devices)
      (uri /home/zero/Kicad/Library/Libraries/Devices.lib)))
  (nets
    (net (code 1) (name GND)
      (node (ref P4) (pin 2))
      (node (ref P3) (pin 2)))
    (net (code 2) (name VCC)
      (node (ref P3) (pin 1))
      (node (ref P4) (pin 1)))
    (net (code 3) (name /C3)
      (node (ref KPD1) (pin 5))
      (node (ref P3) (pin 4)))
    (net (code 4) (name /C6)
      (node (ref P3) (pin 6))
      (node (ref KPD1) (pin 11)))
    (net (code 5) (name /C9)
      (node (ref P3) (pin 8))
      (node (ref KPD1) (pin 17)))
    (net (code 6) (name /E1)
      (node (ref KPD1) (pin 2))
      (node (ref P3) (pin 23)))
    (net (code 7) (name /C4)
      (node (ref KPD1) (pin 7))
      (node (ref P3) (pin 22)))
    (net (code 8) (name /C7)
      (node (ref P3) (pin 20))
      (node (ref KPD1) (pin 13)))
    (net (code 9) (name /C0)
      (node (ref KPD1) (pin 19))
      (node (ref P3) (pin 16)))
    (net (code 10) (name /E4)
      (node (ref KPD1) (pin 8))
      (node (ref P3) (pin 21)))
    (net (code 11) (name /E3)
      (node (ref KPD1) (pin 6))
      (node (ref P3) (pin 3)))
    (net (code 12) (name /E6)
      (node (ref P3) (pin 5))
      (node (ref KPD1) (pin 12)))
    (net (code 13) (name /E9)
      (node (ref P3) (pin 7))
      (node (ref KPD1) (pin 18)))
    (net (code 14) (name /E8)
      (node (ref P3) (pin 13))
      (node (ref KPD1) (pin 16)))
    (net (code 15) (name /E7)
      (node (ref P3) (pin 19))
      (node (ref KPD1) (pin 14)))
    (net (code 16) (name /E2)
      (node (ref KPD1) (pin 4))
      (node (ref P3) (pin 9)))
    (net (code 17) (name /E5)
      (node (ref P3) (pin 17))
      (node (ref KPD1) (pin 10)))
    (net (code 18) (name /C8)
      (node (ref KPD1) (pin 15))
      (node (ref P3) (pin 14)))
    (net (code 19) (name /EE)
      (node (ref P3) (pin 11))
      (node (ref KPD1) (pin 22)))
    (net (code 20) (name /CE)
      (node (ref KPD1) (pin 21))
      (node (ref P3) (pin 12)))
    (net (code 21) (name /E0)
      (node (ref P3) (pin 15))
      (node (ref KPD1) (pin 20)))
    (net (code 22) (name /C1)
      (node (ref KPD1) (pin 1))
      (node (ref P3) (pin 24)))
    (net (code 23) (name /C2)
      (node (ref KPD1) (pin 3))
      (node (ref P3) (pin 10)))
    (net (code 24) (name /C5)
      (node (ref P3) (pin 18))
      (node (ref KPD1) (pin 9)))))