EESchema Schematic File Version 2
LIBS:power
LIBS:Components
LIBS:Devices
LIBS:Connectors
LIBS:Token-Sub-Board-cache
EELAYER 27 0
EELAYER END
$Descr A4 11693 8268
encoding utf-8
Sheet 1 1
Title ""
Date "7 jul 2015"
Rev ""
Comp ""
Comment1 ""
Comment2 ""
Comment3 ""
Comment4 ""
$EndDescr
Text Label 5550 3700 0    40   ~ 0
C1
Text Label 6450 3700 0    40   ~ 0
C2
Text Label 5550 3850 0    40   ~ 0
C4
Text Label 6450 3850 0    40   ~ 0
C5
Text Label 5550 4000 0    40   ~ 0
C7
Text Label 6450 4000 0    40   ~ 0
C8
Text Label 6000 4150 0    40   ~ 0
C0
$Comp
L TOKEN-KEYPAD KPD1
U 1 1 5507FF5D
P 6850 3850
F 0 "KPD1" H 6850 4150 40  0000 C CNN
F 1 "TOKEN-KEYPAD" H 6850 3450 40  0000 C CNN
F 2 "~" H 6850 3850 60  0000 C CNN
F 3 "~" H 6850 3850 60  0000 C CNN
	1    6850 3850
	1    0    0    -1  
$EndComp
$Comp
L HEADER-12X2 P3
U 1 1 55623562
P 6750 1950
F 0 "P3" V 6700 1950 40  0000 C CNN
F 1 "HEADER-12X2" V 6800 1950 40  0000 C CNN
F 2 "~" H 6750 1950 60  0000 C CNN
F 3 "~" H 6750 1950 60  0000 C CNN
	1    6750 1950
	-1   0    0    -1  
$EndComp
Text Label 6400 2500 0    40   ~ 0
C1
Text Label 7100 2500 2    40   ~ 0
E1
Text Label 7100 2400 2    40   ~ 0
E4
Text Label 7100 2300 2    40   ~ 0
E7
Text Label 7100 2100 2    40   ~ 0
E0
Text Label 7100 2000 2    40   ~ 0
E8
Text Label 7100 2200 2    40   ~ 0
E5
Text Label 7100 1800 2    40   ~ 0
E2
Text Label 7100 1900 2    40   ~ 0
EE
Text Label 7100 1700 2    40   ~ 0
E9
Text Label 7100 1600 2    40   ~ 0
E6
Text Label 7100 1500 2    40   ~ 0
E3
Text Label 6400 2400 0    40   ~ 0
C4
Text Label 6400 2300 0    40   ~ 0
C7
Text Label 6400 2100 0    40   ~ 0
C0
Text Label 6400 2000 0    40   ~ 0
C8
Text Label 6400 2200 0    40   ~ 0
C5
Text Label 6400 1800 0    40   ~ 0
C2
Text Label 6400 1900 0    40   ~ 0
CE
Text Label 6400 1700 0    40   ~ 0
C9
Text Label 6400 1600 0    40   ~ 0
C6
Text Label 6400 1500 0    40   ~ 0
C3
Wire Wire Line
	5550 3700 5650 3700
Wire Wire Line
	6450 3700 6550 3700
Wire Wire Line
	6550 3850 6450 3850
Wire Wire Line
	6550 4000 6450 4000
Wire Wire Line
	5650 3850 5550 3850
Wire Wire Line
	5650 4000 5550 4000
Wire Wire Line
	6100 4150 6000 4150
Wire Wire Line
	6400 2500 6500 2500
Wire Wire Line
	6400 2400 6500 2400
Wire Wire Line
	6400 2300 6500 2300
Wire Wire Line
	6400 2100 6500 2100
Wire Wire Line
	6500 2000 6400 2000
Wire Wire Line
	6400 2200 6500 2200
Wire Wire Line
	6500 1800 6400 1800
Wire Wire Line
	6500 1900 6400 1900
Wire Wire Line
	6500 1700 6400 1700
Wire Wire Line
	6500 1600 6400 1600
Wire Wire Line
	6500 1500 6400 1500
Wire Wire Line
	7000 1500 7100 1500
Wire Wire Line
	7000 1600 7100 1600
Wire Wire Line
	7000 1700 7100 1700
Wire Wire Line
	7000 1900 7100 1900
Wire Wire Line
	7000 1800 7100 1800
Wire Wire Line
	7000 2200 7100 2200
Wire Wire Line
	7000 2000 7100 2000
Wire Wire Line
	7000 2100 7100 2100
Wire Wire Line
	7000 2300 7100 2300
Wire Wire Line
	7000 2400 7100 2400
Wire Wire Line
	7000 2500 7100 2500
$Comp
L VCC #PWR4
U 1 1 55624295
P 7100 1400
F 0 "#PWR4" H 7100 1500 30  0001 C CNN
F 1 "VCC" H 7100 1500 30  0000 C CNN
F 2 "" H 7100 1400 60  0000 C CNN
F 3 "" H 7100 1400 60  0000 C CNN
	1    7100 1400
	1    0    0    -1  
$EndComp
Wire Wire Line
	7000 1400 7100 1400
$Comp
L GND #PWR3
U 1 1 55624316
P 6300 1450
F 0 "#PWR3" H 6300 1450 30  0001 C CNN
F 1 "GND" H 6300 1380 30  0001 C CNN
F 2 "" H 6300 1450 60  0000 C CNN
F 3 "" H 6300 1450 60  0000 C CNN
	1    6300 1450
	1    0    0    -1  
$EndComp
Wire Wire Line
	6300 1450 6300 1400
Wire Wire Line
	6300 1400 6500 1400
Text Label 7350 3700 0    40   ~ 0
C3
Text Label 7350 3850 0    40   ~ 0
C6
Text Label 7350 4000 0    40   ~ 0
C9
Wire Wire Line
	7350 3700 7450 3700
Wire Wire Line
	7450 3850 7350 3850
Wire Wire Line
	7450 4000 7350 4000
Text Label 6250 3700 0    40   ~ 0
E1
Text Label 6250 3850 0    40   ~ 0
E4
Text Label 6250 4000 0    40   ~ 0
E7
Wire Wire Line
	6250 3700 6350 3700
Wire Wire Line
	6350 3850 6250 3850
Wire Wire Line
	6350 4000 6250 4000
Text Label 7150 3700 0    40   ~ 0
E2
Text Label 7150 3850 0    40   ~ 0
E5
Text Label 7150 4000 0    40   ~ 0
E8
Wire Wire Line
	7150 3700 7250 3700
Wire Wire Line
	7250 3850 7150 3850
Wire Wire Line
	7250 4000 7150 4000
Text Label 7600 4150 0    40   ~ 0
EE
Text Label 6900 4150 0    40   ~ 0
CE
Text Label 6700 4150 0    40   ~ 0
E0
Wire Wire Line
	7600 4150 7700 4150
Wire Wire Line
	7000 4150 6900 4150
Wire Wire Line
	6800 4150 6700 4150
Text Label 8050 3700 0    40   ~ 0
E3
Text Label 8050 3850 0    40   ~ 0
E6
Text Label 8050 4000 0    40   ~ 0
E9
Wire Wire Line
	8050 3700 8150 3700
Wire Wire Line
	8150 3850 8050 3850
Wire Wire Line
	8150 4000 8050 4000
$Comp
L HEADER-2X1 P4
U 1 1 55905BF2
P 5900 1550
F 0 "P4" V 5850 1550 40  0000 C CNN
F 1 "HEADER-2X1" V 5950 1550 40  0000 C CNN
F 2 "~" H 5900 1550 60  0000 C CNN
F 3 "~" H 5900 1550 60  0000 C CNN
	1    5900 1550
	1    0    0    -1  
$EndComp
$Comp
L PWR_FLAG #FLG1
U 1 1 55905C01
P 5500 1350
F 0 "#FLG1" H 5500 1445 30  0001 C CNN
F 1 "PWR_FLAG" H 5500 1530 30  0000 C CNN
F 2 "" H 5500 1350 60  0000 C CNN
F 3 "" H 5500 1350 60  0000 C CNN
	1    5500 1350
	1    0    0    -1  
$EndComp
$Comp
L VCC #PWR1
U 1 1 55905C0E
P 5600 1400
F 0 "#PWR1" H 5600 1500 30  0001 C CNN
F 1 "VCC" H 5600 1500 30  0000 C CNN
F 2 "" H 5600 1400 60  0000 C CNN
F 3 "" H 5600 1400 60  0000 C CNN
	1    5600 1400
	1    0    0    -1  
$EndComp
Wire Wire Line
	5600 1400 5600 1450
Wire Wire Line
	5500 1450 5650 1450
Wire Wire Line
	5500 1350 5500 1450
Connection ~ 5600 1450
$Comp
L PWR_FLAG #FLG2
U 1 1 55905D23
P 5500 1750
F 0 "#FLG2" H 5500 1845 30  0001 C CNN
F 1 "PWR_FLAG" H 5500 1930 30  0000 C CNN
F 2 "" H 5500 1750 60  0000 C CNN
F 3 "" H 5500 1750 60  0000 C CNN
	1    5500 1750
	-1   0    0    1   
$EndComp
$Comp
L GND #PWR2
U 1 1 55905D3C
P 5600 1700
F 0 "#PWR2" H 5600 1700 30  0001 C CNN
F 1 "GND" H 5600 1630 30  0001 C CNN
F 2 "" H 5600 1700 60  0000 C CNN
F 3 "" H 5600 1700 60  0000 C CNN
	1    5600 1700
	1    0    0    -1  
$EndComp
Wire Wire Line
	5600 1700 5600 1650
Wire Wire Line
	5500 1650 5650 1650
Wire Wire Line
	5500 1650 5500 1750
Connection ~ 5600 1650
$EndSCHEMATC
