EESchema Schematic File Version 2
LIBS:power
LIBS:Components
LIBS:Connectors
LIBS:Devices
LIBS:Token-Sub-Board-2-cache
EELAYER 27 0
EELAYER END
$Descr A4 11693 8268
encoding utf-8
Sheet 1 1
Title ""
Date "28 jun 2015"
Rev ""
Comp ""
Comment1 ""
Comment2 ""
Comment3 ""
Comment4 ""
$EndDescr
$Comp
L HEADER-2X1 P1
U 1 1 559058DB
P 4300 2550
F 0 "P1" V 4250 2550 40  0000 C CNN
F 1 "HEADER-2X1" V 4350 2550 40  0000 C CNN
F 2 "~" H 4300 2550 60  0000 C CNN
F 3 "~" H 4300 2550 60  0000 C CNN
	1    4300 2550
	1    0    0    -1  
$EndComp
$Comp
L GND #PWR01
U 1 1 559058F3
P 4000 2700
F 0 "#PWR01" H 4000 2700 30  0001 C CNN
F 1 "GND" H 4000 2630 30  0001 C CNN
F 2 "" H 4000 2700 60  0000 C CNN
F 3 "" H 4000 2700 60  0000 C CNN
	1    4000 2700
	1    0    0    -1  
$EndComp
Wire Wire Line
	4000 2700 4000 2650
Wire Wire Line
	3900 2650 4050 2650
Wire Wire Line
	4000 2400 4000 2450
$Comp
L +3.3V #PWR02
U 1 1 55905906
P 4000 2400
F 0 "#PWR02" H 4000 2360 30  0001 C CNN
F 1 "+3.3V" H 4000 2510 30  0000 C CNN
F 2 "" H 4000 2400 60  0000 C CNN
F 3 "" H 4000 2400 60  0000 C CNN
	1    4000 2400
	1    0    0    -1  
$EndComp
$Comp
L PWR_FLAG #FLG03
U 1 1 5590593C
P 3900 2350
F 0 "#FLG03" H 3900 2445 30  0001 C CNN
F 1 "PWR_FLAG" H 3900 2530 30  0000 C CNN
F 2 "" H 3900 2350 60  0000 C CNN
F 3 "" H 3900 2350 60  0000 C CNN
	1    3900 2350
	1    0    0    -1  
$EndComp
Wire Wire Line
	3900 2350 3900 2450
Connection ~ 4000 2450
$Comp
L PWR_FLAG #FLG04
U 1 1 55905965
P 3900 2700
F 0 "#FLG04" H 3900 2795 30  0001 C CNN
F 1 "PWR_FLAG" H 3900 2880 30  0000 C CNN
F 2 "" H 3900 2700 60  0000 C CNN
F 3 "" H 3900 2700 60  0000 C CNN
	1    3900 2700
	-1   0    0    1   
$EndComp
Wire Wire Line
	3900 2700 3900 2650
Connection ~ 4000 2650
Connection ~ 3900 2450
Wire Wire Line
	3900 2450 4050 2450
$Comp
L HEADER-2X1 P2
U 1 1 55906539
P 3650 2550
F 0 "P2" V 3600 2550 40  0000 C CNN
F 1 "HEADER-2X1" V 3700 2550 40  0000 C CNN
F 2 "~" H 3650 2550 60  0000 C CNN
F 3 "~" H 3650 2550 60  0000 C CNN
	1    3650 2550
	-1   0    0    1   
$EndComp
$EndSCHEMATC
