(export (version D)
  (design
    (source /home/zero/Kicad/Projects/Atmega-Fusebit-Doctor-Board/Atmega-Fusebit-Doctor-Board.sch)
    (date "Sun Apr  5 17:40:46 2015")
    (tool "eeschema (2013-may-18)-stable"))
  (components
    (comp (ref IC1)
      (value ATMEGA8-PDIP28)
      (footprint PDIP-28)
      (libsource (lib Devices) (part ATMEGA8-PDIP28))
      (sheetpath (names /) (tstamps /))
      (tstamp 5521398D))
    (comp (ref J1)
      (value DC-JACK)
      (libsource (lib Connectors) (part DC-JACK))
      (sheetpath (names /) (tstamps /))
      (tstamp 552140B5))
    (comp (ref IC2)
      (value LM2576)
      (libsource (lib Devices) (part LM2576))
      (sheetpath (names /) (tstamps /))
      (tstamp 552141A7))
    (comp (ref C1)
      (value 100uF)
      (libsource (lib Components) (part CAP-POL))
      (sheetpath (names /) (tstamps /))
      (tstamp 552141B6))
    (comp (ref D1)
      (value 1N5822)
      (libsource (lib Components) (part DIODE-SCH))
      (sheetpath (names /) (tstamps /))
      (tstamp 552141C5))
    (comp (ref L1)
      (value 100uH)
      (libsource (lib Components) (part IND))
      (sheetpath (names /) (tstamps /))
      (tstamp 552141D4))
    (comp (ref C2)
      (value 1000uF)
      (libsource (lib Components) (part CAP-POL))
      (sheetpath (names /) (tstamps /))
      (tstamp 552141E3))
    (comp (ref PB1)
      (value BUTTON)
      (libsource (lib Components) (part BUTTON))
      (sheetpath (names /) (tstamps /))
      (tstamp 55214883))
    (comp (ref R1)
      (value 10K)
      (libsource (lib Components) (part RES))
      (sheetpath (names /) (tstamps /))
      (tstamp 55214892))
    (comp (ref P1)
      (value HEADER-3X1)
      (libsource (lib Connectors) (part HEADER-3X1))
      (sheetpath (names /) (tstamps /))
      (tstamp 55214B0D))
    (comp (ref R19)
      (value 10K)
      (libsource (lib Components) (part RES))
      (sheetpath (names /) (tstamps /))
      (tstamp 55214BA1))
    (comp (ref R2)
      (value 1K)
      (libsource (lib Components) (part RES))
      (sheetpath (names /) (tstamps /))
      (tstamp 55215635))
    (comp (ref R3)
      (value 1K)
      (libsource (lib Components) (part RES))
      (sheetpath (names /) (tstamps /))
      (tstamp 5521564E))
    (comp (ref R4)
      (value 1K)
      (libsource (lib Components) (part RES))
      (sheetpath (names /) (tstamps /))
      (tstamp 55215667))
    (comp (ref R5)
      (value 1K)
      (libsource (lib Components) (part RES))
      (sheetpath (names /) (tstamps /))
      (tstamp 55215676))
    (comp (ref R6)
      (value 1K)
      (libsource (lib Components) (part RES))
      (sheetpath (names /) (tstamps /))
      (tstamp 55215685))
    (comp (ref R17)
      (value 1K)
      (libsource (lib Components) (part RES))
      (sheetpath (names /) (tstamps /))
      (tstamp 55215694))
    (comp (ref R18)
      (value 1K)
      (libsource (lib Components) (part RES))
      (sheetpath (names /) (tstamps /))
      (tstamp 552156A3))
    (comp (ref R7)
      (value 1K)
      (libsource (lib Components) (part RES))
      (sheetpath (names /) (tstamps /))
      (tstamp 552156B2))
    (comp (ref R8)
      (value 1K)
      (libsource (lib Components) (part RES))
      (sheetpath (names /) (tstamps /))
      (tstamp 552156C1))
    (comp (ref R9)
      (value 1K)
      (libsource (lib Components) (part RES))
      (sheetpath (names /) (tstamps /))
      (tstamp 552156D0))
    (comp (ref P2)
      (value HEADER-2X1)
      (libsource (lib Connectors) (part HEADER-2X1))
      (sheetpath (names /) (tstamps /))
      (tstamp 55215D60))
    (comp (ref D2)
      (value LED)
      (libsource (lib device) (part LED))
      (sheetpath (names /) (tstamps /))
      (tstamp 55215E8C))
    (comp (ref D3)
      (value LED)
      (libsource (lib device) (part LED))
      (sheetpath (names /) (tstamps /))
      (tstamp 55215E9B))
    (comp (ref R20)
      (value 330)
      (libsource (lib Components) (part RES))
      (sheetpath (names /) (tstamps /))
      (tstamp 55215EAA))
    (comp (ref R11)
      (value 1K)
      (libsource (lib Components) (part RES))
      (sheetpath (names /) (tstamps /))
      (tstamp 552168C2))
    (comp (ref R12)
      (value 1K)
      (libsource (lib Components) (part RES))
      (sheetpath (names /) (tstamps /))
      (tstamp 552168C8))
    (comp (ref R13)
      (value 1K)
      (libsource (lib Components) (part RES))
      (sheetpath (names /) (tstamps /))
      (tstamp 552168CE))
    (comp (ref R14)
      (value 1K)
      (libsource (lib Components) (part RES))
      (sheetpath (names /) (tstamps /))
      (tstamp 552168D4))
    (comp (ref R15)
      (value 1K)
      (libsource (lib Components) (part RES))
      (sheetpath (names /) (tstamps /))
      (tstamp 552168DA))
    (comp (ref R16)
      (value 1K)
      (libsource (lib Components) (part RES))
      (sheetpath (names /) (tstamps /))
      (tstamp 552168E0))
    (comp (ref R10)
      (value 1K)
      (libsource (lib Components) (part RES))
      (sheetpath (names /) (tstamps /))
      (tstamp 552169DA))
    (comp (ref P3)
      (value HEADER-20X1)
      (libsource (lib Connectors) (part HEADER-20X1))
      (sheetpath (names /) (tstamps /))
      (tstamp 5521B0EB))
    (comp (ref P4)
      (value HEADER-20X1)
      (libsource (lib Connectors) (part HEADER-20X1))
      (sheetpath (names /) (tstamps /))
      (tstamp 5521B0FA))
    (comp (ref C3)
      (value 100nF)
      (libsource (lib Components) (part CAP))
      (sheetpath (names /) (tstamps /))
      (tstamp 5521BDDF))
    (comp (ref C4)
      (value 100nF)
      (libsource (lib Components) (part CAP))
      (sheetpath (names /) (tstamps /))
      (tstamp 5521BDEE))
    (comp (ref C5)
      (value 100nF)
      (libsource (lib Components) (part CAP))
      (sheetpath (names /) (tstamps /))
      (tstamp 552174E5)))
  (libparts
    (libpart (lib device) (part LED)
      (footprints
        (fp LED-3MM)
        (fp LED-5MM)
        (fp LED-10MM)
        (fp LED-0603)
        (fp LED-0805)
        (fp LED-1206)
        (fp LEDV))
      (fields
        (field (name Reference) D)
        (field (name Value) LED)
        (field (name Footprint) ~)
        (field (name Datasheet) ~))
      (pins
        (pin (num 1) (name A) (type passive))
        (pin (num 2) (name K) (type passive))))
    (libpart (lib Connectors) (part DC-JACK)
      (footprints
        (fp DC-JACK))
      (fields
        (field (name Reference) J)
        (field (name Value) DC-JACK)
        (field (name Footprint) ~)
        (field (name Datasheet) ~))
      (pins
        (pin (num 1) (name P1) (type passive))
        (pin (num 2) (name P2) (type passive))
        (pin (num 3) (name P3) (type passive))))
    (libpart (lib Connectors) (part HEADER-20X1)
      (footprints
        (fp HEADER-20X1))
      (fields
        (field (name Reference) P)
        (field (name Value) HEADER-20X1)
        (field (name Footprint) ~)
        (field (name Datasheet) ~))
      (pins
        (pin (num 1) (name P1) (type passive))
        (pin (num 2) (name P2) (type passive))
        (pin (num 3) (name P3) (type passive))
        (pin (num 4) (name P4) (type passive))
        (pin (num 5) (name P5) (type passive))
        (pin (num 6) (name P6) (type passive))
        (pin (num 7) (name P7) (type passive))
        (pin (num 8) (name P8) (type passive))
        (pin (num 9) (name P9) (type passive))
        (pin (num 10) (name P10) (type passive))
        (pin (num 11) (name P11) (type passive))
        (pin (num 12) (name P12) (type passive))
        (pin (num 13) (name P13) (type passive))
        (pin (num 14) (name P14) (type passive))
        (pin (num 15) (name P15) (type passive))
        (pin (num 16) (name P16) (type passive))
        (pin (num 17) (name P17) (type passive))
        (pin (num 18) (name P18) (type passive))
        (pin (num 19) (name P19) (type passive))
        (pin (num 20) (name P20) (type passive))))
    (libpart (lib Connectors) (part HEADER-2X1)
      (footprints
        (fp HEADER-2X1))
      (fields
        (field (name Reference) P)
        (field (name Value) HEADER-2X1)
        (field (name Footprint) ~)
        (field (name Datasheet) ~))
      (pins
        (pin (num 1) (name P1) (type passive))
        (pin (num 2) (name P2) (type passive))))
    (libpart (lib Connectors) (part HEADER-3X1)
      (footprints
        (fp HEADER-3X1))
      (fields
        (field (name Reference) P)
        (field (name Value) HEADER-3X1)
        (field (name Footprint) ~)
        (field (name Datasheet) ~))
      (pins
        (pin (num 1) (name P1) (type passive))
        (pin (num 2) (name PM) (type passive))
        (pin (num 3) (name P3) (type passive))))
    (libpart (lib Devices) (part ATMEGA8-PDIP28)
      (footprints
        (fp DIP-28))
      (fields
        (field (name Reference) IC)
        (field (name Value) ATMEGA8-PDIP28)
        (field (name Footprint) PDIP-28)
        (field (name Datasheet) ~))
      (pins
        (pin (num 1) (name "PC6(~RESET~)") (type BiDi))
        (pin (num 2) (name "(RXD)PD0") (type BiDi))
        (pin (num 3) (name "(TXD)PD1") (type BiDi))
        (pin (num 4) (name "(INT0)PD2") (type BiDi))
        (pin (num 5) (name "(INT1)PD3") (type BiDi))
        (pin (num 6) (name "(XCK/T0)PD4") (type BiDi))
        (pin (num 7) (name VCC) (type power_in))
        (pin (num 8) (name GND) (type power_in))
        (pin (num 9) (name "PB6(XTAL1/TOSC1)") (type BiDi))
        (pin (num 10) (name "PB7(XTAL2/TOSC2)") (type BiDi))
        (pin (num 11) (name "(T1)PD5") (type BiDi))
        (pin (num 12) (name "(AIN0)PD6") (type BiDi))
        (pin (num 13) (name "(AIN1)PD7") (type BiDi))
        (pin (num 14) (name "(ICP)PB0") (type BiDi))
        (pin (num 15) (name "(OC1A)PB1") (type BiDi))
        (pin (num 16) (name "(~SS~/OC1B)PB2") (type BiDi))
        (pin (num 17) (name "(MOSI/OC2)PB3") (type BiDi))
        (pin (num 18) (name "(MISO)PB4") (type BiDi))
        (pin (num 19) (name "(SCK)PB5") (type BiDi))
        (pin (num 20) (name AVCC) (type power_in))
        (pin (num 21) (name AREF) (type BiDi))
        (pin (num 22) (name AGND) (type power_in))
        (pin (num 23) (name "(ADC0)PC0") (type BiDi))
        (pin (num 24) (name "(ADC1)PC1") (type BiDi))
        (pin (num 25) (name "(ADC2)PC2") (type BiDi))
        (pin (num 26) (name "(ADC3)PC3") (type BiDi))
        (pin (num 27) (name "(ADC4/SDA)PC4") (type BiDi))
        (pin (num 28) (name "(ADC5/SCL)PC5") (type BiDi))))
    (libpart (lib Devices) (part LM2576)
      (footprints
        (fp TO-220-5))
      (fields
        (field (name Reference) IC)
        (field (name Value) LM2576)
        (field (name Footprint) ~)
        (field (name Datasheet) ~))
      (pins
        (pin (num 1) (name VI) (type power_in))
        (pin (num 2) (name OUT) (type passive))
        (pin (num 3) (name GND) (type power_in))
        (pin (num 4) (name FB) (type power_out))
        (pin (num 5) (name ~EN) (type power_in))))
    (libpart (lib Components) (part BUTTON)
      (fields
        (field (name Reference) PB)
        (field (name Value) BUTTON)
        (field (name Footprint) ~)
        (field (name Datasheet) ~))
      (pins
        (pin (num 1) (name 1) (type passive))
        (pin (num 2) (name 2) (type passive))))
    (libpart (lib Components) (part CAP)
      (footprints
        (fp 0402)
        (fp 0603)
        (fp 0805)
        (fp 1206)
        (fp 1210)
        (fp 1808)
        (fp 1812)
        (fp 2010)
        (fp 2512)
        (fp RADIAL-LEAD-*))
      (fields
        (field (name Reference) C)
        (field (name Value) CAP)
        (field (name Footprint) ~)
        (field (name Datasheet) ~))
      (pins
        (pin (num 1) (name ~) (type passive))
        (pin (num 2) (name ~) (type passive))))
    (libpart (lib Components) (part CAP-POL)
      (footprints
        (fp 0402)
        (fp 0603)
        (fp 0805)
        (fp 1206)
        (fp 1210)
        (fp 1808)
        (fp 1812)
        (fp 2010)
        (fp 2512)
        (fp RADIAL-LEAD-*))
      (fields
        (field (name Reference) C)
        (field (name Value) CAP-POL)
        (field (name Footprint) ~)
        (field (name Datasheet) ~))
      (pins
        (pin (num 1) (name ~) (type passive))
        (pin (num 2) (name ~) (type passive))))
    (libpart (lib Components) (part DIODE-SCH)
      (footprints
        (fp DO-41)
        (fp DO-201))
      (fields
        (field (name Reference) D)
        (field (name Value) DIODE-SCH)
        (field (name Footprint) ~)
        (field (name Datasheet) ~))
      (pins
        (pin (num 1) (name A) (type passive))
        (pin (num 2) (name K) (type passive))))
    (libpart (lib Components) (part IND)
      (footprints
        (fp RADIAL-LEAD-*)
        (fp Comp-Stand))
      (fields
        (field (name Reference) L)
        (field (name Value) IND)
        (field (name Footprint) ~)
        (field (name Datasheet) ~))
      (pins
        (pin (num 1) (name 1) (type passive))
        (pin (num 2) (name 2) (type passive))))
    (libpart (lib Components) (part RES)
      (footprints
        (fp 0402)
        (fp 0603)
        (fp 0805)
        (fp 1206)
        (fp 1210)
        (fp 1808)
        (fp 1812)
        (fp 2010)
        (fp 2512)
        (fp Comp-Stand))
      (fields
        (field (name Reference) R)
        (field (name Value) RES)
        (field (name Footprint) ~)
        (field (name Datasheet) ~))
      (pins
        (pin (num 1) (name ~) (type passive))
        (pin (num 2) (name ~) (type passive)))))
  (libraries
    (library (logical device)
      (uri /usr/share/kicad/library/device.lib))
    (library (logical Connectors)
      (uri /home/zero/Kicad/Library/Libraries/Connectors.lib))
    (library (logical Devices)
      (uri /home/zero/Kicad/Library/Libraries/Devices.lib))
    (library (logical Components)
      (uri /home/zero/Kicad/Library/Libraries/Components.lib)))
  (nets
    (net (code 1) (name /PD6)
      (node (ref IC1) (pin 12))
      (node (ref R10) (pin 1)))
    (net (code 2) (name /WR)
      (node (ref P3) (pin 17))
      (node (ref R9) (pin 2)))
    (net (code 3) (name /XTAL1)
      (node (ref R8) (pin 2))
      (node (ref P3) (pin 13)))
    (net (code 4) (name /OE)
      (node (ref P3) (pin 16))
      (node (ref R7) (pin 2)))
    (net (code 5) (name /PD4)
      (node (ref IC1) (pin 6))
      (node (ref R9) (pin 1)))
    (net (code 6) (name /PD3)
      (node (ref R8) (pin 1))
      (node (ref IC1) (pin 5)))
    (net (code 7) (name /PD2)
      (node (ref R7) (pin 1))
      (node (ref IC1) (pin 4)))
    (net (code 8) (name /BS2)
      (node (ref R10) (pin 2))
      (node (ref P4) (pin 1)))
    (net (code 9) (name /DATA1)
      (node (ref R12) (pin 2))
      (node (ref P3) (pin 2)))
    (net (code 10) (name /DATA0)
      (node (ref P3) (pin 1))
      (node (ref R11) (pin 2)))
    (net (code 11) (name /DATA3)
      (node (ref R14) (pin 2))
      (node (ref P3) (pin 4)))
    (net (code 12) (name /DATA2)
      (node (ref P3) (pin 3))
      (node (ref R13) (pin 2)))
    (net (code 13) (name /DATA5)
      (node (ref P3) (pin 6))
      (node (ref R16) (pin 2)))
    (net (code 14) (name /DATA4)
      (node (ref R15) (pin 2))
      (node (ref P3) (pin 5)))
    (net (code 15) (name "")
      (node (ref P3) (pin 12)))
    (net (code 16) (name "")
      (node (ref P3) (pin 11)))
    (net (code 17) (name /XA1)
      (node (ref P3) (pin 20))
      (node (ref R5) (pin 2)))
    (net (code 18) (name "")
      (node (ref P3) (pin 10)))
    (net (code 19) (name "")
      (node (ref P3) (pin 9)))
    (net (code 20) (name "")
      (node (ref IC1) (pin 21)))
    (net (code 21) (name /PD7)
      (node (ref IC1) (pin 13)))
    (net (code 22) (name /PD5)
      (node (ref IC1) (pin 11)))
    (net (code 23) (name /PB4)
      (node (ref R15) (pin 1))
      (node (ref IC1) (pin 18)))
    (net (code 24) (name /PB3)
      (node (ref IC1) (pin 17))
      (node (ref R14) (pin 1)))
    (net (code 25) (name /PB2)
      (node (ref IC1) (pin 16))
      (node (ref R13) (pin 1)))
    (net (code 26) (name /PB1)
      (node (ref R12) (pin 1))
      (node (ref IC1) (pin 15)))
    (net (code 27) (name /PB0)
      (node (ref IC1) (pin 14))
      (node (ref R11) (pin 1)))
    (net (code 28) (name /PB5)
      (node (ref IC1) (pin 19))
      (node (ref R16) (pin 1)))
    (net (code 29) (name /DATA7)
      (node (ref R18) (pin 2))
      (node (ref P3) (pin 8)))
    (net (code 30) (name /DATA6)
      (node (ref P3) (pin 7))
      (node (ref R17) (pin 2)))
    (net (code 31) (name "")
      (node (ref P3) (pin 14)))
    (net (code 32) (name "")
      (node (ref P4) (pin 18)))
    (net (code 33) (name "")
      (node (ref P4) (pin 5)))
    (net (code 34) (name "")
      (node (ref P4) (pin 6)))
    (net (code 35) (name "")
      (node (ref P4) (pin 7)))
    (net (code 36) (name "")
      (node (ref P4) (pin 8)))
    (net (code 37) (name "")
      (node (ref P4) (pin 9)))
    (net (code 38) (name "")
      (node (ref P4) (pin 10)))
    (net (code 39) (name "")
      (node (ref P4) (pin 11)))
    (net (code 40) (name "")
      (node (ref P4) (pin 12)))
    (net (code 41) (name "")
      (node (ref P4) (pin 13)))
    (net (code 42) (name "")
      (node (ref P4) (pin 14)))
    (net (code 43) (name "")
      (node (ref P4) (pin 15)))
    (net (code 44) (name "")
      (node (ref P4) (pin 16)))
    (net (code 45) (name "")
      (node (ref P4) (pin 17)))
    (net (code 46) (name "")
      (node (ref P4) (pin 4)))
    (net (code 47) (name "")
      (node (ref P4) (pin 19)))
    (net (code 48) (name GND)
      (node (ref P1) (pin 1))
      (node (ref R19) (pin 2))
      (node (ref IC1) (pin 22))
      (node (ref PB1) (pin 1))
      (node (ref P2) (pin 2))
      (node (ref C2) (pin 2))
      (node (ref C1) (pin 2))
      (node (ref IC2) (pin 5))
      (node (ref IC2) (pin 3))
      (node (ref J1) (pin 3))
      (node (ref J1) (pin 2))
      (node (ref IC1) (pin 8))
      (node (ref R20) (pin 2))
      (node (ref D1) (pin 1))
      (node (ref C4) (pin 2))
      (node (ref C3) (pin 2))
      (node (ref C5) (pin 2)))
    (net (code 49) (name +5V)
      (node (ref IC1) (pin 20))
      (node (ref R1) (pin 2))
      (node (ref IC1) (pin 7))
      (node (ref C2) (pin 1))
      (node (ref L1) (pin 2))
      (node (ref IC2) (pin 4))
      (node (ref C3) (pin 1))
      (node (ref C4) (pin 1)))
    (net (code 50) (name /PAG)
      (node (ref P4) (pin 20))
      (node (ref R6) (pin 2)))
    (net (code 51) (name "")
      (node (ref P4) (pin 2)))
    (net (code 52) (name "")
      (node (ref P4) (pin 3)))
    (net (code 53) (name /XA0)
      (node (ref P3) (pin 19))
      (node (ref R4) (pin 2)))
    (net (code 54) (name /BS1)
      (node (ref P3) (pin 18))
      (node (ref R3) (pin 2)))
    (net (code 55) (name /RDY)
      (node (ref P3) (pin 15))
      (node (ref R2) (pin 2)))
    (net (code 56) (name /RST)
      (node (ref C5) (pin 1))
      (node (ref IC1) (pin 1))
      (node (ref PB1) (pin 2))
      (node (ref R1) (pin 1)))
    (net (code 57) (name +12V)
      (node (ref J1) (pin 1))
      (node (ref C1) (pin 1))
      (node (ref IC2) (pin 1)))
    (net (code 58) (name /PC5)
      (node (ref R6) (pin 1))
      (node (ref IC1) (pin 28)))
    (net (code 59) (name /PC4)
      (node (ref P2) (pin 1))
      (node (ref IC1) (pin 27)))
    (net (code 60) (name /PC1)
      (node (ref R3) (pin 1))
      (node (ref IC1) (pin 24)))
    (net (code 61) (name /PC0)
      (node (ref R2) (pin 1))
      (node (ref IC1) (pin 23)))
    (net (code 62) (name /TX)
      (node (ref P1) (pin 2))
      (node (ref IC1) (pin 3)))
    (net (code 63) (name /RX)
      (node (ref P1) (pin 3))
      (node (ref R19) (pin 1))
      (node (ref IC1) (pin 2)))
    (net (code 64) (name "")
      (node (ref D1) (pin 2))
      (node (ref IC2) (pin 2))
      (node (ref L1) (pin 1)))
    (net (code 65) (name /PB6)
      (node (ref R17) (pin 1))
      (node (ref IC1) (pin 9)))
    (net (code 66) (name /PB7)
      (node (ref IC1) (pin 10))
      (node (ref R18) (pin 1)))
    (net (code 67) (name /PC3)
      (node (ref D3) (pin 1))
      (node (ref R5) (pin 1))
      (node (ref IC1) (pin 26)))
    (net (code 68) (name /PC2)
      (node (ref IC1) (pin 25))
      (node (ref D2) (pin 1))
      (node (ref R4) (pin 1)))
    (net (code 69) (name "")
      (node (ref D2) (pin 2))
      (node (ref R20) (pin 1))
      (node (ref D3) (pin 2)))))