EESchema Schematic File Version 2
LIBS:power
LIBS:device
LIBS:transistors
LIBS:conn
LIBS:linear
LIBS:regul
LIBS:74xx
LIBS:cmos4000
LIBS:adc-dac
LIBS:memory
LIBS:xilinx
LIBS:special
LIBS:microcontrollers
LIBS:dsp
LIBS:microchip
LIBS:analog_switches
LIBS:motorola
LIBS:texas
LIBS:intel
LIBS:audio
LIBS:interface
LIBS:digital-audio
LIBS:philips
LIBS:display
LIBS:cypress
LIBS:siliconi
LIBS:opto
LIBS:atmel
LIBS:contrib
LIBS:valves
LIBS:Connectors
LIBS:Devices
LIBS:Components
LIBS:Atmega-Fusebit-Doctor-Board-cache
EELAYER 27 0
EELAYER END
$Descr A4 11693 8268
encoding utf-8
Sheet 1 1
Title ""
Date "5 apr 2015"
Rev ""
Comp ""
Comment1 ""
Comment2 ""
Comment3 ""
Comment4 ""
$EndDescr
$Comp
L ATMEGA8-PDIP28 IC1
U 1 1 5521398D
P 1900 2650
F 0 "IC1" H 1150 3700 40  0000 L BNN
F 1 "ATMEGA8-PDIP28" H 1150 1550 40  0000 L BNN
F 2 "PDIP-28" H 1900 2650 30  0000 C CIN
F 3 "~" H 1900 2250 60  0000 C CNN
	1    1900 2650
	1    0    0    -1  
$EndComp
$Comp
L DC-JACK J1
U 1 1 552140B5
P 1000 850
F 0 "J1" H 700 1050 40  0000 C CNN
F 1 "DC-JACK" H 800 700 40  0000 C CNN
F 2 "~" H 1000 850 60  0000 C CNN
F 3 "~" H 1000 850 60  0000 C CNN
	1    1000 850 
	1    0    0    -1  
$EndComp
$Comp
L +12V #PWR3
U 1 1 552140C4
P 1350 700
F 0 "#PWR3" H 1350 650 20  0001 C CNN
F 1 "+12V" H 1350 800 30  0000 C CNN
F 2 "" H 1350 700 60  0000 C CNN
F 3 "" H 1350 700 60  0000 C CNN
	1    1350 700 
	1    0    0    -1  
$EndComp
$Comp
L GND #PWR4
U 1 1 552140D3
P 1350 1000
F 0 "#PWR4" H 1350 1000 30  0001 C CNN
F 1 "GND" H 1350 930 30  0001 C CNN
F 2 "" H 1350 1000 60  0000 C CNN
F 3 "" H 1350 1000 60  0000 C CNN
	1    1350 1000
	1    0    0    -1  
$EndComp
$Comp
L LM2576 IC2
U 1 1 552141A7
P 2500 800
F 0 "IC2" H 2290 1060 40  0000 C CNN
F 1 "LM2576" H 2360 990 40  0000 C CNN
F 2 "~" H 2500 800 60  0000 C CNN
F 3 "~" H 2500 800 60  0000 C CNN
	1    2500 800 
	1    0    0    -1  
$EndComp
$Comp
L CAP-POL C1
U 1 1 552141B6
P 1850 950
F 0 "C1" H 1890 1055 40  0000 L CNN
F 1 "100uF" H 1890 805 40  0000 L CNN
F 2 "~" H 1850 935 60  0000 C CNN
F 3 "~" H 1850 935 60  0000 C CNN
	1    1850 950 
	1    0    0    -1  
$EndComp
$Comp
L DIODE-SCH D1
U 1 1 552141C5
P 3000 1050
F 0 "D1" H 3000 1140 40  0000 C CNN
F 1 "1N5822" H 3000 950 40  0000 C CNN
F 2 "~" H 3000 1050 60  0000 C CNN
F 3 "~" H 3000 1050 60  0000 C CNN
	1    3000 1050
	0    -1   -1   0   
$EndComp
$Comp
L IND L1
U 1 1 552141D4
P 3400 850
F 0 "L1" H 3400 950 40  0000 C CNN
F 1 "100uH" H 3400 800 40  0000 C CNN
F 2 "~" V 3400 850 60  0000 C CNN
F 3 "~" V 3400 850 60  0000 C CNN
	1    3400 850 
	1    0    0    -1  
$EndComp
$Comp
L CAP-POL C2
U 1 1 552141E3
P 3800 1050
F 0 "C2" H 3840 1155 40  0000 L CNN
F 1 "1000uF" H 3840 905 40  0000 L CNN
F 2 "~" H 3800 1035 60  0000 C CNN
F 3 "~" H 3800 1035 60  0000 C CNN
	1    3800 1050
	1    0    0    -1  
$EndComp
$Comp
L GND #PWR6
U 1 1 552142B5
P 1850 1200
F 0 "#PWR6" H 1850 1200 30  0001 C CNN
F 1 "GND" H 1850 1130 30  0001 C CNN
F 2 "" H 1850 1200 60  0000 C CNN
F 3 "" H 1850 1200 60  0000 C CNN
	1    1850 1200
	1    0    0    -1  
$EndComp
$Comp
L GND #PWR9
U 1 1 552142E1
P 3000 1300
F 0 "#PWR9" H 3000 1300 30  0001 C CNN
F 1 "GND" H 3000 1230 30  0001 C CNN
F 2 "" H 3000 1300 60  0000 C CNN
F 3 "" H 3000 1300 60  0000 C CNN
	1    3000 1300
	1    0    0    -1  
$EndComp
$Comp
L +12V #PWR5
U 1 1 55214313
P 1850 700
F 0 "#PWR5" H 1850 650 20  0001 C CNN
F 1 "+12V" H 1850 800 30  0000 C CNN
F 2 "" H 1850 700 60  0000 C CNN
F 3 "" H 1850 700 60  0000 C CNN
	1    1850 700 
	1    0    0    -1  
$EndComp
Wire Wire Line
	1350 850  1350 1000
Wire Wire Line
	1350 700  1350 750 
Wire Wire Line
	1300 750  1500 750 
Wire Wire Line
	1350 950  1300 950 
Wire Wire Line
	1300 850  1500 850 
Connection ~ 1350 950 
Wire Wire Line
	2900 850  3100 850 
Connection ~ 3000 850 
Wire Wire Line
	2900 750  2900 650 
Wire Wire Line
	2900 650  3800 650 
Wire Wire Line
	3800 650  3800 850 
Wire Wire Line
	3800 850  3700 850 
Wire Wire Line
	2500 1100 2500 1250
Wire Wire Line
	2500 1250 3800 1250
Connection ~ 3000 1250
Wire Wire Line
	1850 750  2100 750 
Wire Wire Line
	2100 850  2100 1150
Wire Wire Line
	2100 1150 1850 1150
Wire Wire Line
	1850 1150 1850 1200
Wire Wire Line
	3000 1300 3000 1250
Wire Wire Line
	1850 700  1850 750 
$Comp
L +5V #PWR10
U 1 1 55214357
P 3800 650
F 0 "#PWR10" H 3800 740 20  0001 C CNN
F 1 "+5V" H 3800 740 30  0000 C CNN
F 2 "" H 3800 650 60  0000 C CNN
F 3 "" H 3800 650 60  0000 C CNN
	1    3800 650 
	1    0    0    -1  
$EndComp
Text Label 2800 2500 0    39   ~ 0
RST
Wire Wire Line
	2800 2500 2900 2500
$Comp
L +5V #PWR7
U 1 1 5521469F
P 1900 1450
F 0 "#PWR7" H 1900 1540 20  0001 C CNN
F 1 "+5V" H 1900 1540 30  0000 C CNN
F 2 "" H 1900 1450 60  0000 C CNN
F 3 "" H 1900 1450 60  0000 C CNN
	1    1900 1450
	1    0    0    -1  
$EndComp
$Comp
L +5V #PWR1
U 1 1 552146AE
P 950 1850
F 0 "#PWR1" H 950 1940 20  0001 C CNN
F 1 "+5V" H 950 1940 30  0000 C CNN
F 2 "" H 950 1850 60  0000 C CNN
F 3 "" H 950 1850 60  0000 C CNN
	1    950  1850
	1    0    0    -1  
$EndComp
$Comp
L GND #PWR2
U 1 1 552146BD
P 950 3150
F 0 "#PWR2" H 950 3150 30  0001 C CNN
F 1 "GND" H 950 3080 30  0001 C CNN
F 2 "" H 950 3150 60  0000 C CNN
F 3 "" H 950 3150 60  0000 C CNN
	1    950  3150
	1    0    0    -1  
$EndComp
$Comp
L GND #PWR8
U 1 1 552146CC
P 1900 3850
F 0 "#PWR8" H 1900 3850 30  0001 C CNN
F 1 "GND" H 1900 3780 30  0001 C CNN
F 2 "" H 1900 3850 60  0000 C CNN
F 3 "" H 1900 3850 60  0000 C CNN
	1    1900 3850
	1    0    0    -1  
$EndComp
Wire Wire Line
	1900 3800 1900 3850
Wire Wire Line
	950  3100 950  3150
Wire Wire Line
	950  3100 1000 3100
Wire Wire Line
	950  1850 950  1900
Wire Wire Line
	950  1900 1000 1900
Wire Wire Line
	1900 1500 1900 1450
$Comp
L BUTTON PB1
U 1 1 55214883
P 4650 1450
F 0 "PB1" H 4800 1560 40  0000 C CNN
F 1 "BUTTON" H 4650 1370 40  0000 C CNN
F 2 "~" H 4650 1450 60  0000 C CNN
F 3 "~" H 4650 1450 60  0000 C CNN
	1    4650 1450
	0    -1   -1   0   
$EndComp
$Comp
L RES R1
U 1 1 55214892
P 4800 950
F 0 "R1" H 4800 1030 40  0000 C CNN
F 1 "10K" H 4800 950 40  0000 C CNN
F 2 "~" H 4800 880 30  0000 C CNN
F 3 "~" V 4800 950 30  0000 C CNN
	1    4800 950 
	0    -1   -1   0   
$EndComp
$Comp
L +5V #PWR12
U 1 1 552148AB
P 4800 650
F 0 "#PWR12" H 4800 740 20  0001 C CNN
F 1 "+5V" H 4800 740 30  0000 C CNN
F 2 "" H 4800 650 60  0000 C CNN
F 3 "" H 4800 650 60  0000 C CNN
	1    4800 650 
	1    0    0    -1  
$EndComp
Wire Wire Line
	4800 650  4800 700 
Wire Wire Line
	4800 1200 4800 1250
Wire Wire Line
	4750 1250 4900 1250
$Comp
L GND #PWR11
U 1 1 5521490A
P 4750 1800
F 0 "#PWR11" H 4750 1800 30  0001 C CNN
F 1 "GND" H 4750 1730 30  0001 C CNN
F 2 "" H 4750 1800 60  0000 C CNN
F 3 "" H 4750 1800 60  0000 C CNN
	1    4750 1800
	1    0    0    -1  
$EndComp
Wire Wire Line
	4750 1800 4750 1750
Wire Wire Line
	4650 1750 4900 1750
Connection ~ 4800 1250
Text Label 4800 1250 0    39   ~ 0
RST
$Comp
L HEADER-3X1 P1
U 1 1 55214B0D
P 5650 950
F 0 "P1" V 5600 950 40  0000 C CNN
F 1 "HEADER-3X1" V 5700 950 40  0000 C CNN
F 2 "~" H 5650 950 60  0000 C CNN
F 3 "~" H 5650 950 60  0000 C CNN
	1    5650 950 
	1    0    0    -1  
$EndComp
$Comp
L GND #PWR13
U 1 1 55214B1C
P 5300 850
F 0 "#PWR13" H 5300 850 30  0001 C CNN
F 1 "GND" H 5300 780 30  0001 C CNN
F 2 "" H 5300 850 60  0000 C CNN
F 3 "" H 5300 850 60  0000 C CNN
	1    5300 850 
	0    1    1    0   
$EndComp
Wire Wire Line
	5300 850  5400 850 
Text Label 5350 950  0    39   ~ 0
TX
Text Label 5350 1050 0    39   ~ 0
RX
Wire Wire Line
	5350 1050 5400 1050
Wire Wire Line
	5350 950  5400 950 
$Comp
L RES R19
U 1 1 55214BA1
P 5150 950
F 0 "R19" H 5150 1030 40  0000 C CNN
F 1 "10K" H 5150 950 40  0000 C CNN
F 2 "~" H 5150 880 30  0000 C CNN
F 3 "~" V 5150 950 30  0000 C CNN
	1    5150 950 
	0    -1   -1   0   
$EndComp
Wire Wire Line
	5350 1050 5350 1200
Wire Wire Line
	5350 1200 5150 1200
Wire Wire Line
	5150 700  5350 700 
Wire Wire Line
	5350 700  5350 850 
Connection ~ 5350 850 
Text Label 2800 2800 0    39   ~ 0
TX
Text Label 2800 2700 0    39   ~ 0
RX
Wire Wire Line
	2800 2700 2900 2700
Wire Wire Line
	2900 2800 2800 2800
Text Label 2800 1900 0    39   ~ 0
PC0
Text Label 2800 2000 0    39   ~ 0
PC1
Text Label 2800 2100 0    39   ~ 0
PC2
Text Label 2800 2200 0    39   ~ 0
PC3
Text Label 2800 2300 0    39   ~ 0
PC4
Text Label 2800 2400 0    39   ~ 0
PC5
Wire Wire Line
	2800 2400 2900 2400
Wire Wire Line
	2800 2300 2900 2300
Wire Wire Line
	2800 2200 2900 2200
Wire Wire Line
	2900 2100 2800 2100
Wire Wire Line
	2900 2000 2800 2000
Wire Wire Line
	2900 1900 2800 1900
Text Label 3500 1800 0    39   ~ 0
PC0
Text Label 3500 2000 0    39   ~ 0
PC1
Text Label 3500 2200 0    39   ~ 0
PC2
Text Label 3500 2400 0    39   ~ 0
PC3
Text Label 5300 1400 0    39   ~ 0
PC4
Text Label 3500 2600 0    39   ~ 0
PC5
Wire Wire Line
	3500 2600 3600 2600
Wire Wire Line
	5300 1400 5400 1400
Wire Wire Line
	3500 2400 3600 2400
Wire Wire Line
	3600 2200 3500 2200
Wire Wire Line
	3600 2000 3500 2000
Wire Wire Line
	3600 1800 3500 1800
$Comp
L RES R2
U 1 1 55215635
P 3850 1800
F 0 "R2" H 3850 1880 40  0000 C CNN
F 1 "1K" H 3850 1800 40  0000 C CNN
F 2 "~" H 3850 1730 30  0000 C CNN
F 3 "~" V 3850 1800 30  0000 C CNN
	1    3850 1800
	1    0    0    -1  
$EndComp
$Comp
L RES R3
U 1 1 5521564E
P 3850 2000
F 0 "R3" H 3850 2080 40  0000 C CNN
F 1 "1K" H 3850 2000 40  0000 C CNN
F 2 "~" H 3850 1930 30  0000 C CNN
F 3 "~" V 3850 2000 30  0000 C CNN
	1    3850 2000
	1    0    0    -1  
$EndComp
$Comp
L RES R4
U 1 1 55215667
P 3850 2200
F 0 "R4" H 3850 2280 40  0000 C CNN
F 1 "1K" H 3850 2200 40  0000 C CNN
F 2 "~" H 3850 2130 30  0000 C CNN
F 3 "~" V 3850 2200 30  0000 C CNN
	1    3850 2200
	1    0    0    -1  
$EndComp
$Comp
L RES R5
U 1 1 55215676
P 3850 2400
F 0 "R5" H 3850 2480 40  0000 C CNN
F 1 "1K" H 3850 2400 40  0000 C CNN
F 2 "~" H 3850 2330 30  0000 C CNN
F 3 "~" V 3850 2400 30  0000 C CNN
	1    3850 2400
	1    0    0    -1  
$EndComp
$Comp
L RES R6
U 1 1 55215685
P 3850 2600
F 0 "R6" H 3850 2680 40  0000 C CNN
F 1 "1K" H 3850 2600 40  0000 C CNN
F 2 "~" H 3850 2530 30  0000 C CNN
F 3 "~" V 3850 2600 30  0000 C CNN
	1    3850 2600
	1    0    0    -1  
$EndComp
$Comp
L RES R17
U 1 1 55215694
P 3850 4800
F 0 "R17" H 3850 4880 40  0000 C CNN
F 1 "1K" H 3850 4800 40  0000 C CNN
F 2 "~" H 3850 4730 30  0000 C CNN
F 3 "~" V 3850 4800 30  0000 C CNN
	1    3850 4800
	1    0    0    -1  
$EndComp
$Comp
L RES R18
U 1 1 552156A3
P 3850 5000
F 0 "R18" H 3850 5080 40  0000 C CNN
F 1 "1K" H 3850 5000 40  0000 C CNN
F 2 "~" H 3850 4930 30  0000 C CNN
F 3 "~" V 3850 5000 30  0000 C CNN
	1    3850 5000
	1    0    0    -1  
$EndComp
$Comp
L RES R7
U 1 1 552156B2
P 3850 2800
F 0 "R7" H 3850 2880 40  0000 C CNN
F 1 "1K" H 3850 2800 40  0000 C CNN
F 2 "~" H 3850 2730 30  0000 C CNN
F 3 "~" V 3850 2800 30  0000 C CNN
	1    3850 2800
	1    0    0    -1  
$EndComp
$Comp
L RES R8
U 1 1 552156C1
P 3850 3000
F 0 "R8" H 3850 3080 40  0000 C CNN
F 1 "1K" H 3850 3000 40  0000 C CNN
F 2 "~" H 3850 2930 30  0000 C CNN
F 3 "~" V 3850 3000 30  0000 C CNN
	1    3850 3000
	1    0    0    -1  
$EndComp
$Comp
L RES R9
U 1 1 552156D0
P 3850 3200
F 0 "R9" H 3850 3280 40  0000 C CNN
F 1 "1K" H 3850 3200 40  0000 C CNN
F 2 "~" H 3850 3130 30  0000 C CNN
F 3 "~" V 3850 3200 30  0000 C CNN
	1    3850 3200
	1    0    0    -1  
$EndComp
Text Label 900  2800 0    39   ~ 0
PB6
Text Label 900  2900 0    39   ~ 0
PB7
Wire Wire Line
	900  2900 1000 2900
Wire Wire Line
	1000 2800 900  2800
Text Label 3500 4800 0    39   ~ 0
PB6
Text Label 3500 5000 0    39   ~ 0
PB7
Wire Wire Line
	3500 5000 3600 5000
Wire Wire Line
	3600 4800 3500 4800
Text Label 4100 1800 0    39   ~ 0
RDY
Text Label 4100 2000 0    39   ~ 0
BS1
Text Label 4100 2200 0    39   ~ 0
XA0
Text Label 4100 2400 0    39   ~ 0
XA1
$Comp
L HEADER-2X1 P2
U 1 1 55215D60
P 5650 1500
F 0 "P2" V 5600 1500 40  0000 C CNN
F 1 "HEADER-2X1" V 5700 1500 40  0000 C CNN
F 2 "~" H 5650 1500 60  0000 C CNN
F 3 "~" H 5650 1500 60  0000 C CNN
	1    5650 1500
	1    0    0    -1  
$EndComp
$Comp
L GND #PWR14
U 1 1 55215D6F
P 5350 1650
F 0 "#PWR14" H 5350 1650 30  0001 C CNN
F 1 "GND" H 5350 1580 30  0001 C CNN
F 2 "" H 5350 1650 60  0000 C CNN
F 3 "" H 5350 1650 60  0000 C CNN
	1    5350 1650
	1    0    0    -1  
$EndComp
Wire Wire Line
	5350 1650 5350 1600
Wire Wire Line
	5350 1600 5400 1600
$Comp
L LED D2
U 1 1 55215E8C
P 6100 750
F 0 "D2" H 6100 850 50  0000 C CNN
F 1 "LED" H 6100 650 50  0000 C CNN
F 2 "~" H 6100 750 60  0000 C CNN
F 3 "~" H 6100 750 60  0000 C CNN
	1    6100 750 
	1    0    0    -1  
$EndComp
$Comp
L LED D3
U 1 1 55215E9B
P 6100 1050
F 0 "D3" H 6100 1150 50  0000 C CNN
F 1 "LED" H 6100 950 50  0000 C CNN
F 2 "~" H 6100 1050 60  0000 C CNN
F 3 "~" H 6100 1050 60  0000 C CNN
	1    6100 1050
	1    0    0    -1  
$EndComp
$Comp
L RES R20
U 1 1 55215EAA
P 6550 900
F 0 "R20" H 6550 980 40  0000 C CNN
F 1 "330" H 6550 900 40  0000 C CNN
F 2 "~" H 6550 830 30  0000 C CNN
F 3 "~" V 6550 900 30  0000 C CNN
	1    6550 900 
	1    0    0    -1  
$EndComp
Wire Wire Line
	6300 750  6300 1050
Connection ~ 6300 900 
$Comp
L GND #PWR15
U 1 1 55215F42
P 6850 950
F 0 "#PWR15" H 6850 950 30  0001 C CNN
F 1 "GND" H 6850 880 30  0001 C CNN
F 2 "" H 6850 950 60  0000 C CNN
F 3 "" H 6850 950 60  0000 C CNN
	1    6850 950 
	1    0    0    -1  
$EndComp
Wire Wire Line
	6850 950  6850 900 
Wire Wire Line
	6850 900  6800 900 
Text Label 5800 750  0    39   ~ 0
PC2
Wire Wire Line
	5800 750  5900 750 
Wire Wire Line
	5800 1050 5900 1050
Text Label 5800 1050 0    39   ~ 0
PC3
Wire Wire Line
	4100 1800 4200 1800
Wire Wire Line
	4200 2000 4100 2000
Wire Wire Line
	4200 2200 4100 2200
Wire Wire Line
	4200 2400 4100 2400
Text Label 4100 2600 0    39   ~ 0
PAG
Wire Wire Line
	4100 2600 4200 2600
Wire Wire Line
	4100 4800 4250 4800
Wire Wire Line
	4100 5000 4250 5000
Text Label 4100 4800 0    39   ~ 0
DATA6
Text Label 4100 5000 0    39   ~ 0
DATA7
Text Label 2800 2900 0    39   ~ 0
PD2
Text Label 2800 3000 0    39   ~ 0
PD3
Text Label 2800 3100 0    39   ~ 0
PD4
Text Label 2800 3200 0    39   ~ 0
PD5
Text Label 2800 3300 0    39   ~ 0
PD6
Text Label 2800 3400 0    39   ~ 0
PD7
Wire Wire Line
	2800 2900 2900 2900
Wire Wire Line
	2900 3000 2800 3000
Wire Wire Line
	2900 3100 2800 3100
Wire Wire Line
	2900 3200 2800 3200
Wire Wire Line
	2900 3300 2800 3300
Wire Wire Line
	2900 3400 2800 3400
Wire Wire Line
	900  2200 1000 2200
Wire Wire Line
	1000 2300 900  2300
Wire Wire Line
	1000 2400 900  2400
Wire Wire Line
	900  2500 1000 2500
Wire Wire Line
	900  2600 1000 2600
Wire Wire Line
	900  2700 1000 2700
Text Label 900  2200 0    39   ~ 0
PB0
Text Label 900  2300 0    39   ~ 0
PB1
Text Label 900  2400 0    39   ~ 0
PB2
Text Label 900  2500 0    39   ~ 0
PB3
Text Label 900  2600 0    39   ~ 0
PB4
Text Label 900  2700 0    39   ~ 0
PB5
$Comp
L RES R11
U 1 1 552168C2
P 3850 3600
F 0 "R11" H 3850 3680 40  0000 C CNN
F 1 "1K" H 3850 3600 40  0000 C CNN
F 2 "~" H 3850 3530 30  0000 C CNN
F 3 "~" V 3850 3600 30  0000 C CNN
	1    3850 3600
	1    0    0    -1  
$EndComp
$Comp
L RES R12
U 1 1 552168C8
P 3850 3800
F 0 "R12" H 3850 3880 40  0000 C CNN
F 1 "1K" H 3850 3800 40  0000 C CNN
F 2 "~" H 3850 3730 30  0000 C CNN
F 3 "~" V 3850 3800 30  0000 C CNN
	1    3850 3800
	1    0    0    -1  
$EndComp
$Comp
L RES R13
U 1 1 552168CE
P 3850 4000
F 0 "R13" H 3850 4080 40  0000 C CNN
F 1 "1K" H 3850 4000 40  0000 C CNN
F 2 "~" H 3850 3930 30  0000 C CNN
F 3 "~" V 3850 4000 30  0000 C CNN
	1    3850 4000
	1    0    0    -1  
$EndComp
$Comp
L RES R14
U 1 1 552168D4
P 3850 4200
F 0 "R14" H 3850 4280 40  0000 C CNN
F 1 "1K" H 3850 4200 40  0000 C CNN
F 2 "~" H 3850 4130 30  0000 C CNN
F 3 "~" V 3850 4200 30  0000 C CNN
	1    3850 4200
	1    0    0    -1  
$EndComp
$Comp
L RES R15
U 1 1 552168DA
P 3850 4400
F 0 "R15" H 3850 4480 40  0000 C CNN
F 1 "1K" H 3850 4400 40  0000 C CNN
F 2 "~" H 3850 4330 30  0000 C CNN
F 3 "~" V 3850 4400 30  0000 C CNN
	1    3850 4400
	1    0    0    -1  
$EndComp
$Comp
L RES R16
U 1 1 552168E0
P 3850 4600
F 0 "R16" H 3850 4680 40  0000 C CNN
F 1 "1K" H 3850 4600 40  0000 C CNN
F 2 "~" H 3850 4530 30  0000 C CNN
F 3 "~" V 3850 4600 30  0000 C CNN
	1    3850 4600
	1    0    0    -1  
$EndComp
Wire Wire Line
	3500 3600 3600 3600
Wire Wire Line
	3600 3800 3500 3800
Wire Wire Line
	3600 4000 3500 4000
Wire Wire Line
	3500 4200 3600 4200
Wire Wire Line
	3500 4400 3600 4400
Wire Wire Line
	3500 4600 3600 4600
Text Label 3500 3600 0    39   ~ 0
PB0
Text Label 3500 3800 0    39   ~ 0
PB1
Text Label 3500 4000 0    39   ~ 0
PB2
Text Label 3500 4200 0    39   ~ 0
PB3
Text Label 3500 4400 0    39   ~ 0
PB4
Text Label 3500 4600 0    39   ~ 0
PB5
Wire Wire Line
	4100 4400 4250 4400
Wire Wire Line
	4100 4600 4250 4600
Text Label 4100 4400 0    39   ~ 0
DATA4
Text Label 4100 4600 0    39   ~ 0
DATA5
Wire Wire Line
	4100 4000 4250 4000
Wire Wire Line
	4100 4200 4250 4200
Text Label 4100 4000 0    39   ~ 0
DATA2
Text Label 4100 4200 0    39   ~ 0
DATA3
Wire Wire Line
	4100 3600 4250 3600
Wire Wire Line
	4100 3800 4250 3800
Text Label 4100 3600 0    39   ~ 0
DATA0
Text Label 4100 3800 0    39   ~ 0
DATA1
$Comp
L RES R10
U 1 1 552169DA
P 3850 3400
F 0 "R10" H 3850 3480 40  0000 C CNN
F 1 "1K" H 3850 3400 40  0000 C CNN
F 2 "~" H 3850 3330 30  0000 C CNN
F 3 "~" V 3850 3400 30  0000 C CNN
	1    3850 3400
	1    0    0    -1  
$EndComp
Wire Wire Line
	3600 3400 3500 3400
Wire Wire Line
	4100 2800 4200 2800
Wire Wire Line
	4100 3000 4200 3000
Wire Wire Line
	4100 3200 4200 3200
Wire Wire Line
	4100 3400 4200 3400
Text Label 3500 2800 0    39   ~ 0
PD2
Text Label 3500 3000 0    39   ~ 0
PD3
Text Label 3500 3200 0    39   ~ 0
PD4
Wire Wire Line
	3500 2800 3600 2800
Wire Wire Line
	3600 3000 3500 3000
Wire Wire Line
	3600 3200 3500 3200
Text Label 4100 2800 0    39   ~ 0
OE
Text Label 4100 3000 0    39   ~ 0
XTAL1
Text Label 4100 3200 0    39   ~ 0
WR
Text Label 4100 3400 0    39   ~ 0
BS2
Text Label 3500 3400 0    39   ~ 0
PD6
Text Label 4750 2700 0    39   ~ 0
PD5
Text Label 4750 2900 0    39   ~ 0
PD7
Wire Wire Line
	4850 2700 4750 2700
Wire Wire Line
	4850 2900 4750 2900
$Comp
L PWR_FLAG #FLG1
U 1 1 552176DF
P 1500 700
F 0 "#FLG1" H 1500 795 30  0001 C CNN
F 1 "PWR_FLAG" H 1500 880 30  0000 C CNN
F 2 "" H 1500 700 60  0000 C CNN
F 3 "" H 1500 700 60  0000 C CNN
	1    1500 700 
	1    0    0    -1  
$EndComp
Wire Wire Line
	1500 750  1500 700 
Connection ~ 1350 750 
$Comp
L PWR_FLAG #FLG2
U 1 1 552177CC
P 1500 900
F 0 "#FLG2" H 1500 995 30  0001 C CNN
F 1 "PWR_FLAG" H 1500 1080 30  0000 C CNN
F 2 "" H 1500 900 60  0000 C CNN
F 3 "" H 1500 900 60  0000 C CNN
	1    1500 900 
	-1   0    0    1   
$EndComp
Wire Wire Line
	1500 850  1500 900 
Connection ~ 1350 850 
NoConn ~ 1000 2000
$Comp
L HEADER-20X1 P3
U 1 1 5521B0EB
P 5750 3300
F 0 "P3" V 5700 3300 40  0000 C CNN
F 1 "HEADER-20X1" V 5800 3300 40  0000 C CNN
F 2 "~" H 5750 3800 60  0000 C CNN
F 3 "~" H 5750 3800 60  0000 C CNN
	1    5750 3300
	1    0    0    -1  
$EndComp
$Comp
L HEADER-20X1 P4
U 1 1 5521B0FA
P 6300 3300
F 0 "P4" V 6250 3300 40  0000 C CNN
F 1 "HEADER-20X1" V 6350 3300 40  0000 C CNN
F 2 "~" H 6300 3800 60  0000 C CNN
F 3 "~" H 6300 3800 60  0000 C CNN
	1    6300 3300
	1    0    0    -1  
$EndComp
Wire Wire Line
	5350 2950 5500 2950
Wire Wire Line
	5350 3050 5500 3050
Text Label 5350 2950 0    39   ~ 0
DATA6
Text Label 5350 3050 0    39   ~ 0
DATA7
Wire Wire Line
	5350 2750 5500 2750
Wire Wire Line
	5350 2850 5500 2850
Text Label 5350 2750 0    39   ~ 0
DATA4
Text Label 5350 2850 0    39   ~ 0
DATA5
Wire Wire Line
	5350 2550 5500 2550
Wire Wire Line
	5350 2650 5500 2650
Text Label 5350 2550 0    39   ~ 0
DATA2
Text Label 5350 2650 0    39   ~ 0
DATA3
Wire Wire Line
	5350 2350 5500 2350
Wire Wire Line
	5350 2450 5500 2450
Text Label 5350 2350 0    39   ~ 0
DATA0
Text Label 5350 2450 0    39   ~ 0
DATA1
Wire Wire Line
	5950 2350 6050 2350
Text Label 5950 2350 0    39   ~ 0
BS2
Text Label 5400 3750 0    39   ~ 0
RDY
Text Label 5400 4050 0    39   ~ 0
BS1
Text Label 5400 4150 0    39   ~ 0
XA0
Text Label 5400 4250 0    39   ~ 0
XA1
Wire Wire Line
	5400 3750 5500 3750
Wire Wire Line
	5500 4050 5400 4050
Wire Wire Line
	5500 4150 5400 4150
Wire Wire Line
	5500 4250 5400 4250
Text Label 5950 4250 0    39   ~ 0
PAG
Wire Wire Line
	5950 4250 6050 4250
Wire Wire Line
	5400 3850 5500 3850
Wire Wire Line
	5350 3550 5500 3550
Wire Wire Line
	5400 3950 5500 3950
Text Label 5400 3850 0    39   ~ 0
OE
Text Label 5350 3550 0    39   ~ 0
XTAL1
Text Label 5400 3950 0    39   ~ 0
WR
NoConn ~ 5500 3150
NoConn ~ 5500 3250
NoConn ~ 5500 3350
NoConn ~ 5500 3450
NoConn ~ 5500 3650
NoConn ~ 6050 4150
NoConn ~ 6050 4050
NoConn ~ 6050 3950
NoConn ~ 6050 3850
NoConn ~ 6050 3750
NoConn ~ 6050 3650
NoConn ~ 6050 3550
NoConn ~ 6050 3450
NoConn ~ 6050 3350
NoConn ~ 6050 3250
NoConn ~ 6050 3150
NoConn ~ 6050 3050
NoConn ~ 6050 2950
NoConn ~ 6050 2850
NoConn ~ 6050 2750
NoConn ~ 6050 2650
NoConn ~ 6050 2550
NoConn ~ 6050 2450
$Comp
L CAP C3
U 1 1 5521BDDF
P 7250 950
F 0 "C3" H 7290 1050 40  0000 L CNN
F 1 "100nF" H 7290 840 40  0000 L CNN
F 2 "~" H 7288 800 30  0000 C CNN
F 3 "~" H 7250 950 60  0000 C CNN
	1    7250 950 
	1    0    0    -1  
$EndComp
$Comp
L CAP C4
U 1 1 5521BDEE
P 7500 950
F 0 "C4" H 7540 1050 40  0000 L CNN
F 1 "100nF" H 7540 840 40  0000 L CNN
F 2 "~" H 7538 800 30  0000 C CNN
F 3 "~" H 7500 950 60  0000 C CNN
	1    7500 950 
	1    0    0    -1  
$EndComp
$Comp
L +5V #PWR16
U 1 1 5521BE07
P 7250 700
F 0 "#PWR16" H 7250 790 20  0001 C CNN
F 1 "+5V" H 7250 790 30  0000 C CNN
F 2 "" H 7250 700 60  0000 C CNN
F 3 "" H 7250 700 60  0000 C CNN
	1    7250 700 
	1    0    0    -1  
$EndComp
$Comp
L +5V #PWR18
U 1 1 5521BE16
P 7500 700
F 0 "#PWR18" H 7500 790 20  0001 C CNN
F 1 "+5V" H 7500 790 30  0000 C CNN
F 2 "" H 7500 700 60  0000 C CNN
F 3 "" H 7500 700 60  0000 C CNN
	1    7500 700 
	1    0    0    -1  
$EndComp
$Comp
L GND #PWR17
U 1 1 5521BE25
P 7250 1200
F 0 "#PWR17" H 7250 1200 30  0001 C CNN
F 1 "GND" H 7250 1130 30  0001 C CNN
F 2 "" H 7250 1200 60  0000 C CNN
F 3 "" H 7250 1200 60  0000 C CNN
	1    7250 1200
	1    0    0    -1  
$EndComp
$Comp
L GND #PWR19
U 1 1 5521BE3E
P 7500 1200
F 0 "#PWR19" H 7500 1200 30  0001 C CNN
F 1 "GND" H 7500 1130 30  0001 C CNN
F 2 "" H 7500 1200 60  0000 C CNN
F 3 "" H 7500 1200 60  0000 C CNN
	1    7500 1200
	1    0    0    -1  
$EndComp
Wire Wire Line
	7250 700  7250 750 
Wire Wire Line
	7500 750  7500 700 
Wire Wire Line
	7250 1200 7250 1150
Wire Wire Line
	7500 1200 7500 1150
$Comp
L CAP C5
U 1 1 552174E5
P 4900 1500
F 0 "C5" H 4940 1600 40  0000 L CNN
F 1 "100nF" H 4940 1390 40  0000 L CNN
F 2 "~" H 4938 1350 30  0000 C CNN
F 3 "~" H 4900 1500 60  0000 C CNN
	1    4900 1500
	1    0    0    -1  
$EndComp
Wire Wire Line
	4900 1750 4900 1700
Wire Wire Line
	4900 1250 4900 1300
Wire Wire Line
	4750 1250 4750 1150
Wire Wire Line
	4750 1150 4650 1150
Connection ~ 4750 1750
$EndSCHEMATC
