EESchema Schematic File Version 2
LIBS:power
LIBS:Components
LIBS:Connectors
LIBS:Devices
LIBS:FTDI-Board-cache
EELAYER 27 0
EELAYER END
$Descr A4 11693 8268
encoding utf-8
Sheet 1 1
Title "FTDI-Board"
Date "20 jun 2015"
Rev ""
Comp ""
Comment1 ""
Comment2 ""
Comment3 ""
Comment4 ""
$EndDescr
$Comp
L +5V #PWR01
U 1 1 5310F611
P 3500 2200
F 0 "#PWR01" H 3500 2290 20  0001 C CNN
F 1 "+5V" H 3500 2290 30  0000 C CNN
F 2 "" H 3500 2200 60  0000 C CNN
F 3 "" H 3500 2200 60  0000 C CNN
	1    3500 2200
	1    0    0    -1  
$EndComp
Text Label 3700 4150 0    60   ~ 0
D-
Text Label 3700 4300 0    60   ~ 0
D+
Text Label 3600 2550 0    60   ~ 0
D-
Text Label 3600 2650 0    60   ~ 0
D+
$Comp
L VCC #PWR02
U 1 1 531184BB
P 3800 3950
F 0 "#PWR02" H 3800 4050 30  0001 C CNN
F 1 "VCC" H 3800 4050 30  0000 C CNN
F 2 "" H 3800 3950 60  0000 C CNN
F 3 "" H 3800 3950 60  0000 C CNN
	1    3800 3950
	1    0    0    -1  
$EndComp
$Comp
L VCC #PWR03
U 1 1 53118667
P 2600 2200
F 0 "#PWR03" H 2600 2300 30  0001 C CNN
F 1 "VCC" H 2600 2300 30  0000 C CNN
F 2 "" H 2600 2200 60  0000 C CNN
F 3 "" H 2600 2200 60  0000 C CNN
	1    2600 2200
	1    0    0    -1  
$EndComp
$Comp
L GND #PWR04
U 1 1 531187FC
P 3700 3600
F 0 "#PWR04" H 3700 3600 30  0001 C CNN
F 1 "GND" H 3700 3530 30  0001 C CNN
F 2 "" H 3700 3600 60  0000 C CNN
F 3 "" H 3700 3600 60  0000 C CNN
	1    3700 3600
	1    0    0    -1  
$EndComp
$Comp
L VCC #PWR05
U 1 1 53118D72
P 2250 2550
F 0 "#PWR05" H 2250 2650 30  0001 C CNN
F 1 "VCC" H 2250 2650 30  0000 C CNN
F 2 "" H 2250 2550 60  0000 C CNN
F 3 "" H 2250 2550 60  0000 C CNN
	1    2250 2550
	1    0    0    -1  
$EndComp
$Comp
L GND #PWR06
U 1 1 53118D81
P 2250 3150
F 0 "#PWR06" H 2250 3150 30  0001 C CNN
F 1 "GND" H 2250 3080 30  0001 C CNN
F 2 "" H 2250 3150 60  0000 C CNN
F 3 "" H 2250 3150 60  0000 C CNN
	1    2250 3150
	1    0    0    -1  
$EndComp
$Comp
L VCC #PWR07
U 1 1 53118EDD
P 2700 2550
F 0 "#PWR07" H 2700 2650 30  0001 C CNN
F 1 "VCC" H 2700 2650 30  0000 C CNN
F 2 "" H 2700 2550 60  0000 C CNN
F 3 "" H 2700 2550 60  0000 C CNN
	1    2700 2550
	1    0    0    -1  
$EndComp
$Comp
L GND #PWR08
U 1 1 53118EE3
P 2700 3150
F 0 "#PWR08" H 2700 3150 30  0001 C CNN
F 1 "GND" H 2700 3080 30  0001 C CNN
F 2 "" H 2700 3150 60  0000 C CNN
F 3 "" H 2700 3150 60  0000 C CNN
	1    2700 3150
	1    0    0    -1  
$EndComp
$Comp
L VCC #PWR09
U 1 1 53118FC0
P 3200 2550
F 0 "#PWR09" H 3200 2650 30  0001 C CNN
F 1 "VCC" H 3200 2650 30  0000 C CNN
F 2 "" H 3200 2550 60  0000 C CNN
F 3 "" H 3200 2550 60  0000 C CNN
	1    3200 2550
	1    0    0    -1  
$EndComp
$Comp
L GND #PWR010
U 1 1 53118FC6
P 3200 3150
F 0 "#PWR010" H 3200 3150 30  0001 C CNN
F 1 "GND" H 3200 3080 30  0001 C CNN
F 2 "" H 3200 3150 60  0000 C CNN
F 3 "" H 3200 3150 60  0000 C CNN
	1    3200 3150
	1    0    0    -1  
$EndComp
Text Label 5100 2150 0    60   ~ 0
TXD
Text Label 5100 2250 0    60   ~ 0
RXD
Text Label 5100 2450 0    60   ~ 0
RTS
Text Label 5100 2550 0    60   ~ 0
CTS
Text Label 5100 2650 0    60   ~ 0
DTR
Text Label 5100 2750 0    60   ~ 0
DCR
Text Label 5100 2850 0    60   ~ 0
DCD
Text Label 5100 2950 0    60   ~ 0
RI
Text Label 5100 3150 0    60   ~ 0
CBUS0
Text Label 5100 3250 0    60   ~ 0
CBUS1
Text Label 5100 3350 0    60   ~ 0
CBUS2
Text Label 5100 3450 0    60   ~ 0
CBUS3
Text Label 5100 3550 0    60   ~ 0
CBUS4
NoConn ~ 3800 2350
NoConn ~ 3800 2750
NoConn ~ 3800 2850
NoConn ~ 3800 2950
$Comp
L PWR_FLAG #FLG011
U 1 1 5311A6F3
P 5900 3100
F 0 "#FLG011" H 5900 3195 30  0001 C CNN
F 1 "PWR_FLAG" H 5900 3280 30  0000 C CNN
F 2 "" H 5900 3100 60  0000 C CNN
F 3 "" H 5900 3100 60  0000 C CNN
	1    5900 3100
	1    0    0    -1  
$EndComp
$Comp
L +3.3V #PWR012
U 1 1 53117BF8
P 2900 3650
F 0 "#PWR012" H 2900 3610 30  0001 C CNN
F 1 "+3.3V" H 2900 3760 30  0000 C CNN
F 2 "" H 2900 3650 60  0000 C CNN
F 3 "" H 2900 3650 60  0000 C CNN
	1    2900 3650
	0    -1   -1   0   
$EndComp
$Comp
L PWR_FLAG #FLG013
U 1 1 5311A7AB
P 2950 3400
F 0 "#FLG013" H 2950 3495 30  0001 C CNN
F 1 "PWR_FLAG" H 2950 3580 30  0000 C CNN
F 2 "" H 2950 3400 60  0000 C CNN
F 3 "" H 2950 3400 60  0000 C CNN
	1    2950 3400
	1    0    0    -1  
$EndComp
Text Label 5900 3250 0    60   ~ 0
CBUS0
Text Label 5900 3350 0    60   ~ 0
CBUS1
Text Label 5900 3450 0    60   ~ 0
CBUS2
Text Label 5900 3550 0    60   ~ 0
CBUS3
Text Label 5900 3650 0    60   ~ 0
CBUS4
$Comp
L GND #PWR014
U 1 1 5311AF8E
P 6100 3800
F 0 "#PWR014" H 6100 3800 30  0001 C CNN
F 1 "GND" H 6100 3730 30  0001 C CNN
F 2 "" H 6100 3800 60  0000 C CNN
F 3 "" H 6100 3800 60  0000 C CNN
	1    6100 3800
	1    0    0    -1  
$EndComp
Text Label 5900 1950 0    60   ~ 0
TXD
Text Label 5900 2250 0    60   ~ 0
RXD
Text Label 5900 2150 0    60   ~ 0
RTS
Text Label 5900 2650 0    60   ~ 0
CTS
Text Label 5900 2050 0    60   ~ 0
DTR
Text Label 5900 2450 0    60   ~ 0
DCR
Text Label 5900 2550 0    60   ~ 0
DCD
Text Label 5900 2350 0    60   ~ 0
RI
$Comp
L GND #PWR015
U 1 1 5311A975
P 3800 4650
F 0 "#PWR015" H 3800 4650 30  0001 C CNN
F 1 "GND" H 3800 4580 30  0001 C CNN
F 2 "" H 3800 4650 60  0000 C CNN
F 3 "" H 3800 4650 60  0000 C CNN
	1    3800 4650
	1    0    0    -1  
$EndComp
NoConn ~ 3900 4450
NoConn ~ 4900 4000
NoConn ~ 4900 4150
NoConn ~ 4900 4450
NoConn ~ 4900 4600
Wire Wire Line
	3800 4600 3900 4600
Wire Wire Line
	5900 2650 6200 2650
Wire Wire Line
	5900 2550 6200 2550
Wire Wire Line
	5900 2450 6200 2450
Wire Wire Line
	5900 2350 6200 2350
Wire Wire Line
	5900 2250 6200 2250
Wire Wire Line
	5900 2150 6200 2150
Wire Wire Line
	5900 2050 6200 2050
Wire Wire Line
	5900 1950 6200 1950
Wire Wire Line
	6100 3750 6100 3800
Wire Wire Line
	5900 3150 6200 3150
Wire Wire Line
	5900 3650 6200 3650
Wire Wire Line
	5900 3550 6200 3550
Wire Wire Line
	5900 3450 6200 3450
Wire Wire Line
	5900 3350 6200 3350
Wire Wire Line
	5900 3250 6200 3250
Wire Wire Line
	2950 3400 2950 3650
Connection ~ 2950 3650
Wire Wire Line
	5000 3550 5400 3550
Wire Wire Line
	5000 3450 5400 3450
Wire Wire Line
	5000 3350 5400 3350
Wire Wire Line
	5000 3250 5400 3250
Wire Wire Line
	5000 3150 5400 3150
Wire Wire Line
	5000 2950 5400 2950
Wire Wire Line
	5000 2850 5400 2850
Wire Wire Line
	5000 2750 5400 2750
Wire Wire Line
	5000 2650 5400 2650
Wire Wire Line
	5000 2550 5400 2550
Wire Wire Line
	5000 2450 5400 2450
Wire Wire Line
	5000 2250 5400 2250
Wire Wire Line
	5000 2150 5400 2150
Wire Wire Line
	3200 3050 3200 3150
Wire Wire Line
	3200 2650 3200 2550
Wire Wire Line
	2700 3050 2700 3150
Wire Wire Line
	2700 2650 2700 2550
Wire Wire Line
	2250 3050 2250 3150
Wire Wire Line
	2250 2650 2250 2550
Wire Wire Line
	2600 2250 2600 2200
Wire Wire Line
	3800 4000 3800 3950
Wire Wire Line
	3900 4000 3800 4000
Wire Wire Line
	3800 2650 3600 2650
Wire Wire Line
	3800 2550 3600 2550
Wire Wire Line
	3700 4300 3900 4300
Wire Wire Line
	3700 4150 3900 4150
Wire Wire Line
	3500 2200 3500 2250
Connection ~ 3500 2250
Wire Wire Line
	3400 2250 3800 2250
Wire Wire Line
	3800 4600 3800 4650
Wire Wire Line
	6200 1850 6100 1850
Wire Wire Line
	6100 1850 6100 1800
$Comp
L GND #PWR016
U 1 1 5311BB1C
P 6100 2800
F 0 "#PWR016" H 6100 2800 30  0001 C CNN
F 1 "GND" H 6100 2730 30  0001 C CNN
F 2 "" H 6100 2800 60  0000 C CNN
F 3 "" H 6100 2800 60  0000 C CNN
	1    6100 2800
	1    0    0    -1  
$EndComp
Wire Wire Line
	6200 2750 6100 2750
Wire Wire Line
	6100 2750 6100 2800
$Comp
L +3.3V #PWR017
U 1 1 5311BB75
P 6100 1800
F 0 "#PWR017" H 6100 1760 30  0001 C CNN
F 1 "+3.3V" H 6100 1910 30  0000 C CNN
F 2 "" H 6100 1800 60  0000 C CNN
F 3 "" H 6100 1800 60  0000 C CNN
	1    6100 1800
	1    0    0    -1  
$EndComp
$Comp
L +5V #PWR018
U 1 1 5311BC4F
P 6100 3100
F 0 "#PWR018" H 6100 3190 20  0001 C CNN
F 1 "+5V" H 6100 3190 30  0000 C CNN
F 2 "" H 6100 3100 60  0000 C CNN
F 3 "" H 6100 3100 60  0000 C CNN
	1    6100 3100
	1    0    0    -1  
$EndComp
Wire Wire Line
	6100 3100 6100 3150
Wire Wire Line
	5900 3100 5900 3150
Connection ~ 6100 3150
$Comp
L CAP C3
U 1 1 53133A18
P 3200 2850
F 0 "C3" H 3240 2950 40  0000 L CNN
F 1 "100nF" H 3240 2740 40  0000 L CNN
F 2 "~" H 3238 2700 30  0000 C CNN
F 3 "~" H 3200 2850 60  0000 C CNN
	1    3200 2850
	1    0    0    -1  
$EndComp
$Comp
L CAP-POL C2
U 1 1 53133A54
P 2700 2850
F 0 "C2" H 2740 2955 50  0000 L CNN
F 1 "4.7uF" H 2740 2705 50  0000 L CNN
F 2 "~" H 2700 2835 60  0000 C CNN
F 3 "~" H 2700 2835 60  0000 C CNN
	1    2700 2850
	1    0    0    -1  
$EndComp
$Comp
L FERRITE-BEAD FB1
U 1 1 53133B35
P 3050 2250
F 0 "FB1" H 3050 2370 60  0000 C CNN
F 1 "FERRITE-BEAD" H 3050 2140 60  0000 C CNN
F 2 "~" H 3050 2250 60  0000 C CNN
F 3 "~" H 3050 2250 60  0000 C CNN
	1    3050 2250
	1    0    0    -1  
$EndComp
Wire Wire Line
	3800 3250 3700 3250
Wire Wire Line
	3700 3050 3700 3600
Wire Wire Line
	3700 3550 3800 3550
Wire Wire Line
	3800 3450 3700 3450
Connection ~ 3700 3450
Wire Wire Line
	3800 3350 3700 3350
Connection ~ 3700 3350
Connection ~ 3700 3550
Wire Wire Line
	3800 3050 3700 3050
Connection ~ 3700 3250
Wire Wire Line
	2600 2250 2700 2250
Wire Wire Line
	6100 3750 6200 3750
$Comp
L CAP C1
U 1 1 5336FB71
P 2250 2850
F 0 "C1" H 2290 2950 40  0000 L CNN
F 1 "10nF" H 2290 2740 40  0000 L CNN
F 2 "~" H 2288 2700 30  0000 C CNN
F 3 "~" H 2250 2850 60  0000 C CNN
	1    2250 2850
	1    0    0    -1  
$EndComp
$Comp
L HEADER-10X1 P1
U 1 1 54FEB1F5
P 6450 2300
F 0 "P1" V 6400 2300 40  0000 C CNN
F 1 "HEADER-10X1" V 6500 2300 40  0000 C CNN
F 2 "~" H 6450 2300 60  0000 C CNN
F 3 "~" H 6450 2300 60  0000 C CNN
	1    6450 2300
	1    0    0    -1  
$EndComp
$Comp
L HEADER-7X1 P2
U 1 1 54FEB204
P 6450 3450
F 0 "P2" V 6400 3450 40  0000 C CNN
F 1 "HEADER-7X1" V 6500 3450 40  0000 C CNN
F 2 "~" H 6450 3450 60  0000 C CNN
F 3 "~" H 6450 3450 60  0000 C CNN
	1    6450 3450
	1    0    0    -1  
$EndComp
$Comp
L USB-MINI-B USB1
U 1 1 54FEB213
P 4400 4300
F 0 "USB1" H 4120 4740 40  0000 C CNN
F 1 "USB-MINI-B" H 4240 3850 40  0000 C CNN
F 2 "~" H 4400 4300 60  0000 C CNN
F 3 "~" H 4400 4300 60  0000 C CNN
	1    4400 4300
	1    0    0    -1  
$EndComp
$Comp
L FT232RL IC1
U 1 1 54FEB4A8
P 4400 2850
F 0 "IC1" H 3990 3690 40  0000 C CNN
F 1 "FT232RL" H 3950 2000 40  0000 L CNN
F 2 "~" H 4425 2800 60  0000 C CNN
F 3 "~" H 4425 2800 60  0000 C CNN
	1    4400 2850
	1    0    0    -1  
$EndComp
$Comp
L HEADER-3X1 P3
U 1 1 558588DB
P 3250 3750
F 0 "P3" V 3200 3750 40  0000 C CNN
F 1 "HEADER-3X1" V 3300 3750 40  0000 C CNN
F 2 "~" H 3250 3750 60  0000 C CNN
F 3 "~" H 3250 3750 60  0000 C CNN
	1    3250 3750
	1    0    0    -1  
$EndComp
Text Label 2850 3750 0    40   ~ 0
VCCIO
Wire Wire Line
	2850 3750 3000 3750
$Comp
L +5V #PWR019
U 1 1 558589E0
P 2900 3850
F 0 "#PWR019" H 2900 3940 20  0001 C CNN
F 1 "+5V" H 2900 3940 30  0000 C CNN
F 2 "" H 2900 3850 60  0000 C CNN
F 3 "" H 2900 3850 60  0000 C CNN
	1    2900 3850
	0    -1   -1   0   
$EndComp
Wire Wire Line
	2900 3850 3000 3850
Wire Wire Line
	2900 3650 3000 3650
Text Label 3650 2150 0    40   ~ 0
VCCIO
Wire Wire Line
	3650 2150 3800 2150
$EndSCHEMATC
