EESchema Schematic File Version 2
LIBS:power
LIBS:Components
LIBS:Connectors
LIBS:Devices
LIBS:DC-Power-Splitter-Board-cache
EELAYER 27 0
EELAYER END
$Descr A4 11693 8268
encoding utf-8
Sheet 1 1
Title ""
Date "10 mar 2015"
Rev ""
Comp ""
Comment1 ""
Comment2 ""
Comment3 ""
Comment4 ""
$EndDescr
$Comp
L VCC #PWR2
U 1 1 5377BEB2
P 4500 2000
F 0 "#PWR2" H 4500 2100 30  0001 C CNN
F 1 "VCC" H 4500 2100 30  0000 C CNN
F 2 "" H 4500 2000 60  0000 C CNN
F 3 "" H 4500 2000 60  0000 C CNN
	1    4500 2000
	1    0    0    -1  
$EndComp
$Comp
L GND #PWR1
U 1 1 5377BEC1
P 4400 4400
F 0 "#PWR1" H 4400 4400 30  0001 C CNN
F 1 "GND" H 4400 4330 30  0001 C CNN
F 2 "" H 4400 4400 60  0000 C CNN
F 3 "" H 4400 4400 60  0000 C CNN
	1    4400 4400
	1    0    0    -1  
$EndComp
Wire Wire Line
	4400 2300 4400 4400
Wire Wire Line
	4300 4300 4600 4300
Wire Wire Line
	4400 2300 4600 2300
Connection ~ 4400 4300
Wire Wire Line
	4600 2800 4400 2800
Connection ~ 4400 2800
Wire Wire Line
	4600 3300 4400 3300
Connection ~ 4400 3300
Wire Wire Line
	3750 3800 4600 3800
Connection ~ 4400 3800
Wire Wire Line
	4600 4100 4500 4100
Wire Wire Line
	4500 4100 4500 2000
Wire Wire Line
	4400 2100 4600 2100
Connection ~ 4500 2100
Wire Wire Line
	3750 2600 4600 2600
Connection ~ 4500 2600
Wire Wire Line
	4600 3100 4500 3100
Connection ~ 4500 3100
Wire Wire Line
	4600 3600 4500 3600
Connection ~ 4500 3600
Wire Wire Line
	3750 2600 3750 3100
Wire Wire Line
	3750 3300 3750 3800
$Comp
L PWR_FLAG #FLG1
U 1 1 5377BFB5
P 4300 4400
F 0 "#FLG1" H 4300 4495 30  0001 C CNN
F 1 "PWR_FLAG" H 4300 4580 30  0000 C CNN
F 2 "" H 4300 4400 60  0000 C CNN
F 3 "" H 4300 4400 60  0000 C CNN
	1    4300 4400
	-1   0    0    1   
$EndComp
$Comp
L PWR_FLAG #FLG2
U 1 1 5377BFCE
P 4400 1950
F 0 "#FLG2" H 4400 2045 30  0001 C CNN
F 1 "PWR_FLAG" H 4400 2130 30  0000 C CNN
F 2 "" H 4400 1950 60  0000 C CNN
F 3 "" H 4400 1950 60  0000 C CNN
	1    4400 1950
	1    0    0    -1  
$EndComp
Wire Wire Line
	4400 1950 4400 2100
Wire Wire Line
	4300 4300 4300 4400
$Comp
L HEADER-2X1 P2
U 1 1 54FEB25B
P 4850 2200
F 0 "P2" V 4800 2200 40  0000 C CNN
F 1 "HEADER-2X1" V 4900 2200 40  0000 C CNN
F 2 "~" H 4850 2200 60  0000 C CNN
F 3 "~" H 4850 2200 60  0000 C CNN
	1    4850 2200
	1    0    0    -1  
$EndComp
$Comp
L HEADER-2X1 P3
U 1 1 54FEB274
P 4850 2700
F 0 "P3" V 4800 2700 40  0000 C CNN
F 1 "HEADER-2X1" V 4900 2700 40  0000 C CNN
F 2 "~" H 4850 2700 60  0000 C CNN
F 3 "~" H 4850 2700 60  0000 C CNN
	1    4850 2700
	1    0    0    -1  
$EndComp
$Comp
L HEADER-2X1 P4
U 1 1 54FEB283
P 4850 3200
F 0 "P4" V 4800 3200 40  0000 C CNN
F 1 "HEADER-2X1" V 4900 3200 40  0000 C CNN
F 2 "~" H 4850 3200 60  0000 C CNN
F 3 "~" H 4850 3200 60  0000 C CNN
	1    4850 3200
	1    0    0    -1  
$EndComp
$Comp
L HEADER-2X1 P5
U 1 1 54FEB292
P 4850 3700
F 0 "P5" V 4800 3700 40  0000 C CNN
F 1 "HEADER-2X1" V 4900 3700 40  0000 C CNN
F 2 "~" H 4850 3700 60  0000 C CNN
F 3 "~" H 4850 3700 60  0000 C CNN
	1    4850 3700
	1    0    0    -1  
$EndComp
$Comp
L HEADER-2X1 P6
U 1 1 54FEB2A1
P 4850 4200
F 0 "P6" V 4800 4200 40  0000 C CNN
F 1 "HEADER-2X1" V 4900 4200 40  0000 C CNN
F 2 "~" H 4850 4200 60  0000 C CNN
F 3 "~" H 4850 4200 60  0000 C CNN
	1    4850 4200
	1    0    0    -1  
$EndComp
$Comp
L HEADER-2X1 P1
U 1 1 54FEB2B0
P 4000 3200
F 0 "P1" V 3950 3200 40  0000 C CNN
F 1 "HEADER-2X1" V 4050 3200 40  0000 C CNN
F 2 "~" H 4000 3200 60  0000 C CNN
F 3 "~" H 4000 3200 60  0000 C CNN
	1    4000 3200
	1    0    0    -1  
$EndComp
$EndSCHEMATC
