(kicad_pcb (version 3) (host pcbnew "(2013-may-18)-stable")

  (general
    (links 48)
    (no_connects 0)
    (area 133.553999 54.634 195.626 111.556001)
    (thickness 1.6)
    (drawings 54)
    (tracks 196)
    (zones 0)
    (modules 6)
    (nets 49)
  )

  (page A3)
  (layers
    (15 F.Cu signal)
    (0 B.Cu signal)
    (16 B.Adhes user)
    (17 F.Adhes user)
    (18 B.Paste user)
    (19 F.Paste user)
    (20 B.SilkS user)
    (21 F.SilkS user)
    (22 B.Mask user)
    (23 F.Mask user)
    (24 Dwgs.User user)
    (25 Cmts.User user)
    (26 Eco1.User user)
    (27 Eco2.User user)
    (28 Edge.Cuts user)
  )

  (setup
    (last_trace_width 0.254)
    (trace_clearance 0.24)
    (zone_clearance 0.508)
    (zone_45_only no)
    (trace_min 0.254)
    (segment_width 0.2)
    (edge_width 0.1)
    (via_size 0.889)
    (via_drill 0.635)
    (via_min_size 0.889)
    (via_min_drill 0.508)
    (uvia_size 0.508)
    (uvia_drill 0.127)
    (uvias_allowed no)
    (uvia_min_size 0.508)
    (uvia_min_drill 0.127)
    (pcb_text_width 0.3)
    (pcb_text_size 1.5 1.5)
    (mod_edge_width 0.15)
    (mod_text_size 1 1)
    (mod_text_width 0.15)
    (pad_size 1.524 1.524)
    (pad_drill 0)
    (pad_to_mask_clearance 0)
    (aux_axis_origin 0 0)
    (visible_elements FFFFFFBF)
    (pcbplotparams
      (layerselection 3178497)
      (usegerberextensions true)
      (excludeedgelayer true)
      (linewidth 0.150000)
      (plotframeref false)
      (viasonmask false)
      (mode 1)
      (useauxorigin false)
      (hpglpennumber 1)
      (hpglpenspeed 20)
      (hpglpendiameter 15)
      (hpglpenoverlay 2)
      (psnegative false)
      (psa4output false)
      (plotreference true)
      (plotvalue true)
      (plotothertext true)
      (plotinvisibletext false)
      (padsonsilk false)
      (subtractmaskfromsilk false)
      (outputformat 1)
      (mirror false)
      (drillshape 0)
      (scaleselection 1)
      (outputdirectory ""))
  )

  (net 0 "")
  (net 1 /BOOT0)
  (net 2 /PA0)
  (net 3 /PA1)
  (net 4 /PA10)
  (net 5 /PA11)
  (net 6 /PA12)
  (net 7 /PA13)
  (net 8 /PA14)
  (net 9 /PA15)
  (net 10 /PA2)
  (net 11 /PA3)
  (net 12 /PA4)
  (net 13 /PA5)
  (net 14 /PA6)
  (net 15 /PA7)
  (net 16 /PA8)
  (net 17 /PA9)
  (net 18 /PB0)
  (net 19 /PB1)
  (net 20 /PB10)
  (net 21 /PB11)
  (net 22 /PB12)
  (net 23 /PB13)
  (net 24 /PB14)
  (net 25 /PB15)
  (net 26 /PB2)
  (net 27 /PB3)
  (net 28 /PB4)
  (net 29 /PB5)
  (net 30 /PB6)
  (net 31 /PB7)
  (net 32 /PB8)
  (net 33 /PB9)
  (net 34 /PC13)
  (net 35 /RTC_XTAL1)
  (net 36 /RTC_XTAL2)
  (net 37 /SYS_XTAL1)
  (net 38 /SYS_XTAL2)
  (net 39 /VBAT)
  (net 40 /VDD4)
  (net 41 /VDD5)
  (net 42 /VDD6)
  (net 43 /VDDA)
  (net 44 /VSS2)
  (net 45 /VSS3)
  (net 46 /VSS4)
  (net 47 /VSSA)
  (net 48 /~RST)

  (net_class Default "This is the default net class."
    (clearance 0.24)
    (trace_width 0.254)
    (via_dia 0.889)
    (via_drill 0.635)
    (uvia_dia 0.508)
    (uvia_drill 0.127)
    (add_net "")
    (add_net /BOOT0)
    (add_net /PA0)
    (add_net /PA1)
    (add_net /PA10)
    (add_net /PA11)
    (add_net /PA12)
    (add_net /PA13)
    (add_net /PA14)
    (add_net /PA15)
    (add_net /PA2)
    (add_net /PA3)
    (add_net /PA4)
    (add_net /PA5)
    (add_net /PA6)
    (add_net /PA7)
    (add_net /PA8)
    (add_net /PA9)
    (add_net /PB0)
    (add_net /PB1)
    (add_net /PB10)
    (add_net /PB11)
    (add_net /PB12)
    (add_net /PB13)
    (add_net /PB14)
    (add_net /PB15)
    (add_net /PB2)
    (add_net /PB3)
    (add_net /PB4)
    (add_net /PB5)
    (add_net /PB6)
    (add_net /PB7)
    (add_net /PB8)
    (add_net /PB9)
    (add_net /PC13)
    (add_net /RTC_XTAL1)
    (add_net /RTC_XTAL2)
    (add_net /SYS_XTAL1)
    (add_net /SYS_XTAL2)
    (add_net /VBAT)
    (add_net /VDD4)
    (add_net /VDD5)
    (add_net /VDD6)
    (add_net /VDDA)
    (add_net /VSS2)
    (add_net /VSS3)
    (add_net /VSS4)
    (add_net /VSSA)
    (add_net /~RST)
  )

  (module HEADER-13X2 (layer F.Cu) (tedit 55219581) (tstamp 552324E4)
    (at 140.208 85.09 90)
    (descr "13x2-Pin Connector")
    (tags Connector)
    (path /55232290)
    (fp_text reference P1 (at 0 -2.794 90) (layer F.SilkS) hide
      (effects (font (size 0.127 0.127) (thickness 0.000001)))
    )
    (fp_text value HEADER-13X2 (at 0 -3.048 90) (layer F.SilkS) hide
      (effects (font (size 0.127 0.127) (thickness 0.000001)))
    )
    (fp_line (start -16.51 -2.54) (end 16.51 -2.54) (layer F.SilkS) (width 0.3048))
    (fp_line (start 16.51 -2.54) (end 16.51 2.54) (layer F.SilkS) (width 0.3048))
    (fp_line (start 16.51 2.54) (end -16.51 2.54) (layer F.SilkS) (width 0.3048))
    (fp_line (start -16.51 2.54) (end -16.51 -2.54) (layer F.SilkS) (width 0.3048))
    (pad 1 thru_hole rect (at -15.24 1.27 90) (size 1.524 1.524) (drill 1.016)
      (layers *.Cu *.Mask)
    )
    (pad 14 thru_hole circle (at 0 -1.27 90) (size 1.524 1.524) (drill 1.016)
      (layers *.Cu *.Mask)
      (net 38 /SYS_XTAL2)
    )
    (pad 15 thru_hole circle (at 2.54 1.27 90) (size 1.524 1.524) (drill 1.016)
      (layers *.Cu *.Mask)
      (net 37 /SYS_XTAL1)
    )
    (pad 16 thru_hole circle (at 2.54 -1.27 90) (size 1.524 1.524) (drill 1.016)
      (layers *.Cu *.Mask)
    )
    (pad 17 thru_hole circle (at 5.08 1.27 90) (size 1.524 1.524) (drill 1.016)
      (layers *.Cu *.Mask)
    )
    (pad 18 thru_hole circle (at 5.08 -1.27 90) (size 1.524 1.524) (drill 1.016)
      (layers *.Cu *.Mask)
      (net 36 /RTC_XTAL2)
    )
    (pad 19 thru_hole circle (at 7.62 1.27 90) (size 1.524 1.524) (drill 1.016)
      (layers *.Cu *.Mask)
      (net 35 /RTC_XTAL1)
    )
    (pad 20 thru_hole circle (at 7.62 -1.27 90) (size 1.524 1.524) (drill 1.016)
      (layers *.Cu *.Mask)
      (net 34 /PC13)
    )
    (pad 21 thru_hole circle (at 10.16 1.27 90) (size 1.524 1.524) (drill 1.016)
      (layers *.Cu *.Mask)
      (net 39 /VBAT)
    )
    (pad 22 thru_hole circle (at 10.16 -1.27 90) (size 1.524 1.524) (drill 1.016)
      (layers *.Cu *.Mask)
    )
    (pad 23 thru_hole circle (at 12.7 1.27 90) (size 1.524 1.524) (drill 1.016)
      (layers *.Cu *.Mask)
    )
    (pad 24 thru_hole circle (at 12.7 -1.27 90) (size 1.524 1.524) (drill 1.016)
      (layers *.Cu *.Mask)
    )
    (pad 13 thru_hole circle (at 0 1.27 90) (size 1.524 1.524) (drill 1.016)
      (layers *.Cu *.Mask)
      (net 48 /~RST)
    )
    (pad 2 thru_hole circle (at -15.24 -1.27 90) (size 1.524 1.524) (drill 1.016)
      (layers *.Cu *.Mask)
      (net 10 /PA2)
    )
    (pad 3 thru_hole circle (at -12.7 1.27 90) (size 1.524 1.524) (drill 1.016)
      (layers *.Cu *.Mask)
      (net 3 /PA1)
    )
    (pad 4 thru_hole circle (at -12.7 -1.27 90) (size 1.524 1.524) (drill 1.016)
      (layers *.Cu *.Mask)
      (net 2 /PA0)
    )
    (pad 5 thru_hole circle (at -10.16 1.27 90) (size 1.524 1.524) (drill 1.016)
      (layers *.Cu *.Mask)
      (net 43 /VDDA)
    )
    (pad 6 thru_hole circle (at -10.16 -1.27 90) (size 1.524 1.524) (drill 1.016)
      (layers *.Cu *.Mask)
    )
    (pad 7 thru_hole circle (at -7.62 1.27 90) (size 1.524 1.524) (drill 1.016)
      (layers *.Cu *.Mask)
      (net 47 /VSSA)
    )
    (pad 8 thru_hole circle (at -7.62 -1.27 90) (size 1.524 1.524) (drill 1.016)
      (layers *.Cu *.Mask)
    )
    (pad 9 thru_hole circle (at -5.08 1.27 90) (size 1.524 1.524) (drill 1.016)
      (layers *.Cu *.Mask)
    )
    (pad 10 thru_hole circle (at -5.08 -1.27 90) (size 1.524 1.524) (drill 1.016)
      (layers *.Cu *.Mask)
    )
    (pad 11 thru_hole circle (at -2.54 1.27 90) (size 1.524 1.524) (drill 1.016)
      (layers *.Cu *.Mask)
    )
    (pad 12 thru_hole circle (at -2.54 -1.27 90) (size 1.524 1.524) (drill 1.016)
      (layers *.Cu *.Mask)
    )
    (pad 25 thru_hole circle (at 15.24 1.27 90) (size 1.524 1.524) (drill 1.016)
      (layers *.Cu *.Mask F.SilkS)
    )
    (pad 26 thru_hole circle (at 15.24 -1.27 90) (size 1.524 1.524) (drill 1.016)
      (layers *.Cu *.Mask F.SilkS)
    )
    (model pin_array/pins_array_5x2.wrl
      (at (xyz 0 0 0))
      (scale (xyz 1 1 1))
      (rotate (xyz 0 0 0))
    )
  )

  (module HEADER-13X2 (layer F.Cu) (tedit 55219581) (tstamp 55232362)
    (at 160.02 104.902 180)
    (descr "13x2-Pin Connector")
    (tags Connector)
    (path /5523229F)
    (fp_text reference P3 (at 0 -2.794 180) (layer F.SilkS) hide
      (effects (font (size 0.127 0.127) (thickness 0.000001)))
    )
    (fp_text value HEADER-13X2 (at 0 -3.048 180) (layer F.SilkS) hide
      (effects (font (size 0.127 0.127) (thickness 0.000001)))
    )
    (fp_line (start -16.51 -2.54) (end 16.51 -2.54) (layer F.SilkS) (width 0.3048))
    (fp_line (start 16.51 -2.54) (end 16.51 2.54) (layer F.SilkS) (width 0.3048))
    (fp_line (start 16.51 2.54) (end -16.51 2.54) (layer F.SilkS) (width 0.3048))
    (fp_line (start -16.51 2.54) (end -16.51 -2.54) (layer F.SilkS) (width 0.3048))
    (pad 1 thru_hole rect (at -15.24 1.27 180) (size 1.524 1.524) (drill 1.016)
      (layers *.Cu *.Mask)
    )
    (pad 14 thru_hole circle (at 0 -1.27 180) (size 1.524 1.524) (drill 1.016)
      (layers *.Cu *.Mask)
    )
    (pad 15 thru_hole circle (at 2.54 1.27 180) (size 1.524 1.524) (drill 1.016)
      (layers *.Cu *.Mask)
      (net 26 /PB2)
    )
    (pad 16 thru_hole circle (at 2.54 -1.27 180) (size 1.524 1.524) (drill 1.016)
      (layers *.Cu *.Mask)
      (net 19 /PB1)
    )
    (pad 17 thru_hole circle (at 5.08 1.27 180) (size 1.524 1.524) (drill 1.016)
      (layers *.Cu *.Mask)
      (net 18 /PB0)
    )
    (pad 18 thru_hole circle (at 5.08 -1.27 180) (size 1.524 1.524) (drill 1.016)
      (layers *.Cu *.Mask)
    )
    (pad 19 thru_hole circle (at 7.62 1.27 180) (size 1.524 1.524) (drill 1.016)
      (layers *.Cu *.Mask)
    )
    (pad 20 thru_hole circle (at 7.62 -1.27 180) (size 1.524 1.524) (drill 1.016)
      (layers *.Cu *.Mask)
      (net 15 /PA7)
    )
    (pad 21 thru_hole circle (at 10.16 1.27 180) (size 1.524 1.524) (drill 1.016)
      (layers *.Cu *.Mask)
      (net 14 /PA6)
    )
    (pad 22 thru_hole circle (at 10.16 -1.27 180) (size 1.524 1.524) (drill 1.016)
      (layers *.Cu *.Mask)
      (net 13 /PA5)
    )
    (pad 23 thru_hole circle (at 12.7 1.27 180) (size 1.524 1.524) (drill 1.016)
      (layers *.Cu *.Mask)
      (net 12 /PA4)
    )
    (pad 24 thru_hole circle (at 12.7 -1.27 180) (size 1.524 1.524) (drill 1.016)
      (layers *.Cu *.Mask)
    )
    (pad 13 thru_hole circle (at 0 1.27 180) (size 1.524 1.524) (drill 1.016)
      (layers *.Cu *.Mask)
    )
    (pad 2 thru_hole circle (at -15.24 -1.27 180) (size 1.524 1.524) (drill 1.016)
      (layers *.Cu *.Mask)
      (net 40 /VDD4)
    )
    (pad 3 thru_hole circle (at -12.7 1.27 180) (size 1.524 1.524) (drill 1.016)
      (layers *.Cu *.Mask)
    )
    (pad 4 thru_hole circle (at -12.7 -1.27 180) (size 1.524 1.524) (drill 1.016)
      (layers *.Cu *.Mask)
      (net 21 /PB11)
    )
    (pad 5 thru_hole circle (at -10.16 1.27 180) (size 1.524 1.524) (drill 1.016)
      (layers *.Cu *.Mask)
      (net 20 /PB10)
    )
    (pad 6 thru_hole circle (at -10.16 -1.27 180) (size 1.524 1.524) (drill 1.016)
      (layers *.Cu *.Mask)
    )
    (pad 7 thru_hole circle (at -7.62 1.27 180) (size 1.524 1.524) (drill 1.016)
      (layers *.Cu *.Mask)
    )
    (pad 8 thru_hole circle (at -7.62 -1.27 180) (size 1.524 1.524) (drill 1.016)
      (layers *.Cu *.Mask)
    )
    (pad 9 thru_hole circle (at -5.08 1.27 180) (size 1.524 1.524) (drill 1.016)
      (layers *.Cu *.Mask)
    )
    (pad 10 thru_hole circle (at -5.08 -1.27 180) (size 1.524 1.524) (drill 1.016)
      (layers *.Cu *.Mask)
    )
    (pad 11 thru_hole circle (at -2.54 1.27 180) (size 1.524 1.524) (drill 1.016)
      (layers *.Cu *.Mask)
    )
    (pad 12 thru_hole circle (at -2.54 -1.27 180) (size 1.524 1.524) (drill 1.016)
      (layers *.Cu *.Mask)
    )
    (pad 25 thru_hole circle (at 15.24 1.27 180) (size 1.524 1.524) (drill 1.016)
      (layers *.Cu *.Mask F.SilkS)
      (net 44 /VSS2)
    )
    (pad 26 thru_hole circle (at 15.24 -1.27 180) (size 1.524 1.524) (drill 1.016)
      (layers *.Cu *.Mask F.SilkS)
      (net 11 /PA3)
    )
    (model pin_array/pins_array_5x2.wrl
      (at (xyz 0 0 0))
      (scale (xyz 1 1 1))
      (rotate (xyz 0 0 0))
    )
  )

  (module HEADER-13X2 (layer F.Cu) (tedit 55219581) (tstamp 552323AB)
    (at 179.832 85.09 270)
    (descr "13x2-Pin Connector")
    (tags Connector)
    (path /552322BD)
    (fp_text reference P4 (at 0 -2.794 270) (layer F.SilkS) hide
      (effects (font (size 0.127 0.127) (thickness 0.000001)))
    )
    (fp_text value HEADER-13X2 (at 0 -3.048 270) (layer F.SilkS) hide
      (effects (font (size 0.127 0.127) (thickness 0.000001)))
    )
    (fp_line (start -16.51 -2.54) (end 16.51 -2.54) (layer F.SilkS) (width 0.3048))
    (fp_line (start 16.51 -2.54) (end 16.51 2.54) (layer F.SilkS) (width 0.3048))
    (fp_line (start 16.51 2.54) (end -16.51 2.54) (layer F.SilkS) (width 0.3048))
    (fp_line (start -16.51 2.54) (end -16.51 -2.54) (layer F.SilkS) (width 0.3048))
    (pad 1 thru_hole rect (at -15.24 1.27 270) (size 1.524 1.524) (drill 1.016)
      (layers *.Cu *.Mask)
    )
    (pad 14 thru_hole circle (at 0 -1.27 270) (size 1.524 1.524) (drill 1.016)
      (layers *.Cu *.Mask)
    )
    (pad 15 thru_hole circle (at 2.54 1.27 270) (size 1.524 1.524) (drill 1.016)
      (layers *.Cu *.Mask)
    )
    (pad 16 thru_hole circle (at 2.54 -1.27 270) (size 1.524 1.524) (drill 1.016)
      (layers *.Cu *.Mask)
    )
    (pad 17 thru_hole circle (at 5.08 1.27 270) (size 1.524 1.524) (drill 1.016)
      (layers *.Cu *.Mask)
    )
    (pad 18 thru_hole circle (at 5.08 -1.27 270) (size 1.524 1.524) (drill 1.016)
      (layers *.Cu *.Mask)
    )
    (pad 19 thru_hole circle (at 7.62 1.27 270) (size 1.524 1.524) (drill 1.016)
      (layers *.Cu *.Mask)
    )
    (pad 20 thru_hole circle (at 7.62 -1.27 270) (size 1.524 1.524) (drill 1.016)
      (layers *.Cu *.Mask)
    )
    (pad 21 thru_hole circle (at 10.16 1.27 270) (size 1.524 1.524) (drill 1.016)
      (layers *.Cu *.Mask)
    )
    (pad 22 thru_hole circle (at 10.16 -1.27 270) (size 1.524 1.524) (drill 1.016)
      (layers *.Cu *.Mask)
    )
    (pad 23 thru_hole circle (at 12.7 1.27 270) (size 1.524 1.524) (drill 1.016)
      (layers *.Cu *.Mask)
      (net 25 /PB15)
    )
    (pad 24 thru_hole circle (at 12.7 -1.27 270) (size 1.524 1.524) (drill 1.016)
      (layers *.Cu *.Mask)
      (net 24 /PB14)
    )
    (pad 13 thru_hole circle (at 0 1.27 270) (size 1.524 1.524) (drill 1.016)
      (layers *.Cu *.Mask)
    )
    (pad 2 thru_hole circle (at -15.24 -1.27 270) (size 1.524 1.524) (drill 1.016)
      (layers *.Cu *.Mask)
      (net 41 /VDD5)
    )
    (pad 3 thru_hole circle (at -12.7 1.27 270) (size 1.524 1.524) (drill 1.016)
      (layers *.Cu *.Mask)
      (net 45 /VSS3)
    )
    (pad 4 thru_hole circle (at -12.7 -1.27 270) (size 1.524 1.524) (drill 1.016)
      (layers *.Cu *.Mask)
    )
    (pad 5 thru_hole circle (at -10.16 1.27 270) (size 1.524 1.524) (drill 1.016)
      (layers *.Cu *.Mask)
      (net 7 /PA13)
    )
    (pad 6 thru_hole circle (at -10.16 -1.27 270) (size 1.524 1.524) (drill 1.016)
      (layers *.Cu *.Mask)
      (net 6 /PA12)
    )
    (pad 7 thru_hole circle (at -7.62 1.27 270) (size 1.524 1.524) (drill 1.016)
      (layers *.Cu *.Mask)
      (net 5 /PA11)
    )
    (pad 8 thru_hole circle (at -7.62 -1.27 270) (size 1.524 1.524) (drill 1.016)
      (layers *.Cu *.Mask)
      (net 4 /PA10)
    )
    (pad 9 thru_hole circle (at -5.08 1.27 270) (size 1.524 1.524) (drill 1.016)
      (layers *.Cu *.Mask)
      (net 17 /PA9)
    )
    (pad 10 thru_hole circle (at -5.08 -1.27 270) (size 1.524 1.524) (drill 1.016)
      (layers *.Cu *.Mask)
      (net 16 /PA8)
    )
    (pad 11 thru_hole circle (at -2.54 1.27 270) (size 1.524 1.524) (drill 1.016)
      (layers *.Cu *.Mask)
    )
    (pad 12 thru_hole circle (at -2.54 -1.27 270) (size 1.524 1.524) (drill 1.016)
      (layers *.Cu *.Mask)
    )
    (pad 25 thru_hole circle (at 15.24 1.27 270) (size 1.524 1.524) (drill 1.016)
      (layers *.Cu *.Mask F.SilkS)
      (net 23 /PB13)
    )
    (pad 26 thru_hole circle (at 15.24 -1.27 270) (size 1.524 1.524) (drill 1.016)
      (layers *.Cu *.Mask F.SilkS)
      (net 22 /PB12)
    )
    (model pin_array/pins_array_5x2.wrl
      (at (xyz 0 0 0))
      (scale (xyz 1 1 1))
      (rotate (xyz 0 0 0))
    )
  )

  (module HEADER-13X2 (layer F.Cu) (tedit 55219581) (tstamp 552323F4)
    (at 160.02 65.278)
    (descr "13x2-Pin Connector")
    (tags Connector)
    (path /552322AE)
    (fp_text reference P2 (at 0 -2.794) (layer F.SilkS) hide
      (effects (font (size 0.127 0.127) (thickness 0.000001)))
    )
    (fp_text value HEADER-13X2 (at 0 -3.048) (layer F.SilkS) hide
      (effects (font (size 0.127 0.127) (thickness 0.000001)))
    )
    (fp_line (start -16.51 -2.54) (end 16.51 -2.54) (layer F.SilkS) (width 0.3048))
    (fp_line (start 16.51 -2.54) (end 16.51 2.54) (layer F.SilkS) (width 0.3048))
    (fp_line (start 16.51 2.54) (end -16.51 2.54) (layer F.SilkS) (width 0.3048))
    (fp_line (start -16.51 2.54) (end -16.51 -2.54) (layer F.SilkS) (width 0.3048))
    (pad 1 thru_hole rect (at -15.24 1.27) (size 1.524 1.524) (drill 1.016)
      (layers *.Cu *.Mask)
    )
    (pad 14 thru_hole circle (at 0 -1.27) (size 1.524 1.524) (drill 1.016)
      (layers *.Cu *.Mask)
    )
    (pad 15 thru_hole circle (at 2.54 1.27) (size 1.524 1.524) (drill 1.016)
      (layers *.Cu *.Mask)
    )
    (pad 16 thru_hole circle (at 2.54 -1.27) (size 1.524 1.524) (drill 1.016)
      (layers *.Cu *.Mask)
    )
    (pad 17 thru_hole circle (at 5.08 1.27) (size 1.524 1.524) (drill 1.016)
      (layers *.Cu *.Mask)
    )
    (pad 18 thru_hole circle (at 5.08 -1.27) (size 1.524 1.524) (drill 1.016)
      (layers *.Cu *.Mask)
    )
    (pad 19 thru_hole circle (at 7.62 1.27) (size 1.524 1.524) (drill 1.016)
      (layers *.Cu *.Mask)
    )
    (pad 20 thru_hole circle (at 7.62 -1.27) (size 1.524 1.524) (drill 1.016)
      (layers *.Cu *.Mask)
    )
    (pad 21 thru_hole circle (at 10.16 1.27) (size 1.524 1.524) (drill 1.016)
      (layers *.Cu *.Mask)
    )
    (pad 22 thru_hole circle (at 10.16 -1.27) (size 1.524 1.524) (drill 1.016)
      (layers *.Cu *.Mask)
    )
    (pad 23 thru_hole circle (at 12.7 1.27) (size 1.524 1.524) (drill 1.016)
      (layers *.Cu *.Mask)
    )
    (pad 24 thru_hole circle (at 12.7 -1.27) (size 1.524 1.524) (drill 1.016)
      (layers *.Cu *.Mask)
    )
    (pad 13 thru_hole circle (at 0 1.27) (size 1.524 1.524) (drill 1.016)
      (layers *.Cu *.Mask)
      (net 27 /PB3)
    )
    (pad 2 thru_hole circle (at -15.24 -1.27) (size 1.524 1.524) (drill 1.016)
      (layers *.Cu *.Mask)
      (net 42 /VDD6)
    )
    (pad 3 thru_hole circle (at -12.7 1.27) (size 1.524 1.524) (drill 1.016)
      (layers *.Cu *.Mask)
      (net 46 /VSS4)
    )
    (pad 4 thru_hole circle (at -12.7 -1.27) (size 1.524 1.524) (drill 1.016)
      (layers *.Cu *.Mask)
    )
    (pad 5 thru_hole circle (at -10.16 1.27) (size 1.524 1.524) (drill 1.016)
      (layers *.Cu *.Mask)
    )
    (pad 6 thru_hole circle (at -10.16 -1.27) (size 1.524 1.524) (drill 1.016)
      (layers *.Cu *.Mask)
      (net 33 /PB9)
    )
    (pad 7 thru_hole circle (at -7.62 1.27) (size 1.524 1.524) (drill 1.016)
      (layers *.Cu *.Mask)
      (net 32 /PB8)
    )
    (pad 8 thru_hole circle (at -7.62 -1.27) (size 1.524 1.524) (drill 1.016)
      (layers *.Cu *.Mask)
      (net 1 /BOOT0)
    )
    (pad 9 thru_hole circle (at -5.08 1.27) (size 1.524 1.524) (drill 1.016)
      (layers *.Cu *.Mask)
      (net 31 /PB7)
    )
    (pad 10 thru_hole circle (at -5.08 -1.27) (size 1.524 1.524) (drill 1.016)
      (layers *.Cu *.Mask)
      (net 30 /PB6)
    )
    (pad 11 thru_hole circle (at -2.54 1.27) (size 1.524 1.524) (drill 1.016)
      (layers *.Cu *.Mask)
      (net 29 /PB5)
    )
    (pad 12 thru_hole circle (at -2.54 -1.27) (size 1.524 1.524) (drill 1.016)
      (layers *.Cu *.Mask)
      (net 28 /PB4)
    )
    (pad 25 thru_hole circle (at 15.24 1.27) (size 1.524 1.524) (drill 1.016)
      (layers *.Cu *.Mask F.SilkS)
      (net 9 /PA15)
    )
    (pad 26 thru_hole circle (at 15.24 -1.27) (size 1.524 1.524) (drill 1.016)
      (layers *.Cu *.Mask F.SilkS)
      (net 8 /PA14)
    )
    (model pin_array/pins_array_5x2.wrl
      (at (xyz 0 0 0))
      (scale (xyz 1 1 1))
      (rotate (xyz 0 0 0))
    )
  )

  (module LQFP-48 (layer F.Cu) (tedit 5503778C) (tstamp 552343F8)
    (at 160.02 85.09)
    (descr "SMD LQFP-48 Package")
    (tags SMD)
    (path /55234265)
    (attr smd)
    (fp_text reference IC1 (at -4.318 -3.683) (layer F.SilkS)
      (effects (font (size 0.5 0.5) (thickness 0.12)))
    )
    (fp_text value STM32F100C4-LQFP48 (at 0 0) (layer F.SilkS) hide
      (effects (font (size 0.127 0.127) (thickness 0.000001)))
    )
    (fp_circle (center -2.31 -2.31) (end -2.4116 -2.056) (layer F.SilkS) (width 0.15))
    (fp_line (start 3.6 -3.6) (end 3.6 3.6) (layer F.SilkS) (width 0.2032))
    (fp_line (start 3.6 3.6) (end -3.6 3.6) (layer F.SilkS) (width 0.2032))
    (fp_line (start -3.6 -2.975) (end -3.6 3.6) (layer F.SilkS) (width 0.2032))
    (fp_line (start -2.975 -3.6) (end 3.6 -3.6) (layer F.SilkS) (width 0.2032))
    (fp_line (start -3.576 -2.9972) (end -2.9972 -3.576) (layer F.SilkS) (width 0.2032))
    (pad 45 smd rect (at -1.25 -4.35) (size 0.254 1.3)
      (layers F.Cu F.Paste F.Mask)
      (net 32 /PB8)
    )
    (pad 46 smd rect (at -1.75 -4.35) (size 0.254 1.3)
      (layers F.Cu F.Paste F.Mask)
      (net 33 /PB9)
    )
    (pad 47 smd rect (at -2.25 -4.35) (size 0.254 1.3)
      (layers F.Cu F.Paste F.Mask)
      (net 46 /VSS4)
    )
    (pad 48 smd rect (at -2.75 -4.35) (size 0.254 1.3)
      (layers F.Cu F.Paste F.Mask)
      (net 42 /VDD6)
    )
    (pad 39 smd rect (at 1.75 -4.35) (size 0.254 1.3)
      (layers F.Cu F.Paste F.Mask)
      (net 27 /PB3)
    )
    (pad 38 smd rect (at 2.25 -4.35) (size 0.254 1.3)
      (layers F.Cu F.Paste F.Mask)
      (net 9 /PA15)
    )
    (pad 37 smd rect (at 2.75 -4.35) (size 0.254 1.3)
      (layers F.Cu F.Paste F.Mask)
      (net 8 /PA14)
    )
    (pad 16 smd rect (at -1.25 4.35) (size 0.254 1.3)
      (layers F.Cu F.Paste F.Mask)
      (net 14 /PA6)
    )
    (pad 15 smd rect (at -1.75 4.35) (size 0.254 1.3)
      (layers F.Cu F.Paste F.Mask)
      (net 13 /PA5)
    )
    (pad 14 smd rect (at -2.25 4.35) (size 0.254 1.3)
      (layers F.Cu F.Paste F.Mask)
      (net 12 /PA4)
    )
    (pad 13 smd rect (at -2.75 4.35) (size 0.254 1.3)
      (layers F.Cu F.Paste F.Mask)
      (net 11 /PA3)
    )
    (pad 22 smd rect (at 1.75 4.35) (size 0.254 1.3)
      (layers F.Cu F.Paste F.Mask)
      (net 21 /PB11)
    )
    (pad 23 smd rect (at 2.25 4.35) (size 0.254 1.3)
      (layers F.Cu F.Paste F.Mask)
      (net 44 /VSS2)
    )
    (pad 24 smd rect (at 2.75 4.35) (size 0.254 1.3)
      (layers F.Cu F.Paste F.Mask)
      (net 40 /VDD4)
    )
    (pad 4 smd rect (at -4.35 -1.25) (size 1.3 0.254)
      (layers F.Cu F.Paste F.Mask)
      (net 36 /RTC_XTAL2)
    )
    (pad 33 smd rect (at 4.35 -1.25) (size 1.3 0.254)
      (layers F.Cu F.Paste F.Mask)
      (net 6 /PA12)
    )
    (pad 5 smd rect (at -4.35 -0.75) (size 1.3 0.254)
      (layers F.Cu F.Paste F.Mask)
      (net 37 /SYS_XTAL1)
    )
    (pad 27 smd rect (at 4.35 1.75) (size 1.3 0.254)
      (layers F.Cu F.Paste F.Mask)
      (net 24 /PB14)
    )
    (pad 26 smd rect (at 4.35 2.25) (size 1.3 0.254)
      (layers F.Cu F.Paste F.Mask)
      (net 23 /PB13)
    )
    (pad 6 smd rect (at -4.35 -0.25) (size 1.3 0.254)
      (layers F.Cu F.Paste F.Mask)
      (net 38 /SYS_XTAL2)
    )
    (pad 7 smd rect (at -4.35 0.25) (size 1.3 0.254)
      (layers F.Cu F.Paste F.Mask)
      (net 48 /~RST)
    )
    (pad 25 smd rect (at 4.35 2.75) (size 1.3 0.254)
      (layers F.Cu F.Paste F.Mask)
      (net 22 /PB12)
    )
    (pad 11 smd rect (at -4.35 2.25) (size 1.3 0.254)
      (layers F.Cu F.Paste F.Mask)
      (net 3 /PA1)
    )
    (pad 34 smd rect (at 4.35 -1.75) (size 1.3 0.254)
      (layers F.Cu F.Paste F.Mask)
      (net 7 /PA13)
    )
    (pad 3 smd rect (at -4.35 -1.75) (size 1.3 0.254)
      (layers F.Cu F.Paste F.Mask)
      (net 35 /RTC_XTAL1)
    )
    (pad 2 smd rect (at -4.35 -2.25) (size 1.3 0.254)
      (layers F.Cu F.Paste F.Mask)
      (net 34 /PC13)
    )
    (pad 35 smd rect (at 4.35 -2.25) (size 1.3 0.254)
      (layers F.Cu F.Paste F.Mask)
      (net 45 /VSS3)
    )
    (pad 36 smd rect (at 4.35 -2.75) (size 1.3 0.254)
      (layers F.Cu F.Paste F.Mask)
      (net 41 /VDD5)
    )
    (pad 1 smd rect (at -4.35 -2.75) (size 1.3 0.254)
      (layers F.Cu F.Paste F.Mask)
      (net 39 /VBAT)
    )
    (pad 8 smd rect (at -4.35 0.75) (size 1.3 0.254)
      (layers F.Cu F.Paste F.Mask)
      (net 47 /VSSA)
    )
    (pad 31 smd rect (at 4.35 -0.25) (size 1.3 0.254)
      (layers F.Cu F.Paste F.Mask)
      (net 4 /PA10)
    )
    (pad 12 smd rect (at -4.35 2.75) (size 1.3 0.254)
      (layers F.Cu F.Paste F.Mask)
      (net 10 /PA2)
    )
    (pad 9 smd rect (at -4.35 1.25) (size 1.3 0.254)
      (layers F.Cu F.Paste F.Mask)
      (net 43 /VDDA)
    )
    (pad 10 smd rect (at -4.35 1.75) (size 1.3 0.254)
      (layers F.Cu F.Paste F.Mask)
      (net 2 /PA0)
    )
    (pad 43 smd rect (at -0.25 -4.35) (size 0.254 1.3)
      (layers F.Cu F.Paste F.Mask)
      (net 31 /PB7)
    )
    (pad 44 smd rect (at -0.75 -4.35) (size 0.254 1.3)
      (layers F.Cu F.Paste F.Mask)
      (net 1 /BOOT0)
    )
    (pad 42 smd rect (at 0.25 -4.35) (size 0.254 1.3)
      (layers F.Cu F.Paste F.Mask)
      (net 30 /PB6)
    )
    (pad 41 smd rect (at 0.75 -4.35) (size 0.254 1.3)
      (layers F.Cu F.Paste F.Mask)
      (net 29 /PB5)
    )
    (pad 40 smd rect (at 1.25 -4.35) (size 0.254 1.3)
      (layers F.Cu F.Paste F.Mask)
      (net 28 /PB4)
    )
    (pad 28 smd rect (at 4.35 1.25) (size 1.3 0.254)
      (layers F.Cu F.Paste F.Mask)
      (net 25 /PB15)
    )
    (pad 29 smd rect (at 4.35 0.75) (size 1.3 0.254)
      (layers F.Cu F.Paste F.Mask)
      (net 16 /PA8)
    )
    (pad 30 smd rect (at 4.35 0.25) (size 1.3 0.254)
      (layers F.Cu F.Paste F.Mask)
      (net 17 /PA9)
    )
    (pad 32 smd rect (at 4.35 -0.75) (size 1.3 0.254)
      (layers F.Cu F.Paste F.Mask)
      (net 5 /PA11)
    )
    (pad 17 smd rect (at -0.75 4.35) (size 0.254 1.3)
      (layers F.Cu F.Paste F.Mask)
      (net 15 /PA7)
    )
    (pad 18 smd rect (at -0.25 4.35) (size 0.254 1.3)
      (layers F.Cu F.Paste F.Mask)
      (net 18 /PB0)
    )
    (pad 19 smd rect (at 0.25 4.35) (size 0.254 1.3)
      (layers F.Cu F.Paste F.Mask)
      (net 19 /PB1)
    )
    (pad 20 smd rect (at 0.75 4.35) (size 0.254 1.3)
      (layers F.Cu F.Paste F.Mask)
      (net 26 /PB2)
    )
    (pad 21 smd rect (at 1.25 4.35) (size 0.254 1.3)
      (layers F.Cu F.Paste F.Mask)
      (net 20 /PB10)
    )
  )

  (module 3mm-Hole (layer F.Cu) (tedit 55270FC8) (tstamp 5527196A)
    (at 141.478 66.548)
    (descr 3mm-Hole)
    (tags Connector)
    (path 1pin)
    (fp_text reference P** (at 0 0.254) (layer F.SilkS) hide
      (effects (font (size 0.127 0.127) (thickness 0.000001)))
    )
    (fp_text value 3mm-Hole (at 0 -0.254) (layer F.SilkS) hide
      (effects (font (size 0.127 0.127) (thickness 0.000001)))
    )
    (pad "" smd circle (at 0 0) (size 1.524 1.524)
      (layers F.Cu F.Paste F.Mask)
    )
  )

  (dimension 52.832 (width 0.3) (layer Dwgs.User)
    (gr_text "52.832 mm" (at 190.246 85.09 270) (layer Dwgs.User)
      (effects (font (size 1.5 1.5) (thickness 0.3)))
    )
    (feature1 (pts (xy 188.976 111.506) (xy 188.976 111.506)))
    (feature2 (pts (xy 188.976 58.674) (xy 188.976 58.674)))
    (crossbar (pts (xy 188.976 58.674) (xy 188.976 111.506)))
    (arrow1a (pts (xy 188.976 111.506) (xy 188.38958 110.379497)))
    (arrow1b (pts (xy 188.976 111.506) (xy 189.56242 110.379497)))
    (arrow2a (pts (xy 188.976 58.674) (xy 188.38958 59.800503)))
    (arrow2b (pts (xy 188.976 58.674) (xy 189.56242 59.800503)))
  )
  (dimension 52.832 (width 0.3) (layer Dwgs.User)
    (gr_text "52.832 mm" (at 160.02 54.864) (layer Dwgs.User)
      (effects (font (size 1.5 1.5) (thickness 0.3)))
    )
    (feature1 (pts (xy 186.436 56.134) (xy 186.436 56.134)))
    (feature2 (pts (xy 133.604 56.134) (xy 133.604 56.134)))
    (crossbar (pts (xy 133.604 56.134) (xy 186.436 56.134)))
    (arrow1a (pts (xy 186.436 56.134) (xy 185.309497 56.72042)))
    (arrow1b (pts (xy 186.436 56.134) (xy 185.309497 55.54758)))
    (arrow2a (pts (xy 133.604 56.134) (xy 134.730503 56.72042)))
    (arrow2b (pts (xy 133.604 56.134) (xy 134.730503 55.54758)))
  )
  (gr_text 3V3 (at 175.26 107.823 90) (layer F.SilkS)
    (effects (font (size 0.7 0.7) (thickness 0.15)) (justify right))
  )
  (gr_text PB11 (at 172.72 107.823 90) (layer F.SilkS)
    (effects (font (size 0.7 0.7) (thickness 0.15)) (justify right))
  )
  (gr_text PB1 (at 157.48 107.823 90) (layer F.SilkS)
    (effects (font (size 0.7 0.7) (thickness 0.15)) (justify right))
  )
  (gr_text PA7 (at 152.4 107.823 90) (layer F.SilkS)
    (effects (font (size 0.7 0.7) (thickness 0.15)) (justify right))
  )
  (gr_text PA3 (at 144.78 107.823 90) (layer F.SilkS)
    (effects (font (size 0.7 0.7) (thickness 0.15)) (justify right))
  )
  (gr_text PB10 (at 170.18 102.0445 90) (layer F.SilkS)
    (effects (font (size 0.7 0.7) (thickness 0.15)) (justify left))
  )
  (gr_text PB2 (at 157.48 102.0445 90) (layer F.SilkS)
    (effects (font (size 0.7 0.7) (thickness 0.15)) (justify left))
  )
  (gr_text PB0 (at 154.94 102.0445 90) (layer F.SilkS)
    (effects (font (size 0.7 0.7) (thickness 0.15)) (justify left))
  )
  (gr_text GND (at 144.78 102.0445 90) (layer F.SilkS)
    (effects (font (size 0.7 0.7) (thickness 0.15)) (justify left))
  )
  (gr_text PA4 (at 147.32 102.0445 90) (layer F.SilkS)
    (effects (font (size 0.7 0.7) (thickness 0.15)) (justify left))
  )
  (gr_text 3V3 (at 182.6895 69.85) (layer F.SilkS)
    (effects (font (size 0.7 0.7) (thickness 0.15)) (justify left))
  )
  (gr_text GND (at 177.038 72.39) (layer F.SilkS)
    (effects (font (size 0.7 0.7) (thickness 0.15)) (justify right))
  )
  (gr_text PA13 (at 177.038 74.93) (layer F.SilkS)
    (effects (font (size 0.7 0.7) (thickness 0.15)) (justify right))
  )
  (gr_text PA11 (at 177.038 77.47) (layer F.SilkS)
    (effects (font (size 0.7 0.7) (thickness 0.15)) (justify right))
  )
  (gr_text PA12 (at 182.6895 74.93) (layer F.SilkS)
    (effects (font (size 0.7 0.7) (thickness 0.15)) (justify left))
  )
  (gr_text PA10 (at 182.6895 77.47) (layer F.SilkS)
    (effects (font (size 0.7 0.7) (thickness 0.15)) (justify left))
  )
  (gr_text PA8 (at 182.6895 80.01) (layer F.SilkS)
    (effects (font (size 0.7 0.7) (thickness 0.15)) (justify left))
  )
  (gr_text PA9 (at 177.038 80.01) (layer F.SilkS)
    (effects (font (size 0.7 0.7) (thickness 0.15)) (justify right))
  )
  (gr_text PB12 (at 182.6895 100.33) (layer F.SilkS)
    (effects (font (size 0.7 0.7) (thickness 0.15)) (justify left))
  )
  (gr_text PB13 (at 177.038 100.33) (layer F.SilkS)
    (effects (font (size 0.7 0.7) (thickness 0.15)) (justify right))
  )
  (gr_text VBAT (at 143.002 74.93) (layer F.SilkS)
    (effects (font (size 0.7 0.7) (thickness 0.15)) (justify left))
  )
  (gr_text PC13 (at 137.414 77.47) (layer F.SilkS)
    (effects (font (size 0.7 0.7) (thickness 0.15)) (justify right))
  )
  (gr_text ~RST (at 143.002 85.09) (layer F.SilkS)
    (effects (font (size 0.7 0.7) (thickness 0.15)) (justify left))
  )
  (gr_text GND (at 143.002 92.71) (layer F.SilkS)
    (effects (font (size 0.7 0.7) (thickness 0.15)) (justify left))
  )
  (gr_text 3V3 (at 143.002 95.25) (layer F.SilkS)
    (effects (font (size 0.7 0.7) (thickness 0.15)) (justify left))
  )
  (gr_text PA2 (at 137.414 100.33) (layer F.SilkS)
    (effects (font (size 0.7 0.7) (thickness 0.15)) (justify right))
  )
  (gr_text PA14 (at 175.26 62.484 90) (layer F.SilkS)
    (effects (font (size 0.7 0.7) (thickness 0.15)) (justify left))
  )
  (gr_text 3V3 (at 144.78 62.484 90) (layer F.SilkS)
    (effects (font (size 0.7 0.7) (thickness 0.15)) (justify left))
  )
  (gr_text PB9 (at 149.86 62.484 90) (layer F.SilkS)
    (effects (font (size 0.7 0.7) (thickness 0.15)) (justify left))
  )
  (gr_text BOOT0 (at 152.4 62.484 90) (layer F.SilkS)
    (effects (font (size 0.7 0.7) (thickness 0.15)) (justify left))
  )
  (gr_text PB6 (at 154.94 62.484 90) (layer F.SilkS)
    (effects (font (size 0.7 0.7) (thickness 0.15)) (justify left))
  )
  (gr_text PA15 (at 175.26 68.1355 90) (layer F.SilkS)
    (effects (font (size 0.7 0.7) (thickness 0.15)) (justify right))
  )
  (gr_text GND (at 147.32 68.1355 90) (layer F.SilkS)
    (effects (font (size 0.7 0.7) (thickness 0.15)) (justify right))
  )
  (gr_text PB8 (at 152.4 68.1355 90) (layer F.SilkS)
    (effects (font (size 0.7 0.7) (thickness 0.15)) (justify right))
  )
  (gr_text PB7 (at 154.94 68.1355 90) (layer F.SilkS)
    (effects (font (size 0.7 0.7) (thickness 0.15)) (justify right))
  )
  (gr_text PB3 (at 160.02 68.1355 90) (layer F.SilkS)
    (effects (font (size 0.7 0.7) (thickness 0.15)) (justify right))
  )
  (gr_text PA6 (at 149.86 102.0445 90) (layer F.SilkS)
    (effects (font (size 0.7 0.7) (thickness 0.15)) (justify left))
  )
  (gr_text PA5 (at 149.86 107.823 90) (layer F.SilkS)
    (effects (font (size 0.7 0.7) (thickness 0.15)) (justify right))
  )
  (gr_text PB5 (at 157.48 68.1355 90) (layer F.SilkS)
    (effects (font (size 0.7 0.7) (thickness 0.15)) (justify right))
  )
  (gr_text PB4 (at 157.48 62.484 90) (layer F.SilkS)
    (effects (font (size 0.7 0.7) (thickness 0.15)) (justify left))
  )
  (gr_text PB14 (at 182.6895 97.79) (layer F.SilkS)
    (effects (font (size 0.7 0.7) (thickness 0.15)) (justify left))
  )
  (gr_text PB15 (at 177.038 97.79) (layer F.SilkS)
    (effects (font (size 0.7 0.7) (thickness 0.15)) (justify right))
  )
  (gr_text PA1 (at 143.002 97.79) (layer F.SilkS)
    (effects (font (size 0.7 0.7) (thickness 0.15)) (justify left))
  )
  (gr_text PA0 (at 137.414 97.79) (layer F.SilkS)
    (effects (font (size 0.7 0.7) (thickness 0.15)) (justify right))
  )
  (gr_line (start 177.038 58.674) (end 143.002 58.674) (angle 90) (layer Edge.Cuts) (width 0.1))
  (gr_line (start 186.436 68.072) (end 177.038 58.674) (angle 90) (layer Edge.Cuts) (width 0.1))
  (gr_line (start 186.436 102.108) (end 186.436 68.072) (angle 90) (layer Edge.Cuts) (width 0.1))
  (gr_line (start 177.038 111.506) (end 186.436 102.108) (angle 90) (layer Edge.Cuts) (width 0.1))
  (gr_line (start 143.002 111.506) (end 177.038 111.506) (angle 90) (layer Edge.Cuts) (width 0.1))
  (gr_line (start 133.604 102.108) (end 143.002 111.506) (angle 90) (layer Edge.Cuts) (width 0.1))
  (gr_line (start 133.604 68.072) (end 133.604 102.108) (angle 90) (layer Edge.Cuts) (width 0.1))
  (gr_line (start 143.002 58.674) (end 133.604 68.072) (angle 90) (layer Edge.Cuts) (width 0.1))

  (segment (start 159.27 80.864) (end 159.27 75.4119) (width 0.254) (layer F.Cu) (net 1))
  (segment (start 153.67 65.278) (end 152.4 64.008) (width 0.254) (layer F.Cu) (net 1) (tstamp 55232D89))
  (segment (start 153.67 69.8119) (end 153.67 65.278) (width 0.254) (layer F.Cu) (net 1) (tstamp 55232D84))
  (segment (start 159.27 75.4119) (end 153.67 69.8119) (width 0.254) (layer F.Cu) (net 1) (tstamp 55232D82))
  (segment (start 155.794 86.84) (end 152.047 86.84) (width 0.254) (layer F.Cu) (net 2))
  (segment (start 140.208 96.52) (end 138.938 97.79) (width 0.254) (layer F.Cu) (net 2) (tstamp 55232705))
  (segment (start 142.367 96.52) (end 140.208 96.52) (width 0.254) (layer F.Cu) (net 2) (tstamp 55232703))
  (segment (start 152.047 86.84) (end 142.367 96.52) (width 0.254) (layer F.Cu) (net 2) (tstamp 55232701))
  (segment (start 142.875 97.79) (end 141.478 97.79) (width 0.254) (layer F.Cu) (net 3) (tstamp 5523270A))
  (segment (start 155.67 87.34) (end 153.325 87.34) (width 0.254) (layer F.Cu) (net 3))
  (segment (start 153.325 87.34) (end 142.875 97.79) (width 0.254) (layer F.Cu) (net 3) (tstamp 55232709))
  (segment (start 164.37 84.84) (end 170.303 84.84) (width 0.254) (layer F.Cu) (net 4))
  (segment (start 170.6908 84.4522) (end 176.403 78.74) (width 0.254) (layer F.Cu) (net 4) (tstamp 55232B38))
  (segment (start 176.403 78.74) (end 179.832 78.74) (width 0.254) (layer F.Cu) (net 4) (tstamp 55232B3A))
  (segment (start 179.832 78.74) (end 181.102 77.47) (width 0.254) (layer F.Cu) (net 4) (tstamp 55232B3C))
  (segment (start 170.303 84.84) (end 170.6908 84.4522) (width 0.254) (layer F.Cu) (net 4) (tstamp 55270809))
  (segment (start 164.37 84.34) (end 169.533 84.34) (width 0.254) (layer F.Cu) (net 5))
  (segment (start 170.1748 83.6982) (end 176.403 77.47) (width 0.254) (layer F.Cu) (net 5) (tstamp 55232B40))
  (segment (start 176.403 77.47) (end 178.562 77.47) (width 0.254) (layer F.Cu) (net 5) (tstamp 55232B42))
  (segment (start 169.533 84.34) (end 170.1748 83.6982) (width 0.254) (layer F.Cu) (net 5) (tstamp 5527080E))
  (segment (start 176.3522 76.2) (end 168.7122 83.84) (width 0.254) (layer F.Cu) (net 6))
  (segment (start 179.832 76.2) (end 176.3522 76.2) (width 0.254) (layer F.Cu) (net 6) (tstamp 55270BF5))
  (segment (start 164.37 83.84) (end 168.7122 83.84) (width 0.254) (layer F.Cu) (net 6))
  (segment (start 179.832 76.2) (end 181.102 74.93) (width 0.254) (layer F.Cu) (net 6))
  (segment (start 176.29036 74.93088) (end 178.56112 74.93088) (width 0.254) (layer F.Cu) (net 7))
  (segment (start 167.88124 83.34) (end 176.29036 74.93088) (width 0.254) (layer F.Cu) (net 7) (tstamp 55270818))
  (segment (start 164.37 83.34) (end 167.88124 83.34) (width 0.254) (layer F.Cu) (net 7))
  (segment (start 178.56112 74.93088) (end 178.562 74.93) (width 0.254) (layer F.Cu) (net 7) (tstamp 55270BB7))
  (segment (start 176.784 65.532) (end 176.784 68.072) (width 0.254) (layer F.Cu) (net 8))
  (segment (start 164.214 80.642) (end 176.784 68.072) (width 0.254) (layer F.Cu) (net 8) (tstamp 55232C41))
  (segment (start 175.26 64.008) (end 176.784 65.532) (width 0.254) (layer F.Cu) (net 8) (tstamp 55232C4A))
  (segment (start 164.214 80.642) (end 162.845 80.642) (width 0.254) (layer F.Cu) (net 8))
  (segment (start 175.26 66.548) (end 175.26 67.564) (width 0.254) (layer F.Cu) (net 9))
  (segment (start 162.2688 79.209) (end 173.1772 68.3006) (width 0.254) (layer F.Cu) (net 9) (tstamp 55232C4E))
  (segment (start 162.2688 79.209) (end 162.2688 80.5658) (width 0.254) (layer F.Cu) (net 9))
  (segment (start 174.5234 68.3006) (end 173.1772 68.3006) (width 0.254) (layer F.Cu) (net 9) (tstamp 55270CE8))
  (segment (start 175.26 67.564) (end 174.5234 68.3006) (width 0.254) (layer F.Cu) (net 9) (tstamp 55270CE7))
  (segment (start 140.208 99.06) (end 138.938 100.33) (width 0.254) (layer F.Cu) (net 10) (tstamp 55232711))
  (segment (start 143.637 99.06) (end 140.208 99.06) (width 0.254) (layer F.Cu) (net 10) (tstamp 5523270F))
  (segment (start 155.794 87.84) (end 154.857 87.84) (width 0.254) (layer F.Cu) (net 10))
  (segment (start 154.857 87.84) (end 143.637 99.06) (width 0.254) (layer F.Cu) (net 10) (tstamp 5523270E))
  (segment (start 157.27 89.44) (end 155.67 89.44) (width 0.254) (layer F.Cu) (net 11))
  (segment (start 152.27 92.84) (end 143.002 102.108) (width 0.254) (layer F.Cu) (net 11) (tstamp 55232790))
  (segment (start 143.002 102.108) (end 143.002 105.283) (width 0.254) (layer F.Cu) (net 11) (tstamp 55232793))
  (segment (start 143.002 105.283) (end 143.891 106.172) (width 0.254) (layer F.Cu) (net 11) (tstamp 55232796))
  (segment (start 143.891 106.172) (end 144.78 106.172) (width 0.254) (layer F.Cu) (net 11) (tstamp 55232797))
  (segment (start 155.67 89.44) (end 152.27 92.84) (width 0.254) (layer F.Cu) (net 11) (tstamp 5527011A))
  (segment (start 147.32 103.632) (end 147.32 101.0412) (width 0.254) (layer F.Cu) (net 12))
  (segment (start 157.7679 90.5933) (end 157.7679 89.4872) (width 0.254) (layer F.Cu) (net 12))
  (segment (start 157.7679 90.5933) (end 147.32 101.0412) (width 0.254) (layer F.Cu) (net 12))
  (segment (start 158.2679 91.5665) (end 148.59 101.2444) (width 0.254) (layer F.Cu) (net 13))
  (segment (start 148.59 104.775) (end 149.86 106.045) (width 0.254) (layer F.Cu) (net 13) (tstamp 55232886))
  (segment (start 148.59 101.2444) (end 148.59 104.775) (width 0.254) (layer F.Cu) (net 13) (tstamp 55232884))
  (segment (start 149.86 106.172) (end 149.86 106.045) (width 0.254) (layer F.Cu) (net 13) (tstamp 55232887))
  (segment (start 158.2679 91.5665) (end 158.2679 89.157) (width 0.254) (layer F.Cu) (net 13))
  (segment (start 158.7679 92.7429) (end 158.7679 89.4421) (width 0.254) (layer F.Cu) (net 14))
  (segment (start 158.7679 92.7429) (end 149.86 101.6508) (width 0.254) (layer F.Cu) (net 14) (tstamp 552702D3))
  (segment (start 149.86 103.632) (end 149.86 101.6508) (width 0.254) (layer F.Cu) (net 14))
  (segment (start 158.7679 89.4421) (end 158.77 89.44) (width 0.254) (layer F.Cu) (net 14) (tstamp 55270306))
  (segment (start 159.27 89.44) (end 159.27 93.6632) (width 0.254) (layer F.Cu) (net 15))
  (segment (start 151.13 104.902) (end 152.4 106.172) (width 0.254) (layer F.Cu) (net 15) (tstamp 55232898))
  (segment (start 151.13 101.8032) (end 151.13 104.902) (width 0.254) (layer F.Cu) (net 15) (tstamp 55270315))
  (segment (start 159.27 93.6632) (end 151.13 101.8032) (width 0.254) (layer F.Cu) (net 15) (tstamp 55270353))
  (segment (start 164.37 85.84) (end 172.7574 85.84) (width 0.254) (layer F.Cu) (net 16))
  (segment (start 172.815 85.7824) (end 177.3174 81.28) (width 0.254) (layer F.Cu) (net 16) (tstamp 55232B2A))
  (segment (start 177.3174 81.28) (end 179.832 81.28) (width 0.254) (layer F.Cu) (net 16) (tstamp 55232B2C))
  (segment (start 179.832 81.28) (end 181.102 80.01) (width 0.254) (layer F.Cu) (net 16) (tstamp 55232B2E))
  (segment (start 172.7574 85.84) (end 172.815 85.7824) (width 0.254) (layer F.Cu) (net 16) (tstamp 552707FB))
  (segment (start 164.37 85.34) (end 171.708 85.34) (width 0.254) (layer F.Cu) (net 17))
  (segment (start 171.8672 85.1808) (end 177.038 80.01) (width 0.254) (layer F.Cu) (net 17) (tstamp 55232B32))
  (segment (start 177.038 80.01) (end 178.562 80.01) (width 0.254) (layer F.Cu) (net 17) (tstamp 55232B34))
  (segment (start 171.708 85.34) (end 171.8672 85.1808) (width 0.254) (layer F.Cu) (net 17) (tstamp 55270804))
  (segment (start 159.7646 89.2078) (end 159.7646 94.6164) (width 0.254) (layer F.Cu) (net 18))
  (segment (start 154.94 99.441) (end 154.94 103.632) (width 0.254) (layer F.Cu) (net 18) (tstamp 552328B2))
  (segment (start 159.7646 94.6164) (end 154.94 99.441) (width 0.254) (layer F.Cu) (net 18) (tstamp 552328AF))
  (segment (start 156.21 104.902) (end 157.48 106.172) (width 0.254) (layer F.Cu) (net 19) (tstamp 552328C2))
  (segment (start 156.21 99.9236) (end 156.21 104.902) (width 0.254) (layer F.Cu) (net 19) (tstamp 552328C0))
  (segment (start 160.2646 89.411) (end 160.2646 95.869) (width 0.254) (layer F.Cu) (net 19))
  (segment (start 160.2646 95.869) (end 156.21 99.9236) (width 0.254) (layer F.Cu) (net 19) (tstamp 552328BC))
  (segment (start 161.2688 89.538) (end 161.2688 93.6286) (width 0.254) (layer F.Cu) (net 20))
  (segment (start 170.18 102.5398) (end 170.18 103.632) (width 0.254) (layer F.Cu) (net 20) (tstamp 55232958))
  (segment (start 161.2688 93.6286) (end 170.18 102.5398) (width 0.254) (layer F.Cu) (net 20) (tstamp 55232956))
  (segment (start 171.45 104.902) (end 172.72 106.172) (width 0.254) (layer F.Cu) (net 21) (tstamp 55232961))
  (segment (start 171.45 102.6414) (end 171.45 104.902) (width 0.254) (layer F.Cu) (net 21) (tstamp 5523295F))
  (segment (start 161.7688 89.0808) (end 161.7688 92.9602) (width 0.254) (layer F.Cu) (net 21))
  (segment (start 161.7688 92.9602) (end 171.45 102.6414) (width 0.254) (layer F.Cu) (net 21) (tstamp 5523295C))
  (segment (start 164.595 87.915) (end 164.595 89.03) (width 0.254) (layer F.Cu) (net 22))
  (segment (start 181.102 101.219) (end 181.102 100.33) (width 0.254) (layer F.Cu) (net 22) (tstamp 55232A1C))
  (segment (start 180.5686 101.7524) (end 181.102 101.219) (width 0.254) (layer F.Cu) (net 22) (tstamp 55232A1B))
  (segment (start 177.3174 101.7524) (end 180.5686 101.7524) (width 0.254) (layer F.Cu) (net 22) (tstamp 55232A18))
  (segment (start 164.595 89.03) (end 177.3174 101.7524) (width 0.254) (layer F.Cu) (net 22) (tstamp 55232A14))
  (segment (start 164.6458 87.3388) (end 166.9678 87.3388) (width 0.254) (layer F.Cu) (net 23))
  (segment (start 177.419 100.33) (end 178.562 100.33) (width 0.254) (layer F.Cu) (net 23) (tstamp 55232A23))
  (segment (start 168.4782 91.3892) (end 177.419 100.33) (width 0.254) (layer F.Cu) (net 23) (tstamp 55232A21))
  (segment (start 168.4782 88.8492) (end 168.4782 91.3892) (width 0.254) (layer F.Cu) (net 23) (tstamp 55232A20))
  (segment (start 166.9678 87.3388) (end 168.4782 88.8492) (width 0.254) (layer F.Cu) (net 23) (tstamp 55232A1F))
  (segment (start 164.6712 86.8388) (end 168.1188 86.8388) (width 0.254) (layer F.Cu) (net 24))
  (segment (start 179.832 99.06) (end 181.102 97.79) (width 0.254) (layer F.Cu) (net 24) (tstamp 55232A2E))
  (segment (start 177.546 99.06) (end 179.832 99.06) (width 0.254) (layer F.Cu) (net 24) (tstamp 55232A2C))
  (segment (start 170.18 91.694) (end 177.546 99.06) (width 0.254) (layer F.Cu) (net 24) (tstamp 55232A29))
  (segment (start 170.18 88.9) (end 170.18 91.694) (width 0.254) (layer F.Cu) (net 24) (tstamp 55232A28))
  (segment (start 168.1188 86.8388) (end 170.18 88.9) (width 0.254) (layer F.Cu) (net 24) (tstamp 55232A27))
  (segment (start 164.468 86.3388) (end 169.2698 86.3388) (width 0.254) (layer F.Cu) (net 25))
  (segment (start 177.673 97.79) (end 178.562 97.79) (width 0.254) (layer F.Cu) (net 25) (tstamp 55232A35))
  (segment (start 172.4152 92.5322) (end 177.673 97.79) (width 0.254) (layer F.Cu) (net 25) (tstamp 55232A34))
  (segment (start 172.4152 89.4842) (end 172.4152 92.5322) (width 0.254) (layer F.Cu) (net 25) (tstamp 55232A33))
  (segment (start 169.2698 86.3388) (end 172.4152 89.4842) (width 0.254) (layer F.Cu) (net 25) (tstamp 55232A32))
  (segment (start 160.7646 89.3094) (end 160.7646 97.1724) (width 0.254) (layer F.Cu) (net 26))
  (segment (start 160.7646 97.1724) (end 157.48 100.457) (width 0.254) (layer F.Cu) (net 26) (tstamp 552328C6))
  (segment (start 157.48 100.457) (end 157.48 103.632) (width 0.254) (layer F.Cu) (net 26) (tstamp 552328C8))
  (segment (start 160.02 66.548) (end 160.02 68.072) (width 0.254) (layer F.Cu) (net 27))
  (segment (start 161.77 69.822) (end 161.77 80.74) (width 0.254) (layer F.Cu) (net 27) (tstamp 55270D1F))
  (segment (start 160.02 68.072) (end 161.77 69.822) (width 0.254) (layer F.Cu) (net 27) (tstamp 55270D1D))
  (segment (start 161.27 80.74) (end 161.27 71.1) (width 0.254) (layer F.Cu) (net 28))
  (segment (start 157.607 64.008) (end 157.48 64.008) (width 0.254) (layer F.Cu) (net 28) (tstamp 55270E17))
  (segment (start 158.75 65.151) (end 157.607 64.008) (width 0.254) (layer F.Cu) (net 28) (tstamp 55270E16))
  (segment (start 158.75 65.405) (end 158.75 65.151) (width 0.254) (layer F.Cu) (net 28) (tstamp 55270E15))
  (segment (start 158.75 65.913) (end 158.75 65.405) (width 0.254) (layer F.Cu) (net 28) (tstamp 55270E14))
  (segment (start 158.75 68.58) (end 158.75 65.913) (width 0.254) (layer F.Cu) (net 28) (tstamp 55270E13))
  (segment (start 158.9532 68.7832) (end 158.75 68.58) (width 0.254) (layer F.Cu) (net 28) (tstamp 55270E12))
  (segment (start 161.27 71.1) (end 158.9532 68.7832) (width 0.254) (layer F.Cu) (net 28) (tstamp 55270E10))
  (segment (start 160.77 80.991) (end 160.77 72.251) (width 0.254) (layer F.Cu) (net 29))
  (segment (start 157.48 68.961) (end 157.48 66.548) (width 0.254) (layer F.Cu) (net 29) (tstamp 55232D70))
  (segment (start 160.77 72.251) (end 157.48 68.961) (width 0.254) (layer F.Cu) (net 29) (tstamp 55232D6E))
  (segment (start 160.27 80.991) (end 160.27 73.275) (width 0.254) (layer F.Cu) (net 30))
  (segment (start 156.21 65.278) (end 154.94 64.008) (width 0.254) (layer F.Cu) (net 30) (tstamp 55232D77))
  (segment (start 156.21 69.215) (end 156.21 65.278) (width 0.254) (layer F.Cu) (net 30) (tstamp 55232D75))
  (segment (start 160.27 73.275) (end 156.21 69.215) (width 0.254) (layer F.Cu) (net 30) (tstamp 55232D74))
  (segment (start 159.77 80.864) (end 159.77 74.3879) (width 0.254) (layer F.Cu) (net 31))
  (segment (start 154.94 69.5579) (end 154.94 66.548) (width 0.254) (layer F.Cu) (net 31) (tstamp 55232D7E))
  (segment (start 159.77 74.3879) (end 154.94 69.5579) (width 0.254) (layer F.Cu) (net 31) (tstamp 55232D7C))
  (segment (start 158.77 80.991) (end 158.77 76.5248) (width 0.254) (layer F.Cu) (net 32))
  (segment (start 152.4 70.1548) (end 152.4 66.548) (width 0.254) (layer F.Cu) (net 32) (tstamp 55232D8F))
  (segment (start 158.77 76.5248) (end 152.4 70.1548) (width 0.254) (layer F.Cu) (net 32) (tstamp 55232D8E))
  (segment (start 158.27 81.118) (end 158.27 77.8409) (width 0.254) (layer F.Cu) (net 33))
  (segment (start 151.13 65.278) (end 149.86 64.008) (width 0.254) (layer F.Cu) (net 33) (tstamp 55232D98))
  (segment (start 151.13 70.7009) (end 151.13 65.278) (width 0.254) (layer F.Cu) (net 33) (tstamp 55232D96))
  (segment (start 158.27 77.8409) (end 151.13 70.7009) (width 0.254) (layer F.Cu) (net 33) (tstamp 55232D94))
  (segment (start 140.208 76.2) (end 138.938 77.47) (width 0.254) (layer F.Cu) (net 34) (tstamp 55232636))
  (segment (start 146.431 76.2) (end 140.208 76.2) (width 0.254) (layer F.Cu) (net 34) (tstamp 55232634))
  (segment (start 155.67 82.84) (end 153.071 82.84) (width 0.254) (layer F.Cu) (net 34))
  (segment (start 153.071 82.84) (end 146.431 76.2) (width 0.254) (layer F.Cu) (net 34) (tstamp 55232632))
  (segment (start 155.67 83.34) (end 151.412 83.34) (width 0.254) (layer F.Cu) (net 35))
  (segment (start 145.542 77.47) (end 141.478 77.47) (width 0.254) (layer F.Cu) (net 35) (tstamp 55232699))
  (segment (start 151.412 83.34) (end 145.542 77.47) (width 0.254) (layer F.Cu) (net 35) (tstamp 55232697))
  (segment (start 155.67 83.84) (end 149.88 83.84) (width 0.254) (layer F.Cu) (net 36))
  (segment (start 140.208 78.74) (end 138.938 80.01) (width 0.254) (layer F.Cu) (net 36) (tstamp 552326A0))
  (segment (start 144.78 78.74) (end 140.208 78.74) (width 0.254) (layer F.Cu) (net 36) (tstamp 5523269E))
  (segment (start 149.88 83.84) (end 144.78 78.74) (width 0.254) (layer F.Cu) (net 36) (tstamp 5523269D))
  (segment (start 155.67 84.34) (end 148.602 84.34) (width 0.254) (layer F.Cu) (net 37))
  (segment (start 148.602 84.34) (end 146.812 82.55) (width 0.254) (layer F.Cu) (net 37) (tstamp 552326B1))
  (segment (start 146.812 82.55) (end 141.478 82.55) (width 0.254) (layer F.Cu) (net 37) (tstamp 552326B2))
  (segment (start 155.794 84.84) (end 147.578 84.84) (width 0.254) (layer F.Cu) (net 38))
  (segment (start 147.578 84.84) (end 146.558 83.82) (width 0.254) (layer F.Cu) (net 38) (tstamp 552326B6))
  (segment (start 140.208 83.82) (end 138.938 85.09) (width 0.254) (layer F.Cu) (net 38) (tstamp 552326BA))
  (segment (start 146.558 83.82) (end 140.208 83.82) (width 0.254) (layer F.Cu) (net 38) (tstamp 552326B8))
  (segment (start 155.67 82.34) (end 154.476 82.34) (width 0.254) (layer F.Cu) (net 39))
  (segment (start 147.066 74.93) (end 141.478 74.93) (width 0.254) (layer F.Cu) (net 39) (tstamp 5523262F))
  (segment (start 154.476 82.34) (end 147.066 74.93) (width 0.254) (layer F.Cu) (net 39) (tstamp 5523262E))
  (segment (start 162.77 89.44) (end 163.481 89.44) (width 0.254) (layer F.Cu) (net 40))
  (segment (start 176.149 106.172) (end 176.911 105.41) (width 0.254) (layer F.Cu) (net 40) (tstamp 552706AE))
  (segment (start 176.911 105.41) (end 176.911 102.87) (width 0.254) (layer F.Cu) (net 40) (tstamp 552706B0))
  (segment (start 176.911 102.87) (end 163.576 89.535) (width 0.254) (layer F.Cu) (net 40) (tstamp 552706B2))
  (segment (start 176.149 106.172) (end 175.26 106.172) (width 0.254) (layer F.Cu) (net 40))
  (segment (start 163.481 89.44) (end 163.576 89.535) (width 0.254) (layer F.Cu) (net 40) (tstamp 552706F2))
  (segment (start 164.60516 82.33612) (end 165.56788 82.33612) (width 0.254) (layer F.Cu) (net 41))
  (segment (start 179.832 71.12) (end 181.102 69.85) (width 0.254) (layer F.Cu) (net 41) (tstamp 55232C39))
  (segment (start 176.784 71.12) (end 179.832 71.12) (width 0.254) (layer F.Cu) (net 41) (tstamp 55232C37))
  (segment (start 165.56788 82.33612) (end 176.784 71.12) (width 0.254) (layer F.Cu) (net 41) (tstamp 55232C36))
  (segment (start 157.2458 80.388) (end 156.842 80.388) (width 0.254) (layer F.Cu) (net 42))
  (segment (start 146.05 65.278) (end 144.78 64.008) (width 0.254) (layer F.Cu) (net 42) (tstamp 55232E1D))
  (segment (start 146.05 69.596) (end 146.05 65.278) (width 0.254) (layer F.Cu) (net 42) (tstamp 55232E1B))
  (segment (start 156.842 80.388) (end 146.05 69.596) (width 0.254) (layer F.Cu) (net 42) (tstamp 55232E1A))
  (segment (start 155.794 86.34) (end 150.388 86.34) (width 0.254) (layer F.Cu) (net 43))
  (segment (start 150.388 86.34) (end 141.478 95.25) (width 0.254) (layer F.Cu) (net 43) (tstamp 552326FB))
  (segment (start 141.478 95.25) (end 141.478 95.25) (width 0.254) (layer F.Cu) (net 43) (tstamp 552326FD))
  (segment (start 162.27 89.44) (end 162.27 90.769) (width 0.254) (layer F.Cu) (net 44))
  (segment (start 146.05 104.902) (end 144.78 103.632) (width 0.254) (layer F.Cu) (net 44) (tstamp 55270680))
  (segment (start 146.05 107.188) (end 146.05 104.902) (width 0.254) (layer F.Cu) (net 44) (tstamp 5527067E))
  (segment (start 146.685 107.823) (end 146.05 107.188) (width 0.254) (layer F.Cu) (net 44) (tstamp 5527067D))
  (segment (start 173.355 107.823) (end 146.685 107.823) (width 0.254) (layer F.Cu) (net 44) (tstamp 55270678))
  (segment (start 173.99 107.188) (end 173.355 107.823) (width 0.254) (layer F.Cu) (net 44) (tstamp 55270674))
  (segment (start 173.99 102.489) (end 173.99 107.188) (width 0.254) (layer F.Cu) (net 44) (tstamp 55270672))
  (segment (start 162.27 90.769) (end 173.99 102.489) (width 0.254) (layer F.Cu) (net 44) (tstamp 5527066C))
  (segment (start 164.70422 82.83612) (end 166.66046 82.83612) (width 0.254) (layer F.Cu) (net 45))
  (segment (start 177.10658 72.39) (end 178.562 72.39) (width 0.254) (layer F.Cu) (net 45) (tstamp 55232C32))
  (segment (start 166.66046 82.83612) (end 177.10658 72.39) (width 0.254) (layer F.Cu) (net 45) (tstamp 55232C31))
  (segment (start 157.7712 80.9214) (end 157.7712 79.1582) (width 0.254) (layer F.Cu) (net 46))
  (segment (start 147.32 68.707) (end 147.32 66.548) (width 0.254) (layer F.Cu) (net 46) (tstamp 55232E16))
  (segment (start 157.7712 79.1582) (end 147.32 68.707) (width 0.254) (layer F.Cu) (net 46) (tstamp 55232E14))
  (segment (start 155.67 85.84) (end 148.348 85.84) (width 0.254) (layer F.Cu) (net 47))
  (segment (start 148.348 85.84) (end 141.478 92.71) (width 0.254) (layer F.Cu) (net 47) (tstamp 5523451F))
  (segment (start 141.478 92.71) (end 141.478 92.71) (width 0.254) (layer F.Cu) (net 47) (tstamp 55234525))
  (segment (start 155.67 85.34) (end 146.3 85.34) (width 0.254) (layer F.Cu) (net 48))
  (segment (start 146.3 85.34) (end 146.05 85.09) (width 0.254) (layer F.Cu) (net 48) (tstamp 552326BE))
  (segment (start 146.05 85.09) (end 141.478 85.09) (width 0.254) (layer F.Cu) (net 48) (tstamp 552326BF))

)
