EESchema Schematic File Version 2
LIBS:power
LIBS:Connectors
LIBS:Devices
LIBS:Components
LIBS:SRAM-Board-cache
EELAYER 27 0
EELAYER END
$Descr A4 11693 8268
encoding utf-8
Sheet 1 1
Title ""
Date "27 may 2014"
Rev ""
Comp ""
Comment1 ""
Comment2 ""
Comment3 ""
Comment4 ""
$EndDescr
$Comp
L IS61WV102416BLL IC1
U 1 1 53630228
P 2300 2750
F 0 "IC1" H 1900 4000 40  0000 C CNN
F 1 "IS61WV102416BLL" H 1850 1500 40  0000 L CNN
F 2 "~" H 2325 2700 60  0000 C CNN
F 3 "~" H 2325 2700 60  0000 C CNN
	1    2300 2750
	1    0    0    -1  
$EndComp
$Comp
L CAP C2
U 1 1 53803A7A
P 1500 1000
F 0 "C2" H 1540 1100 40  0000 L CNN
F 1 "100nF" H 1540 890 40  0000 L CNN
F 2 "~" H 1538 850 30  0000 C CNN
F 3 "~" H 1500 1000 60  0000 C CNN
	1    1500 1000
	1    0    0    -1  
$EndComp
$Comp
L CAP-POL C1
U 1 1 53803AA4
P 1200 1000
F 0 "C1" H 1240 1105 50  0000 L CNN
F 1 "10uF" H 1240 855 50  0000 L CNN
F 2 "~" H 1200 985 60  0000 C CNN
F 3 "~" H 1200 985 60  0000 C CNN
	1    1200 1000
	1    0    0    -1  
$EndComp
$Comp
L +3.3V #PWR01
U 1 1 53803ABD
P 1350 700
F 0 "#PWR01" H 1350 660 30  0001 C CNN
F 1 "+3.3V" H 1350 810 30  0000 C CNN
F 2 "" H 1350 700 60  0000 C CNN
F 3 "" H 1350 700 60  0000 C CNN
	1    1350 700 
	1    0    0    -1  
$EndComp
$Comp
L GND #PWR02
U 1 1 53803ACC
P 1350 1300
F 0 "#PWR02" H 1350 1300 30  0001 C CNN
F 1 "GND" H 1350 1230 30  0001 C CNN
F 2 "" H 1350 1300 60  0000 C CNN
F 3 "" H 1350 1300 60  0000 C CNN
	1    1350 1300
	1    0    0    -1  
$EndComp
$Comp
L +3.3V #PWR03
U 1 1 53803B84
P 2300 1400
F 0 "#PWR03" H 2300 1360 30  0001 C CNN
F 1 "+3.3V" H 2300 1510 30  0000 C CNN
F 2 "" H 2300 1400 60  0000 C CNN
F 3 "" H 2300 1400 60  0000 C CNN
	1    2300 1400
	1    0    0    -1  
$EndComp
$Comp
L GND #PWR04
U 1 1 53803C27
P 2300 4150
F 0 "#PWR04" H 2300 4150 30  0001 C CNN
F 1 "GND" H 2300 4080 30  0001 C CNN
F 2 "" H 2300 4150 60  0000 C CNN
F 3 "" H 2300 4150 60  0000 C CNN
	1    2300 4150
	1    0    0    -1  
$EndComp
$Comp
L HEADER-16X1 P3
U 1 1 53804226
P 5650 2650
F 0 "P3" V 5600 2650 40  0000 C CNN
F 1 "HEADER-16X1" V 5700 2650 40  0000 C CNN
F 2 "~" H 5650 2950 60  0000 C CNN
F 3 "~" H 5650 2950 60  0000 C CNN
	1    5650 2650
	1    0    0    -1  
$EndComp
$Comp
L HEADER-2X1 P1
U 1 1 538042EB
P 800 1000
F 0 "P1" V 750 1000 40  0000 C CNN
F 1 "HEADER-2X1" V 850 1000 40  0000 C CNN
F 2 "~" H 800 1000 60  0000 C CNN
F 3 "~" H 800 1000 60  0000 C CNN
	1    800  1000
	-1   0    0    1   
$EndComp
$Comp
L PWR_FLAG #FLG05
U 1 1 53804781
P 1050 700
F 0 "#FLG05" H 1050 795 30  0001 C CNN
F 1 "PWR_FLAG" H 1050 880 30  0000 C CNN
F 2 "" H 1050 700 60  0000 C CNN
F 3 "" H 1050 700 60  0000 C CNN
	1    1050 700 
	1    0    0    -1  
$EndComp
$Comp
L PWR_FLAG #FLG06
U 1 1 53804790
P 1050 1300
F 0 "#FLG06" H 1050 1395 30  0001 C CNN
F 1 "PWR_FLAG" H 1050 1480 30  0000 C CNN
F 2 "" H 1050 1300 60  0000 C CNN
F 3 "" H 1050 1300 60  0000 C CNN
	1    1050 1300
	-1   0    0    1   
$EndComp
Wire Wire Line
	1200 1200 1200 1250
Wire Wire Line
	1050 1250 1500 1250
Wire Wire Line
	1500 1250 1500 1200
Wire Wire Line
	1350 1300 1350 1250
Connection ~ 1350 1250
Wire Wire Line
	1200 800  1200 750 
Wire Wire Line
	1050 750  1500 750 
Wire Wire Line
	1500 750  1500 800 
Connection ~ 1350 750 
Wire Wire Line
	1350 700  1350 750 
Wire Wire Line
	2300 1400 2300 1450
Wire Wire Line
	1650 1450 2950 1450
Wire Wire Line
	1650 1450 1650 1650
Wire Wire Line
	1650 1650 1700 1650
Wire Wire Line
	2950 1450 2950 1650
Wire Wire Line
	2950 1650 2900 1650
Connection ~ 2300 1450
Wire Wire Line
	1700 3850 1650 3850
Wire Wire Line
	1650 3850 1650 4100
Wire Wire Line
	1650 4100 2950 4100
Wire Wire Line
	2300 4100 2300 4150
Wire Wire Line
	2900 3850 2950 3850
Wire Wire Line
	2950 3850 2950 4100
Connection ~ 2300 4100
Wire Wire Line
	1050 700  1050 900 
Connection ~ 1200 750 
Wire Wire Line
	1050 1100 1050 1300
Connection ~ 1200 1250
Connection ~ 1050 750 
Connection ~ 1050 1250
Wire Wire Line
	2900 1750 3150 1750
Wire Wire Line
	2900 1850 3150 1850
Wire Wire Line
	2900 1950 3150 1950
Wire Wire Line
	2900 2050 3150 2050
Wire Wire Line
	2900 2150 3150 2150
Wire Wire Line
	2900 2250 3150 2250
Wire Wire Line
	2900 2350 3150 2350
Wire Wire Line
	2900 2450 3150 2450
Wire Wire Line
	2900 2550 3150 2550
Wire Wire Line
	2900 2650 3150 2650
Wire Wire Line
	2900 2750 3150 2750
Wire Wire Line
	2900 2850 3150 2850
Wire Wire Line
	2900 2950 3150 2950
Wire Wire Line
	2900 3050 3150 3050
Wire Wire Line
	2900 3150 3150 3150
Wire Wire Line
	2900 3250 3150 3250
Wire Wire Line
	2900 3350 3150 3350
Wire Wire Line
	2900 3450 3150 3450
Wire Wire Line
	2900 3550 3150 3550
Wire Wire Line
	2900 3650 3150 3650
Wire Wire Line
	1700 1750 1450 1750
Wire Wire Line
	1700 1850 1450 1850
Wire Wire Line
	1700 1950 1450 1950
Wire Wire Line
	1700 2050 1450 2050
Wire Wire Line
	1700 2150 1450 2150
Wire Wire Line
	1700 2250 1450 2250
Wire Wire Line
	1700 2350 1450 2350
Wire Wire Line
	1700 2450 1450 2450
Wire Wire Line
	1700 2550 1450 2550
Wire Wire Line
	1700 2650 1450 2650
Wire Wire Line
	1700 2750 1450 2750
Wire Wire Line
	1700 2850 1450 2850
Wire Wire Line
	1700 2950 1450 2950
Wire Wire Line
	1700 3050 1450 3050
Wire Wire Line
	1700 3150 1450 3150
Wire Wire Line
	1700 3250 1450 3250
Wire Wire Line
	1700 3350 1450 3350
Wire Wire Line
	1700 3450 1450 3450
Wire Wire Line
	1700 3550 1450 3550
Wire Wire Line
	1700 3650 1450 3650
Wire Wire Line
	1700 3750 1450 3750
Text Label 1450 3250 0    60   ~ 0
IO15
Text Label 1450 3150 0    60   ~ 0
IO14
Text Label 1450 3050 0    60   ~ 0
IO13
Text Label 1450 2950 0    60   ~ 0
IO12
Text Label 1450 2850 0    60   ~ 0
IO11
Text Label 1450 2750 0    60   ~ 0
IO10
Text Label 1450 2650 0    60   ~ 0
IO9
Text Label 1450 2550 0    60   ~ 0
IO8
Text Label 1450 2450 0    60   ~ 0
IO7
Text Label 1450 2350 0    60   ~ 0
IO6
Text Label 1450 2250 0    60   ~ 0
IO5
Text Label 1450 2150 0    60   ~ 0
IO4
Text Label 1450 2050 0    60   ~ 0
IO3
Text Label 1450 1950 0    60   ~ 0
IO2
Text Label 1450 1850 0    60   ~ 0
IO1
Text Label 1450 1750 0    60   ~ 0
IO0
Text Label 3000 3650 0    60   ~ 0
A19
Text Label 3000 3550 0    60   ~ 0
A18
Text Label 3000 3450 0    60   ~ 0
A17
Text Label 3000 3350 0    60   ~ 0
A16
Text Label 3000 3250 0    60   ~ 0
A15
Text Label 3000 3150 0    60   ~ 0
A14
Text Label 3000 3050 0    60   ~ 0
A13
Text Label 3000 2950 0    60   ~ 0
A12
Text Label 3000 2850 0    60   ~ 0
A11
Text Label 3000 2750 0    60   ~ 0
A10
Text Label 3050 2650 0    60   ~ 0
A9
Text Label 3050 2550 0    60   ~ 0
A8
Text Label 3050 2450 0    60   ~ 0
A7
Text Label 3050 2350 0    60   ~ 0
A6
Text Label 3050 2250 0    60   ~ 0
A5
Text Label 3050 2150 0    60   ~ 0
A4
Text Label 3050 2050 0    60   ~ 0
A3
Text Label 3050 1950 0    60   ~ 0
A2
Text Label 3050 1850 0    60   ~ 0
A1
Text Label 3050 1750 0    60   ~ 0
A0
Wire Wire Line
	4500 1450 4250 1450
Wire Wire Line
	4500 1550 4250 1550
Wire Wire Line
	4500 1650 4250 1650
Wire Wire Line
	4250 1750 4500 1750
Wire Wire Line
	4500 1850 4250 1850
Wire Wire Line
	4250 1950 4500 1950
Wire Wire Line
	4500 2050 4250 2050
Wire Wire Line
	4250 2150 4500 2150
Wire Wire Line
	4500 2250 4250 2250
Wire Wire Line
	4250 2350 4500 2350
Wire Wire Line
	4500 2450 4250 2450
Wire Wire Line
	4250 2550 4500 2550
Wire Wire Line
	4500 2650 4250 2650
Wire Wire Line
	4250 2750 4500 2750
Wire Wire Line
	4500 2850 4250 2850
Wire Wire Line
	4250 2950 4500 2950
Wire Wire Line
	4500 3050 4250 3050
Wire Wire Line
	4250 3150 4500 3150
Wire Wire Line
	4500 3250 4250 3250
Wire Wire Line
	4250 3350 4500 3350
Wire Wire Line
	4500 3450 4250 3450
Wire Wire Line
	4250 3550 4500 3550
Wire Wire Line
	4500 3650 4250 3650
Wire Wire Line
	4250 3750 4500 3750
Wire Wire Line
	4500 3850 4250 3850
Wire Wire Line
	5150 3300 5400 3300
Wire Wire Line
	5400 3200 5150 3200
Wire Wire Line
	5150 3100 5400 3100
Wire Wire Line
	5400 3000 5150 3000
Wire Wire Line
	5150 2900 5400 2900
Wire Wire Line
	5400 2800 5150 2800
Wire Wire Line
	5150 2700 5400 2700
Wire Wire Line
	5400 2600 5150 2600
Wire Wire Line
	5150 2500 5400 2500
Wire Wire Line
	5400 2400 5150 2400
Wire Wire Line
	5150 2300 5400 2300
Wire Wire Line
	5400 2200 5150 2200
Wire Wire Line
	5150 2100 5400 2100
Wire Wire Line
	5400 2000 5150 2000
Wire Wire Line
	5150 1900 5400 1900
Text Label 5150 3200 0    60   ~ 0
A14
Text Label 4250 3550 0    60   ~ 0
A13
Text Label 5150 3400 0    60   ~ 0
A12
Text Label 4250 3650 0    60   ~ 0
A11
Text Label 4250 3850 0    60   ~ 0
A10
Text Label 4250 3750 0    60   ~ 0
A9
Text Label 5150 3300 0    60   ~ 0
IO8
Text Label 5150 3100 0    60   ~ 0
IO9
Text Label 5150 2900 0    60   ~ 0
IO10
Text Label 5150 3000 0    60   ~ 0
IO11
Wire Wire Line
	5400 3400 5150 3400
Text Label 4250 3450 0    60   ~ 0
IO12
Text Label 4250 3350 0    60   ~ 0
IO13
Text Label 4250 3250 0    60   ~ 0
IO14
Text Label 4250 3150 0    60   ~ 0
IO15
Text Label 1450 3550 0    60   ~ 0
LB_N
Text Label 1450 3450 0    60   ~ 0
UB_N
Text Label 1450 3350 0    60   ~ 0
OE_N
Text Label 4250 3050 0    60   ~ 0
LB_N
Text Label 4250 2750 0    60   ~ 0
UB_N
Text Label 5150 2600 0    60   ~ 0
OE_N
Text Label 5150 2800 0    60   ~ 0
A5
Text Label 4250 2950 0    60   ~ 0
A6
Text Label 5150 2700 0    60   ~ 0
A7
Text Label 4250 2850 0    60   ~ 0
A8
Text Label 5150 2500 0    60   ~ 0
IO3
Text Label 4250 2650 0    60   ~ 0
IO2
Text Label 5150 2400 0    60   ~ 0
IO1
Text Label 4250 2550 0    60   ~ 0
IO0
Text Label 1450 3750 0    60   ~ 0
CE_N
Text Label 5150 2100 0    60   ~ 0
CE_N
$Comp
L HEADER-25X1 P2
U 1 1 53804235
P 4750 2600
F 0 "P2" V 4700 2600 40  0000 C CNN
F 1 "HEADER-25X1" V 4800 2600 40  0000 C CNN
F 2 "~" H 4750 3300 60  0000 C CNN
F 3 "~" H 4750 3300 60  0000 C CNN
	1    4750 2600
	1    0    0    -1  
$EndComp
Text Label 4250 2250 0    60   ~ 0
A0
Text Label 5150 2200 0    60   ~ 0
A1
Text Label 4250 2350 0    60   ~ 0
A2
Text Label 4250 2450 0    60   ~ 0
A3
Text Label 5150 2300 0    60   ~ 0
A4
Text Label 5150 2000 0    60   ~ 0
IO4
Text Label 4250 2150 0    60   ~ 0
IO5
Text Label 5150 1900 0    60   ~ 0
IO6
Text Label 4250 2050 0    60   ~ 0
IO7
Text Label 4250 1950 0    60   ~ 0
A15
Text Label 4250 1850 0    60   ~ 0
A16
Text Label 4250 1750 0    60   ~ 0
A17
Text Label 4250 1650 0    60   ~ 0
A18
Text Label 4250 1550 0    60   ~ 0
A19
Text Label 1450 3650 0    60   ~ 0
WE_N
Text Label 4250 1450 0    60   ~ 0
WE_N
$EndSCHEMATC
