EESchema Schematic File Version 2  date Sun 15 Jul 2012 09:05:08 AM WIT
LIBS:power
LIBS:device
LIBS:transistors
LIBS:conn
LIBS:linear
LIBS:regul
LIBS:74xx
LIBS:cmos4000
LIBS:adc-dac
LIBS:memory
LIBS:xilinx
LIBS:special
LIBS:microcontrollers
LIBS:dsp
LIBS:microchip
LIBS:analog_switches
LIBS:motorola
LIBS:texas
LIBS:intel
LIBS:audio
LIBS:interface
LIBS:digital-audio
LIBS:philips
LIBS:display
LIBS:cypress
LIBS:siliconi
LIBS:opto
LIBS:atmel
LIBS:contrib
LIBS:valves
EELAYER 43  0
EELAYER END
$Descr A4 11700 8267
encoding utf-8
Sheet 1 1
Title "ZTEX-Interface-Board"
Date "15 jul 2012"
Rev ""
Comp ""
Comment1 ""
Comment2 ""
Comment3 ""
Comment4 ""
$EndDescr
$Comp
L CONN_30 P?
U 1 1 50022391
P 9650 2450
F 0 "P?" V 9601 2450 60  0000 C CNN
F 1 "CONN_30" V 9700 2450 60  0000 C CNN
	1    9650 2450
	1    0    0    -1  
$EndComp
$Comp
L CONN_30 P?
U 1 1 5002238D
P 8800 2450
F 0 "P?" V 8751 2450 60  0000 C CNN
F 1 "CONN_30" V 8850 2450 60  0000 C CNN
	1    8800 2450
	1    0    0    -1  
$EndComp
$Comp
L CONN_3 P8
U 1 1 50022242
P 5950 4100
F 0 "P8" V 5900 4100 50  0000 C CNN
F 1 "CONN_3" V 6000 4100 40  0000 C CNN
	1    5950 4100
	1    0    0    -1  
$EndComp
$Comp
L CONN_3 P6
U 1 1 50022240
P 5050 4100
F 0 "P6" V 5000 4100 50  0000 C CNN
F 1 "CONN_3" V 5100 4100 40  0000 C CNN
	1    5050 4100
	1    0    0    -1  
$EndComp
$Comp
L CONN_20 P7
U 1 1 50022211
P 5950 2900
F 0 "P7" V 5900 2900 60  0000 C CNN
F 1 "CONN_20" V 6000 2900 60  0000 C CNN
	1    5950 2900
	1    0    0    -1  
$EndComp
$Comp
L CONN_20 P5
U 1 1 5002220E
P 5050 2900
F 0 "P5" V 5000 2900 60  0000 C CNN
F 1 "CONN_20" V 5100 2900 60  0000 C CNN
	1    5050 2900
	1    0    0    -1  
$EndComp
$Comp
L CONN_2 P2
U 1 1 500221D2
P 3250 5100
F 0 "P2" V 3200 5100 40  0000 C CNN
F 1 "CONN_2" V 3300 5100 40  0000 C CNN
	1    3250 5100
	1    0    0    -1  
$EndComp
$Comp
L CONN_2 P4
U 1 1 500221CD
P 4150 5100
F 0 "P4" V 4100 5100 40  0000 C CNN
F 1 "CONN_2" V 4200 5100 40  0000 C CNN
	1    4150 5100
	1    0    0    -1  
$EndComp
$Comp
L CONN_2 P6
U 1 1 500221C8
P 6850 5050
F 0 "P6" V 6800 5050 40  0000 C CNN
F 1 "CONN_2" V 6900 5050 40  0000 C CNN
	1    6850 5050
	1    0    0    -1  
$EndComp
$Comp
L CONN_2 P8
U 1 1 500221AA
P 7750 5050
F 0 "P8" V 7700 5050 40  0000 C CNN
F 1 "CONN_2" V 7800 5050 40  0000 C CNN
	1    7750 5050
	1    0    0    -1  
$EndComp
$Comp
L CONN_30 P7
U 1 1 5002211C
P 7750 3350
F 0 "P7" V 7701 3350 60  0000 C CNN
F 1 "CONN_30" V 7800 3350 60  0000 C CNN
	1    7750 3350
	1    0    0    -1  
$EndComp
$Comp
L CONN_30 P5
U 1 1 50022118
P 6850 3350
F 0 "P5" V 6801 3350 60  0000 C CNN
F 1 "CONN_30" V 6900 3350 60  0000 C CNN
	1    6850 3350
	1    0    0    -1  
$EndComp
$Comp
L CONN_30 P1
U 1 1 50022102
P 3250 3400
F 0 "P1" V 3201 3400 60  0000 C CNN
F 1 "CONN_30" V 3300 3400 60  0000 C CNN
	1    3250 3400
	1    0    0    -1  
$EndComp
$Comp
L CONN_30 P3
U 1 1 500220F8
P 4150 3400
F 0 "P3" V 4101 3400 60  0000 C CNN
F 1 "CONN_30" V 4200 3400 60  0000 C CNN
	1    4150 3400
	1    0    0    -1  
$EndComp
$EndSCHEMATC
