EESchema Schematic File Version 2
LIBS:power
LIBS:Devices
LIBS:Components
LIBS:Connectors
LIBS:STM32F407-Board-cache
EELAYER 27 0
EELAYER END
$Descr A3 16535 11693
encoding utf-8
Sheet 1 1
Title ""
Date "7 apr 2015"
Rev ""
Comp ""
Comment1 ""
Comment2 ""
Comment3 ""
Comment4 ""
$EndDescr
Text Label 5100 4650 0    39   ~ 0
SYS_XTAL1
Text Label 5900 4550 0    39   ~ 0
SYS_XTAL2
Text Label 5100 4850 0    39   ~ 0
RTC_XTAL1
Text Label 5900 4750 0    39   ~ 0
RTC_XTAL2
Text Label 4000 6000 0    39   ~ 0
BOOT0
Text Label 4000 2150 0    39   ~ 0
PB0
Text Label 4000 2250 0    39   ~ 0
PB1
Text Label 4000 2350 0    39   ~ 0
PB2
Text Label 4000 2450 0    39   ~ 0
PB3
Text Label 4000 2550 0    39   ~ 0
PB4
Text Label 4000 2650 0    39   ~ 0
PB5
Text Label 4000 2750 0    39   ~ 0
PB6
Text Label 4000 2850 0    39   ~ 0
PB7
Text Label 4000 2950 0    39   ~ 0
PB8
Text Label 4000 3050 0    39   ~ 0
PB9
Text Label 4000 3150 0    39   ~ 0
PB10
Text Label 4000 3250 0    39   ~ 0
PB11
Text Label 4000 3350 0    39   ~ 0
PB12
Text Label 4000 3450 0    39   ~ 0
PB13
Text Label 4000 3550 0    39   ~ 0
PB14
Text Label 4000 3650 0    39   ~ 0
PB15
Text Label 1750 3000 0    39   ~ 0
PA13
Text Label 1750 3100 0    39   ~ 0
PA14
Text Label 1750 3200 0    39   ~ 0
PA15
Text Label 1750 2900 0    39   ~ 0
PA12
Text Label 1750 2800 0    39   ~ 0
PA11
Text Label 1750 2700 0    39   ~ 0
PA10
Text Label 1800 2600 0    39   ~ 0
PA9
Text Label 1800 2500 0    39   ~ 0
PA8
Text Label 1800 2400 0    39   ~ 0
PA7
Text Label 1800 2300 0    39   ~ 0
PA6
Text Label 1800 2200 0    39   ~ 0
PA5
Text Label 1800 2100 0    39   ~ 0
PA4
Text Label 1800 2000 0    39   ~ 0
PA3
Text Label 5900 5150 0    39   ~ 0
PE2
Text Label 5300 5150 0    39   ~ 0
PE3
Text Label 5900 5050 0    39   ~ 0
PE4
Text Label 5300 5050 0    39   ~ 0
PE5
Text Label 5900 4950 0    39   ~ 0
PE6
Text Label 5250 4950 0    39   ~ 0
VBAT
Text Label 5900 4850 0    39   ~ 0
PC13
Text Label 5300 4550 0    39   ~ 0
~RST
Text Label 5900 4450 0    39   ~ 0
PC0
Text Label 5300 4450 0    39   ~ 0
PC1
Text Label 5900 4350 0    39   ~ 0
PC2
Text Label 5300 4350 0    39   ~ 0
PC3
Text Label 5900 4150 0    39   ~ 0
VREF
Text Label 5250 4150 0    39   ~ 0
VDDA
Text Label 5900 4050 0    39   ~ 0
PA0
Text Label 5300 4050 0    39   ~ 0
PA1
Text Label 5900 3950 0    39   ~ 0
PA2
Text Label 1800 1900 0    39   ~ 0
PA2
Text Label 1800 1800 0    39   ~ 0
PA1
Text Label 1800 1700 0    39   ~ 0
PA0
Text Label 4000 1800 0    39   ~ 0
VDDA
Text Label 4000 1900 0    39   ~ 0
VBAT
Text Label 1750 4700 0    39   ~ 0
PC13
Text Label 1600 4800 0    39   ~ 0
RTC_XTAL1
Text Label 1600 4900 0    39   ~ 0
RTC_XTAL2
Text Label 4000 5600 0    39   ~ 0
SYS_XTAL1
Text Label 4000 5700 0    39   ~ 0
SYS_XTAL2
Text Label 4000 5900 0    39   ~ 0
~RST
Wire Wire Line
	4000 2150 4100 2150
Wire Wire Line
	4000 2250 4100 2250
Wire Wire Line
	4100 2550 4000 2550
Wire Wire Line
	4100 2650 4000 2650
Wire Wire Line
	4100 2750 4000 2750
Wire Wire Line
	4100 2850 4000 2850
Wire Wire Line
	4100 2950 4000 2950
Wire Wire Line
	4100 3050 4000 3050
Wire Wire Line
	4150 3150 4000 3150
Wire Wire Line
	4150 3250 4000 3250
Wire Wire Line
	4150 3350 4000 3350
Wire Wire Line
	4150 3450 4000 3450
Wire Wire Line
	4150 3550 4000 3550
Wire Wire Line
	4000 3650 4150 3650
Wire Wire Line
	5400 4850 5100 4850
Wire Wire Line
	6200 4750 5900 4750
Wire Wire Line
	4200 6000 4000 6000
Wire Wire Line
	1750 3200 1900 3200
Wire Wire Line
	1900 2000 1800 2000
Wire Wire Line
	1800 2100 1900 2100
Wire Wire Line
	1900 2200 1800 2200
Wire Wire Line
	1800 2300 1900 2300
Wire Wire Line
	1900 2400 1800 2400
Wire Wire Line
	1800 2500 1900 2500
Wire Wire Line
	1900 2600 1800 2600
Wire Wire Line
	1900 2700 1750 2700
Wire Wire Line
	1750 2800 1900 2800
Wire Wire Line
	1900 2900 1750 2900
Wire Wire Line
	5400 5150 5300 5150
Wire Wire Line
	5300 5050 5400 5050
Wire Wire Line
	5250 4950 5400 4950
Wire Wire Line
	5900 4850 6050 4850
Wire Wire Line
	5300 4550 5400 4550
Wire Wire Line
	5100 4650 5400 4650
Wire Wire Line
	5400 4350 5300 4350
Wire Wire Line
	5300 4450 5400 4450
Wire Wire Line
	5900 5150 6000 5150
Wire Wire Line
	5900 5050 6000 5050
Wire Wire Line
	5900 4950 6000 4950
Wire Wire Line
	5900 4550 6200 4550
Wire Wire Line
	6000 4450 5900 4450
Wire Wire Line
	5900 4350 6000 4350
Wire Wire Line
	5900 4150 6050 4150
Wire Wire Line
	5900 3950 6000 3950
Wire Wire Line
	5900 4050 6000 4050
Wire Wire Line
	5250 4150 5400 4150
Wire Wire Line
	5400 4050 5300 4050
Wire Wire Line
	1900 1700 1800 1700
Wire Wire Line
	1800 1800 1900 1800
Wire Wire Line
	1900 1900 1800 1900
Wire Wire Line
	4000 1800 4200 1800
Wire Wire Line
	4000 1900 4350 1900
Wire Wire Line
	1750 4700 1900 4700
Wire Wire Line
	1900 4800 1600 4800
Wire Wire Line
	1900 4900 1600 4900
Wire Wire Line
	4000 5600 4300 5600
Wire Wire Line
	4000 5700 4300 5700
Wire Wire Line
	4000 5900 4100 5900
Wire Wire Line
	1750 3000 1900 3000
Wire Wire Line
	1750 3100 1900 3100
Wire Wire Line
	4100 2350 4000 2350
Wire Wire Line
	4100 2450 4000 2450
$Comp
L PWR_FLAG #FLG01
U 1 1 551F4251
P 4350 1900
F 0 "#FLG01" H 4350 1995 30  0001 C CNN
F 1 "PWR_FLAG" H 4350 2080 30  0000 C CNN
F 2 "" H 4350 1900 60  0000 C CNN
F 3 "" H 4350 1900 60  0000 C CNN
	1    4350 1900
	1    0    0    -1  
$EndComp
Text Label 4000 4100 0    39   ~ 0
PD2
Wire Wire Line
	4000 4100 4100 4100
Text Label 4000 6300 0    39   ~ 0
VCAP1
Text Label 4000 6400 0    39   ~ 0
VCAP2
Wire Wire Line
	4000 6400 4200 6400
Wire Wire Line
	4200 6300 4000 6300
Text Label 1800 3400 0    39   ~ 0
PC0
Text Label 1800 3500 0    39   ~ 0
PC1
Text Label 1800 3600 0    39   ~ 0
PC2
Text Label 1800 3700 0    39   ~ 0
PC3
Text Label 1800 3800 0    39   ~ 0
PC4
Text Label 1800 3900 0    39   ~ 0
PC5
Text Label 1800 4000 0    39   ~ 0
PC6
Text Label 1800 4100 0    39   ~ 0
PC7
Text Label 1800 4200 0    39   ~ 0
PC8
Text Label 1800 4300 0    39   ~ 0
PC9
Text Label 1750 4400 0    39   ~ 0
PC10
Text Label 1750 4500 0    39   ~ 0
PC11
Text Label 1750 4600 0    39   ~ 0
PC12
Wire Wire Line
	1750 4400 1900 4400
Wire Wire Line
	1900 4500 1750 4500
Wire Wire Line
	1750 4600 1900 4600
Wire Wire Line
	1900 4300 1800 4300
Wire Wire Line
	1800 4200 1900 4200
Wire Wire Line
	1900 4100 1800 4100
Wire Wire Line
	1800 4000 1900 4000
Wire Wire Line
	1900 3900 1800 3900
Wire Wire Line
	1800 3800 1900 3800
Wire Wire Line
	1900 3700 1800 3700
Wire Wire Line
	1800 3600 1900 3600
Wire Wire Line
	1900 3500 1800 3500
Wire Wire Line
	1800 3400 1900 3400
Text Label 4000 3900 0    39   ~ 0
PD0
Text Label 4000 4000 0    39   ~ 0
PD1
Text Label 4000 4200 0    39   ~ 0
PD3
Text Label 4000 4300 0    39   ~ 0
PD4
Text Label 4000 4400 0    39   ~ 0
PD5
Text Label 4000 4500 0    39   ~ 0
PD6
Text Label 4000 4600 0    39   ~ 0
PD7
Text Label 4000 4700 0    39   ~ 0
PD8
Text Label 4000 4800 0    39   ~ 0
PD9
Text Label 4000 4900 0    39   ~ 0
PD10
Text Label 4000 5000 0    39   ~ 0
PD11
Text Label 4000 5100 0    39   ~ 0
PD12
Text Label 4000 5200 0    39   ~ 0
PD13
Text Label 4000 5300 0    39   ~ 0
PD14
Text Label 4000 5400 0    39   ~ 0
PD15
Wire Wire Line
	4150 5400 4000 5400
Wire Wire Line
	4000 5300 4150 5300
Wire Wire Line
	4150 5200 4000 5200
Wire Wire Line
	4000 5100 4150 5100
Wire Wire Line
	4150 5000 4000 5000
Wire Wire Line
	4000 4900 4150 4900
Wire Wire Line
	4100 4800 4000 4800
Wire Wire Line
	4000 4700 4100 4700
Wire Wire Line
	4100 4600 4000 4600
Wire Wire Line
	4000 4500 4100 4500
Wire Wire Line
	4100 4400 4000 4400
Wire Wire Line
	4000 4300 4100 4300
Wire Wire Line
	4100 4200 4000 4200
Wire Wire Line
	4100 4000 4000 4000
Wire Wire Line
	4000 3900 4100 3900
Text Label 1800 5100 0    39   ~ 0
PE0
Text Label 1800 5200 0    39   ~ 0
PE1
Text Label 1800 5300 0    39   ~ 0
PE2
Text Label 1800 5400 0    39   ~ 0
PE3
Text Label 1800 5500 0    39   ~ 0
PE4
Text Label 1800 5600 0    39   ~ 0
PE5
Text Label 1800 5700 0    39   ~ 0
PE6
Text Label 1800 5800 0    39   ~ 0
PE7
Text Label 1800 5900 0    39   ~ 0
PE8
Text Label 1800 6000 0    39   ~ 0
PE9
Text Label 1750 6100 0    39   ~ 0
PE10
Text Label 1750 6200 0    39   ~ 0
PE11
Text Label 1750 6300 0    39   ~ 0
PE12
Text Label 1750 6400 0    39   ~ 0
PE13
Text Label 1750 6500 0    39   ~ 0
PE14
Text Label 1750 6600 0    39   ~ 0
PE15
Wire Wire Line
	1750 6600 1900 6600
Wire Wire Line
	1900 6500 1750 6500
Wire Wire Line
	1750 6400 1900 6400
Wire Wire Line
	1900 6300 1750 6300
Wire Wire Line
	1750 6200 1900 6200
Wire Wire Line
	1900 6100 1750 6100
Wire Wire Line
	1800 6000 1900 6000
Wire Wire Line
	1900 5900 1800 5900
Wire Wire Line
	1800 5800 1900 5800
Wire Wire Line
	1900 5700 1800 5700
Wire Wire Line
	1800 5600 1900 5600
Wire Wire Line
	1900 5500 1800 5500
Wire Wire Line
	1800 5400 1900 5400
Wire Wire Line
	1900 5300 1800 5300
Wire Wire Line
	1800 5200 1900 5200
Wire Wire Line
	1900 5100 1800 5100
Text Label 4000 1700 0    39   ~ 0
VREF
Wire Wire Line
	4000 1700 4150 1700
Wire Wire Line
	4150 1700 4150 1600
$Comp
L PWR_FLAG #FLG02
U 1 1 551FF2ED
P 4150 1600
F 0 "#FLG02" H 4150 1695 30  0001 C CNN
F 1 "PWR_FLAG" H 4150 1780 30  0000 C CNN
F 2 "" H 4150 1600 60  0000 C CNN
F 3 "" H 4150 1600 60  0000 C CNN
	1    4150 1600
	1    0    0    -1  
$EndComp
$Comp
L HEADER-13X2 P1
U 1 1 55232290
P 5650 4550
F 0 "P1" V 5600 4550 40  0000 C CNN
F 1 "HEADER-13X2" V 5700 4550 40  0000 C CNN
F 2 "~" H 5650 4600 60  0000 C CNN
F 3 "~" H 5650 4600 60  0000 C CNN
	1    5650 4550
	1    0    0    -1  
$EndComp
$Comp
L HEADER-13X2 P3
U 1 1 5523229F
P 7050 4550
F 0 "P3" V 7000 4550 40  0000 C CNN
F 1 "HEADER-13X2" V 7100 4550 40  0000 C CNN
F 2 "~" H 7050 4600 60  0000 C CNN
F 3 "~" H 7050 4600 60  0000 C CNN
	1    7050 4550
	1    0    0    -1  
$EndComp
$Comp
L HEADER-13X2 P2
U 1 1 552322AE
P 5650 6000
F 0 "P2" V 5600 6000 40  0000 C CNN
F 1 "HEADER-13X2" V 5700 6000 40  0000 C CNN
F 2 "~" H 5650 6050 60  0000 C CNN
F 3 "~" H 5650 6050 60  0000 C CNN
	1    5650 6000
	1    0    0    -1  
$EndComp
$Comp
L HEADER-13X2 P4
U 1 1 552322BD
P 7050 6000
F 0 "P4" V 7000 6000 40  0000 C CNN
F 1 "HEADER-13X2" V 7100 6000 40  0000 C CNN
F 2 "~" H 7050 6050 60  0000 C CNN
F 3 "~" H 7050 6050 60  0000 C CNN
	1    7050 6000
	1    0    0    -1  
$EndComp
Wire Wire Line
	5900 4250 6050 4250
Text Label 3200 1300 1    39   ~ 0
VDD1
Text Label 3100 1300 1    39   ~ 0
VDD2
Text Label 3000 1300 1    39   ~ 0
VDD3
Text Label 2900 1300 1    39   ~ 0
VDD4
Text Label 2800 1300 1    39   ~ 0
VDD5
Text Label 2700 1300 1    39   ~ 0
VDD6
Wire Wire Line
	2700 1300 2700 1150
Wire Wire Line
	2800 1100 2800 1300
Wire Wire Line
	2900 1000 2900 1300
Wire Wire Line
	3000 1000 3000 1300
Wire Wire Line
	3100 1100 3100 1300
Wire Wire Line
	3200 1300 3200 1150
Text Label 6050 4650 2    39   ~ 0
VDD1
Text Label 6050 4250 2    39   ~ 0
VDD2
Text Label 7450 5050 2    39   ~ 0
VDD3
Text Label 7450 3950 2    39   ~ 0
VDD4
Text Label 7450 5400 2    39   ~ 0
VDD5
Text Label 6050 5400 2    39   ~ 0
VDD6
Wire Wire Line
	7450 5050 7300 5050
Wire Wire Line
	7450 3950 7300 3950
Wire Wire Line
	7450 5400 7300 5400
Wire Wire Line
	6050 5400 5900 5400
Wire Wire Line
	6050 4650 5900 4650
NoConn ~ 5400 3950
NoConn ~ 6800 3950
NoConn ~ 6800 5400
NoConn ~ 5400 5400
$Comp
L STM32F407VG-LQFP100 IC1
U 1 1 552336DC
P 2950 4150
F 0 "IC1" H 2150 6900 40  0000 C CNN
F 1 "STM32F407VG-LQFP100" H 2400 1400 40  0000 C CNN
F 2 "LQFP-100" H 2950 4150 30  0000 C CIN
F 3 "~" H 2950 4900 60  0000 C CNN
	1    2950 4150
	1    0    0    -1  
$EndComp
Text Label 5250 4750 0    39   ~ 0
VSS1
Text Label 5250 4250 0    39   ~ 0
VSSA
Text Label 2900 7150 1    39   ~ 0
VSS3
Text Label 2800 7150 1    39   ~ 0
VSS4
Wire Wire Line
	5250 4750 5400 4750
Wire Wire Line
	5400 4250 5250 4250
Wire Wire Line
	3000 7000 3000 7250
Wire Wire Line
	3100 7000 3100 7150
Text Label 4000 6600 0    39   ~ 0
VSSA
Wire Wire Line
	4000 6600 4150 6600
Text Label 3100 7150 1    39   ~ 0
VSS1
Text Label 3000 7150 1    39   ~ 0
VSS2
Wire Wire Line
	2900 7000 2900 7250
Wire Wire Line
	2800 7000 2800 7150
Text Label 6800 5500 2    39   ~ 0
VSS3
Text Label 5400 5500 2    39   ~ 0
VSS4
Wire Wire Line
	6800 5500 6650 5500
Wire Wire Line
	5250 5500 5400 5500
Text Label 6800 5150 2    39   ~ 0
VSS2
Wire Wire Line
	6800 5150 6650 5150
Wire Wire Line
	7300 5150 7400 5150
Text Label 7300 5150 0    39   ~ 0
PA3
Text Label 7300 4850 0    39   ~ 0
PA7
Text Label 6700 4950 0    39   ~ 0
PA6
Text Label 7300 4950 0    39   ~ 0
PA5
Text Label 6700 5050 0    39   ~ 0
PA4
Wire Wire Line
	6700 5050 6800 5050
Wire Wire Line
	7400 4950 7300 4950
Wire Wire Line
	6700 4950 6800 4950
Wire Wire Line
	7400 4850 7300 4850
Text Label 6700 4850 0    39   ~ 0
PC4
Text Label 7300 4750 0    39   ~ 0
PC5
Wire Wire Line
	7400 4750 7300 4750
Wire Wire Line
	6700 4850 6800 4850
Text Label 6700 4750 0    39   ~ 0
PB0
Text Label 7300 4650 0    39   ~ 0
PB1
Text Label 6700 4650 0    39   ~ 0
PB2
Wire Wire Line
	6700 4750 6800 4750
Wire Wire Line
	7300 4650 7400 4650
Wire Wire Line
	6800 4650 6700 4650
Text Label 7300 4550 0    39   ~ 0
PE7
Text Label 6700 4550 0    39   ~ 0
PE8
Text Label 7300 4450 0    39   ~ 0
PE9
Text Label 6650 4450 0    39   ~ 0
PE10
Text Label 7300 4350 0    39   ~ 0
PE11
Text Label 6650 4350 0    39   ~ 0
PE12
Text Label 7300 4250 0    39   ~ 0
PE13
Text Label 6650 4250 0    39   ~ 0
PE14
Text Label 7300 4150 0    39   ~ 0
PE15
Wire Wire Line
	7300 4150 7450 4150
Wire Wire Line
	6800 4250 6650 4250
Wire Wire Line
	7300 4250 7450 4250
Wire Wire Line
	6800 4350 6650 4350
Wire Wire Line
	7300 4350 7450 4350
Wire Wire Line
	6800 4450 6650 4450
Wire Wire Line
	7300 4450 7400 4450
Wire Wire Line
	6800 4550 6700 4550
Wire Wire Line
	7300 4550 7400 4550
Text Label 6650 4150 0    39   ~ 0
PB10
Text Label 7300 4050 0    39   ~ 0
PB11
Wire Wire Line
	6800 4150 6650 4150
Wire Wire Line
	7450 4050 7300 4050
Text Label 6600 4050 0    39   ~ 0
VCAP1
Wire Wire Line
	6800 4050 6600 4050
Text Label 7300 6600 0    39   ~ 0
PB12
Text Label 6650 6600 0    39   ~ 0
PB13
Text Label 7300 6500 0    39   ~ 0
PB14
Text Label 6650 6500 0    39   ~ 0
PB15
Wire Wire Line
	7450 6600 7300 6600
Wire Wire Line
	6800 6600 6650 6600
Wire Wire Line
	7450 6500 7300 6500
Wire Wire Line
	6650 6500 6800 6500
Text Label 7300 6400 0    39   ~ 0
PD8
Text Label 6700 6400 0    39   ~ 0
PD9
Text Label 7300 6300 0    39   ~ 0
PD10
Text Label 6650 6300 0    39   ~ 0
PD11
Text Label 7300 6200 0    39   ~ 0
PD12
Text Label 6650 6200 0    39   ~ 0
PD13
Text Label 7300 6100 0    39   ~ 0
PD14
Text Label 6650 6100 0    39   ~ 0
PD15
Wire Wire Line
	6800 6100 6650 6100
Wire Wire Line
	7300 6100 7450 6100
Wire Wire Line
	6800 6200 6650 6200
Wire Wire Line
	7300 6200 7450 6200
Wire Wire Line
	6800 6300 6650 6300
Wire Wire Line
	7300 6300 7450 6300
Wire Wire Line
	6800 6400 6700 6400
Wire Wire Line
	7300 6400 7400 6400
Text Label 7300 6000 0    39   ~ 0
PC6
Text Label 6700 6000 0    39   ~ 0
PC7
Text Label 7300 5900 0    39   ~ 0
PC8
Text Label 6700 5900 0    39   ~ 0
PC9
Wire Wire Line
	6800 5900 6700 5900
Wire Wire Line
	7300 5900 7400 5900
Wire Wire Line
	6800 6000 6700 6000
Wire Wire Line
	7300 6000 7400 6000
Text Label 6650 5600 0    39   ~ 0
PA13
Text Label 7300 5600 0    39   ~ 0
PA12
Text Label 6650 5700 0    39   ~ 0
PA11
Text Label 7300 5700 0    39   ~ 0
PA10
Text Label 6700 5800 0    39   ~ 0
PA9
Text Label 7300 5800 0    39   ~ 0
PA8
Wire Wire Line
	7300 5800 7400 5800
Wire Wire Line
	6800 5800 6700 5800
Wire Wire Line
	7450 5700 7300 5700
Wire Wire Line
	6650 5700 6800 5700
Wire Wire Line
	7450 5600 7300 5600
Wire Wire Line
	6650 5600 6800 5600
Text Label 7300 5500 0    39   ~ 0
VCAP2
Wire Wire Line
	7300 5500 7500 5500
Text Label 5900 6600 0    39   ~ 0
PA14
Text Label 5250 6600 0    39   ~ 0
PA15
Wire Wire Line
	5250 6600 5400 6600
Wire Wire Line
	5900 6600 6050 6600
Text Label 5900 6500 0    39   ~ 0
PC10
Text Label 5250 6500 0    39   ~ 0
PC11
Text Label 5900 6400 0    39   ~ 0
PC12
Wire Wire Line
	5900 6500 6050 6500
Wire Wire Line
	5400 6500 5250 6500
Wire Wire Line
	5900 6400 6050 6400
Text Label 5300 6300 0    39   ~ 0
PD2
Wire Wire Line
	5300 6300 5400 6300
Text Label 5300 6400 0    39   ~ 0
PD0
Text Label 5900 6300 0    39   ~ 0
PD1
Text Label 5900 6200 0    39   ~ 0
PD3
Text Label 5300 6200 0    39   ~ 0
PD4
Text Label 5900 6100 0    39   ~ 0
PD5
Text Label 5300 6100 0    39   ~ 0
PD6
Text Label 5900 6000 0    39   ~ 0
PD7
Wire Wire Line
	6000 6000 5900 6000
Wire Wire Line
	5300 6100 5400 6100
Wire Wire Line
	6000 6100 5900 6100
Wire Wire Line
	5300 6200 5400 6200
Wire Wire Line
	6000 6200 5900 6200
Wire Wire Line
	6000 6300 5900 6300
Wire Wire Line
	5300 6400 5400 6400
Text Label 5300 6000 0    39   ~ 0
PB3
Text Label 5900 5900 0    39   ~ 0
PB4
Text Label 5300 5900 0    39   ~ 0
PB5
Text Label 5900 5800 0    39   ~ 0
PB6
Text Label 5300 5800 0    39   ~ 0
PB7
Text Label 5300 5700 0    39   ~ 0
PB8
Text Label 5900 5600 0    39   ~ 0
PB9
Wire Wire Line
	6000 5900 5900 5900
Wire Wire Line
	5400 5900 5300 5900
Wire Wire Line
	6000 5800 5900 5800
Wire Wire Line
	5400 5800 5300 5800
Wire Wire Line
	5400 5700 5300 5700
Wire Wire Line
	6000 5600 5900 5600
Wire Wire Line
	5400 6000 5300 6000
Text Label 5900 5700 0    39   ~ 0
BOOT0
Wire Wire Line
	6100 5700 5900 5700
Text Label 5300 5600 0    39   ~ 0
PE0
Text Label 5900 5500 0    39   ~ 0
PE1
Wire Wire Line
	5900 5500 6000 5500
Wire Wire Line
	5400 5600 5300 5600
$Comp
L PWR_FLAG #FLG03
U 1 1 552331D2
P 2700 1150
F 0 "#FLG03" H 2700 1245 30  0001 C CNN
F 1 "PWR_FLAG" H 2700 1330 30  0000 C CNN
F 2 "" H 2700 1150 60  0000 C CNN
F 3 "" H 2700 1150 60  0000 C CNN
	1    2700 1150
	0    -1   -1   0   
$EndComp
$Comp
L PWR_FLAG #FLG04
U 1 1 552331E1
P 3200 1150
F 0 "#FLG04" H 3200 1245 30  0001 C CNN
F 1 "PWR_FLAG" H 3200 1330 30  0000 C CNN
F 2 "" H 3200 1150 60  0000 C CNN
F 3 "" H 3200 1150 60  0000 C CNN
	1    3200 1150
	0    1    1    0   
$EndComp
$Comp
L PWR_FLAG #FLG05
U 1 1 552331F0
P 2550 1000
F 0 "#FLG05" H 2550 1095 30  0001 C CNN
F 1 "PWR_FLAG" H 2550 1180 30  0000 C CNN
F 2 "" H 2550 1000 60  0000 C CNN
F 3 "" H 2550 1000 60  0000 C CNN
	1    2550 1000
	0    -1   -1   0   
$EndComp
$Comp
L PWR_FLAG #FLG06
U 1 1 552331FF
P 3350 1000
F 0 "#FLG06" H 3350 1095 30  0001 C CNN
F 1 "PWR_FLAG" H 3350 1180 30  0000 C CNN
F 2 "" H 3350 1000 60  0000 C CNN
F 3 "" H 3350 1000 60  0000 C CNN
	1    3350 1000
	0    1    1    0   
$EndComp
Wire Wire Line
	2700 1000 2700 1100
Wire Wire Line
	2700 1100 2800 1100
Wire Wire Line
	3200 1000 3200 1100
Wire Wire Line
	3200 1100 3100 1100
$Comp
L PWR_FLAG #FLG07
U 1 1 552333C5
P 2750 1000
F 0 "#FLG07" H 2750 1095 30  0001 C CNN
F 1 "PWR_FLAG" H 2750 1180 30  0000 C CNN
F 2 "" H 2750 1000 60  0000 C CNN
F 3 "" H 2750 1000 60  0000 C CNN
	1    2750 1000
	1    0    0    -1  
$EndComp
Wire Wire Line
	2550 1000 2700 1000
Wire Wire Line
	3350 1000 3200 1000
Wire Wire Line
	2750 1000 2900 1000
$Comp
L PWR_FLAG #FLG08
U 1 1 55233753
P 3150 1000
F 0 "#FLG08" H 3150 1095 30  0001 C CNN
F 1 "PWR_FLAG" H 3150 1180 30  0000 C CNN
F 2 "" H 3150 1000 60  0000 C CNN
F 3 "" H 3150 1000 60  0000 C CNN
	1    3150 1000
	1    0    0    -1  
$EndComp
Wire Wire Line
	3150 1000 3000 1000
$Comp
L PWR_FLAG #FLG09
U 1 1 552338D1
P 4400 1600
F 0 "#FLG09" H 4400 1695 30  0001 C CNN
F 1 "PWR_FLAG" H 4400 1780 30  0000 C CNN
F 2 "" H 4400 1600 60  0000 C CNN
F 3 "" H 4400 1600 60  0000 C CNN
	1    4400 1600
	1    0    0    -1  
$EndComp
Wire Wire Line
	4200 1800 4200 1650
Wire Wire Line
	4200 1650 4400 1650
Wire Wire Line
	4400 1650 4400 1600
$Comp
L PWR_FLAG #FLG010
U 1 1 55233BD5
P 2800 7150
F 0 "#FLG010" H 2800 7245 30  0001 C CNN
F 1 "PWR_FLAG" H 2800 7330 30  0000 C CNN
F 2 "" H 2800 7150 60  0000 C CNN
F 3 "" H 2800 7150 60  0000 C CNN
	1    2800 7150
	0    -1   -1   0   
$EndComp
$Comp
L PWR_FLAG #FLG011
U 1 1 55233BE4
P 3100 7150
F 0 "#FLG011" H 3100 7245 30  0001 C CNN
F 1 "PWR_FLAG" H 3100 7330 30  0000 C CNN
F 2 "" H 3100 7150 60  0000 C CNN
F 3 "" H 3100 7150 60  0000 C CNN
	1    3100 7150
	0    1    1    0   
$EndComp
$Comp
L PWR_FLAG #FLG012
U 1 1 55233BF3
P 2800 7250
F 0 "#FLG012" H 2800 7345 30  0001 C CNN
F 1 "PWR_FLAG" H 2800 7430 30  0000 C CNN
F 2 "" H 2800 7250 60  0000 C CNN
F 3 "" H 2800 7250 60  0000 C CNN
	1    2800 7250
	-1   0    0    1   
$EndComp
$Comp
L PWR_FLAG #FLG013
U 1 1 55233C02
P 3100 7250
F 0 "#FLG013" H 3100 7345 30  0001 C CNN
F 1 "PWR_FLAG" H 3100 7430 30  0000 C CNN
F 2 "" H 3100 7250 60  0000 C CNN
F 3 "" H 3100 7250 60  0000 C CNN
	1    3100 7250
	-1   0    0    1   
$EndComp
Wire Wire Line
	3000 7250 3100 7250
Wire Wire Line
	2900 7250 2800 7250
$Comp
L PWR_FLAG #FLG014
U 1 1 55233E5B
P 4150 6600
F 0 "#FLG014" H 4150 6695 30  0001 C CNN
F 1 "PWR_FLAG" H 4150 6780 30  0000 C CNN
F 2 "" H 4150 6600 60  0000 C CNN
F 3 "" H 4150 6600 60  0000 C CNN
	1    4150 6600
	0    1    1    0   
$EndComp
$EndSCHEMATC
